getShortShouldWorkBigEndianIndexNonZero,allocate,putShort,flip,getShort,getShortB,getShortL,
METHOD_0,METHOD_1,METHOD_2,METHOD_3,METHOD_4,METHOD_5,METHOD_6,

gateway,BIG_ENDIAN,
IDENT_0,IDENT_1,

12345,32101,
INT_0,INT_1,































