getShortShouldWorkBigEndianIndex0,allocate,putShort,flip,getShort,
METHOD_0,METHOD_1,METHOD_2,METHOD_3,METHOD_4,

gateway,BIG_ENDIAN,
IDENT_0,IDENT_1,

12345,
INT_0,































