testBuffers,wrap,skip,remaining,putBuffer,flip,slice,
METHOD_0,METHOD_1,METHOD_2,METHOD_3,METHOD_4,METHOD_5,METHOD_6,

test1,test2,netx,DynamicByteBuffer,buf1,buf2,rem,_buf,
IDENT_0,IDENT_1,IDENT_2,IDENT_3,IDENT_4,IDENT_5,IDENT_6,IDENT_7,







"Test1","Test2",
STRING_0,STRING_1,

























