testEncodeDecode,wrap,remaining,_checkForRead,
METHOD_0,METHOD_1,METHOD_2,METHOD_3,

inBytes,gateway,WrappedByteBuffer,Base64Util,codecBytes,_buf,
IDENT_0,IDENT_1,IDENT_2,IDENT_3,IDENT_4,IDENT_5,

161,130,28,48,24,160,11,42,134,72,247,18,162,129,
INT_0,INT_1,INT_2,INT_3,INT_4,INT_5,INT_6,INT_7,INT_8,INT_9,INT_10,INT_11,INT_12,INT_13,































