testOpenOpenAscending,longRange,adapt,toCollection,
METHOD_0,METHOD_1,METHOD_2,METHOD_3,

functor,LongRange,Ranges,BoundType,OPEN,loop,IteratorToGeneratorAdapter,CollectionTransformer,E,
IDENT_0,IDENT_1,IDENT_2,IDENT_3,IDENT_4,IDENT_5,IDENT_6,IDENT_7,IDENT_8,

5L,3L,2L,4L,
INT_0,INT_1,INT_2,INT_3,































