test_readUnsignedShort42,allocate,putShort,rewind,ByteBufferDataInput,readUnsignedShort,getShort,
METHOD_0,METHOD_1,METHOD_2,METHOD_3,METHOD_4,METHOD_5,METHOD_6,

kairosdb,ByteBufferDataInput,dataInput,m_buffer,
IDENT_0,IDENT_1,IDENT_2,IDENT_3,

42,65535,
INT_0,INT_1,































