testAnd,StringFreqMap,andSize,
METHOD_0,METHOD_1,METHOD_2,

jetwick,tw,cmd,StringFreqMap,map2,iterSet,otherMap,counter,iterEntry,
IDENT_0,IDENT_1,IDENT_2,IDENT_3,IDENT_4,IDENT_5,IDENT_6,IDENT_7,IDENT_8,







"c","d","e","f",
STRING_0,STRING_1,STRING_2,STRING_3,

























