getTestImages,endsWith,isInvalidPNGTestFile,getXmpXml,
METHOD_0,METHOD_1,METHOD_2,METHOD_3,

images,imageFile,imaging,Debug,xmpXml,Imaging,
IDENT_0,IDENT_1,IDENT_2,IDENT_3,IDENT_4,IDENT_5,







".png","imageFile","xmpXml: ",
STRING_0,STRING_1,STRING_2,

























