modelContainsKanban,getKanbanProject,setKanbanService,populateProject,
METHOD_0,METHOD_1,METHOD_2,METHOD_3,

kanbanService,kanbanController,projectName,
IDENT_0,IDENT_1,IDENT_2,







"project",
STRING_0,

























