getModel,AlexaStateModelSample,withHandler,AlexaIntentModel,
METHOD_0,METHOD_1,METHOD_2,METHOD_3,

klerch,alexa,AlexaStateModel,tellask,dummies,AlexaIntentModel,intentModel,
IDENT_0,IDENT_1,IDENT_2,IDENT_3,IDENT_4,IDENT_5,IDENT_6,


































