testFilterNotEquals,QuerySpec,addFilter,FilterSpec,findAll,
METHOD_0,METHOD_1,METHOD_2,METHOD_3,METHOD_4,

katharsis,queryspec,QuerySpec,querySpec,TestEntity,FilterOperator,NEQ,
IDENT_0,IDENT_1,IDENT_2,IDENT_3,IDENT_4,IDENT_5,IDENT_6,

2L,
INT_0,




"longValue",
STRING_0,

























