setCurrentIndex,SQLSourceHelper,getCurrentIndex,
METHOD_0,METHOD_1,METHOD_2,

keedio,flume,SQLSourceHelper,sqlSourceHelper,currentIndex,
IDENT_0,IDENT_1,IDENT_2,IDENT_3,IDENT_4,







"Source Name","10",
STRING_0,STRING_1,

























