testPriority,Code,setPriority,getPriority,
METHOD_0,METHOD_1,METHOD_2,METHOD_3,

kefirsf,bb,Code,priority,
IDENT_0,IDENT_1,IDENT_2,IDENT_3,


































