emptyStringWithMessage,notEmpty,
METHOD_0,METHOD_1,

gitective,iae,V,objects,
IDENT_0,IDENT_1,IDENT_2,IDENT_3,







"string is empty","Illegal argument exception not thrown","Objects cannot be empty",
STRING_0,STRING_1,STRING_2,

























