firstTest,Implementation,
METHOD_0,METHOD_1,

soebes,maui,ut,inter,Implementation,parameter1,
IDENT_0,IDENT_1,IDENT_2,IDENT_3,IDENT_4,IDENT_5,







"function1",
STRING_0,

























