testLogin,clickLogin,login,clickLogout,debugTest,getUsername,
METHOD_0,METHOD_1,METHOD_2,METHOD_3,METHOD_4,METHOD_5,

indexPage,loginPage,profilePage,username,
IDENT_0,IDENT_1,IDENT_2,IDENT_3,







"test-admin","password","Should display logged in user",
STRING_0,STRING_1,STRING_2,

























