testWorkspaceCount,getOrCreateWorkspace,getWorkspaceCount,
METHOD_0,METHOD_1,METHOD_2,

workspaceManager,workspaces,
IDENT_0,IDENT_1,







"hendrix",
STRING_0,

























