testNoExceptionChange,isOn,setOnChange,reset,onChange,
METHOD_0,METHOD_1,METHOD_2,METHOD_3,METHOD_4,

presenter,onChange,switchControl,
IDENT_0,IDENT_1,IDENT_2,


































