testReset,reset,clear,needNewBuffer,
METHOD_0,METHOD_1,METHOD_2,METHOD_3,

filledBufferSum,currentBufferIndex,reuseBuffers,currentBuffer,buffers,
IDENT_0,IDENT_1,IDENT_2,IDENT_3,IDENT_4,







"Expected exception not thrown.",
STRING_0,

























