testSorted,getIllegalFileNameChars,clone,
METHOD_0,METHOD_1,METHOD_2,

FileSystem,chars,illegalFileNameChars,
IDENT_0,IDENT_1,IDENT_2,


































