testComplexEvals2,KieHelper,addContent,newKieSession,fireAllRules,
METHOD_0,METHOD_1,METHOD_2,METHOD_3,METHOD_4,

drl,KieSession,kieSession,ResourceType,DRL,
IDENT_0,IDENT_1,IDENT_2,IDENT_3,IDENT_4,

42,
INT_0,




"rule R1 when\n"," $s : String()\n"," Boolean()\n"," $i : Integer()"," and (eval($s.length() > 2)\n"," or (eval(true) and eval(true)))\n"," and (eval(true)\n"," or ( eval($i > 2) and (eval(true))))\n\n","then \n",
STRING_0,STRING_1,STRING_2,STRING_3,STRING_4,STRING_5,STRING_6,STRING_7,STRING_8,

























