testSingleObjectAssert,getSession2,Cheese,
METHOD_0,METHOD_1,METHOD_2,

StatelessKieSession,Cheese,stilton,rulesFired,
IDENT_0,IDENT_1,IDENT_2,IDENT_3,







"statelessSessionTest.drl","stilton",
STRING_0,STRING_1,

























