testNotBindindShouldBarf,parseResource,compilationUnit,hasErrors,
METHOD_0,METHOD_1,METHOD_2,METHOD_3,

DRLParser,
IDENT_0,







"not_with_binding_error.drl",
STRING_0,

























