testBadVariableFormat,getVariableList,
METHOD_0,METHOD_1,

varCells,decisiontable,RuleSheetParserUtil,DecisionTableParseException,
IDENT_0,IDENT_1,IDENT_2,IDENT_3,







"class1, object2","should not work",
STRING_0,STRING_1,

























