test271d,createEngine,createScript,curry,getParameters,Closure,
METHOD_0,METHOD_1,METHOD_2,METHOD_3,METHOD_4,METHOD_5,

jexl3,JexlEngine,jexl,JexlScript,parms,
IDENT_0,IDENT_1,IDENT_2,IDENT_3,IDENT_4,







"var base = 2; return (x, y, z)->{ base + x + y + z };",
STRING_0,

























