testGlobalInConsequence,getCanonicalName,getKieSession,setGlobal,fireAllRules,
METHOD_0,METHOD_1,METHOD_2,METHOD_3,METHOD_4,

modelcompiler,KieSession,ksession,
IDENT_0,IDENT_1,IDENT_2,

37,35,40,
INT_0,INT_1,INT_2,




"package org.mypkg;","Mark is 37",";","rule X when\n"," $p1 : Person(name == \"Mark\")\n"," globalResult.setValue($p1.getName() + \" is \" + $p1.getAge());\n","globalResult","Mario",
STRING_0,STRING_1,STRING_2,STRING_3,STRING_4,STRING_5,STRING_6,STRING_7,

























