generateErrorForEveryFieldInRHSNotDefinedInLHS,getCompilationResults,getMessages,
METHOD_0,METHOD_1,METHOD_2,

drl1,Results,
IDENT_0,IDENT_1,







"package org.drools.compiler.integrationtests.operators; \n","declare B\n"," field : int\n","declare C\n","rule R when\n","( "," ( B( $bField : field ) or C( $cField : field ) ) ",")\n","then\n"," System.out.println($bField);\n",
STRING_0,STRING_1,STRING_2,STRING_3,STRING_4,STRING_5,STRING_6,STRING_7,STRING_8,STRING_9,

























