testDeclaredWithAllPrimitives,getKieSession,fireAllRules,getObjectsIntoList,
METHOD_0,METHOD_1,METHOD_2,METHOD_3,

KieSession,ksession,
IDENT_0,IDENT_1,







"declare DeclaredAllPrimitives\n","end"," my_short : short \n"," my_int : int \n"," my_double : double \n"," my_char : char \n"," my_boolean : boolean \n","rule R\n","when\n","then\n",
STRING_0,STRING_1,STRING_2,STRING_3,STRING_4,STRING_5,STRING_6,STRING_7,STRING_8,STRING_9,

























