testSetLiteralWithStrings,createExpression,MapContext,createSet,
METHOD_0,METHOD_1,METHOD_2,METHOD_3,

jexl3,JexlExpression,JEXL,JexlContext,jc,check,SetLiteralTest,Script,jexl,
IDENT_0,IDENT_1,IDENT_2,IDENT_3,IDENT_4,IDENT_5,IDENT_6,IDENT_7,IDENT_8,







"{ 'foo' , 'bar' }",
STRING_0,

























