testNestedAccumulateWithPrefixAnd,KieHelper,addContent,newKieSession,dispose,fireAllRules,
METHOD_0,METHOD_1,METHOD_2,METHOD_3,METHOD_4,METHOD_5,

drl,KieBase,kieBase,ResourceType,DRL,KieSession,kieSession,
IDENT_0,IDENT_1,IDENT_2,IDENT_3,IDENT_4,IDENT_5,IDENT_6,







" )\n"," String($l: length)\n"," (and\n"," Long() \n"," ;$counter: count(1);$counter <= 4)\n"," ;$mainCounter: count(1);$mainCounter <= 2\n","then\n ","end",
STRING_0,STRING_1,STRING_2,STRING_3,STRING_4,STRING_5,STRING_6,STRING_7,

























