testAlphaHashingWithConstants,getKieBaseFromKieModuleFromDrl,newKieSession,dispose,fireAllRules,
METHOD_0,METHOD_1,METHOD_2,METHOD_3,METHOD_4,

drl,testcoverage,KieBase,kbase,KieBaseUtil,kieBaseTestConfiguration,KieSession,ksession,
IDENT_0,IDENT_1,IDENT_2,IDENT_3,IDENT_4,IDENT_5,IDENT_6,IDENT_7,

38,
INT_0,




"alpha-test",";\n","rule R1 when\n"," $p : Person( age == 38 )\n","then end\n","rule R2 when\n"," $p : Person( age == 37+1 )\n","rule R3 when\n"," $p : Person( age == 36+2 )\n","Mario",
STRING_0,STRING_1,STRING_2,STRING_3,STRING_4,STRING_5,STRING_6,STRING_7,STRING_8,STRING_9,

























