testIsEditableNotLocked,setLock,isEditable,
METHOD_0,METHOD_1,METHOD_2,

access,GuidedDecisionTablePresenter,Access,LockedBy,NOBODY,
IDENT_0,IDENT_1,IDENT_2,IDENT_3,IDENT_4,


































