testIsGraphDirtyWhenItIsNotDirty,getCurrentHashCode,isGraphDirty,isDirty,
METHOD_0,METHOD_1,METHOD_2,METHOD_3,

presenter,originalGraphHash,isDirty,
IDENT_0,IDENT_1,IDENT_2,

123,
INT_0,































