checkDoesNotHandleUnsupportedColumn,handles,
METHOD_0,METHOD_1,

guided,dtable,BaseColumn,ConditionCol52,
IDENT_0,IDENT_1,IDENT_2,IDENT_3,


































