testSinhAsinh,DerivativeStructure,sinh,asinh,subtract,getPartialDerivative,getPartialDerivativeIndex,
METHOD_0,METHOD_1,METHOD_2,METHOD_3,METHOD_4,METHOD_5,METHOD_6,

epsilon,maxOrder,differentiation,DerivativeStructure,dsX,rebuiltX,zero,orders,
IDENT_0,IDENT_1,IDENT_2,IDENT_3,IDENT_4,IDENT_5,IDENT_6,IDENT_7,










3.0E-16,4.0E-16,7.0E-16,3.0E-15,8.0E-15,0.1,1.2,0.001,
FLOAT_0,FLOAT_1,FLOAT_2,FLOAT_3,FLOAT_4,FLOAT_5,FLOAT_6,FLOAT_7,






















