testNan,ofCartesian,FieldPosition,
METHOD_0,METHOD_1,METHOD_2,

numbers,complex,Complex,NaN,complexFormat,Vector,vector,
IDENT_0,IDENT_1,IDENT_2,IDENT_3,IDENT_4,IDENT_5,IDENT_6,







"(NaN) + (NaN)i",
STRING_0,

























