testZeroReal,ofCartesian,getDecimalCharacter,FieldPosition,
METHOD_0,METHOD_1,METHOD_2,METHOD_3,

numbers,complex,Complex,complexFormat,Vector,vector,
IDENT_0,IDENT_1,IDENT_2,IDENT_3,IDENT_4,IDENT_5,







"0 - 1","4343434343i",
STRING_0,STRING_1,

1.434343434343,
FLOAT_0,






















