testParseNegativeReal,getDecimalCharacter,ofCartesian,ParsePosition,getIndex,MathParseException,getErrorIndex,
METHOD_0,METHOD_1,METHOD_2,METHOD_3,METHOD_4,METHOD_5,METHOD_6,

numbers,complex,Complex,complexFormat,ParsePosition,parsePosition,euclidean,twod,Vector2D,
IDENT_0,IDENT_1,IDENT_2,IDENT_3,IDENT_4,IDENT_5,IDENT_6,IDENT_7,IDENT_8,







"-1","232323232323 + 1","4343i",
STRING_0,STRING_1,STRING_2,

1.232323232323,1.4343,
FLOAT_0,FLOAT_1,






















