testParameterSetter,InformationItem,setParameter,getVariable,getParameter,
METHOD_0,METHOD_1,METHOD_2,METHOD_3,METHOD_4,

dmn,definition,v1_1,InformationItem,variable,
IDENT_0,IDENT_1,IDENT_2,IDENT_3,IDENT_4,


































