testMakeRoot,makeItem,makeRoot,
METHOD_0,METHOD_1,METHOD_2,

baseItemFactory,dmn,decision,factories,ROOT,stunner,
IDENT_0,IDENT_1,IDENT_2,IDENT_3,IDENT_4,IDENT_5,


































