testNoOpEnglishTranslation,getLocalizedString,getSourceString,
METHOD_0,METHOD_1,METHOD_2,

LocalizedFormats,translated,ENGLISH,sourceFormat,
IDENT_0,IDENT_1,IDENT_2,IDENT_3,


































