testGetUUID,getUUID,getIncludedModel,
METHOD_0,METHOD_1,METHOD_2,

dmn,editors,included,IncludedModel,includedModel,expectedUUID,dmnCard,actualUUID,uuid,
IDENT_0,IDENT_1,IDENT_2,IDENT_3,IDENT_4,IDENT_5,IDENT_6,IDENT_7,IDENT_8,







"123",
STRING_0,

























