testGetElement,getElement,
METHOD_0,METHOD_1,

elemental2,HTMLElement,expectedHTMLElement,actualHTMLElement,flashMessages,
IDENT_0,IDENT_1,IDENT_2,IDENT_3,IDENT_4,


































