testRemovePrefixAndSuffixWithSpaces,addPrefixAndSuffix,removePrefixAndSuffix,
METHOD_0,METHOD_1,METHOD_2,

dateValueFormatter,rawValue,dmn,editors,listview,constraint,typed,DurationHelper,PREFIX,SUFFIX,
IDENT_0,IDENT_1,IDENT_2,IDENT_3,IDENT_4,IDENT_5,IDENT_6,IDENT_7,IDENT_8,IDENT_9,







" 2019-12-25 ","2019-12-25",
STRING_0,STRING_1,

























