testPosition,getAttribute,
METHOD_0,METHOD_1,

elemental2,HTMLElement,dmn,editors,listview,constraint,enumeration,DATA_POSITION,
IDENT_0,IDENT_1,IDENT_2,IDENT_3,IDENT_4,IDENT_5,IDENT_6,IDENT_7,


































