testSetExpressionValue,setExpressionValue,
METHOD_0,METHOD_1,

expectedValue,actualValue,
IDENT_0,IDENT_1,







"expression",
STRING_0,

























