testIsStructureWhenItReturnsTrue,structure,isStructure,
METHOD_0,METHOD_1,METHOD_2,

dmn,editors,DataType,dataType,structure,dataTypeManager,Objects,
IDENT_0,IDENT_1,IDENT_2,IDENT_3,IDENT_4,IDENT_5,IDENT_6,







"Structure",
STRING_0,

























