testIsProjectSelected_NotSelected,isProjectSelected,getProjects,
METHOD_0,METHOD_1,METHOD_2,

screens,ImportProject,
IDENT_0,IDENT_1,


































