testGetHits,CacheEntry,incrementHits,getHits,
METHOD_0,METHOD_1,METHOD_2,METHOD_3,

adobe,acs,errorpagehandler,CacheEntry,cacheEntry,hits,
IDENT_0,IDENT_1,IDENT_2,IDENT_3,IDENT_4,IDENT_5,


































