testNegativeY,Cartesian2D,getDecimalCharacter,FieldPosition,
METHOD_0,METHOD_1,METHOD_2,METHOD_3,

euclidean,twod,Cartesian2D,vector2DFormat,Vector,vector,
IDENT_0,IDENT_1,IDENT_2,IDENT_3,IDENT_4,IDENT_5,







"{1","23; -1","4343434343}",
STRING_0,STRING_1,STRING_2,

1.23,1.434343434343,
FLOAT_0,FLOAT_1,






















