testDestroy,setView,destroy,getView,
METHOD_0,METHOD_1,METHOD_2,METHOD_3,

tested,handlerRegistrationManager,
IDENT_0,IDENT_1,


































