testSetPadding,setPadding,
METHOD_0,METHOD_1,

stunner,lienzo,toolbox,items,tooltip,PrimitiveTextTooltip,cascade,tested,padding,
IDENT_0,IDENT_1,IDENT_2,IDENT_3,IDENT_4,IDENT_5,IDENT_6,IDENT_7,IDENT_8,










15.0,
FLOAT_0,






















