testSetText,setText,
METHOD_0,METHOD_1,

stunner,lienzo,toolbox,items,tooltip,ToolboxTextTooltip,cascade,tested,dmn,Text,
IDENT_0,IDENT_1,IDENT_2,IDENT_3,IDENT_4,IDENT_5,IDENT_6,IDENT_7,IDENT_8,IDENT_9,







"text1",
STRING_0,

























