testStackSize,setMaxSize,register,getCommandHistory,
METHOD_0,METHOD_1,METHOD_2,METHOD_3,

tested,Collectors,
IDENT_0,IDENT_1,


































