testRelativeX,getTranslateX,getScaleX,relativeX,
METHOD_0,METHOD_1,METHOD_2,METHOD_3,

transformTranslateX,transformScaleX,expectedRelativeX,actualRelativeX,abstractDragProxy,scaleX,
IDENT_0,IDENT_1,IDENT_2,IDENT_3,IDENT_4,IDENT_5,

33,
INT_0,







50.0,1.5,
FLOAT_0,FLOAT_1,






















