swallowException,swallow,methodThatThrowsException,
METHOD_0,METHOD_1,METHOD_2,

stunner,Exceptions,ExceptionsTest,DEFAULT_RESULT,
IDENT_0,IDENT_1,IDENT_2,IDENT_3,


































