testDefaultFormatVector2D,getDefault,setDefault,getLocale,Cartesian2D,getDecimalCharacter,Vector2DFormat,
METHOD_0,METHOD_1,METHOD_2,METHOD_3,METHOD_4,METHOD_5,METHOD_6,

defaultLocal,euclidean,twod,Cartesian2D,
IDENT_0,IDENT_1,IDENT_2,IDENT_3,







"{232","2222222222; -342","3333333333}","Double.NaN,","+","d,",
STRING_0,STRING_1,STRING_2,STRING_3,STRING_4,STRING_5,

232.22222222222,342.3333333333,
FLOAT_0,FLOAT_1,






















