testAllValid,createValidBpmnDiagram,
METHOD_0,METHOD_1,

stunner,bpmn,definition,BPMNDiagramImpl,ConstraintViolation,violations,
IDENT_0,IDENT_1,IDENT_2,IDENT_3,IDENT_4,IDENT_5,


































