testStartEditing,makeDate,startEditing,capture,
METHOD_0,METHOD_1,METHOD_2,METHOD_3,

gwt,cell,Cell,expectedDate,datePicker,dateCaptor,actualDate,rootPath,
IDENT_0,IDENT_1,IDENT_2,IDENT_3,IDENT_4,IDENT_5,IDENT_6,IDENT_7,







"04-01-2018 00:00:00 -0300",
STRING_0,

























