testReadBytes,ColumnDecoder,readBytes,
METHOD_0,METHOD_1,METHOD_2,

Decoder,decoder,kitesdk,wrappedDecoder,old,
IDENT_0,IDENT_1,IDENT_2,IDENT_3,IDENT_4,


































