mockDaoTest,age,given,findAll,willReturn,
METHOD_0,METHOD_1,METHOD_2,METHOD_3,METHOD_4,

yong,orders,userDao,all,userService,
IDENT_0,IDENT_1,IDENT_2,IDENT_3,IDENT_4,







"testUser",
STRING_0,

























