testFind,FindJsonVisitor,walkFileTree,getFiles,
METHOD_0,METHOD_1,METHOD_2,METHOD_3,

kathik,fix8on,Main,FindJsonVisitor,visitor,Files,Paths,files,
IDENT_0,IDENT_1,IDENT_2,IDENT_3,IDENT_4,IDENT_5,IDENT_6,IDENT_7,







"src/main/java/com/kathik/fix8on/config",
STRING_0,

























