shouldGetRowData,getAll,getRowData,
METHOD_0,METHOD_1,METHOD_2,

clients,kitodo,production,LazyDTOModelIT,clientService,Client,firstClient,lazyClient,lazyDTOModel,
IDENT_0,IDENT_1,IDENT_2,IDENT_3,IDENT_4,IDENT_5,IDENT_6,IDENT_7,IDENT_8,


































