testOutputInputLowercase,parseInt,NumberFormatException,
METHOD_0,METHOD_1,METHOD_2,

encoded,kitodo,dataeditor,RomanNumeral,decoded,D,C,M,V,I,L,X,
IDENT_0,IDENT_1,IDENT_2,IDENT_3,IDENT_4,IDENT_5,IDENT_6,IDENT_7,IDENT_8,IDENT_9,IDENT_10,IDENT_11,

4999,32,
INT_0,INT_1,




'c','d','i','l','m','v','x',"For string: ",
STRING_0,STRING_1,STRING_2,STRING_3,STRING_4,STRING_5,STRING_6,STRING_7,




--,-=,
OP_0,OP_1,



















