deserializeTest2,deserialize,getStable,getBranch,
METHOD_0,METHOD_1,METHOD_2,METHOD_3,

nx42,maps4cim,Update,u,Serializer,UpdateTest,Branch,stable,
IDENT_0,IDENT_1,IDENT_2,IDENT_3,IDENT_4,IDENT_5,IDENT_6,IDENT_7,







"deserialization failed: ",
STRING_0,

























