parseHeaderString2,parseHeaderString,
METHOD_0,METHOD_1,

nx42,maps4cim,HeaderParser,HeaderParserTest,inputString,off,
IDENT_0,IDENT_1,IDENT_2,IDENT_3,IDENT_4,IDENT_5,







"PlayerData",
STRING_0,

























