collisionCourseTestMethodTwo,addResource,addSetupScript,executeQuery,defaultCharset,
METHOD_0,METHOD_1,METHOD_2,METHOD_3,METHOD_4,

charset,Charset,
IDENT_0,IDENT_1,







"${hiveconf:hadoop.tmp.dir}/foo/bar/data1.csv","6","6\n7"," CREATE table foo.bar(id int)"," ROW FORMAT DELIMITED FIELDS TERMINATED BY ','"," STORED AS TEXTFILE","7","8","9",
STRING_0,STRING_1,STRING_2,STRING_3,STRING_4,STRING_5,STRING_6,STRING_7,STRING_8,

























