testTablesCreated,newHashSet,executeQuery,defaultCharset,
METHOD_0,METHOD_1,METHOD_2,METHOD_3,

Sets,hiveShell,charset,Charset,
IDENT_0,IDENT_1,IDENT_2,IDENT_3,







"foo_prim","show tables",
STRING_0,STRING_1,

























