testMixAddIntInt,mixAdd,
METHOD_0,METHOD_1,

nx42,maps4cim,texture,Texture,texture1,texture2,
IDENT_0,IDENT_1,IDENT_2,IDENT_3,IDENT_4,IDENT_5,

573785173,287454020,286331153,24,
INT_0,INT_1,INT_2,INT_3,































