Post,setPostDate,setTitle,findOne,getPostId,getTitle,
METHOD_0,METHOD_1,METHOD_2,METHOD_3,METHOD_4,METHOD_5,

cloudfoundry,tothought,Post,post,dbpost,postId,
IDENT_0,IDENT_1,IDENT_2,IDENT_3,IDENT_4,IDENT_5,







"First Post",
STRING_0,

























