testCopyOfLongArray,copyOf,
METHOD_0,METHOD_1,

kocakosm,pitaya,ImmutableSet,E,LinkedHashSet,
IDENT_0,IDENT_1,IDENT_2,IDENT_3,IDENT_4,


































