testCopyOfIterator,copyOf,
METHOD_0,METHOD_1,

Iterable,iterable,kocakosm,pitaya,E,
IDENT_0,IDENT_1,IDENT_2,IDENT_3,IDENT_4,







"Hello",
STRING_0,

























