testIterator,emptyBag,
METHOD_0,METHOD_1,

kocakosm,pitaya,Bag,E,Bags,EMPTY_BAG,
IDENT_0,IDENT_1,IDENT_2,IDENT_3,IDENT_4,IDENT_5,


































