testMarkSupported,StringReader,CountingReader,markSupported,
METHOD_0,METHOD_1,METHOD_2,METHOD_3,

Reader,kocakosm,pitaya,CountingReaderTest,DATA,CountingReader,
IDENT_0,IDENT_1,IDENT_2,IDENT_3,IDENT_4,IDENT_5,


































