testBetaRangeAboveOne,StableRandomGenerator,getArgument,
METHOD_0,METHOD_1,METHOD_2,

rg,OutOfRangeException,argument,
IDENT_0,IDENT_1,IDENT_2,







"Expected OutOfRangeException",
STRING_0,

























