testLower,SortedIntList,lower,
METHOD_0,METHOD_1,METHOD_2,

lazy,SortedIntList,Boundary,LOWER,
IDENT_0,IDENT_1,IDENT_2,IDENT_3,


































