testWriteToDOM,createSomeFoo,unmarshal,toXML,getTestData1,getTestData,
METHOD_0,METHOD_1,METHOD_2,METHOD_3,METHOD_4,METHOD_5,

xstream,XStreamDOM,xs,XStreamDOMTest,Foo,foo,
IDENT_0,IDENT_1,IDENT_2,IDENT_3,IDENT_4,IDENT_5,







"XStreamDOMTest.data1.xml",
STRING_0,

























