testEncrypt,SecretKeySpec,encryptConnection,writeUTF,readUTF,isAlive,interrupt,Error,
METHOD_0,METHOD_1,METHOD_2,METHOD_3,METHOD_4,METHOD_5,METHOD_6,METHOD_7,

SecretKey,sessionKey,t1,c1,t2,c2,din,
IDENT_0,IDENT_1,IDENT_2,IDENT_3,IDENT_4,IDENT_5,IDENT_6,

9999,
INT_0,




"AES","AES/CFB8/NoPadding","Hello","thread is still alive",
STRING_0,STRING_1,STRING_2,STRING_3,

























