willRebuildIfEmpty,getAsyncClient,asyncClientIsReady,buildAsyncClient,
METHOD_0,METHOD_1,METHOD_2,METHOD_3,

asyncClient,
IDENT_0,


































