isEverybodyOlderThan20,getCustomerList,
METHOD_0,METHOD_1,

tool,Customer,customerList,mall,allOlderThan20,
IDENT_0,IDENT_1,IDENT_2,IDENT_3,IDENT_4,


































