canSimplyConsumeAResponse,thenConsume,
METHOD_0,METHOD_1,

kong,unirest,Unirest,MockServer,GET,
IDENT_0,IDENT_1,IDENT_2,IDENT_3,IDENT_4,


































