bridgeMethodNotFound,callMethods,getMethod,getReturnType,
METHOD_0,METHOD_1,METHOD_2,METHOD_3,

teavm,classlib,MethodTest,SubClassWithBridge,returnType,
IDENT_0,IDENT_1,IDENT_2,IDENT_3,IDENT_4,







"f",
STRING_0,

























