setLength,CharFlow,toCharArray,decodeUnsigned,
METHOD_0,METHOD_1,METHOD_2,METHOD_3,

teavm,classlib,Base46,CharFlow,num,number,seq,
IDENT_0,IDENT_1,IDENT_2,IDENT_3,IDENT_4,IDENT_5,IDENT_6,

65536,
INT_0,










%,
OP_0,



















