testLongValuePositive2,longValue,
METHOD_0,METHOD_1,

aBytes,aNumber,
IDENT_0,IDENT_1,

56,18,105,34,45,880563758158769709L,
INT_0,INT_1,INT_2,INT_3,INT_4,INT_5,































