testEqualsBigIntegerTrue,
METHOD_0,

aBytes,bBytes,aSign,bSign,aNumber,bNumber,teavm,classlib,TParsePosition,currentPosition,errorIndex,
IDENT_0,IDENT_1,IDENT_2,IDENT_3,IDENT_4,IDENT_5,IDENT_6,IDENT_7,IDENT_8,IDENT_9,IDENT_10,

56,76,89,45,91,35,26,
INT_0,INT_1,INT_2,INT_3,INT_4,INT_5,INT_6,































