marksPosition,wrap,mark,reset,
METHOD_0,METHOD_1,METHOD_2,METHOD_3,

CharBuffer,
IDENT_0,







'T','e','a','V','M',
STRING_0,STRING_1,STRING_2,STRING_3,STRING_4,

























