testOneOne,xor,
METHOD_0,METHOD_1,

numA,numB,aNumber,bNumber,teavm,classlib,TParsePosition,currentPosition,errorIndex,
IDENT_0,IDENT_1,IDENT_2,IDENT_3,IDENT_4,IDENT_5,IDENT_6,IDENT_7,IDENT_8,







"0",
STRING_0,

























