test_override_size,Vector,MockVector,clear,
METHOD_0,METHOD_1,METHOD_2,METHOD_3,

Vector,testv,teavm,classlib,VectorTest,TParsePosition,currentPosition,errorIndex,
IDENT_0,IDENT_1,IDENT_2,IDENT_3,IDENT_4,IDENT_5,IDENT_6,IDENT_7,


































