removeElements,fillQueue,poll,copyOfRange,arraycopy,
METHOD_0,METHOD_1,METHOD_2,METHOD_3,METHOD_4,

PriorityQueue,expectedList,iter,indexToRemove,head,tail,
IDENT_0,IDENT_1,IDENT_2,IDENT_3,IDENT_4,IDENT_5,


































