passesStaticFieldToSuperClassConstructor,SubClass,
METHOD_0,METHOD_1,

teavm,vm,VMTest,SubClass,
IDENT_0,IDENT_1,IDENT_2,IDENT_3,


































