hashCodeA,A,HashCodeBuilder,toHashCode,
METHOD_0,METHOD_1,METHOD_2,METHOD_3,

annis,TestDataObject,A,S1,namespace,vis_type,display_name,
IDENT_0,IDENT_1,IDENT_2,IDENT_3,IDENT_4,IDENT_5,IDENT_6,

41,
INT_0,































