setsField,setField,FieldReference,
METHOD_0,METHOD_1,METHOD_2,

teavm,metaprogramming,MetaprogrammingTest,emit,ValueEmitter,cls,fieldName,
IDENT_0,IDENT_1,IDENT_2,IDENT_3,IDENT_4,IDENT_5,IDENT_6,


































