testNullList,Threader,thread,
METHOD_0,METHOD_1,METHOD_2,

nntp,Threader,Threadable,Iterable,
IDENT_0,IDENT_1,IDENT_2,IDENT_3,


































