tableNameAliased,addTableAlias,
METHOD_0,METHOD_1,

tableAccessStrategy,annis,sqlgen,TableAccessStrategy,tableAliases,
IDENT_0,IDENT_1,IDENT_2,IDENT_3,IDENT_4,







"FOO",
STRING_0,

























