align,ColumnAligner,ColumnAlignerModel,
METHOD_0,METHOD_1,METHOD_2,

osmedile,intellij,stringmanip,separator,
IDENT_0,IDENT_1,IDENT_2,IDENT_3,







"|","foo 1 | foo 2",
STRING_0,STRING_1,

























