testPrintFilledStackTrace,fillInStackTrace,PrintWriter,lock,unlock,
METHOD_0,METHOD_1,METHOD_2,METHOD_3,METHOD_4,

stack,stackTrace,lock,pool2,LinkedBlockingDeque,E,
IDENT_0,IDENT_1,IDENT_2,IDENT_3,IDENT_4,IDENT_5,


































