stripQueryUTF,stripQuery,codePointAt,
METHOD_0,METHOD_1,METHOD_2,

jaString,drizzle,ParsingState,parsingState,NORMAL,nextParsingState,nextCodePoint,WITHIN_DOUBLE_QUOTES,WITHIN_QUOTES,WITHIN_COMMENT,
IDENT_0,IDENT_1,IDENT_2,IDENT_3,IDENT_4,IDENT_5,IDENT_6,IDENT_7,IDENT_8,IDENT_9,







"日本語文字列",'"','\'','/','*','#',
STRING_0,STRING_1,STRING_2,STRING_3,STRING_4,STRING_5,

























