sizeHeightTest,addWord,HAWord,HAEntity,getHeight,getY,
METHOD_0,METHOD_1,METHOD_2,METHOD_3,METHOD_4,METHOD_5,

crossword,unima,dws,semanta,MIN_VALUE,word,words,Cell,cell,
IDENT_0,IDENT_1,IDENT_2,IDENT_3,IDENT_4,IDENT_5,IDENT_6,IDENT_7,IDENT_8,







"semanta",
STRING_0,

























