testGetFirst,getFirst,peekFirst,NoSuchElementException,
METHOD_0,METHOD_1,METHOD_2,METHOD_3,

deque,NoSuchElementException,pool2,TestLinkedBlockingDeque,ONE,TWO,E,
IDENT_0,IDENT_1,IDENT_2,IDENT_3,IDENT_4,IDENT_5,IDENT_6,







"Not supposed to get here",
STRING_0,

























