testDefaultAllows_empty,
METHOD_0,

kuali,rice,krad,SerializationContext,serializationContexts,serializationContext,ALL,
IDENT_0,IDENT_1,IDENT_2,IDENT_3,IDENT_4,IDENT_5,IDENT_6,


































