testSetStatus,setStatus,getCharValue,
METHOD_0,METHOD_1,METHOD_2,

DataStatus,VOID,marineapi,nmea,APBParser,SIGNAL_STATUS,
IDENT_0,IDENT_1,IDENT_2,IDENT_3,IDENT_4,IDENT_5,


































