testCollect_1,setGlobal,Cheese,fireAllRules,SuppressWarnings,getGlobal,
METHOD_0,METHOD_1,METHOD_2,METHOD_3,METHOD_4,METHOD_5,

ksession,sample,complex,Cheese,
IDENT_0,IDENT_1,IDENT_2,IDENT_3,







"results","Cheddar","Swiss","stilton","unchecked",
STRING_0,STRING_1,STRING_2,STRING_3,STRING_4,

























