indentWithoutCommentsTest,indent,replaceFirst,lastIndexOf,isWhitespace,repeat,
METHOD_0,METHOD_1,METHOD_2,METHOD_3,METHOD_4,METHOD_5,

lines,languagetool,dev,bigdata,ConfusionFileIndenter,indentedLines,alreadyDone,parts,commentPos,endData,Character,spaces,
IDENT_0,IDENT_1,IDENT_2,IDENT_3,IDENT_4,IDENT_5,IDENT_6,IDENT_7,IDENT_8,IDENT_9,IDENT_10,IDENT_11,

82,
INT_0,




"mir; mit; 1.50","nach; noch; 1.75","mir; mit; 1.50\nnach; noch; 1.75\n","#","\\s*#.*",";\\s*",";",'#',
STRING_0,STRING_1,STRING_2,STRING_3,STRING_4,STRING_5,STRING_6,STRING_7,




--,
OP_0,



















