getAutoCommitShouldReturnFalse,setAutoCommit,getAutoCommit,checkClosed,
METHOD_0,METHOD_1,METHOD_2,METHOD_3,

openConnection,autoCommit,
IDENT_0,IDENT_1,


































