testThreeLink,getAllLinks,verifySame,Link,getChangesSince,
METHOD_0,METHOD_1,METHOD_2,METHOD_3,METHOD_4,

no,priv,garshol,duke,Link,links,link,LinkStatus,ASSERTED,LinkKind,SAME,DIFFERENT,
IDENT_0,IDENT_1,IDENT_2,IDENT_3,IDENT_4,IDENT_5,IDENT_6,IDENT_7,IDENT_8,IDENT_9,IDENT_10,IDENT_11,







"3","4",
STRING_0,STRING_1,

0.95,0.2,0.8,
FLOAT_0,FLOAT_1,FLOAT_2,






















