isClosedShouldReturnFalseWhenCreated,mockConnectionOpen,isClosed,isOpen,
METHOD_0,METHOD_1,METHOD_2,METHOD_3,

bolt,Statement,BoltNeo4jStatement,
IDENT_0,IDENT_1,IDENT_2,


































