visitEmpty,visit_empty,emptyRecord,
METHOD_0,METHOD_1,METHOD_2,

fm,last,kyoto,WritableVisitorAdapterTest,BYTE_ARRAY_VALUE,mockVisitor,
IDENT_0,IDENT_1,IDENT_2,IDENT_3,IDENT_4,IDENT_5,


































