valueSizeDoesNotExist,valueSize,checkDbIsOpen,wrapIntCall,check,
METHOD_0,METHOD_1,METHOD_2,METHOD_3,METHOD_4,

kyotoDb,errorHandler,
IDENT_0,IDENT_1,







"non-existent",
STRING_0,

























