test_isDate,isDate,endsWith,
METHOD_0,METHOD_1,METHOD_2,

javaType,databaseDataTypesUtils,
IDENT_0,IDENT_1,







"java.util.Date","Date","Timestamp","Time",
STRING_0,STRING_1,STRING_2,STRING_3,

























