testSystemicSamplingStep1,sample,fill,ceil,current,nextDouble,copyOf,
METHOD_0,METHOD_1,METHOD_2,METHOD_3,METHOD_4,METHOD_5,METHOD_6,

counts,samples,loops,mallet,SystematicSampling,loop,indices,ThreadLocalRandom,countsum,
IDENT_0,IDENT_1,IDENT_2,IDENT_3,IDENT_4,IDENT_5,IDENT_6,IDENT_7,IDENT_8,

140,14,13,110,29,90,34,230,
INT_0,INT_1,INT_2,INT_3,INT_4,INT_5,INT_6,INT_7,




"Step must be bigger than 1, given was: ","No bin count is allowed to be less than 1, count: ",
STRING_0,STRING_1,




-=,
OP_0,



















