testExample,
METHOD_0,

indi,liudalei,eidea,ChangelogHelper,LOG_MAP,poClassName,
IDENT_0,IDENT_1,IDENT_2,IDENT_3,IDENT_4,IDENT_5,







"helloworld",
STRING_0,

























