saulTest,IntWrapper,compress,uncompress,
METHOD_0,METHOD_1,METHOD_2,METHOD_3,

lemire,integercompression,IntegerCODEC,C,codecs,IntWrapper,aOffset,bOffset,cOffset,inlength,inpos,F1,outpos,F2,
IDENT_0,IDENT_1,IDENT_2,IDENT_3,IDENT_4,IDENT_5,IDENT_6,IDENT_7,IDENT_8,IDENT_9,IDENT_10,IDENT_11,IDENT_12,IDENT_13,

90,
INT_0,




"Problem with ",
STRING_0,




-=,
OP_0,



















