testNthElementInt1,nth_element,sort,
METHOD_0,METHOD_1,METHOD_2,

pivot,jujutsu,tsne,barneshut,VpTree,tmp,high,low,
IDENT_0,IDENT_1,IDENT_2,IDENT_3,IDENT_4,IDENT_5,IDENT_6,IDENT_7,


































