testLargeEWAHCompressedBitmap,EWAHCompressedBitmap,sizeInBits,
METHOD_0,METHOD_1,METHOD_2,

javaewah,EWAHCompressedBitmap,myarray1,N,
IDENT_0,IDENT_1,IDENT_2,IDENT_3,

11000000,
INT_0,




"testing EWAH over a large array",
STRING_0,

























