testTemplateException,TemplateException,
METHOD_0,METHOD_1,

blade,maxTipLength,
IDENT_0,IDENT_1,







"not found template","%s (%d):%s",
STRING_0,STRING_1,

























