testWRS,newHashMap,weightedReservoirSample,materialize,ArrayIndexOutOfBoundsException,
METHOD_0,METHOD_1,METHOD_2,METHOD_3,METHOD_4,

histogram,Maps,crunch,PCollection,sample,Sample,second,third,
IDENT_0,IDENT_1,IDENT_2,IDENT_3,IDENT_4,IDENT_5,IDENT_6,IDENT_7,

1729L,24,51,13,
INT_0,INT_1,INT_2,INT_3,




"baz","biz",
STRING_0,STRING_1,

























