testUrl,mockHttpRequest,
METHOD_0,METHOD_1,

blade,mvc,Request,mockRequest,
IDENT_0,IDENT_1,IDENT_2,IDENT_3,







"GET","/hello?name=q1",
STRING_0,STRING_1,

























