testWithDefaultClassLoader,setClassLoader,getClassLoader,getCache,
METHOD_0,METHOD_1,METHOD_2,METHOD_3,

pdfbox,jbig2,CacheFactory,CacheBridge,clsLoader,
IDENT_0,IDENT_1,IDENT_2,IDENT_3,IDENT_4,


































