get_distance_travelled_in_seconds_steel,getDistanceTraveledInSeconds,checkNotNull,
METHOD_0,METHOD_1,METHOD_2,

levelup,exercises,beginner,SpeedOfSound,medium,distance,
IDENT_0,IDENT_1,IDENT_2,IDENT_3,IDENT_4,IDENT_5,

16400,
INT_0,




"steel","air","water",
STRING_0,STRING_1,STRING_2,

1100.0,4900.0,16400.0,
FLOAT_0,FLOAT_1,FLOAT_2,






















