test_convertNumberToRomanNumeral_invalid,convertNumberToRomanNumeral,
METHOD_0,METHOD_1,

five,levelup,exercises,beginner,RomanNumerals,number,
IDENT_0,IDENT_1,IDENT_2,IDENT_3,IDENT_4,IDENT_5,







"I","II","X","IV","V","VI","VII","VIII","IX","Invalid number.",
STRING_0,STRING_1,STRING_2,STRING_3,STRING_4,STRING_5,STRING_6,STRING_7,STRING_8,STRING_9,

























