count_vowels_in_string_java,isVowel,
METHOD_0,METHOD_1,

phrase,vowelCount,
IDENT_0,IDENT_1,







"whIskey tango fox",'a','e','i','o','u','A','E','I','O','U',
STRING_0,STRING_1,STRING_2,STRING_3,STRING_4,STRING_5,STRING_6,STRING_7,STRING_8,STRING_9,STRING_10,

























