whenReporterRequested_thenReturnReporter,reporter,RestRuntimeOptions,
METHOD_0,METHOD_1,METHOD_2,

runtimeOptions,classLoader,jiraRuntimeOptions,ClassLoader,
IDENT_0,IDENT_1,IDENT_2,IDENT_3,


































