testHostAndPort,getHostAndPort,HostAndPort,
METHOD_0,METHOD_1,METHOD_2,

librato,disco,
IDENT_0,IDENT_1,

8080,
INT_0,




"localhost","{}",
STRING_0,STRING_1,

























