formatInfoEqualsStreamInfo,FormatInfo,StreamInfo,sameFormatAs,
METHOD_0,METHOD_1,METHOD_2,METHOD_3,

toilelibre,libe,soundtransform,converted,FormatInfo,fi1,fi2,inputstream,sampleRate,fi,sampleSize,
IDENT_0,IDENT_1,IDENT_2,IDENT_3,IDENT_4,IDENT_5,IDENT_6,IDENT_7,IDENT_8,IDENT_9,IDENT_10,

44100,700000,
INT_0,INT_1,




"Fenomenon - The B Minor Suite",
STRING_0,

























