canAddHours,givenHours,plus,getHours,getBeingEditedElement,getIntentedTotalHours,
METHOD_0,METHOD_1,METHOD_2,METHOD_3,METHOD_4,METHOD_5,

libreplan,planner,Share,newShare,share,
IDENT_0,IDENT_1,IDENT_2,IDENT_3,IDENT_4,


































