taskMustHaveOneHoursGroup,getHoursGroup,
METHOD_0,METHOD_1,

libreplan,orders,HoursGroup,hoursGroup,
IDENT_0,IDENT_1,IDENT_2,IDENT_3,


































