testDelete,createEntities,getAll,removeEntities,
METHOD_0,METHOD_1,METHOD_2,METHOD_3,

sizeBefore,orderFileModel,sizeAfter,emailNotificationDAO,
IDENT_0,IDENT_1,IDENT_2,IDENT_3,


































