testRemove,addDLSyncEvent,fetchByPrimaryKey,getPrimaryKey,
METHOD_0,METHOD_1,METHOD_2,METHOD_3,

DLSyncEvent,newDLSyncEvent,_persistence,existingDLSyncEvent,_amImageEntryId,
IDENT_0,IDENT_1,IDENT_2,IDENT_3,IDENT_4,


































