testGetVersion,getCompleteVersionString,getCurrentVersion,
METHOD_0,METHOD_1,METHOD_2,

completeVersion,Version,currentVersion,orig,
IDENT_0,IDENT_1,IDENT_2,IDENT_3,


































