testDivision1,createDDMExpression,setScale,
METHOD_0,METHOD_1,METHOD_2,

bigDecimal,dynamic,DDMExpressionImpl,ddmExpression,scale,
IDENT_0,IDENT_1,IDENT_2,IDENT_3,IDENT_4,







"6 / 3",
STRING_0,

























