testGetNodeAsSource,XMLSource,setBuffering,getNode,cast,emptyMap,
METHOD_0,METHOD_1,METHOD_2,METHOD_3,METHOD_4,METHOD_5,

XMLSource,xp,Source,CastUtils,cls,
IDENT_0,IDENT_1,IDENT_2,IDENT_3,IDENT_4,







"<foo><bar/></foo>","/foo/bar",
STRING_0,STRING_1,

























