testPathEncodedSlash,fromPath,
METHOD_0,METHOD_1,

path1,path2,UriBuilder,
IDENT_0,IDENT_1,IDENT_2,







"ab","{xy}","ab/x%2Fy","x/y",
STRING_0,STRING_1,STRING_2,STRING_3,

























