testNullScheme,fromUri,scheme,
METHOD_0,METHOD_1,METHOD_2,

UriBuilder,
IDENT_0,







"localhost:8080","http://localhost:8080",
STRING_0,STRING_1,

























