testFromEncodedDuplicateVar,fromPath,buildFromEncoded,
METHOD_0,METHOD_1,METHOD_2,

UriBuilder,
IDENT_0,







"http://localhost:8080/a/%25/=/%25G0/%25/=","http://localhost:8080","/{v}/{w}/{x}/{y}/{z}/{x}","%25","=","%G0","%","23",
STRING_0,STRING_1,STRING_2,STRING_3,STRING_4,STRING_5,STRING_6,STRING_7,

























