testFieldBuilder,fieldBuilder,TransactionConfig,
METHOD_0,METHOD_1,METHOD_2,

ScriptField,scriptField,ScriptsInstantiationTest,_scripts,
IDENT_0,IDENT_1,IDENT_2,IDENT_3,







"field","Math.min(1, 1)",
STRING_0,STRING_1,

























