testAddKaleoDefinition,addKaleoDefinition,getVersion,
METHOD_0,METHOD_1,METHOD_2,

workflow,kaleo,KaleoDefinition,kaleoDefinition,_version,
IDENT_0,IDENT_1,IDENT_2,IDENT_3,IDENT_4,


































