testIsRequired1,Property,isRequired,
METHOD_0,METHOD_1,METHOD_2,

apio,form,Property,_required,
IDENT_0,IDENT_1,IDENT_2,IDENT_3,







"Test",
STRING_0,

























