testMarkSupported,UnsyncBufferedInputStream,markSupported,
METHOD_0,METHOD_1,METHOD_2,

petra,unsync,UnsyncBufferedInputStream,unsyncBufferedInputStream,
IDENT_0,IDENT_1,IDENT_2,IDENT_3,


































