testOutAppendNsElementBeforeLocal,JSONProvider,setOutAppendElements,TagVO,writeTo,
METHOD_0,METHOD_1,METHOD_2,METHOD_3,METHOD_4,

JSONProvider,TagVO,tag,bos,Annotation,MediaType,TEXT_XML_TYPE,MetadataMap,issuer,originalIssuer,principal,
IDENT_0,IDENT_1,IDENT_2,IDENT_3,IDENT_4,IDENT_5,IDENT_6,IDENT_7,IDENT_8,IDENT_9,IDENT_10,

128,
INT_0,




"tagVO","{http://tagsvo2}t","A","B","{\"ps1.t\":{\"tagVO\":{\"group\":\"B\",\"name\":\"A\"}}}","ProcessedClaim [",", issuer=",", originalIssuer=",", principal=",']',
STRING_0,STRING_1,STRING_2,STRING_3,STRING_4,STRING_5,STRING_6,STRING_7,STRING_8,STRING_9,

























