testSseImplReturnsExpectedOutboundSseEventBuilder,SseImpl,newEventBuilder,BuilderImpl,
METHOD_0,METHOD_1,METHOD_2,METHOD_3,

sse,Sse,OutboundSseEventImpl,
IDENT_0,IDENT_1,IDENT_2,


































