testTransformWithNoFunctions,DefaultSQLTransformer,
METHOD_0,METHOD_1,

transformer,SQLTransformer,sqlTransformer,Function,
IDENT_0,IDENT_1,IDENT_2,IDENT_3,







"select * from Foo","<img","/documents/",
STRING_0,STRING_1,STRING_2,

























