testGetUserId13,fromPortletInstanceKey,getPortletInstanceKey,hasUserId,
METHOD_0,METHOD_1,METHOD_2,METHOD_3,

PortletInstance,portletInstance,
IDENT_0,IDENT_1,


































