testPotentialInfiniteLoopThrowsException1,SQLFunctionTransformer,
METHOD_0,METHOD_1,

transformer,iae,_message,
IDENT_0,IDENT_1,IDENT_2,







"WORLD(","HELLO WORLD()",
STRING_0,STRING_1,

























