testToLongArray,toLongArray,toLongList,
METHOD_0,METHOD_1,METHOD_2,

JSONArray,jsonArray,JSONUtil,jsonObjectKey,ArrayUtil,
IDENT_0,IDENT_1,IDENT_2,IDENT_3,IDENT_4,


































