testCalculateCurWhenNoResults,buildSearchContainer,setTotal,getCur,
METHOD_0,METHOD_1,METHOD_2,METHOD_3,

_searchContainer,_organizationSearch,SearchContainer,DEFAULT_CUR,
IDENT_0,IDENT_1,IDENT_2,IDENT_3,


































