testGetUserId16,fromPortletInstanceKey,getPortletInstanceKey,hasUserId,
METHOD_0,METHOD_1,METHOD_2,METHOD_3,

PortletInstance,portletInstance,
IDENT_0,IDENT_1,

1234,
INT_0,




"5678",
STRING_0,

























