testAvailable,Base64InputStream,available,
METHOD_0,METHOD_1,METHOD_2,

Base64InputStream,base64InputStream,returnValue,tail,head,pad,
IDENT_0,IDENT_1,IDENT_2,IDENT_3,IDENT_4,IDENT_5,







'a','b','c','d',
STRING_0,STRING_1,STRING_2,STRING_3,

























