testGetToStringLength,UnicodeProperties,getToStringLength,
METHOD_0,METHOD_1,METHOD_2,

UnicodeProperties,unicodeProperties,
IDENT_0,IDENT_1,


































