testGetOp,ArrayAddExpression,getOp,
METHOD_0,METHOD_1,METHOD_2,

redhat,lightblue,ArrayAddExpression,EMPTY,UpdateOperator,_set,
IDENT_0,IDENT_1,IDENT_2,IDENT_3,IDENT_4,IDENT_5,


































