matchingDescendant_true_smallerLength,createPath,prefix,matchingDescendant,numSegments,
METHOD_0,METHOD_1,METHOD_2,METHOD_3,METHOD_4,

segments,redhat,lightblue,prefix,
IDENT_0,IDENT_1,IDENT_2,IDENT_3,


































