saveWithIdContainSlash,generateUUID,Foo,
METHOD_0,METHOD_1,METHOD_2,

idWithSlash,lightcouch,DocumentsCRUDTest,dbClient,
IDENT_0,IDENT_1,IDENT_2,IDENT_3,







"a/b/",
STRING_0,

























