testCreateEmptyNameGlobalFunction,GlobalFunctionEntity,
METHOD_0,METHOD_1,

globalfunction,GlobalFunctionEntity,gFun,
IDENT_0,IDENT_1,IDENT_2,


































