testConditionNotIn4,LoginLog_Condition,clear,setLoginTimeNotIn,supportCount,
METHOD_0,METHOD_1,METHOD_2,METHOD_3,METHOD_4,

indi,mybatis,flying,pojo,LoginLog_Condition,lc,timeC,c2,loginLogService,LoginLog_,
IDENT_0,IDENT_1,IDENT_2,IDENT_3,IDENT_4,IDENT_5,IDENT_6,IDENT_7,IDENT_8,IDENT_9,

1970,
INT_0,































