shouldBeEqual_both,TemplateDescriptorEntity,compareToIgnoreCase,
METHOD_0,METHOD_1,METHOD_2,

TemplateDescriptorEntity,t1,t2,templateComparator,ResourceGroupEntity,arg0,arg1,
IDENT_0,IDENT_1,IDENT_2,IDENT_3,IDENT_4,IDENT_5,IDENT_6,


































