testSelectOne1,Account_,setEmail,updatePersistent,selectOne,getEmail,
METHOD_0,METHOD_1,METHOD_2,METHOD_3,METHOD_4,METHOD_5,

indi,mybatis,flying,pojo,Account_,a1,accountService,a2,account_,account,email,
IDENT_0,IDENT_1,IDENT_2,IDENT_3,IDENT_4,IDENT_5,IDENT_6,IDENT_7,IDENT_8,IDENT_9,IDENT_10,







"ann","ann@live.cn","bob","bob@live.cn",
STRING_0,STRING_1,STRING_2,STRING_3,

























