testBasic1,Random,ArrayListOfInts,nextInt,getForNullKey,indexFor,
METHOD_0,METHOD_1,METHOD_2,METHOD_3,METHOD_4,METHOD_5,

Random,ints,tl,lin,ArrayListOfInts,K,HMapKL,DEFAULT_VALUE,
IDENT_0,IDENT_1,IDENT_2,IDENT_3,IDENT_4,IDENT_5,IDENT_6,IDENT_7,

100000,
INT_0,































