testClear,Text,clear,
METHOD_0,METHOD_1,METHOD_2,

tl,lin,ArrayListWritableComparable,Text,
IDENT_0,IDENT_1,IDENT_2,IDENT_3,







"hi","there",
STRING_0,STRING_1,

























