testDot,Int2LongOpenHashMapWritable,dot,
METHOD_0,METHOD_1,METHOD_2,

tl,lin,Int2LongOpenHashMapWritable,m1,m2,MapKL,K,
IDENT_0,IDENT_1,IDENT_2,IDENT_3,IDENT_4,IDENT_5,IDENT_6,

2L,3L,4L,5L,
INT_0,INT_1,INT_2,INT_3,































