builtInGeneratorsAreFound,getParsers,
METHOD_0,METHOD_1,

liquibase,ChangeLogParser,generators,ChangeLogParserFactory,
IDENT_0,IDENT_1,IDENT_2,IDENT_3,


































