testInsertOnSave,getDatabase1,posts,Post,
METHOD_0,METHOD_1,METHOD_2,METHOD_3,

rapleaf,jack,test_project,database_1,iface,IPostPersistence,posts,dbs,Post,post,fieldsMap,
IDENT_0,IDENT_1,IDENT_2,IDENT_3,IDENT_4,IDENT_5,IDENT_6,IDENT_7,IDENT_8,IDENT_9,IDENT_10,

20L,
INT_0,




"Post",
STRING_0,

























