setColumn_singlePKColumn,PrimaryKey,addColumn,Column,getColumnNamesAsList,getColumns,
METHOD_0,METHOD_1,METHOD_2,METHOD_3,METHOD_4,METHOD_5,

liquibase,structure,PrimaryKey,pk,names,col,
IDENT_0,IDENT_1,IDENT_2,IDENT_3,IDENT_4,IDENT_5,







"id",
STRING_0,

























