testUpdateNothing,queryAsTransaction,rootRecord,updateSubRecords,
METHOD_0,METHOD_1,METHOD_2,METHOD_3,

jsRecords,transactor,rapleaf,jack,executors,jackStore,
IDENT_0,IDENT_1,IDENT_2,IDENT_3,IDENT_4,IDENT_5,


































