simpleCaseOfTestingForTheAbsenceOfAParam,DslParams,RequiredParam,OptionalParam,hasValue,
METHOD_0,METHOD_1,METHOD_2,METHOD_3,METHOD_4,

lmax,simpledsl,DslParams,valuesByName,
IDENT_0,IDENT_1,IDENT_2,IDENT_3,







"a=1",
STRING_0,

























