testExpand,defaultInstance,createNode,Envelope,expand,
METHOD_0,METHOD_1,METHOD_2,METHOD_3,METHOD_4,

geogig,RevObjectFactory,ObjectId,NULL,TYPE,FEATURE,NodeRef,nodeRef,env,
IDENT_0,IDENT_1,IDENT_2,IDENT_3,IDENT_4,IDENT_5,IDENT_6,IDENT_7,IDENT_8,







"Points.1","abc123000000000000001234567890abcdef0000","Points",
STRING_0,STRING_1,STRING_2,

























