testPutAll,putAll,
METHOD_0,METHOD_1,

geogig,RevObject,RevTree,EMPTY,Charsets,rocksdb,RocksDBException,
IDENT_0,IDENT_1,IDENT_2,IDENT_3,IDENT_4,IDENT_5,IDENT_6,

111,
INT_0,




"some value",
STRING_0,

























