testSplitPolygon_LineRidesShapeLine,testSplitResults,
METHOD_0,METHOD_1,

vividsolutions,Polygon,splitee,SplitTestUtil,LineString,splitter,Geometry,expectedParts,udig,wms,basic,BasicWMSMetricsFactory2,Pair,
IDENT_0,IDENT_1,IDENT_2,IDENT_3,IDENT_4,IDENT_5,IDENT_6,IDENT_7,IDENT_8,IDENT_9,IDENT_10,IDENT_11,IDENT_12,







"POLYGON((10.5 10, 20 10, 20 20, 10.5 20, 10.5 10))","LINESTRING(10 0, 10 30)",
STRING_0,STRING_1,

























