testIsCancelAllowed,ETLPipelineImpl,isCancelAllowed,
METHOD_0,METHOD_1,METHOD_2,

at,punkt,lodms,ETLPipelineImpl,cancelAllowed,
IDENT_0,IDENT_1,IDENT_2,IDENT_3,IDENT_4,


































