setTest,
METHOD_0,

cn,hutool,BeanPath,tempMap,sessionPool,
IDENT_0,IDENT_1,IDENT_2,IDENT_3,IDENT_4,







"userInfo.examInfoDict[0].id",
STRING_0,

























