testRead,ByteCountInputStream,getByteCount,
METHOD_0,METHOD_1,METHOD_2,

sardine,ByteCountInputStream,byteCount,
IDENT_0,IDENT_1,IDENT_2,


































