versionComparatorTest4,
METHOD_0,

VersionComparator,version1,version2,v1s,cn,hutool,StrUtil,CharUtil,DOT,v2s,diff,minLength,
IDENT_0,IDENT_1,IDENT_2,IDENT_3,IDENT_4,IDENT_5,IDENT_6,IDENT_7,IDENT_8,IDENT_9,IDENT_10,IDENT_11,







"1.13.0","1.12.1c",
STRING_0,STRING_1,

























