excelReadTestOfEmptyLine,getReader,getStream,readAll,
METHOD_0,METHOD_1,METHOD_2,METHOD_3,

cn,hutool,excel,ExcelReader,ExcelUtil,ResourceUtil,readAll,
IDENT_0,IDENT_1,IDENT_2,IDENT_3,IDENT_4,IDENT_5,IDENT_6,







"priceIndex.xls",
STRING_0,

























