isHexNumberTest,isHexNumber,
METHOD_0,METHOD_1,

isHex,cn,hutool,HexUtil,NumberFormatException,
IDENT_0,IDENT_1,IDENT_2,IDENT_3,IDENT_4,







"0x3544534F444","-","0x","0X","#",
STRING_0,STRING_1,STRING_2,STRING_3,STRING_4,

























