readPrivateKeyTest,readPrivateKey,getStream,getResourceObj,
METHOD_0,METHOD_1,METHOD_2,METHOD_3,

PrivateKey,privateKey,cn,hutool,BCUtil,ResourceUtil,resurce,
IDENT_0,IDENT_1,IDENT_2,IDENT_3,IDENT_4,IDENT_5,IDENT_6,







"test_private_key.pem",
STRING_0,

























