testSetStatus,addUser,setStatus,getUserId,findById,getUserStatus,
METHOD_0,METHOD_1,METHOD_2,METHOD_3,METHOD_4,METHOD_5,

lumify,SqlUser,sqlUserRepository,UserStatus,ACTIVE,testUser,userStatus,
IDENT_0,IDENT_1,IDENT_2,IDENT_3,IDENT_4,IDENT_5,IDENT_6,







"123","abc",
STRING_0,STRING_1,

























