testCollection,CollectionLayer,isCollectionLayer,
METHOD_0,METHOD_1,METHOD_2,

bc,ceres,glayer,Layer,collectionLayer,
IDENT_0,IDENT_1,IDENT_2,IDENT_3,IDENT_4,


































