testPlainGame,getGametrees,
METHOD_0,METHOD_1,

goai,sgf,FullParse,ebnf,GameTreeCollection,SGFParser,gametrees,
IDENT_0,IDENT_1,IDENT_2,IDENT_3,IDENT_4,IDENT_5,IDENT_6,







"masao_koichi.sgf",
STRING_0,

























