testSimpleStyle,setServiceClass,discoverStyle,isJaxws,
METHOD_0,METHOD_1,METHOD_2,METHOD_3,

fortest,Hello,java2wsdl,FrontendFactory,Style,Jaxws,Simple,
IDENT_0,IDENT_1,IDENT_2,IDENT_3,IDENT_4,IDENT_5,IDENT_6,


































