get_A$Request_followRedirects,Request,setFollowRedirects,
METHOD_0,METHOD_1,METHOD_2,

m3,curly,Request,HTTP,
IDENT_0,IDENT_1,IDENT_2,IDENT_3,







"http://localhost:8812/",
STRING_0,

























