setBody_A$byteArray$String,Request,RequestBody,setBody,getRequestBody,
METHOD_0,METHOD_1,METHOD_2,METHOD_3,METHOD_4,

m3,curly,Request,RequestBody,requestBody,contentType,
IDENT_0,IDENT_1,IDENT_2,IDENT_3,IDENT_4,IDENT_5,







"http://www.example.com/",
STRING_0,

























