isDefinedAt_A$Object_null,_case,_arrow,isDefinedAt,getCaseClauses,foldLeft,
METHOD_0,METHOD_1,METHOD_2,METHOD_3,METHOD_4,METHOD_5,

m3,scalaflavor4j,CaseClause,caseClause,F1,F2,R,
IDENT_0,IDENT_1,IDENT_2,IDENT_3,IDENT_4,IDENT_5,IDENT_6,


































