asyncPost_A$String$byteArray$String,asyncPost,
METHOD_0,METHOD_1,

m3,curly,HTTP,
IDENT_0,IDENT_1,IDENT_2,







"http://localhost:8803","<user><id>1234</id><name>Andy</name></user>","text/xml",
STRING_0,STRING_1,STRING_2,

























