isNew_A$_AfterInvalidation,invalidate,isNew,
METHOD_0,METHOD_1,METHOD_2,

m3,globalsession,GlobalHttpSession,globalHttpSession,isNewlyCreated,
IDENT_0,IDENT_1,IDENT_2,IDENT_3,IDENT_4,


































