andThen_A$Function1,RichFunction1,intValue,andThen,
METHOD_0,METHOD_1,METHOD_2,METHOD_3,

m3,scalaflavor4j,Function1,RichFunction1,fAndThenG,CollectionLike,ForComprehension1,T1,xs,
IDENT_0,IDENT_1,IDENT_2,IDENT_3,IDENT_4,IDENT_5,IDENT_6,IDENT_7,IDENT_8,


































