max_A$_containsNull,toInt,intValue,
METHOD_0,METHOD_1,METHOD_2,

m3,scalaflavor4j,IndexedSeq,seq,SNum,
IDENT_0,IDENT_1,IDENT_2,IDENT_3,IDENT_4,


































