lastOption_A$_Nil,lastOption,isDefined,
METHOD_0,METHOD_1,METHOD_2,

m3,scalaflavor4j,Seq,seq,IndexedSeq,Option,
IDENT_0,IDENT_1,IDENT_2,IDENT_3,IDENT_4,IDENT_5,


































