filter_A$Function1_Nil,
METHOD_0,

m3,scalaflavor4j,F1,Seq,IndexedSeq,R,
IDENT_0,IDENT_1,IDENT_2,IDENT_3,IDENT_4,IDENT_5,







"f",
STRING_0,

























