filterNot_A$Function1_Nil,filterNot,
METHOD_0,METHOD_1,

m3,scalaflavor4j,F1,Seq,IndexedSeq,R,
IDENT_0,IDENT_1,IDENT_2,IDENT_3,IDENT_4,IDENT_5,


































