slice_A$int$int_Nil,slice,
METHOD_0,METHOD_1,

m3,scalaflavor4j,Seq,seq,IndexedSeq,until,
IDENT_0,IDENT_1,IDENT_2,IDENT_3,IDENT_4,IDENT_5,


































