map_A$Function1,getOrNull,
METHOD_0,METHOD_1,

m3,scalaflavor4j,None,F1,arg,Option,
IDENT_0,IDENT_1,IDENT_2,IDENT_3,IDENT_4,IDENT_5,


































