toString_A$,
METHOD_0,

m3,scalaflavor4j,Seq,seq,Nil,
IDENT_0,IDENT_1,IDENT_2,IDENT_3,IDENT_4,







"Seq()","<function5>",
STRING_0,STRING_1,

























