reverseMap_A$Function1,reverseMap,
METHOD_0,METHOD_1,

m3,scalaflavor4j,Nil,nil,Seq,F1,
IDENT_0,IDENT_1,IDENT_2,IDENT_3,IDENT_4,IDENT_5,


































