getOrElse_A$Function0_defined,getOrElse,
METHOD_0,METHOD_1,

m3,scalaflavor4j,Option,F1,F0,
IDENT_0,IDENT_1,IDENT_2,IDENT_3,IDENT_4,


































