mergeToLeft_A$Function1,mergeToLeft,getOrNull,
METHOD_0,METHOD_1,METHOD_2,

m3,scalaflavor4j,Either,Right,Function1,rightToLeft,F1,
IDENT_0,IDENT_1,IDENT_2,IDENT_3,IDENT_4,IDENT_5,IDENT_6,

123,
INT_0,




"123",
STRING_0,

























