toString_A$,RichVoidFunction2,
METHOD_0,METHOD_1,

m3,scalaflavor4j,RichVoidFunction2,vf,VoidF2,
IDENT_0,IDENT_1,IDENT_2,IDENT_3,IDENT_4,







":","<void-function2>","<function5>",
STRING_0,STRING_1,STRING_2,

























