flatMap_A$F1,flatMap,getOrNull,
METHOD_0,METHOD_1,METHOD_2,

m3,scalaflavor4j,Some,F1,Option,
IDENT_0,IDENT_1,IDENT_2,IDENT_3,IDENT_4,







"vvv",
STRING_0,

























