getFirst_A$,getFirst,_1,
METHOD_0,METHOD_1,METHOD_2,

_1,_2,_3,_4,m3,scalaflavor4j,Tuple4,Tuple,
IDENT_0,IDENT_1,IDENT_2,IDENT_3,IDENT_4,IDENT_5,IDENT_6,IDENT_7,

123,456L,
INT_0,INT_1,































