testSimpleProductCreate,generateProduct,
METHOD_0,METHOD_1,

magja,product,Product,ObjectFactory,
IDENT_0,IDENT_1,IDENT_2,IDENT_3,


































