testSetFilter,getSet,getAllSets,getList,
METHOD_0,METHOD_1,METHOD_2,METHOD_3,

magicthegathering,javasdk,MtgSet,alpha,SetAPI,RESOURCE_PATH,
IDENT_0,IDENT_1,IDENT_2,IDENT_3,IDENT_4,IDENT_5,







"name=Alpha","LEA","sets",
STRING_0,STRING_1,STRING_2,

























