testCreateSimpleProductWithoutImageWithMaterialAttribute,generateProduct,setAttributes,
METHOD_0,METHOD_1,METHOD_2,

magja,product,Product,ObjectFactory,
IDENT_0,IDENT_1,IDENT_2,IDENT_3,

383,
INT_0,




"material",
STRING_0,

























