testDefaultLocaleInMessage,getLocale,welcomeWithFloatVariable,getDefault,
METHOD_0,METHOD_1,METHOD_2,METHOD_3,

expectedResult,localeResolver,simpleMessage,
IDENT_0,IDENT_1,IDENT_2,







"Welcome to ","%f",
STRING_0,STRING_1,

123.45F,
FLOAT_0,






















