warnMdcMarkerMessageArgs,LoggingEvent,
METHOD_0,METHOD_1,

lidalia,slf4jtest,LoggingEvent,mdc,marker,arg1,arg2,WARN,slf4j,Marker,slf4jext,Level,throwable,arguments,
IDENT_0,IDENT_1,IDENT_2,IDENT_3,IDENT_4,IDENT_5,IDENT_6,IDENT_7,IDENT_8,IDENT_9,IDENT_10,IDENT_11,IDENT_12,IDENT_13,


































