testIsMatch,isMatch,isFirstRound,isTsumo,isParent,
METHOD_0,METHOD_1,METHOD_2,METHOD_3,METHOD_4,

generalSituation,personalSituation,
IDENT_0,IDENT_1,


































