errorMessageArgs,LoggingEvent,
METHOD_0,METHOD_1,

lidalia,slf4jtest,LoggingEvent,arg1,arg2,ERROR,slf4jext,Level,throwable,arguments,
IDENT_0,IDENT_1,IDENT_2,IDENT_3,IDENT_4,IDENT_5,IDENT_6,IDENT_7,IDENT_8,IDENT_9,


































