test_back,back,cefswt_go_back,
METHOD_0,METHOD_1,METHOD_2,

browser,chromium,Chromium,SWT,ERROR_FAILED_LOAD_LIBRARY,canGoBack,
IDENT_0,IDENT_1,IDENT_2,IDENT_3,IDENT_4,IDENT_5,


































