testInsert,findAll,getContent,setAge,flush,
METHOD_0,METHOD_1,METHOD_2,METHOD_3,METHOD_4,

mvc,lastOne,personService,personRepository,
IDENT_0,IDENT_1,IDENT_2,IDENT_3,







"noname",
STRING_0,

























