testHashCodeMulti_multiple_emptyArray,hashCodeMulti,
METHOD_0,METHOD_1,

objects,tmpHash,ObjectUtils,
IDENT_0,IDENT_1,IDENT_2,

31,
INT_0,































