testNullToEmptyCharObject,nullToEmpty,
METHOD_0,METHOD_1,

Character,ArrayUtils,EMPTY_OBJECT_ARRAY,
IDENT_0,IDENT_1,IDENT_2,







'a','b',
STRING_0,STRING_1,

























