testNullToEmptyFloat,nullToEmpty,
METHOD_0,METHOD_1,

ArrayUtils,EMPTY_OBJECT_ARRAY,
IDENT_0,IDENT_1,










2.6F,3.8F,
FLOAT_0,FLOAT_1,






















