testInclusiveBetweenLong_withMessage,inclusiveBetween,getFormattedExceptionMessage,
METHOD_0,METHOD_1,METHOD_2,

Validate,
IDENT_0,







"Error","Expecting IllegalArgumentException",
STRING_0,STRING_1,

























