testSubtractValueObject,MutableShort,subtract,shortValue,
METHOD_0,METHOD_1,METHOD_2,METHOD_3,

MutableShort,mutNum,Short,
IDENT_0,IDENT_1,IDENT_2,


































