testNotBlankReturnValues1,notBlank,
METHOD_0,METHOD_1,

Validate,CharSequence,chars,DEFAULT_NOT_BLANK_EX_MESSAGE,
IDENT_0,IDENT_1,IDENT_2,IDENT_3,







"Hi",
STRING_0,

























