testParseDateWithLeniency,GregorianCalendar,parseDate,parseDateStrictly,computeTime,
METHOD_0,METHOD_1,METHOD_2,METHOD_3,METHOD_4,

GregorianCalendar,cal,dateStr,parsers,DateUtils,ParseException,cached,
IDENT_0,IDENT_1,IDENT_2,IDENT_3,IDENT_4,IDENT_5,IDENT_6,

1998,30,
INT_0,INT_1,




"02 942, 1996","MM DDD, yyyy",
STRING_0,STRING_1,

























