testIsInstanceOf_withMessage,isInstanceOf,getFormattedExceptionMessage,
METHOD_0,METHOD_1,METHOD_2,

Validate,
IDENT_0,







"hi","Error","Expecting IllegalArgumentException",
STRING_0,STRING_1,STRING_2,

























