testByteArrayEqualAsObject,DiffBuilder,getNumberOfDiffs,
METHOD_0,METHOD_1,METHOD_2,

DiffResult,DiffBuilderTest,SHORT_STYLE,diffs,
IDENT_0,IDENT_1,IDENT_2,IDENT_3,







"String1","String2",'a',"two",
STRING_0,STRING_1,STRING_2,STRING_3,

1.0F,
FLOAT_0,






















