write_multiple,JCalRawWriter,writeStartComponent,writeProperty,single,writeEndComponent,
METHOD_0,METHOD_1,METHOD_2,METHOD_3,METHOD_4,METHOD_5,

sw,biweekly,JCalRawWriter,ICalDataType,TEXT,JCalValue,ICalVersion,V2_0,
IDENT_0,IDENT_1,IDENT_2,IDENT_3,IDENT_4,IDENT_5,IDENT_6,IDENT_7,







"comp","prop","[","[\"comp\",","[\"prop\",{},\"text\",\"value\"]","],",
STRING_0,STRING_1,STRING_2,STRING_3,STRING_4,STRING_5,

























