setXmlVersion,XCalOutputProperties,sanitizeKey,
METHOD_0,METHOD_1,METHOD_2,

biweekly,XCalOutputProperties,OutputKeys,METHOD,VERSION,K,V,
IDENT_0,IDENT_1,IDENT_2,IDENT_3,IDENT_4,IDENT_5,IDENT_6,







"1.1","xml",
STRING_0,STRING_1,

























