toStringValues,ClientPidMap,Related,
METHOD_0,METHOD_1,METHOD_2,

ezvcard,ClientPidMap,Related,
IDENT_0,IDENT_1,IDENT_2,







"uri",
STRING_0,

























