deserialize_multiple,JCardModule,registerModule,VCard,setVersion,setFormattedName,readValue,
METHOD_0,METHOD_1,METHOD_2,METHOD_3,METHOD_4,METHOD_5,METHOD_6,

ezvcard,JCardModule,VCard,vcard,VCardVersion,V4_0,TypeReference,vcards,
IDENT_0,IDENT_1,IDENT_2,IDENT_3,IDENT_4,IDENT_5,IDENT_6,IDENT_7,







"[","[\"vcard\",","[\"version\", {}, \"text\", \"4.0\"],","[\"fn\", {}, \"text\", \"John Doe\"]","],","[\"fn\", {}, \"text\", \"Jane Doe\"]","John Doe","Jane Doe",
STRING_0,STRING_1,STRING_2,STRING_3,STRING_4,STRING_5,STRING_6,STRING_7,

























