toTimeZone_text,Timezone,toTimeZone,parseTimeZoneId,SimpleTimeZone,getMillis,
METHOD_0,METHOD_1,METHOD_2,METHOD_3,METHOD_4,METHOD_5,

ezvcard,Timezone,TimeZone,timezone,VCardDateFormat,
IDENT_0,IDENT_1,IDENT_2,IDENT_3,IDENT_4,







"text",
STRING_0,

























