should_refresh,createSimple,refresh,
METHOD_0,METHOD_1,METHOD_2,

deltaspike,Simple,testData,
IDENT_0,IDENT_1,IDENT_2,







"testRefresh","override",
STRING_0,STRING_1,

























