should_find_by_criteria,Simple,saveAndFlush,fetchByName,
METHOD_0,METHOD_1,METHOD_2,METHOD_3,

deltaspike,Simple,repoAbstract,fetch,sessionId,
IDENT_0,IDENT_1,IDENT_2,IDENT_3,IDENT_4,







"criteria",
STRING_0,

























