callSimple,prepareCall,setInt,getInt,findColumn,
METHOD_0,METHOD_1,METHOD_2,METHOD_3,METHOD_4,

CallableStatement,st,sharedConnection,columnLabel,
IDENT_0,IDENT_1,IDENT_2,IDENT_3,







"{? = call pow(?,?)}",
STRING_0,

























