testSave,openStream,closeQuietly,
METHOD_0,METHOD_1,METHOD_2,

dlazerka,gm,GraphmlStorer,GraphmlStorerTest,xmlSource,IOUtils,for_,default_,
IDENT_0,IDENT_1,IDENT_2,IDENT_3,IDENT_4,IDENT_5,IDENT_6,IDENT_7,







"GraphmlKey [","id=",", ","name=","for_=","default_=","type=",
STRING_0,STRING_1,STRING_2,STRING_3,STRING_4,STRING_5,STRING_6,

























