testForEach,forEach,setLastName,getLastName,
METHOD_0,METHOD_1,METHOD_2,METHOD_3,

lambdaj,personInFamily,lastName,
IDENT_0,IDENT_1,IDENT_2,







"Domenico","Mario","Irma","Fusco",
STRING_0,STRING_1,STRING_2,STRING_3,

























