testAccessDeleteOrgWithoutRights,perform,andExpect,isForbidden,deleteById,
METHOD_0,METHOD_1,METHOD_2,METHOD_3,METHOD_4,

mvc,
IDENT_0,







"/oidc/api/org/urn:mrn:mcl:org:dma","Origin","bla",
STRING_0,STRING_1,STRING_2,

























