optimizeTest,optimize,RationalNumber,
METHOD_0,METHOD_1,METHOD_2,

ru,itpark,RationalNumber,numerator,denominator,
IDENT_0,IDENT_1,IDENT_2,IDENT_3,IDENT_4,


































