testAuthTokenTF,setAuthToken,getAuthToken,getParameter,
METHOD_0,METHOD_1,METHOD_2,METHOD_3,

piwik,tracking,PiwikRequest,AUTH_TOKEN,
IDENT_0,IDENT_1,IDENT_2,IDENT_3,







"12345678901234567890123456789012",
STRING_0,

























