testEventCategory,setEventCategory,getEventCategory,getNonEmptyStringParameter,
METHOD_0,METHOD_1,METHOD_2,METHOD_3,

piwik,tracking,PiwikRequest,EVENT_CATEGORY,
IDENT_0,IDENT_1,IDENT_2,IDENT_3,







"category",
STRING_0,

























