testConstructor,
METHOD_0,

matsim,v01,Id,IdentifiableArrayMapTest,TO,IdentifiableArrayMap,hm,
IDENT_0,IDENT_1,IDENT_2,IDENT_3,IDENT_4,IDENT_5,IDENT_6,


































