testRequired,setRequired,getRequired,getBooleanParameter,
METHOD_0,METHOD_1,METHOD_2,METHOD_3,

piwik,tracking,PiwikRequest,REQUIRED,
IDENT_0,IDENT_1,IDENT_2,IDENT_3,


































