testGetNodes_Null,getTestNetwork,getNodes,
METHOD_0,METHOD_1,METHOD_2,

matsim,v01,Network,NetworkUtils,hm,
IDENT_0,IDENT_1,IDENT_2,IDENT_3,IDENT_4,


































