countMethodInvocations,getRfc,
METHOD_0,METHOD_1,

mauricioaniche,ck,CKClassResult,metric,RFCTest,rfc,
IDENT_0,IDENT_1,IDENT_2,IDENT_3,IDENT_4,IDENT_5,







"rfc.GO",
STRING_0,

























