setAndGetClip,clip,getClipBounds,getClip,getBounds,
METHOD_0,METHOD_1,METHOD_2,METHOD_3,METHOD_4,

graphics,midRect,Shape,
IDENT_0,IDENT_1,IDENT_2,


































