testGetOwner,DiskCachedTile,getOwner,
METHOD_0,METHOD_1,METHOD_2,

jaitools,tilecache,DiskCachedTile,DiskCachedTileTest,raster,RenderedImage,ownerRef,
IDENT_0,IDENT_1,IDENT_2,IDENT_3,IDENT_4,IDENT_5,IDENT_6,

1234,
INT_0,































