testDDSTime,toDDSTime,toMilliseconds,
METHOD_0,METHOD_1,METHOD_2,

l0,rti,dds,infrastructure,Time_t,mdpnp,devices,DomainClock,l1,timestamp,sec,nanosec,
IDENT_0,IDENT_1,IDENT_2,IDENT_3,IDENT_4,IDENT_5,IDENT_6,IDENT_7,IDENT_8,IDENT_9,IDENT_10,IDENT_11,

1000L,1000000L,
INT_0,INT_1,































