testHashCode,NumberTickUnit,DecimalFormat,
METHOD_0,METHOD_1,METHOD_2,

axis,NumberTickUnit,t1,t2,h1,h2,prime,timestamp,
IDENT_0,IDENT_1,IDENT_2,IDENT_3,IDENT_4,IDENT_5,IDENT_6,IDENT_7,

31,
INT_0,




"0.00",
STRING_0,

1.23,
FLOAT_0,






















