testGetColumnKeys,DefaultIntervalCategoryDataset,getColumnKeys,
METHOD_0,METHOD_1,METHOD_2,

category,DefaultIntervalCategoryDataset,
IDENT_0,IDENT_1,


































