testApplyProxyHeadersWithNoProxyHeaders,applyProxyHeaders,Headers,getVerb,getUUID,
METHOD_0,METHOD_1,METHOD_2,METHOD_3,METHOD_4,

APITask,
IDENT_0,


































