hasEffectWithArgumentsWithFullArea,Dimension,OperationList,setWidth,setHeight,hasEffect,
METHOD_0,METHOD_1,METHOD_2,METHOD_3,METHOD_4,METHOD_5,

Dimension,fullSize,OperationList,opList,
IDENT_0,IDENT_1,IDENT_2,IDENT_3,

600,400,
INT_0,INT_1,































