testFromJSONWithString,toJSON,fromJSON,getVerb,getUUID,
METHOD_0,METHOD_1,METHOD_2,METHOD_3,METHOD_4,

Info,APITask,
IDENT_0,IDENT_1,


































