testMoveDown,moveDown,Rectangle,width,height,
METHOD_0,METHOD_1,METHOD_2,METHOD_3,METHOD_4,

initialY,Rectangle,
IDENT_0,IDENT_1,










3.5,
FLOAT_0,






















