testGetMetadata,getMetadata,reset,GIFMetadataReader,setSource,getXMP,GIFMetadata,
METHOD_0,METHOD_1,METHOD_2,METHOD_3,METHOD_4,METHOD_5,METHOD_6,

gif,GIFMetadataReader,inputStream,GIFImageReader,
IDENT_0,IDENT_1,IDENT_2,IDENT_3,







"getMetadata(): {}",
STRING_0,

























