testGetNumDecompositionLevels,getNumDecompositionLevels,readData,
METHOD_0,METHOD_1,METHOD_2,

numDecompositionLevels,
IDENT_0,


































