testToCropWithPercent,CropByPercent,Region,setType,setX,setY,setWidth,setHeight,toCrop,CropToSquare,getX,getY,getWidth,getHeight,CropByPixels,round,
METHOD_0,METHOD_1,METHOD_2,METHOD_3,METHOD_4,METHOD_5,METHOD_6,METHOD_7,METHOD_8,METHOD_9,METHOD_10,METHOD_11,METHOD_12,METHOD_13,METHOD_14,METHOD_15,

Crop,iiif,PERCENT,FULL,SQUARE,
IDENT_0,IDENT_1,IDENT_2,IDENT_3,IDENT_4,










0.3,0.4,0.5,0.6,30.0F,40.0F,50.0F,60.0F,100.0,
FLOAT_0,FLOAT_1,FLOAT_2,FLOAT_3,FLOAT_4,FLOAT_5,FLOAT_6,FLOAT_7,FLOAT_8,






















