testToCropWithPixels,CropByPixels,Region,setX,setY,setWidth,setHeight,toCrop,CropByPercent,CropToSquare,getX,getY,getWidth,getHeight,round,
METHOD_0,METHOD_1,METHOD_2,METHOD_3,METHOD_4,METHOD_5,METHOD_6,METHOD_7,METHOD_8,METHOD_9,METHOD_10,METHOD_11,METHOD_12,METHOD_13,METHOD_14,

Crop,iiif,FULL,SQUARE,PERCENT,
IDENT_0,IDENT_1,IDENT_2,IDENT_3,IDENT_4,










10.0F,20.0F,200.0F,100.0F,100.0,
FLOAT_0,FLOAT_1,FLOAT_2,FLOAT_3,FLOAT_4,






















