toString_withValue_printsTheValue,A,
METHOD_0,METHOD_1,

memoizrlabs,retrooptional,OptionalTest,CONTENT_TO_STRING,
IDENT_0,IDENT_1,IDENT_2,IDENT_3,


































