setToNextOrSameTimeOnSameDay,setToNextOrSame,
METHOD_0,METHOD_1,

PlainTimestamp,tsp,PlainTime,COMPONENT,year,month,dayOfMonth,hour,minute,
IDENT_0,IDENT_1,IDENT_2,IDENT_3,IDENT_4,IDENT_5,IDENT_6,IDENT_7,IDENT_8,

2014,19,14,30,
INT_0,INT_1,INT_2,INT_3,































