doit,URIFactory,HttpClient,buildExchange,getResponse,
METHOD_0,METHOD_1,METHOD_2,METHOD_3,METHOD_4,

predic8,membrane,URIFactory,uriFactory,Request,statusCode,
IDENT_0,IDENT_1,IDENT_2,IDENT_3,IDENT_4,IDENT_5,







"GET","http://localhost:3027/foo{}",
STRING_0,STRING_1,

























