shouldExecuteMathematicalOperations,SpelScriptEngine,eval,evalExpression,
METHOD_0,METHOD_1,METHOD_2,METHOD_3,

starflow,spel,SpelScriptEngine,scriptEngineImpl,two,ScriptContext,
IDENT_0,IDENT_1,IDENT_2,IDENT_3,IDENT_4,IDENT_5,







"1+1",
STRING_0,

























