ofLocation,check,SolarTime,
METHOD_0,METHOD_1,METHOD_2,

calendar,astro,SolarTime,ny1,ny2,latitude,longitude,altitude,calculator,
IDENT_0,IDENT_1,IDENT_2,IDENT_3,IDENT_4,IDENT_5,IDENT_6,IDENT_7,IDENT_8,







"NOAA",
STRING_0,

40.9,74.3,
FLOAT_0,FLOAT_1,






















