isEmptyReverseBoundaries,
METHOD_0,

DateInterval,interval,Iso8601Format,EXTENDED_CALENDAR_DATE,BracketPolicy,SHOW_ALWAYS,
IDENT_0,IDENT_1,IDENT_2,IDENT_3,IDENT_4,IDENT_5,







"(2012-01-01/2012-01-01]",
STRING_0,

























