getRealDurationOfMomentInterval,between,getRealDuration,ofSIUnits,MachineTime,
METHOD_0,METHOD_1,METHOD_2,METHOD_3,METHOD_4,

Moment,m1,TimeScale,UTC,m2,MachineTime,SI,duration,MomentInterval,seconds,fraction,UTC_ZERO,
IDENT_0,IDENT_1,IDENT_2,IDENT_3,IDENT_4,IDENT_5,IDENT_6,IDENT_7,IDENT_8,IDENT_9,IDENT_10,IDENT_11,

1278028823,1278028826,3L,
INT_0,INT_1,INT_2,































