timeWindowIfOverlap2,onDateAxis,plus,parseISO,withTimeWindow,withFilter,adjust,
METHOD_0,METHOD_1,METHOD_2,METHOD_3,METHOD_4,METHOD_5,METHOD_6,

IntervalCollection,PlainDate,coll,DateInterval,ChronoInterval,window,timeWindow,
IDENT_0,IDENT_1,IDENT_2,IDENT_3,IDENT_4,IDENT_5,IDENT_6,







"2011-01-01/2013-12-31","2014-06-30/2015-01-01","2012-09-01/2015-09-30","2012-06-30/2014-12-31","2012-06-30/2013-12-31","2014-06-30/2014-12-31","2012-09-01/2014-12-31",
STRING_0,STRING_1,STRING_2,STRING_3,STRING_4,STRING_5,STRING_6,

























