isEmptyAtomicOpen,atUTC,between,MomentInterval,
METHOD_0,METHOD_1,METHOD_2,METHOD_3,

Moment,tsp,PlainTimestamp,Boundary,IntervalEdge,CLOSED,OPEN,
IDENT_0,IDENT_1,IDENT_2,IDENT_3,IDENT_4,IDENT_5,IDENT_6,

2014,14,
INT_0,INT_1,































