intersect,between,onDateAxis,plus,sort,getComparator,withBlocks,
METHOD_0,METHOD_1,METHOD_2,METHOD_3,METHOD_4,METHOD_5,METHOD_6,

DateInterval,i1,PlainDate,i2,i3,intersection2,IntervalCollection,ChronoInterval,zero,intervals,candidates,
IDENT_0,IDENT_1,IDENT_2,IDENT_3,IDENT_4,IDENT_5,IDENT_6,IDENT_7,IDENT_8,IDENT_9,IDENT_10,

2014,28,31,
INT_0,INT_1,INT_2,































