timeWindowIfNoInterval,onDateAxis,parseISO,withTimeWindow,withFilter,adjust,
METHOD_0,METHOD_1,METHOD_2,METHOD_3,METHOD_4,METHOD_5,

IntervalCollection,PlainDate,coll,ChronoInterval,window,DateInterval,timeWindow,
IDENT_0,IDENT_1,IDENT_2,IDENT_3,IDENT_4,IDENT_5,IDENT_6,







"2012-06-30/2014-12-31",
STRING_0,

























