containsTemporalRightEdgeOpen,between,TimestampInterval,
METHOD_0,METHOD_1,METHOD_2,

PlainTimestamp,Boundary,IntervalEdge,CLOSED,OPEN,
IDENT_0,IDENT_1,IDENT_2,IDENT_3,IDENT_4,

2014,27,14,
INT_0,INT_1,INT_2,































