findPreviousTransition2,findPreviousTransition,UT,getPosixTime,
METHOD_0,METHOD_1,METHOD_2,METHOD_3,

tz,ZonalTransition,CompositeTransitionModelTest,FOURTH,zt,MODEL,rawValues,
IDENT_0,IDENT_1,IDENT_2,IDENT_3,IDENT_4,IDENT_5,IDENT_6,


































