testContains_contains,SetWithUpperBound,
METHOD_0,METHOD_1,

mercateo,sqs,handling,SetWithUpperBound,setWithUpperBound,backingSet,
IDENT_0,IDENT_1,IDENT_2,IDENT_3,IDENT_4,IDENT_5,


































