daysShiftSamoa,atStartOfDay,plus,until,between,
METHOD_0,METHOD_1,METHOD_2,METHOD_3,METHOD_4,

tz,Timezone,Moment,PlainDate,Month,DECEMBER,CalendarUnit,DAYS,SI,
IDENT_0,IDENT_1,IDENT_2,IDENT_3,IDENT_4,IDENT_5,IDENT_6,IDENT_7,IDENT_8,

2011,29,
INT_0,INT_1,




"Pacific/Apia",
STRING_0,

























