test_format_null_pattern,MapFormat,setArguments,
METHOD_0,METHOD_1,METHOD_2,

strExpected,strActual,metas,printing,MapFormat,arguments,
IDENT_0,IDENT_1,IDENT_2,IDENT_3,IDENT_4,IDENT_5,







"SessionID","TransactionID",
STRING_0,STRING_1,

























