test_toString,getDay,ArrayKey,
METHOD_0,METHOD_1,METHOD_2,

Timestamp,compiere,TimeUtil,Util,ArrayKey,keyStrExpected,keyStrActual,adempiere,ObjectUtils,
IDENT_0,IDENT_1,IDENT_2,IDENT_3,IDENT_4,IDENT_5,IDENT_6,IDENT_7,IDENT_8,

2013,
INT_0,




"s1","5#s1#NULL#2013-02-05 00:00:00.0",
STRING_0,STRING_1,

























