test_asTimestamp_for_Null,asTimestamp,Timestamp,asInstant,
METHOD_0,METHOD_1,METHOD_2,METHOD_3,

Timestamp,LocalDateTime,compiere,TimeUtil,
IDENT_0,IDENT_1,IDENT_2,IDENT_3,


































