testTopoSortWithInputs2,DiamondGraph,toposort,getList,
METHOD_0,METHOD_1,METHOD_2,METHOD_3,

valid,jhu,pacaya,autodiff,Toposort,Deps,deps,ToposortTest,sort,QLists,gm,Var,var,
IDENT_0,IDENT_1,IDENT_2,IDENT_3,IDENT_4,IDENT_5,IDENT_6,IDENT_7,IDENT_8,IDENT_9,IDENT_10,IDENT_11,IDENT_12,







"[3, 2, 1, ROOT]","4","ROOT",
STRING_0,STRING_1,STRING_2,

























