testDateToStr_20050131,GregorianCalendar,dateToStr,
METHOD_0,METHOD_1,METHOD_2,

cal,michaelkohler,helpertools,DateFormatHelper,dateFormatter,
IDENT_0,IDENT_1,IDENT_2,IDENT_3,IDENT_4,

2005,31,
INT_0,INT_1,




"2005/01/31",
STRING_0,

























