testIntersectionOfTwoLists_FindCommonElements_Test2,intersect,
METHOD_0,METHOD_1,

listOne,listTwo,michaelkohler,helpertools,CollectionHelper,expectedItem,groupOne,groupTwo,listOneItem,
IDENT_0,IDENT_1,IDENT_2,IDENT_3,IDENT_4,IDENT_5,IDENT_6,IDENT_7,IDENT_8,

2000,3000,4000,5000,6000,7000,
INT_0,INT_1,INT_2,INT_3,INT_4,INT_5,































