checkDependenciesTest,getBean,getClientDao,
METHOD_0,METHOD_1,METHOD_2,

ClientServiceSingleton,clientService,applicationContext,clientDao,
IDENT_0,IDENT_1,IDENT_2,IDENT_3,


































