getRemoteRepositoryUrls,addRemoteRepositoryByUrl,
METHOD_0,METHOD_1,

naether,
IDENT_0,







"http://test.net/hamster:7011","http://repo1.maven.org/maven2/",
STRING_0,STRING_1,

























