testFilteredWithNoPaths,MapConfig,filtered,JsonObject,RecordingConfig,
METHOD_0,METHOD_1,METHOD_2,METHOD_3,METHOD_4,

microbule,Config,JsonObject,filteredJson,recordedJson,paths,sub,
IDENT_0,IDENT_1,IDENT_2,IDENT_3,IDENT_4,IDENT_5,IDENT_6,







"foo/bar","baz",
STRING_0,STRING_1,

























