testDecode,KhdProtocolDecoder,setDataManager,TestDataManager,wrappedBuffer,convertArray,
METHOD_0,METHOD_1,METHOD_2,METHOD_3,METHOD_4,METHOD_5,

traccar,KhdProtocolDecoder,decoder,buf1,buf2,ChannelBuffers,ChannelBufferTools,buf3,buf4,buf5,buf6,buf7,ChannelHandlerContext,Channel,
IDENT_0,IDENT_1,IDENT_2,IDENT_3,IDENT_4,IDENT_5,IDENT_6,IDENT_7,IDENT_8,IDENT_9,IDENT_10,IDENT_11,IDENT_12,IDENT_13,

41,177,22,53,184,13,128,40,71,39,17,103,101,51,105,130,252,30,120,27,54,129,159,149,56,18,49,35,148,48,64,55,37,127,52,133,87,80,82,97,25,248,72,187,237,142,90,24,32,70,34,112,114,98,251,124,191,86,60,162,204,57,121,132,117,29,208,140,23,38,69,113,84,58,249,
INT_0,INT_1,INT_2,INT_3,INT_4,INT_5,INT_6,INT_7,INT_8,INT_9,INT_10,INT_11,INT_12,INT_13,INT_14,INT_15,INT_16,INT_17,INT_18,INT_19,INT_20,INT_21,INT_22,INT_23,INT_24,INT_25,INT_26,INT_27,INT_28,INT_29,INT_30,INT_31,INT_32,INT_33,INT_34,INT_35,INT_36,INT_37,INT_38,INT_39,INT_40,INT_41,INT_42,INT_43,INT_44,INT_45,INT_46,INT_47,INT_48,INT_49,INT_50,INT_51,INT_52,INT_53,INT_54,INT_55,INT_56,INT_57,INT_58,INT_59,INT_60,INT_61,INT_62,INT_63,INT_64,INT_65,INT_66,INT_67,INT_68,INT_69,INT_70,INT_71,INT_72,INT_73,INT_74,































