testDecode,NavigilProtocolDecoder,setDataManager,TestDataManager,wrappedBuffer,
METHOD_0,METHOD_1,METHOD_2,METHOD_3,METHOD_4,

traccar,NavigilProtocolDecoder,decoder,buf1,buf2,ChannelBuffers,ByteOrder,LITTLE_ENDIAN,ChannelHandlerContext,Channel,SocketAddress,
IDENT_0,IDENT_1,IDENT_2,IDENT_3,IDENT_4,IDENT_5,IDENT_6,IDENT_7,IDENT_8,IDENT_9,IDENT_10,

67,32,246,231,205,81,59,179,36,244,168,202,17,239,136,133,240,184,46,109,19,192,
INT_0,INT_1,INT_2,INT_3,INT_4,INT_5,INT_6,INT_7,INT_8,INT_9,INT_10,INT_11,INT_12,INT_13,INT_14,INT_15,INT_16,INT_17,INT_18,INT_19,INT_20,INT_21,































