getCheckRuntimeCommand,getMojoFromPom,spy,
METHOD_0,METHOD_1,METHOD_2,

RunMojo,mojo,mojoSpy,FUNC_CMD,
IDENT_0,IDENT_1,IDENT_2,IDENT_3,


































