testSetAndGetExternalId,AccountBO,setExternalId,getExternalId,
METHOD_0,METHOD_1,METHOD_2,METHOD_3,

accountId,externalId,mifos,accounts,AccountBO,account,
IDENT_0,IDENT_1,IDENT_2,IDENT_3,IDENT_4,IDENT_5,







"123ABC",
STRING_0,

























