contentsEqual,Terminal,
METHOD_0,METHOD_1,

Terminal,t1,t2,Item,production,dot,itemLookahead,
IDENT_0,IDENT_1,IDENT_2,IDENT_3,IDENT_4,IDENT_5,IDENT_6,


































