testNegative,decompose,
METHOD_0,METHOD_1,

mikera,matrixx,AMatrix,Matrix,decompose,ICholeskyResult,Cholesky,chol,
IDENT_0,IDENT_1,IDENT_2,IDENT_3,IDENT_4,IDENT_5,IDENT_6,IDENT_7,


































