testVMWrap,createRandomMatrix,toVector,wrap,
METHOD_0,METHOD_1,METHOD_2,METHOD_3,

mikera,matrixx,AMatrix,Matrixx,rc,rows,vectorz,AVector,vs,Vectorz,VectorMatrixMN,
IDENT_0,IDENT_1,IDENT_2,IDENT_3,IDENT_4,IDENT_5,IDENT_6,IDENT_7,IDENT_8,IDENT_9,IDENT_10,


































