getKoppelvlak,
METHOD_0,

Koppelvlak,BIJHOUDING,algemeenbrp,enums,SoortBerichtTest,SOORT_BERICHT,
IDENT_0,IDENT_1,IDENT_2,IDENT_3,IDENT_4,IDENT_5,


































