SelectiePeriodeDTO,
METHOD_0,

LocalDate,beginDatum,eindDatum,beheer,selectie,SelectiePeriodeDTO,selectiePeriodeDTO,validatieResultaat,
IDENT_0,IDENT_1,IDENT_2,IDENT_3,IDENT_4,IDENT_5,IDENT_6,IDENT_7,

2010,2015,
INT_0,INT_1,































