testGetStreamName,getStreamName,
METHOD_0,METHOD_1,

streamName,underlying,bkDistributedLogManager,
IDENT_0,IDENT_1,IDENT_2,







"test-stream-name",
STRING_0,

























