vindPartijOpOin,geefPartijMetOin,
METHOD_0,METHOD_1,

partijCache,partijMock,algemeenbrp,Partij,partij,oin,
IDENT_0,IDENT_1,IDENT_2,IDENT_3,IDENT_4,IDENT_5,







"123",
STRING_0,

























