testHashCode,maakBetrokkenheid,
METHOD_0,METHOD_1,

BrpBetrokkenheid,BrpBetrokkenheidTest,BrpSoortBetrokkenheidCode,OUDER,bronnen,ouder1,ouder2,kind,
IDENT_0,IDENT_1,IDENT_2,IDENT_3,IDENT_4,IDENT_5,IDENT_6,IDENT_7,

31,
INT_0,































