drill1653,testSql,testRunAndPrint,
METHOD_0,METHOD_1,METHOD_2,

rowCount,BaseTestQuery,QueryType,SQL,
IDENT_0,IDENT_1,IDENT_2,IDENT_3,







"select * from (select sum(t.flat.`value`) as sm from (select id, flatten(kvgen(m)) as flat from cp.`flatten/missing-map.json`)t) where sm = 10 ",
STRING_0,

























