testStandaardConstructor,AbstractAntwoordBericht,getMeldingen,
METHOD_0,METHOD_1,METHOD_2,

AbstractAntwoordBericht,antwoordBericht,meldingen,
IDENT_0,IDENT_1,IDENT_2,


































