persoonVolledigHeeftEenVersienummer,PersoonVolledig,getVersie,
METHOD_0,METHOD_1,METHOD_2,

PersoonVolledig,persoon,versie,
IDENT_0,IDENT_1,IDENT_2,

123,
INT_0,































