testSave,createBericht,setRichting,setData,findAll,vulCache,
METHOD_0,METHOD_1,METHOD_2,METHOD_3,METHOD_4,METHOD_5,

ber,Bericht,Richting,INGAAND,eerst,
IDENT_0,IDENT_1,IDENT_2,IDENT_3,IDENT_4,


































