shouldReturnPersoonsLijst,ContextBase,
METHOD_0,METHOD_1,

chain,ContextParameterNames,AANTAL_THREADS,AANTAL_PERSOONSLIJSTEN,BSNLIJST,bevragingStap,bevraging,BevraagInfo,average,TASK_INFO_LIJST,elementen,
IDENT_0,IDENT_1,IDENT_2,IDENT_3,IDENT_4,IDENT_5,IDENT_6,IDENT_7,IDENT_8,IDENT_9,IDENT_10,

100000001,100000002,100000003,123456789,234567891,
INT_0,INT_1,INT_2,INT_3,INT_4,































