testRemoveServiceNonexistent,removeService,
METHOD_0,METHOD_1,

flex,messaging,Service,broker,ObjectName,
IDENT_0,IDENT_1,IDENT_2,IDENT_3,IDENT_4,







"id",
STRING_0,

























