testGeenVerstrekkingsbeperkingMogelijk,voerRegelUit,bouwPersoon,
METHOD_0,METHOD_1,METHOD_2,

basis,BerichtEntiteit,meldingen,bedrijfsregel,elementen,
IDENT_0,IDENT_1,IDENT_2,IDENT_3,IDENT_4,


































