testCreeerMetWaarde,WaardeMetMeldingen,getMeldingen,unmodifiableSet,
METHOD_0,METHOD_1,METHOD_2,METHOD_3,

stappen,resultaat,WaardeMetMeldingen,meldingen,
IDENT_0,IDENT_1,IDENT_2,IDENT_3,







"aap",
STRING_0,

























