testCloseNoConnect,AMFConnection,getUrl,
METHOD_0,METHOD_1,METHOD_2,

flex,messaging,amf,AMFConnection,amfConnection,AMFConnectionIT,UNEXPECTED_EXCEPTION_STRING,
IDENT_0,IDENT_1,IDENT_2,IDENT_3,IDENT_4,IDENT_5,IDENT_6,


































