testNullStapels,converteer,
METHOD_0,METHOD_1,

brpStapels,lo3,Lo3Stapel,categorie,Lo3KindInhoud,stapels,BrpStapel,groep,BrpIstRelatieGroepInhoud,brpStapel,lo3Stapel,
IDENT_0,IDENT_1,IDENT_2,IDENT_3,IDENT_4,IDENT_5,IDENT_6,IDENT_7,IDENT_8,IDENT_9,IDENT_10,


































