testOk,bewaarBericht,maakLg01,
METHOD_0,METHOD_1,METHOD_2,

berichtenDao,elementen,
IDENT_0,IDENT_1,

123456789L,
INT_0,




"input","0599",
STRING_0,STRING_1,

























