testClientkill,clientkill,incr,master,
METHOD_0,METHOD_1,METHOD_2,METHOD_3,

redis1,craft,atom,HOST,PORT1,RedisException,CaseCounter,ip,
IDENT_0,IDENT_1,IDENT_2,IDENT_3,IDENT_4,IDENT_5,IDENT_6,IDENT_7,







"[CRAFT-ATOM-REDIS] (^_^) <%s> Case -> test clientkill. ",
STRING_0,

























