testObjectidletime,objectidletime,incr,executeCommand,
METHOD_0,METHOD_1,METHOD_2,METHOD_3,

redis1,craft,atom,CaseCounter,CommandEnum,OBJECT_IDLETIME,
IDENT_0,IDENT_1,IDENT_2,IDENT_3,IDENT_4,IDENT_5,







"[CRAFT-ATOM-REDIS] (^_^) <%s> Case -> test objectidletime. ",
STRING_0,

























