testAppendInteger,sqrt,
METHOD_0,METHOD_1,

theBuilder,theSquareSum,s0,s1,
IDENT_0,IDENT_1,IDENT_2,IDENT_3,

123,
INT_0,







0.0F,
FLOAT_0,






















