testZrem,zadd,zrem,zrange,incr,
METHOD_0,METHOD_1,METHOD_2,METHOD_3,METHOD_4,

redis1,craft,atom,CaseCounter,nextSize,
IDENT_0,IDENT_1,IDENT_2,IDENT_3,IDENT_4,







"c","[CRAFT-ATOM-REDIS] (^_^) <%s> Case -> test zrem. ",
STRING_0,STRING_1,

























