testGetType,ReadOnlyProperty,
METHOD_0,METHOD_1,

mirkosertic,gameengine,ReadOnlyProperty,theProperty,GameResourceType,SOUND,
IDENT_0,IDENT_1,IDENT_2,IDENT_3,IDENT_4,IDENT_5,







"property","default",
STRING_0,STRING_1,

























