testAdd,DoubleMinimum,getLocalValue,
METHOD_0,METHOD_1,METHOD_2,

accumulators,DoubleMinimum,
IDENT_0,IDENT_1,










1234.5768,9876.5432,987.6543,123.4567,
FLOAT_0,FLOAT_1,FLOAT_2,FLOAT_3,






















