getDetailsNull,CreateSecondaryStagingStoreCmd,getDetails,
METHOD_0,METHOD_1,METHOD_2,

CreateSecondaryStagingStoreCmd,cmd,ApiCmdTestUtil,details,
IDENT_0,IDENT_1,IDENT_2,IDENT_3,







"details",
STRING_0,

























