testDeleteValue,getDb,OCommandSQL,deleteValue,OSQLSynchQuery,
METHOD_0,METHOD_1,METHOD_2,METHOD_3,METHOD_4,

OSQLSynchQuery,ODocument,
IDENT_0,IDENT_1,







"INSERT INTO Config SET key = 'testKey4', value = 'testValue4'","testKey4","select * from Config where key = ?",
STRING_0,STRING_1,STRING_2,

























