testLeft,left,lengthSquared,
METHOD_0,METHOD_1,METHOD_2,

susx,mlcl,SparseDoubleVector,Q,byblo,measures,Jaccard,Measures,A,
IDENT_0,IDENT_1,IDENT_2,IDENT_3,IDENT_4,IDENT_5,IDENT_6,IDENT_7,IDENT_8,







"testLeft",
STRING_0,

6.0,
FLOAT_0,






















