testGetDstFile,FileCopyCommand,setDestinationFile,getDestinationFile,
METHOD_0,METHOD_1,METHOD_2,METHOD_3,

susx,mlcl,FileCopyCommand,filesDelegate,
IDENT_0,IDENT_1,IDENT_2,IDENT_3,







"Testing getDstFile() and setDstFile()","x",
STRING_0,STRING_1,

























