testName,AutomationSystemMenu,
METHOD_0,METHOD_1,

mmarquee,automation,controls,menu,AutomationSystemMenu,
IDENT_0,IDENT_1,IDENT_2,IDENT_3,IDENT_4,







"MENU-01",
STRING_0,

























