testMerge_NoDuplicates_Double,adaptTo,merge,
METHOD_0,METHOD_1,METHOD_2,

sling,ModifiableValueMap,propertyMerge,adobe,acs,wcm,metaDataMap,
IDENT_0,IDENT_1,IDENT_2,IDENT_3,IDENT_4,IDENT_5,IDENT_6,







"tenths","hundredths","duplicates","doubles",
STRING_0,STRING_1,STRING_2,STRING_3,

1.1,1.2,3.01,
FLOAT_0,FLOAT_1,FLOAT_2,






















