testRowOf,Row,setField,Tuple2,IndexOutOfBoundsException,
METHOD_0,METHOD_1,METHOD_2,METHOD_3,METHOD_4,

Row,row1,Tuple2,row2,f0,T0,f1,T1,f2,T2,f3,T3,f4,T4,f5,T5,f6,T6,f7,T7,f8,T8,f9,T9,f10,T10,f11,T11,f12,T12,f13,T13,f14,T14,f15,T15,f16,T16,f17,T17,f18,T18,
IDENT_0,IDENT_1,IDENT_2,IDENT_3,IDENT_4,IDENT_5,IDENT_6,IDENT_7,IDENT_8,IDENT_9,IDENT_10,IDENT_11,IDENT_12,IDENT_13,IDENT_14,IDENT_15,IDENT_16,IDENT_17,IDENT_18,IDENT_19,IDENT_20,IDENT_21,IDENT_22,IDENT_23,IDENT_24,IDENT_25,IDENT_26,IDENT_27,IDENT_28,IDENT_29,IDENT_30,IDENT_31,IDENT_32,IDENT_33,IDENT_34,IDENT_35,IDENT_36,IDENT_37,IDENT_38,IDENT_39,IDENT_40,IDENT_41,

2L,11,13,14,17,18,
INT_0,INT_1,INT_2,INT_3,INT_4,INT_5,




"hello","hi",
STRING_0,STRING_1,

























