shouldNotReturnPropertyAsNode,initializeData,getNode,nodeExists,
METHOD_0,METHOD_1,METHOD_2,METHOD_3,










"/a/b/booleanProperty",
STRING_0,

























