existsReturn,getPaths,
METHOD_0,METHOD_1,

paths,mockTracker,fm,last,moji,MojiFileImplTest,KEY,DOMAIN,
IDENT_0,IDENT_1,IDENT_2,IDENT_3,IDENT_4,IDENT_5,IDENT_6,IDENT_7,







"http://localhost:80/",
STRING_0,

























