testInsertRetrieveEmebeddedObjectList,MockObject,MockEmbeddedObject,findOne,
METHOD_0,METHOD_1,METHOD_2,METHOD_3,

mongojack,MockObject,coll,
IDENT_0,IDENT_1,IDENT_2,


































