testInsertRetrieveLong,MockObject,findOne,
METHOD_0,METHOD_1,METHOD_2,

mongojack,MockObject,longs,coll,
IDENT_0,IDENT_1,IDENT_2,IDENT_3,

10L,
INT_0,































