testInsertRetrieveString,MockObject,findOne,
METHOD_0,METHOD_1,METHOD_2,

mongojack,MockObject,coll,
IDENT_0,IDENT_1,IDENT_2,







"a string",
STRING_0,

























