testContains,ExecutableNodeBase,
METHOD_0,METHOD_1,

verdictdb,querying,ExecutableNodeBase,mymap,
IDENT_0,IDENT_1,IDENT_2,IDENT_3,


































