testGenerateGUID,generateGuid,encodeBase64,generateRandomBytes,
METHOD_0,METHOD_1,METHOD_2,METHOD_3,

encodedBytes,mozilla,binary,Base64,gecko,
IDENT_0,IDENT_1,IDENT_2,IDENT_3,IDENT_4,







"+","-","_",
STRING_0,STRING_1,STRING_2,

























