testExec3,newTuple,
METHOD_0,METHOD_1,

pig,Tuple,tupleFactory,inputStr,encodedStr,URLEncoder,outputStr,encoder,
IDENT_0,IDENT_1,IDENT_2,IDENT_3,IDENT_4,IDENT_5,IDENT_6,IDENT_7,







"foochrome://global/locale/intl.propertiesbar","UTF-8",
STRING_0,STRING_1,

























