testNotFoundPropertyName,getValues,
METHOD_0,METHOD_1,

bindings,multiFieldPanelWCMUse,
IDENT_0,IDENT_1,







"location","notFoundPropertyName",
STRING_0,STRING_1,

























