testListOrders,findOrders,Order,listOrders,
METHOD_0,METHOD_1,METHOD_2,METHOD_3,

orderRepository,biz,paluch,clean,architecture,applicationmodel,sut,
IDENT_0,IDENT_1,IDENT_2,IDENT_3,IDENT_4,IDENT_5,IDENT_6,


































