returnsV1Tag,ID3v1TagForTesting,ID3v2TagForTesting,ID3Wrapper,getId3v1Tag,
METHOD_0,METHOD_1,METHOD_2,METHOD_3,METHOD_4,

mpatric,mp3agic,ID3v1,id3v1Tag,ID3WrapperTest,ID3v2,id3v2Tag,ID3Wrapper,wrapper,
IDENT_0,IDENT_1,IDENT_2,IDENT_3,IDENT_4,IDENT_5,IDENT_6,IDENT_7,IDENT_8,


































