getGenreReturnsV1TagsGenreIfV2TagDoesNotExist,ID3v1TagForTesting,setGenre,ID3Wrapper,getGenre,
METHOD_0,METHOD_1,METHOD_2,METHOD_3,METHOD_4,

mpatric,mp3agic,ID3v1,id3v1Tag,ID3WrapperTest,ID3Wrapper,wrapper,id3v2Tag,
IDENT_0,IDENT_1,IDENT_2,IDENT_3,IDENT_4,IDENT_5,IDENT_6,IDENT_7,


































