ID3v2PopmFrameDataIsNotEqualNull,ID3v2PopmFrameData,
METHOD_0,METHOD_1,

mpatric,mp3agic,ID3v2PopmFrameData,iD3v2PopmFrameData,ID3v2CommentFrameData,comment,language,
IDENT_0,IDENT_1,IDENT_2,IDENT_3,IDENT_4,IDENT_5,IDENT_6,


































