compareVersionString1_2,compareVersionString,parseInt,
METHOD_0,METHOD_1,METHOD_2,

firstVersionParts,firstVersionOne,secondVersionParts,secondVersion,firstPart,secondPart,
IDENT_0,IDENT_1,IDENT_2,IDENT_3,IDENT_4,IDENT_5,







"\\.",
STRING_0,

























