clearsCommentOnV1Tag,ID3v1TagForTesting,setComment,ID3Wrapper,clearComment,getComment,
METHOD_0,METHOD_1,METHOD_2,METHOD_3,METHOD_4,METHOD_5,

mpatric,mp3agic,ID3v1,id3v1Tag,ID3WrapperTest,ID3Wrapper,wrapper,comment,
IDENT_0,IDENT_1,IDENT_2,IDENT_3,IDENT_4,IDENT_5,IDENT_6,IDENT_7,







"a comment",
STRING_0,

























