test33,Proto,build_fixed_str,get_fixed_str,arraylist_to_array,arraycopy,
METHOD_0,METHOD_1,METHOD_2,METHOD_3,METHOD_4,METHOD_5,

mpjct,jmpjct,mysql,proto,Proto,
IDENT_0,IDENT_1,IDENT_2,IDENT_3,IDENT_4,


































