parseExportsMultipleExports,Module,getExports,
METHOD_0,METHOD_1,METHOD_2,

atlassian,labs,speakeasy,commonjs,Module,exports,
IDENT_0,IDENT_1,IDENT_2,IDENT_3,IDENT_4,IDENT_5,







"foo.js","/**\n"," * Some method\n"," */\n","exports.foo = bar;"," * Another method\n","exports.baz = bar;",
STRING_0,STRING_1,STRING_2,STRING_3,STRING_4,STRING_5,STRING_6,

























