testUnwrapForPrimitiveTypes,keySet,unwrap,isPrimitive,isWrapper,
METHOD_0,METHOD_1,METHOD_2,METHOD_3,METHOD_4,

primitiveClass,cz,zcu,kiv,jop,PrimitiveUtilsTest,primitivesMap,PrimitiveUtils,c10,c12,primitives,
IDENT_0,IDENT_1,IDENT_2,IDENT_3,IDENT_4,IDENT_5,IDENT_6,IDENT_7,IDENT_8,IDENT_9,IDENT_10,

118,
INT_0,































