varsCleared,getEventBuilder,addVariable,clearVariables,getVariables,
METHOD_0,METHOD_1,METHOD_2,METHOD_3,METHOD_4,

CoreEvent,baseEventWithVars,newEvent,variables,
IDENT_0,IDENT_1,IDENT_2,IDENT_3,







"whatever",
STRING_0,

























