testWithEscapedCharactersOnly,WildcardAttributeEvaluator,hasWildcards,
METHOD_0,METHOD_1,METHOD_2,

WildcardAttributeEvaluator,wildcardAttributeEvaluator,
IDENT_0,IDENT_1,







"\\*",
STRING_0,

























