testTimes,arrayTimes,arrayRightDivideEquals,checkFloatMatrixDimensions,
METHOD_0,METHOD_1,METHOD_2,METHOD_3,

jama,Matrix,C,A,B,FloatMatrix,
IDENT_0,IDENT_1,IDENT_2,IDENT_3,IDENT_4,IDENT_5,


































