getRevision,
METHOD_0,

mycore,MCRCoreVersion,
IDENT_0,IDENT_1,







"Revision is not a SHA1 hash: ","[a-fA-F0-9]{40}",
STRING_0,STRING_1,

























