testGetRoles,getRoles,
METHOD_0,METHOD_1,

roles,hibernateTemplate,
IDENT_0,IDENT_1,







"Retrieving all role names...","from Role order by name",
STRING_0,STRING_1,

























