testMemAlloc,getBuffer,flip,remaining,free,
METHOD_0,METHOD_1,METHOD_2,METHOD_3,METHOD_4,

byteBuffer,src,rangeCounters,
IDENT_0,IDENT_1,IDENT_2,

10000,8194,
INT_0,INT_1,




"helll world",
STRING_0,

























