testEmptyString,markdown,TextEditor,detabify,deleteAll,hashHTMLBlocks,stripLinkDefinitions,runBlockGamut,unEscapeSpecialChars,
METHOD_0,METHOD_1,METHOD_2,METHOD_3,METHOD_4,METHOD_5,METHOD_6,METHOD_7,METHOD_8,

txt,markdownj,TextEditor,
IDENT_0,IDENT_1,IDENT_2,







"\\r\\n","\\r","^[ \\t]+$","\n\n","^[ ]+$",
STRING_0,STRING_1,STRING_2,STRING_3,STRING_4,

























