CorrectOrder,findInstances,alias,$,orderBy,getFirstName,asc,
METHOD_0,METHOD_1,METHOD_2,METHOD_3,METHOD_4,METHOD_5,METHOD_6,

mysema,rdfbean,domains,UserDomain,alias,Alias,firstName,
IDENT_0,IDENT_1,IDENT_2,IDENT_3,IDENT_4,IDENT_5,IDENT_6,







"C","A","D","B","user",
STRING_0,STRING_1,STRING_2,STRING_3,STRING_4,

























