MappedClass_Has_IdProperty,getMappedClasses,getIdProperty,
METHOD_0,METHOD_1,METHOD_2,

mysema,rdfbean,MappedClass,mappedClass,idProperty,
IDENT_0,IDENT_1,IDENT_2,IDENT_3,IDENT_4,


































