GetPredicateSTMT,createStatement,getPredicate,
METHOD_0,METHOD_1,METHOD_2,

mysema,rdfbean,STMT,dialect,RDFS,label,RDF,Property,
IDENT_0,IDENT_1,IDENT_2,IDENT_3,IDENT_4,IDENT_5,IDENT_6,IDENT_7,


































