Clear,isDebugEnabled,
METHOD_0,METHOD_1,

mysema,rdfbean,SPARQLUpdate,clear,ID,UID,NODE,MiniConnection,predicate,
IDENT_0,IDENT_1,IDENT_2,IDENT_3,IDENT_4,IDENT_5,IDENT_6,IDENT_7,IDENT_8,







"CLEAR","exists ",
STRING_0,STRING_1,

























