should_add_a_wall,Wall,WallHolderService,
METHOD_0,METHOD_1,METHOD_2,

norad,visuwall,WallDAO,wallService,WallProcess,wallProcess,Wall,wall,wallHolderService,wallDAO,findWall,
IDENT_0,IDENT_1,IDENT_2,IDENT_3,IDENT_4,IDENT_5,IDENT_6,IDENT_7,IDENT_8,IDENT_9,IDENT_10,







"mywall",
STRING_0,

























