should_not_be_equal,QualityMeasure,
METHOD_0,METHOD_1,

norad,visuwall,quality,QualityMeasure,qm1,qm2,xebia,librestry,Book,Objects,title,
IDENT_0,IDENT_1,IDENT_2,IDENT_3,IDENT_4,IDENT_5,IDENT_6,IDENT_7,IDENT_8,IDENT_9,IDENT_10,







"percent",
STRING_0,

























