testNullData,createClient,await,getCount,
METHOD_0,METHOD_1,METHOD_2,METHOD_3,

zookeeper,ZooKeeper,zk,Ids,OPEN_ACL_UNSAFE,CreateMode,PERSISTENT,cn,SECONDS,
IDENT_0,IDENT_1,IDENT_2,IDENT_3,IDENT_4,IDENT_5,IDENT_6,IDENT_7,IDENT_8,







"/SIZE",
STRING_0,

























