testEvaluationPhraseBasic3FavorContentOrderedFunction,buildFunction,createExpression,TermFrequencyList,immutableEntry,Zone,
METHOD_0,METHOD_1,METHOD_2,METHOD_3,METHOD_4,METHOD_5,

ContentFunctions,CONTENT_PHRASE_FUNCTION_NAME,TERM_OFFSET_MAP_JEXL_VARIABLE_NAME,jexl2,Expression,datawave,jexl,functions,ContentFunctionsTest,ingest,protobuf,TermWeightPosition,list1,list2,list3,termOffSetMap,Maps,eventId,FALSE,
IDENT_0,IDENT_1,IDENT_2,IDENT_3,IDENT_4,IDENT_5,IDENT_6,IDENT_7,IDENT_8,IDENT_9,IDENT_10,IDENT_11,IDENT_12,IDENT_13,IDENT_14,IDENT_15,IDENT_16,IDENT_17,IDENT_18,

11,13,17,19,21,23,25,27,29,31,33,35,37,39,14,18,22,24,26,28,30,32,34,36,38,40,41,42,43,44,45,46,47,48,49,51,52,53,54,55,56,57,58,59,60,61,
INT_0,INT_1,INT_2,INT_3,INT_4,INT_5,INT_6,INT_7,INT_8,INT_9,INT_10,INT_11,INT_12,INT_13,INT_14,INT_15,INT_16,INT_17,INT_18,INT_19,INT_20,INT_21,INT_22,INT_23,INT_24,INT_25,INT_26,INT_27,INT_28,INT_29,INT_30,INT_31,INT_32,INT_33,INT_34,INT_35,INT_36,INT_37,INT_38,INT_39,INT_40,INT_41,INT_42,INT_43,INT_44,INT_45,




"'dog'","'cat'","'fish'","dog","CONTENT","cat","fish",
STRING_0,STRING_1,STRING_2,STRING_3,STRING_4,STRING_5,STRING_6,

























