testRange,parseJexlQuery,getNodeHash,TreeHashVisitor,TreeHashNode,jjtAccept,
METHOD_0,METHOD_1,METHOD_2,METHOD_3,METHOD_4,METHOD_5,

jexl2,JexlNode,queryA,datawave,jexl,JexlASTHelper,queryB,visitors,TreeHashVisitor,vis,TreeHashNode,inte,
IDENT_0,IDENT_1,IDENT_2,IDENT_3,IDENT_4,IDENT_5,IDENT_6,IDENT_7,IDENT_8,IDENT_9,IDENT_10,IDENT_11,







"FOO >= 'abc' && FOO >= 'bcd'","FOO >= 'bcd' && FOO >= 'abc'",
STRING_0,STRING_1,

























