testUnknownOperation,TcpDecoder,wrappedBuffer,
METHOD_0,METHOD_1,METHOD_2,

timely,tcp,TcpDecoder,decoder,ByteBuf,Unpooled,responses,
IDENT_0,IDENT_1,IDENT_2,IDENT_3,IDENT_4,IDENT_5,IDENT_6,


































