testEnumToInt,MyEnumToInt,
METHOD_0,METHOD_1,

bridj,ValuedEnumTest,MyEnum,Two,expectedInt,nTests,
IDENT_0,IDENT_1,IDENT_2,IDENT_3,IDENT_4,IDENT_5,


































