valid_fail2,
METHOD_0,

argument,ServletResponse,namespace,navercorp,pinpoint,HbaseNamespaceValidator,VALID_NAMESPACE,
IDENT_0,IDENT_1,IDENT_2,IDENT_3,IDENT_4,IDENT_5,IDENT_6,


































