testGetTimeSlot,getTimeSlot,
METHOD_0,METHOD_1,

currentTime,timeSlot,slf4j,Marker,marker,
IDENT_0,IDENT_1,IDENT_2,IDENT_3,IDENT_4,







"{} currentTime ","{} timeSlot",
STRING_0,STRING_1,

























