parse2,OracleNetConnectionDescriptorParser,Description,setServiceName,addAddress,Address,
METHOD_0,METHOD_1,METHOD_2,METHOD_3,METHOD_4,METHOD_5,

rac,navercorp,pinpoint,oracle,OracleNetConnectionDescriptorParser,KeyValue,keyValue,Description,addressList,
IDENT_0,IDENT_1,IDENT_2,IDENT_3,IDENT_4,IDENT_5,IDENT_6,IDENT_7,IDENT_8,







"jdbc:oracle:thin:@(DESCRIPTION=(LOAD_BALANCE = off )","(ADDRESS = ( PROTOCOL = TCP)(HOST = 1.2.3.4 ) (PORT = 1521 ))","(ADDRESS = (PROTOCOL = TCP ) (HOST = 1.2.3.5) ( PORT = 1522 ))"," ( CONNECT_DATA = ( SERVICE_NAME = service ) ) )","service","tcp","1.2.3.4","1521","1.2.3.5","1522",
STRING_0,STRING_1,STRING_2,STRING_3,STRING_4,STRING_5,STRING_6,STRING_7,STRING_8,STRING_9,

























