testGetClassFile_SystemClassLoader,getClassFile,getClassLoader,
METHOD_0,METHOD_1,METHOD_2,

stringClass,stringClassBytes,navercorp,pinpoint,profiler,BytecodeUtils,
IDENT_0,IDENT_1,IDENT_2,IDENT_3,IDENT_4,IDENT_5,


































