testClassifier,resolveDependencySets,
METHOD_0,METHOD_1,

navercorp,pinpoint,DependencyResolver,aether,artifact,Artifact,sets,
IDENT_0,IDENT_1,IDENT_2,IDENT_3,IDENT_4,IDENT_5,IDENT_6,







"net.sf.json-lib:json-lib:jar:jdk15:2.4",
STRING_0,

























