testIntValue,callBuilder,methodResponse,valueNode,
METHOD_0,METHOD_1,METHOD_2,METHOD_3,

textContent,
IDENT_0,







"i4","100","<value><%s>%s</%s></value>",
STRING_0,STRING_1,STRING_2,

























