testBase64Value,callBuilder,methodResponse,valueNode,
METHOD_0,METHOD_1,METHOD_2,METHOD_3,

ENCODED_TEXT,ORIGINAL_TEXT,textContent,
IDENT_0,IDENT_1,IDENT_2,







"VGhpcyBpcyBhIGJhc2U2NCBlbmNvZGVkIHRleHQ=","This is a base64 encoded text","base64","<value><%s>%s</%s></value>",
STRING_0,STRING_1,STRING_2,STRING_3,

























