addLastLenTest,initBuffer4,ChainBuffer,addLast,gets,
METHOD_0,METHOD_1,METHOD_2,METHOD_3,METHOD_4,

krakenapps,pcap,Buffer,buffer4,testArray13,testArray14,testArray15,testArray16,skip,
IDENT_0,IDENT_1,IDENT_2,IDENT_3,IDENT_4,IDENT_5,IDENT_6,IDENT_7,IDENT_8,

71,72,73,74,75,76,77,78,79,80,81,82,83,84,85,86,87,88,89,41,
INT_0,INT_1,INT_2,INT_3,INT_4,INT_5,INT_6,INT_7,INT_8,INT_9,INT_10,INT_11,INT_12,INT_13,INT_14,INT_15,INT_16,INT_17,INT_18,INT_19,































