getsTest4,initBuffer2,gets,
METHOD_0,METHOD_1,METHOD_2,

krakenapps,pcap,Buffer,testb,off,
IDENT_0,IDENT_1,IDENT_2,IDENT_3,IDENT_4,


































