testIsEmpty,between,LongMinPriorityQueue,
METHOD_0,METHOD_1,METHOD_2,

capacity,carrotsearch,randomizedtesting,RandomizedTest,graphalgo,LongMinPriorityQueue,
IDENT_0,IDENT_1,IDENT_2,IDENT_3,IDENT_4,IDENT_5,


































