testSortByTarget,testData,radixSort2,newCopy,newHistogram,expectedByTarget,
METHOD_0,METHOD_1,METHOD_2,METHOD_3,METHOD_4,METHOD_5,

graphalgo,huge,RadixSortTest,RadixSort,
IDENT_0,IDENT_1,IDENT_2,IDENT_3,

25,25L,52,63,44,62,34,57,11,10L,13,14,17,18,19,21,22,23,24,
INT_0,INT_1,INT_2,INT_3,INT_4,INT_5,INT_6,INT_7,INT_8,INT_9,INT_10,INT_11,INT_12,INT_13,INT_14,INT_15,INT_16,INT_17,INT_18,































