shouldRemoveDoubleNegation,methodReference,not,
METHOD_0,METHOD_1,METHOD_2,

codegen,Expression,MethodReference,
IDENT_0,IDENT_1,IDENT_2,







"TRUE","not(",")",
STRING_0,STRING_1,STRING_2,

























