testBefriendUsers,register,addFriend,getUserFromSession,findUserByProperty,getFriends,
METHOD_0,METHOD_1,METHOD_2,METHOD_3,METHOD_4,METHOD_5,

cineasts,userRepository,you,loaded,friends,
IDENT_0,IDENT_1,IDENT_2,IDENT_3,IDENT_4,







"me","you","login",
STRING_0,STRING_1,STRING_2,

























