shouldReturnNoResultsOnEmptyIndex,seek,MutableLong,
METHOD_0,METHOD_1,METHOD_2,

gbptree,GBPTree,MutableLong,cursor,RawCursor,Hit,entries,
IDENT_0,IDENT_1,IDENT_2,IDENT_3,IDENT_4,IDENT_5,IDENT_6,


































