shouldNotReturnAnyElementOnSupplierWithOneEmptyArray,ContinuableArrayCursor,supply,
METHOD_0,METHOD_1,METHOD_2,

ContinuableArrayCursor,cursor,
IDENT_0,IDENT_1,


































