shouldAllowReuseOfConfiguredInstanceIdAfterShutdown,Kernel,shutdown,instanceId,
METHOD_0,METHOD_1,METHOD_2,METHOD_3,

KernelDataTest,
IDENT_0,







"myInstance",
STRING_0,

























