shouldSerialiseToMap,noderep,verifySerialisation,NodeRepresentation,
METHOD_0,METHOD_1,METHOD_2,METHOD_3,

repr,RepresentationTestAccess,NodeRepresentationTest,
IDENT_0,IDENT_1,IDENT_2,

1234,
INT_0,




"Label",
STRING_0,

























