testToString,WorldCoordinate,
METHOD_0,METHOD_1,

layerId,mudmap2,WorldCoordinate,
IDENT_0,IDENT_1,IDENT_2,







"toString",
STRING_0,

4.3,5.2,
FLOAT_0,FLOAT_1,






















