createTypeFromClass,getRawType,
METHOD_0,METHOD_1,

baidu,unbiz,easymapper,TypeFactory,
IDENT_0,IDENT_1,IDENT_2,IDENT_3,







"java.util.List",
STRING_0,

























