shouldAllowDefaultCharsetToBeSet,setCharset,defaultCharset,getCharset,
METHOD_0,METHOD_1,METHOD_2,METHOD_3,

Resources,charset,Charset,
IDENT_0,IDENT_1,IDENT_2,


































