testListDirNotExist,listDir,
METHOD_0,METHOD_1,

prefix,xqbase,etcd4j,EtcdNode,
IDENT_0,IDENT_1,IDENT_2,IDENT_3,







"/listdirnotexist",
STRING_0,

























