shouldSendHttp200IfAllIsWell,givenThisConfiguration,doGet,
METHOD_0,METHOD_1,METHOD_2,

servletConfig,attributeName,
IDENT_0,IDENT_1,







"{\n"," \"modelPackages\": [\"com.github.valdr.model.b\"],\n"," \"corsAllowOriginPattern\": \"abc.com\"\n","}",
STRING_0,STRING_1,STRING_2,STRING_3,

























