testRejectCookieValueWithSemicolon,
METHOD_0,

cookie,Cookie,cookies,ServerCookieDecoder,STRICT,pseudoHeaders,otherHeaders,
IDENT_0,IDENT_1,IDENT_2,IDENT_3,IDENT_4,IDENT_5,IDENT_6,







"name=\"foo;bar\";",
STRING_0,

























