testCopy,allocate,putLong,flip,asReadOnlyBuffer,copy,release,
METHOD_0,METHOD_1,METHOD_2,METHOD_3,METHOD_4,METHOD_5,METHOD_6,

ByteBuf,copy,
IDENT_0,IDENT_1,


































