testTestFile,getCanonicalPath,HDFSDataStream,configure,open,
METHOD_0,METHOD_1,METHOD_2,METHOD_3,METHOD_4,

testFile,flume,sink,HDFSDataStream,
IDENT_0,IDENT_1,IDENT_2,IDENT_3,







"hdfs.useRawLocalFileSystem","true",
STRING_0,STRING_1,

























