testIgnoreEmptyPath,
METHOD_0,

emptyPath,cookie,Cookie,ClientCookieDecoder,STRICT,
IDENT_0,IDENT_1,IDENT_2,IDENT_3,IDENT_4,







"sessionid=OTY4ZDllNTgtYjU3OC00MWRjLTkzMWMtNGUwNzk4MTY0MTUw;Domain=;Path=",
STRING_0,

























