pingAckFrameShouldMatch,writePing,newPromise,readFrames,forClass,onPingAckRead,capture,
METHOD_0,METHOD_1,METHOD_2,METHOD_3,METHOD_4,METHOD_5,METHOD_6,

ArgumentCaptor,captor,
IDENT_0,IDENT_1,

1234567,
INT_0,































