testReduceMaxDynamicTableSize,setMaxHeaderTableSize,getMaxHeaderTableSize,capacity,
METHOD_0,METHOD_1,METHOD_2,METHOD_3,

hpackDecoder,hpackDynamicTable,
IDENT_0,IDENT_1,







"2081",
STRING_0,

























