shouldApplyCustomLogLevel,LoggingHandler,level,
METHOD_0,METHOD_1,METHOD_2,

LoggingHandler,LogLevel,INFO,
IDENT_0,IDENT_1,IDENT_2,


































