testDecorateExecutor,Runnable,currentExecutor,
METHOD_0,METHOD_1,METHOD_2,

Executor,ThreadExecutorMap,ImmediateExecutor,ImmediateEventExecutor,mappings,
IDENT_0,IDENT_1,IDENT_2,IDENT_3,IDENT_4,


































