loadConfig,getJsonObjectConfig,getEncoders,
METHOD_0,METHOD_1,METHOD_2,

networknt,ResponseEncodeConfig,Config,CONFIG_NAME,encoders,
IDENT_0,IDENT_1,IDENT_2,IDENT_3,IDENT_4,


































