testHandler,CountingChannelPoolHandler,SimpleChannelPool,Bootstrap,
METHOD_0,METHOD_1,METHOD_2,METHOD_3,

ChannelPoolHandler,SimpleChannelPool,bootstrap,
IDENT_0,IDENT_1,IDENT_2,


































