testArrayFromSingle,getBeans,
METHOD_0,METHOD_1,

networknt,A,SingletonServiceFactory,serviceMap,interfaceClass,Array,
IDENT_0,IDENT_1,IDENT_2,IDENT_3,IDENT_4,IDENT_5,


































