classWithNamedParams_constructed_setsParams,construct,
METHOD_0,METHOD_1,

testName,constructMap,networknt,GImpl,ServiceUtil,
IDENT_0,IDENT_1,IDENT_2,IDENT_3,IDENT_4,







"Nick","com.networknt.service.GImpl",
STRING_0,STRING_1,

























