testGetWeight,Connection,getWeight,
METHOD_0,METHOD_1,METHOD_2,

neuroph,Connection,fromNeuron,toNeuron,weight,
IDENT_0,IDENT_1,IDENT_2,IDENT_3,IDENT_4,










0.777,
FLOAT_0,






















