testDifferentCasing,sortAndTest,sort,
METHOD_0,METHOD_1,METHOD_2,

sortedArray,sortedList,
IDENT_0,IDENT_1,







"aaa","AAA","bbb","BBB",
STRING_0,STRING_1,STRING_2,STRING_3,

























