testOCFilesWithFolderFirst,OCFile,setFolder,sortAndTest,sort,
METHOD_0,METHOD_1,METHOD_2,METHOD_3,METHOD_4,

owncloud,OCFile,sortedArray,sortedList,
IDENT_0,IDENT_1,IDENT_2,IDENT_3,







"/ah.txt","/h.txt","/oh.txt","/uh.txt","/h 2.txt",
STRING_0,STRING_1,STRING_2,STRING_3,STRING_4,

























