testGetWeightedInput,Connection,setOutput,getWeightedInput,getOutput,
METHOD_0,METHOD_1,METHOD_2,METHOD_3,METHOD_4,

neuroph,Connection,fromNeuron,toNeuron,weight,
IDENT_0,IDENT_1,IDENT_2,IDENT_3,IDENT_4,










0.5,0.25,
FLOAT_0,FLOAT_1,






















