test1,createLitePool,TestObject2,getConfig,setValidation,PoolValidation,setValidator,acquire,stop,getTimeout,
METHOD_0,METHOD_1,METHOD_2,METHOD_3,METHOD_4,METHOD_5,METHOD_6,METHOD_7,METHOD_8,METHOD_9,

cn,nextop,lite,Pool,TestObject2,valid,RELEASE,ACQUIRE,PULSE,MILLISECONDS,
IDENT_0,IDENT_1,IDENT_2,IDENT_3,IDENT_4,IDENT_5,IDENT_6,IDENT_7,IDENT_8,IDENT_9,

5000,10000,4000,500,
INT_0,INT_1,INT_2,INT_3,































