longNumber,toPlainString,deserialize,
METHOD_0,METHOD_1,METHOD_2,

check,plainForm,dslplatform,DslJson,Common,t1,t2,
IDENT_0,IDENT_1,IDENT_2,IDENT_3,IDENT_4,IDENT_5,IDENT_6,







"0.123456789012345678901234567890123456789012345678901234567890123456789","UTF-8",
STRING_0,STRING_1,

























