testDelete_NodeDoesntExist,deleteNode,
METHOD_0,METHOD_1,

lilyproject,zookeeper,ZkUtil,ZkUtilTest,ZK,watch,
IDENT_0,IDENT_1,IDENT_2,IDENT_3,IDENT_4,IDENT_5,







"/testDelete/NodeDoesntExist",
STRING_0,

























