testSleepSwitchesNoTime,testSleepSwitches,
METHOD_0,METHOD_1,

violet,SleepTime,SleepSwitch,theSwitches,StringShop,EMPTY_STRING,mSet,
IDENT_0,IDENT_1,IDENT_2,IDENT_3,IDENT_4,IDENT_5,IDENT_6,


































