testEncodeChar,increment,isBmpCodePoint,
METHOD_0,METHOD_1,METHOD_2,

digits,fop,HexEncoderTestCase,CharUtilities,HexEncoder,
IDENT_0,IDENT_1,IDENT_2,IDENT_3,IDENT_4,

65535,
INT_0,




'0',
STRING_0,

























