testGetPdfPageCount,getPdfPageCount,
METHOD_0,METHOD_1,

tess4j,PdfUtilitiesTest,inputPdfFile,TEST_RESOURCES_DATA_PATH,PdfUtilities,
IDENT_0,IDENT_1,IDENT_2,IDENT_3,IDENT_4,







"getPdfPageCount","multipage-pdf.pdf",
STRING_0,STRING_1,

























