shouldSaveAPerson,setFirstName,setLastName,
METHOD_0,METHOD_1,METHOD_2,

demo,personDao,
IDENT_0,IDENT_1,







"Andy","Gibson",
STRING_0,STRING_1,

























