testChangePositionHalf,valueChanged,bindToView,
METHOD_0,METHOD_1,METHOD_2,

sliderView,slider,sliderImpl,
IDENT_0,IDENT_1,IDENT_2,










0.5F,
FLOAT_0,






















