testThatBuilderRejectsNullValues,checkNotNull,
METHOD_0,METHOD_1,

gotException,ninja,Cookie,NullPointerException,nullPointerException,Preconditions,
IDENT_0,IDENT_1,IDENT_2,IDENT_3,IDENT_4,IDENT_5,


































