intValidationShouldWork,getParameter,intParam,hasFieldViolation,getFieldViolations,
METHOD_0,METHOD_1,METHOD_2,METHOD_3,METHOD_4,

mockController,
IDENT_0,







"param1","blah","intParam",
STRING_0,STRING_1,STRING_2,

























