primLongValidationShouldWork,getParameter,primLongParam,hasViolation,
METHOD_0,METHOD_1,METHOD_2,METHOD_3,

mockController,violations,paramName,
IDENT_0,IDENT_1,IDENT_2,







"param1","blah","primLongParam",
STRING_0,STRING_1,STRING_2,

























