testRenderPictureFromBytes,ok,contentType,renderRaw,handleResult,getContentType,
METHOD_0,METHOD_1,METHOD_2,METHOD_3,METHOD_4,METHOD_5,

toRender,contentType,ninja,Results,resultHandler,
IDENT_0,IDENT_1,IDENT_2,IDENT_3,IDENT_4,







"image/png",
STRING_0,

























