testFitsFactoryUnknown,HDUFactory,hduFactory,
METHOD_0,METHOD_1,METHOD_2,

nom,tam,fits,FitsFactory,
IDENT_0,IDENT_1,IDENT_2,IDENT_3,


































