testVoidBaseLength,getBaseLength,getBaseClass,
METHOD_0,METHOD_1,METHOD_2,

nom,tam,PrimitiveType,PrimitiveTypeHandler,ArrayFuncs,
IDENT_0,IDENT_1,IDENT_2,IDENT_3,IDENT_4,


































