testNoArray,BufferedDataInputStream,readLArray,
METHOD_0,METHOD_1,METHOD_2,

nom,tam,BufferedDataInputStream,bf,bufferDecoder,
IDENT_0,IDENT_1,IDENT_2,IDENT_3,IDENT_4,


































