testReadFully2,BufferedFile,readFully,
METHOD_0,METHOD_1,METHOD_2,

nom,tam,BufferedFile,fully,bufferDecoder,off,
IDENT_0,IDENT_1,IDENT_2,IDENT_3,IDENT_4,IDENT_5,







"target/BufferedFileReadFully2","rw",
STRING_0,STRING_1,

























