testEqualArrayCopy,copyInto,MultiArrayCopier,
METHOD_0,METHOD_1,METHOD_2,

testArray,index2,testArrayCopy,nom,tam,MultiArrayCopier,fromArray,
IDENT_0,IDENT_1,IDENT_2,IDENT_3,IDENT_4,IDENT_5,IDENT_6,


































