testFindTrackShortcut,assumeTrue,isReachable,findTrack,
METHOD_0,METHOD_1,METHOD_2,METHOD_3,

Assume,voidplus,soundcloud,SoundCloudTest,login,Track,tracks,sc,title,
IDENT_0,IDENT_1,IDENT_2,IDENT_3,IDENT_4,IDENT_5,IDENT_6,IDENT_7,IDENT_8,







"/tracks","I love you","tracks","q",
STRING_0,STRING_1,STRING_2,STRING_3,

























