testIteratorNextWithCount,TestCursorValue,
METHOD_0,METHOD_1,

nom,tam,HashedList,HashedListTest,TestCursorValue,h,cursorValue,
IDENT_0,IDENT_1,IDENT_2,IDENT_3,IDENT_4,IDENT_5,IDENT_6,







"K1","R1","K2","R2","K3","R3",
STRING_0,STRING_1,STRING_2,STRING_3,STRING_4,STRING_5,

























