testScalarEncoder,setUp,initSE,
METHOD_0,METHOD_1,METHOD_2,

se,Encoder,SENTINEL_VALUE_FOR_MISSING_DATA,
IDENT_0,IDENT_1,IDENT_2,

14,
INT_0,




"\nEncoded missing data as: ",
STRING_0,

























