testToStringTransformation,closed,integers,newHashSet,
METHOD_0,METHOD_1,METHOD_2,METHOD_3,

origin,ints,numberfour,n4js,Arrays2,grammarContent,strb,
IDENT_0,IDENT_1,IDENT_2,IDENT_3,IDENT_4,IDENT_5,IDENT_6,







"3",'\n',"\\n",'\r',"\\r",'\t',"\\t",
STRING_0,STRING_1,STRING_2,STRING_3,STRING_4,STRING_5,STRING_6,

























