testString2Email,Email,toStatement,getParamMatrix,toPreparedStatement,
METHOD_0,METHOD_1,METHOD_2,METHOD_3,METHOD_4,

nutz,Email,
IDENT_0,IDENT_1,







"zozoh@263.net",
STRING_0,

























