fetchLinks_with_cnd,Master,Pet,setAge,setPets,insertWith,fetch,fetchLinks,where,getPets,
METHOD_0,METHOD_1,METHOD_2,METHOD_3,METHOD_4,METHOD_5,METHOD_6,METHOD_7,METHOD_8,METHOD_9,

nutz,Pet,Master,master,petA,petB,Cnd,pets,
IDENT_0,IDENT_1,IDENT_2,IDENT_3,IDENT_4,IDENT_5,IDENT_6,IDENT_7,

31,30,
INT_0,INT_1,




"zozoh","wendal","pangwu","age","=",
STRING_0,STRING_1,STRING_2,STRING_3,STRING_4,

























