test_simple_map,fromJson,toJson,compact,setQuoteName,
METHOD_0,METHOD_1,METHOD_2,METHOD_3,METHOD_4,

nutz,Json,JsonFormat,Function,quoteName,
IDENT_0,IDENT_1,IDENT_2,IDENT_3,IDENT_4,







"{name:\"张志昊\"}",
STRING_0,

























