itCanGetEnrichersFromTheService,getEnrichers,
METHOD_0,METHOD_1,

automation,enricher,ContentEnricher,cts,rcs,vars,
IDENT_0,IDENT_1,IDENT_2,IDENT_3,IDENT_4,IDENT_5,


































