testArraysJoinSimple1,intersect,
METHOD_0,METHOD_1,

a1,a2,ArrayUtils,item1,item2,
IDENT_0,IDENT_1,IDENT_2,IDENT_3,IDENT_4,







"c","d",
STRING_0,STRING_1,

























