testArrayPropertyNullDirty,getArrayProperty,clearDirtyFlags,isDirty,
METHOD_0,METHOD_1,METHOD_2,METHOD_3,

ArrayProperty,listDiff,
IDENT_0,IDENT_1,







"test1",
STRING_0,

























