testClearComplexPropertyBeforeSetDefault,getClearComplexPropertyBeforeSet,
METHOD_0,METHOD_1,

clearComplexPropertyBeforeSet,schemaManager,
IDENT_0,IDENT_1,


































