canSetAndGetSimpleWrappedParameters,wrap,open,getParameter,
METHOD_0,METHOD_1,METHOD_2,METHOD_3,

RenderingContext,CtxBuilder,Closeable,TestRenderingContext,PARAM,VALUE1,
IDENT_0,IDENT_1,IDENT_2,IDENT_3,IDENT_4,IDENT_5,


































