testCmdExecption,execCommand,getErrorMessage,
METHOD_0,METHOD_1,METHOD_2,

cles,commandline,CommandNotAvailable,availability,
IDENT_0,IDENT_1,IDENT_2,IDENT_3,







"IDon'tExist","No Exception has been raised",
STRING_0,STRING_1,

























