testIsWcInPort,BasicFlowMatch,setInPort,isWcInPort,
METHOD_0,METHOD_1,METHOD_2,METHOD_3,

o3project,odenos,basic,wcInPort,
IDENT_0,IDENT_1,IDENT_2,IDENT_3,







"port_a_01",
STRING_0,

























