testGetEdgeNodeId,setInternalState,getEdgeNodeId,
METHOD_0,METHOD_1,METHOD_2,

edgeNodeId,powermock,Whitebox,
IDENT_0,IDENT_1,IDENT_2,







"edgenode01","edgeNodeId",
STRING_0,STRING_1,

























