testEqualsSameObject,getSubscriberId,
METHOD_0,METHOD_1,

target2,o3project,odenos,remoteobject,EventSubscription,eventSubscription,subscriberId,
IDENT_0,IDENT_1,IDENT_2,IDENT_3,IDENT_4,IDENT_5,IDENT_6,


































