testGetSetting,ObjectSettings,setInternalState,getSetting,
METHOD_0,METHOD_1,METHOD_2,METHOD_3,

o3project,odenos,remoteobject,powermock,Whitebox,settings,
IDENT_0,IDENT_1,IDENT_2,IDENT_3,IDENT_4,IDENT_5,







"key","val","settings",
STRING_0,STRING_1,STRING_2,

























