testEventSubscriptionString,EventSubscription,getSubscriberId,
METHOD_0,METHOD_1,METHOD_2,

target2,o3project,odenos,remoteobject,subscriberId,
IDENT_0,IDENT_1,IDENT_2,IDENT_3,IDENT_4,







"subscriber_id",
STRING_0,

























