testIsFinalizeStateNotFinalizing,clone,invokeMethod,Stats,
METHOD_0,METHOD_1,METHOD_2,METHOD_3,

o3project,odenos,remoteobject,ObjectProperty,prop,powermock,Whitebox,
IDENT_0,IDENT_1,IDENT_2,IDENT_3,IDENT_4,IDENT_5,IDENT_6,







"isFinalize",
STRING_0,

























