testEmptyArray,bytesToLong,
METHOD_0,METHOD_1,

oberasoftware,jasdb,conversion,LongUtils,LONG_SIZE,BITMASK,SHIFT_SIZE,
IDENT_0,IDENT_1,IDENT_2,IDENT_3,IDENT_4,IDENT_5,IDENT_6,













--,|=,<<=,
OP_0,OP_1,OP_2,



















