testIsBodyNullFalseWithBodyNotNull,isBodyNull,isNilValue,
METHOD_0,METHOD_1,METHOD_2,

o3project,odenos,remoteobject,bodyValue,
IDENT_0,IDENT_1,IDENT_2,IDENT_3,


































