testApp,testConcurrentUntilShutdownRequested,TransducerDemo,
METHOD_0,METHOD_1,METHOD_2,

cleanExit,ociweb,maker,FogRuntime,oe,foglight,FogApp,timeoutMS,
IDENT_0,IDENT_1,IDENT_2,IDENT_3,IDENT_4,IDENT_5,IDENT_6,IDENT_7,


































