testGetCodersWrong,getCoders,
METHOD_0,METHOD_1,

erasurecode,rawcoder,RawErasureCoderFactory,coders,CodecRegistry,coderMap,codecName,
IDENT_0,IDENT_1,IDENT_2,IDENT_3,IDENT_4,IDENT_5,IDENT_6,







"WRONG_CODEC",
STRING_0,

























