appendIntHexValue,Random,nextInt,appendHexDigits,toHexString,
METHOD_0,METHOD_1,METHOD_2,METHOD_3,METHOD_4,

Random,ociweb,pronghorn,pipe,AppendablesTest,TEST_SIZE,Appendables,result_set,
IDENT_0,IDENT_1,IDENT_2,IDENT_3,IDENT_4,IDENT_5,IDENT_6,IDENT_7,

101,
INT_0,




"0x",
STRING_0,

























