testRightNow,PrettyTime,getQuantityRounded,
METHOD_0,METHOD_1,METHOD_2,

prettytime,PrettyTime,locale,Duration,duration,
IDENT_0,IDENT_1,IDENT_2,IDENT_3,IDENT_4,







" minut",
STRING_0,

























