testCalendarParameter,PrettyTime,setLocale,setReference,getQuantityRounded,
METHOD_0,METHOD_1,METHOD_2,METHOD_3,METHOD_4,

prettytime,PrettyTime,ENGLISH,YEAR,Duration,duration,
IDENT_0,IDENT_1,IDENT_2,IDENT_3,IDENT_4,IDENT_5,







" minut",
STRING_0,

























