testMomentsAgo,PrettyTime,getQuantityRounded,
METHOD_0,METHOD_1,METHOD_2,

prettytime,PrettyTime,Duration,duration,
IDENT_0,IDENT_1,IDENT_2,IDENT_3,

6000,
INT_0,




" minut",
STRING_0,

























