testNavigateBeforeRestoreView,getStatusLine,
METHOD_0,METHOD_1,

rewrite,HttpAction,HttpGet,
IDENT_0,IDENT_1,IDENT_2,







"/navigate",
STRING_0,

























