testPeekPointsAtHead,mockCall,offer,peek,getElement,
METHOD_0,METHOD_1,METHOD_2,METHOD_3,METHOD_4,

ipc,Schedulable,fcq,E,top,
IDENT_0,IDENT_1,IDENT_2,IDENT_3,IDENT_4,







"c","AzureStackEmpty",
STRING_0,STRING_1,

























