testDOMReader,asReader,getBoolean,checkEventType,
METHOD_0,METHOD_1,METHOD_2,METHOD_3,

ojai,DocumentReader,EventType,et,BOOLEAN,currentObjValue,
IDENT_0,IDENT_1,IDENT_2,IDENT_3,IDENT_4,IDENT_5,







"map.list",
STRING_0,

























