testIsCyclicEmptyGraph,DirectedGraph,hasCycle,preDfs,getStartTime,postDfs,
METHOD_0,METHOD_1,METHOD_2,METHOD_3,METHOD_4,METHOD_5,

adjacencyList,olacabs,fabric,DirectedGraph,numberOfNodes,
IDENT_0,IDENT_1,IDENT_2,IDENT_3,IDENT_4,


































