testInfo,setInfo,getInfo,shout_get_audio_info,
METHOD_0,METHOD_1,METHOD_2,METHOD_3,

libshout,gmail,kunicins,olegs,Libshout,
IDENT_0,IDENT_1,IDENT_2,IDENT_3,IDENT_4,







"key",
STRING_0,

























