testSetInts,createList,insertHead,setInts,getInts,
METHOD_0,METHOD_1,METHOD_2,METHOD_3,METHOD_4,

yadan,banana,ILinkedList,link1,m_memory,link,src_offset_in_record,LinkedList,DATA_OFFSET,dst_data,dst_pos,
IDENT_0,IDENT_1,IDENT_2,IDENT_3,IDENT_4,IDENT_5,IDENT_6,IDENT_7,IDENT_8,IDENT_9,IDENT_10,


































