testCanonicalUriWithNoHost,getCanonicalUri,byteToHexString,getIdentifier,getKind,getService,
METHOD_0,METHOD_1,METHOD_2,METHOD_3,METHOD_4,METHOD_5,

NetUtils,idLen,
IDENT_0,IDENT_1,

1024,
INT_0,




"scheme://:123/path","id=",";k=",";s=",
STRING_0,STRING_1,STRING_2,STRING_3,

























