simpleInsertTest,LRU,addAndExpectNoEviction,addAndExpectEviction,
METHOD_0,METHOD_1,METHOD_2,METHOD_3,

yadan,banana,LRU,lru,m_lruMap,
IDENT_0,IDENT_1,IDENT_2,IDENT_3,IDENT_4,


































