testGetAsDateDefault,ServiceDate,getAsDate,getDefault,getAsCalendar,
METHOD_0,METHOD_1,METHOD_2,METHOD_3,METHOD_4,

onebusaway,gtfs,calendar,ServiceDate,serviceDate,dateA,dateB,TimeZone,timeZone,
IDENT_0,IDENT_1,IDENT_2,IDENT_3,IDENT_4,IDENT_5,IDENT_6,IDENT_7,IDENT_8,

2010,11,
INT_0,INT_1,































