testGetAllAgencies,getAllAgencies,
METHOD_0,METHOD_1,

onebusaway,gtfs,Agency,agencies,HibernateGtfsRelationalDaoImplCaltrainTest,_dao,
IDENT_0,IDENT_1,IDENT_2,IDENT_3,IDENT_4,IDENT_5,


































