testFormatGetterName,formatGetterName,convertPropToMethodName,
METHOD_0,METHOD_1,METHOD_2,

prop,loom,as7,AS7CliUtils,Property,
IDENT_0,IDENT_1,IDENT_2,IDENT_3,IDENT_4,







"formatGetterName","The test case is a prototype.",
STRING_0,STRING_1,

























