testValue,post,stringValue,
METHOD_0,METHOD_1,METHOD_2,

ontopia,topicmaps,TopicName,topicname,changed,
IDENT_0,IDENT_1,IDENT_2,IDENT_3,IDENT_4,







"Another value",
STRING_0,

























