testFormatDateTime,formatDateTime,print,
METHOD_0,METHOD_1,METHOD_2,

datetime,parsedTime,onelogin,saml2,Util,DATE_TIME_FORMAT,timeInMillis,
IDENT_0,IDENT_1,IDENT_2,IDENT_3,IDENT_4,IDENT_5,IDENT_6,

1386650371L,
INT_0,




"2013-12-10T04:39:31Z",
STRING_0,

























