deleteWithEntity,findOne,getForObject,
METHOD_0,METHOD_1,METHOD_2,

personRepository,ID,Serializable,restClient,entityInformation,
IDENT_0,IDENT_1,IDENT_2,IDENT_3,IDENT_4,


































