reverseArray,creatArrayUtil,ArrayUtil,
METHOD_0,METHOD_1,METHOD_2,

origin,destArray,coding,basic,
IDENT_0,IDENT_1,IDENT_2,IDENT_3,


































