testCanIRI1,runTests,getBindingNames,
METHOD_0,METHOD_1,METHOD_2,

expectedResults,ontopBindingSet,
IDENT_0,IDENT_1,







"PREFIX : <http://ontop.inf.unibz.it/test/wellbore#> Select DISTINCT ?x ?y WHERE{\n","?x a :Wellbore .\n","?x :inWell ?y .\n","}\n",
STRING_0,STRING_1,STRING_2,STRING_3,

























