testNoSameAs2b,runTests,getBindingNames,
METHOD_0,METHOD_1,METHOD_2,

unibz,inf,ontop,owlapi,ontopBindingSet,
IDENT_0,IDENT_1,IDENT_2,IDENT_3,IDENT_4,







"PREFIX : <http://ontop.inf.unibz.it/test/wellbore#>","PREFIX owl: <http://www.w3.org/2002/07/owl#>","SELECT ?x ?y ?z WHERE { { ?x :hasName ?y . ?x :hasValue ?z . } UNION {?x owl:sameAs [ :hasName ?y ] . ?x :hasValue ?z } UNION {?x :hasName ?y . ?x owl:sameAs [ :hasValue ?z ]} UNION {?x owl:sameAs [ :hasName ?y ]. ?x owl:sameAs [ :hasValue ?z ]} }\n",
STRING_0,STRING_1,STRING_2,

























