testRun,getCanonicalName,main,isExecuted,
METHOD_0,METHOD_1,METHOD_2,METHOD_3,

dnetlib,iis,TestProcess,ProcessWrapper,executed,
IDENT_0,IDENT_1,IDENT_2,IDENT_3,IDENT_4,


































