testEnumerations,Variant,parseUnsignedInteger,
METHOD_0,METHOD_1,METHOD_2,

opcfoundation,ua,builtintypes,Variant,sut,ServerState,Running,UnsignedInteger,
IDENT_0,IDENT_1,IDENT_2,IDENT_3,IDENT_4,IDENT_5,IDENT_6,IDENT_7,


































