testGetPid,getPID,getRuntimeMXBean,parseInt,
METHOD_0,METHOD_1,METHOD_2,METHOD_3,

openbel,BELUtilities,pid,RuntimeMXBean,mx,ManagementFactory,
IDENT_0,IDENT_1,IDENT_2,IDENT_3,IDENT_4,IDENT_5,







"@",
STRING_0,

























