testSetInvalidPattern,DictionaryServiceImpl,getPattern,setPattern,
METHOD_0,METHOD_1,METHOD_2,METHOD_3,

opencastproject,dictionary,regexp,DictionaryServiceImpl,
IDENT_0,IDENT_1,IDENT_2,IDENT_3,







"*[[[[",
STRING_0,

























