testSourceDuplicationIsValid,checkConf,
METHOD_0,METHOD_1,

bais,ConfTest,addrs,
IDENT_0,IDENT_1,IDENT_2,







"<configuration>\n","<property source=\'a\'>\n","<name>foo</name>\n","<value>bar</value>\n","<source>b</source>\n","<source>c</source>\n","</property>\n","</configuration>",
STRING_0,STRING_1,STRING_2,STRING_3,STRING_4,STRING_5,STRING_6,STRING_7,

























