testLazyFlatMapKeepSize,mlazy,flatMap,some,eval,
METHOD_0,METHOD_1,METHOD_2,METHOD_3,METHOD_4,

eval,opencastproject,Monadics,Function,integer,Option,lst,ts,
IDENT_0,IDENT_1,IDENT_2,IDENT_3,IDENT_4,IDENT_5,IDENT_6,IDENT_7,


































