testRemoveAllViaIterator,getRandomList,TestElement,
METHOD_0,METHOD_1,METHOD_2,

TestLightWeightGSet,LightWeightGSet,TestElement,iter,loggers,
IDENT_0,IDENT_1,IDENT_2,IDENT_3,IDENT_4,

123,
INT_0,































