testGetGroup20Hz,setResponseResource,ClassPathResource,getGroup20,
METHOD_0,METHOD_1,METHOD_2,METHOD_3,

surfnet,coin,Group20,group20,groupService,oauth,
IDENT_0,IDENT_1,IDENT_2,IDENT_3,IDENT_4,IDENT_5,







"hz-group.json","HZG-1042",
STRING_0,STRING_1,

























