shouldInvokeDefaultsIfNoOverride,foo,
METHOD_0,METHOD_1,

opencypher,OptionTest,Options,Option,
IDENT_0,IDENT_1,IDENT_2,IDENT_3,


































