testLicenseList,getLicenseList,getHttp,
METHOD_0,METHOD_1,METHOD_2,

trentorise,opendata,jackan,CkanClient,CkanLicense,licenses,LicenseListResponse,
IDENT_0,IDENT_1,IDENT_2,IDENT_3,IDENT_4,IDENT_5,IDENT_6,







"/api/3/action/license_list",
STRING_0,

























