testDatasetListWithLimit,getDatasetList,getHttp,
METHOD_0,METHOD_1,METHOD_2,

trentorise,opendata,jackan,CkanClient,dsl,DatasetListResponse,limit,
IDENT_0,IDENT_1,IDENT_2,IDENT_3,IDENT_4,IDENT_5,IDENT_6,







"/api/3/action/package_list","limit","offset",
STRING_0,STRING_1,STRING_2,

























