testToString,toBinaryString,toInt,
METHOD_0,METHOD_1,METHOD_2,

urn,ns,bgp,rev180329,Community,backingArray,primitives,UnsignedBytes,
IDENT_0,IDENT_1,IDENT_2,IDENT_3,IDENT_4,IDENT_5,IDENT_6,IDENT_7,

222,
INT_0,




"BitArray [",' ',']',
STRING_0,STRING_1,STRING_2,

























