testPeerPath,peerPath,firstIdentifierOf,
METHOD_0,METHOD_1,METHOD_2,

YangInstanceIdentifier,bgp,rib,IdentifierUtils,IdentifierUtilsTest,YII_PEER,IS_PEER,
IDENT_0,IDENT_1,IDENT_2,IDENT_3,IDENT_4,IDENT_5,IDENT_6,


































