testOnTransactionAbort,doCreateSnapshot,abort,
METHOD_0,METHOD_1,METHOD_2,

databroker,actors,dds,ClientSnapshot,clientSnapshot,
IDENT_0,IDENT_1,IDENT_2,IDENT_3,IDENT_4,


































