testAllLinks_NullGraph,clear,getAllLinks,getEdges,
METHOD_0,METHOD_1,METHOD_2,METHOD_3,

networkGraphImpl,urn,tbd,ns,topology,rev131021,Link,allLinks,networkGraph,
IDENT_0,IDENT_1,IDENT_2,IDENT_3,IDENT_4,IDENT_5,IDENT_6,IDENT_7,IDENT_8,


































