ready,doNothing,
METHOD_0,METHOD_1,

mdsal,inmemory,InmemoryDOMDataTreeShardWriteTransactionTest,inmemoryDOMDataTreeShardWriteTransaction,DATA_TREE,
IDENT_0,IDENT_1,IDENT_2,IDENT_3,IDENT_4,


































