testLongToPaddedHex,bigIntegerToPaddedHex,padStart,
METHOD_0,METHOD_1,METHOD_2,

dpids,expectedPaddedHexes,datapathIdHex,openflowplugin,openflow,md,InventoryDataServiceUtil,Strings,dataPathId,
IDENT_0,IDENT_1,IDENT_2,IDENT_3,IDENT_4,IDENT_5,IDENT_6,IDENT_7,IDENT_8,







"1234","10210232779920710278","18446744073709551615","00000000000004d2","8db2089e01391a86","ffffffffffffffff",'0',
STRING_0,STRING_1,STRING_2,STRING_3,STRING_4,STRING_5,STRING_6,

























