effectiveAugmentBothTest,defaultReactor,newBuild,addSources,buildEffective,
METHOD_0,METHOD_1,METHOD_2,METHOD_3,METHOD_4,

SchemaContext,rfc7950,reactor,RFC7950Reactors,Bug6150Test,TARGET,AUGMENT_FIRST,AUGMENT_SECOND,
IDENT_0,IDENT_1,IDENT_2,IDENT_3,IDENT_4,IDENT_5,IDENT_6,IDENT_7,


































