testRangeCoveredForLong,isRangeCovered,
METHOD_0,METHOD_1,

superMin,superMax,Number,NumberUtil,NUMBER_COMPARATOR,
IDENT_0,IDENT_1,IDENT_2,IDENT_3,IDENT_4,

100L,50L,200L,300L,
INT_0,INT_1,INT_2,INT_3,































