get_onExistingIndex_returnsCorrectTable,checkNotNull,
METHOD_0,METHOD_1,

openengsb,edbi,Table,testIndex,Preconditions,
IDENT_0,IDENT_1,IDENT_2,IDENT_3,IDENT_4,







"key is null",
STRING_0,

























