testRemoveAllProperties_shouldDeleteEverything,addProperty,removeAllProperties,propertyCount,
METHOD_0,METHOD_1,METHOD_2,METHOD_3,

pb,
IDENT_0,

42,
INT_0,




"42","number",
STRING_0,STRING_1,

























