indexExists_afterCreateIndex_returnsTrue,createIndex,indexExists,existsInDb,
METHOD_0,METHOD_1,METHOD_2,METHOD_3,

indexEngine,openengsb,edbi,TestModel,
IDENT_0,IDENT_1,IDENT_2,IDENT_3,


































