testRangeIn10MinWithFuture,addMinutes,isInRangeMinutes,isInRangeSeconds,
METHOD_0,METHOD_1,METHOD_2,METHOD_3,

range10min,date5MinInFuture,DateUtils,rangeInSeconds,rangeInMinutes,digidoc4j,date1,date2,
IDENT_0,IDENT_1,IDENT_2,IDENT_3,IDENT_4,IDENT_5,IDENT_6,IDENT_7,

60,
INT_0,































