testSearchSubtreeFromLeaf_shouldReturnEmptyList,searchSubtree,
METHOD_0,METHOD_1,

openengsb,infrastructure,subtree,baseDn,
IDENT_0,IDENT_1,IDENT_2,IDENT_3,


































