testAddOrUpdateOnExistingRule_shouldWork,addOrUpdate,checkNotNull,
METHOD_0,METHOD_1,METHOD_2,

ruleManager,Preconditions,
IDENT_0,IDENT_1,







"key is null",
STRING_0,

























