programTest,getProgram,
METHOD_0,METHOD_1,

openhab,wifiled,LEDStateDTO,ledState,program,
IDENT_0,IDENT_1,IDENT_2,IDENT_3,IDENT_4,

256,
INT_0,































