testGPIODigitalPinTimeoutTyp,keySet,prepareCommand,DecimalType,
METHOD_0,METHOD_1,METHOD_2,METHOD_3,

test_msg,cmd,openhab,
IDENT_0,IDENT_1,IDENT_2,

65544,196616,327688,458880,590080,721408,14,
INT_0,INT_1,INT_2,INT_3,INT_4,INT_5,INT_6,




"s0002000e0106100080","s0002000e0106300080","s0002000e0106500080","s0002000e0106700800","s0002000e0106901000","s0002000e0106b02000",
STRING_0,STRING_1,STRING_2,STRING_3,STRING_4,STRING_5,

























