setCodeHex,getCommandClass,setUserCode,getPayloadBuffer,
METHOD_0,METHOD_1,METHOD_2,METHOD_3,

openhab,zwave,commandclass,ZWaveUserCodeCommandClass,cls,CommandClass,COMMAND_CLASS_USER_CODE,expectedResponse,
IDENT_0,IDENT_1,IDENT_2,IDENT_3,IDENT_4,IDENT_5,IDENT_6,IDENT_7,

99,17,34,51,68,85,102,
INT_0,INT_1,INT_2,INT_3,INT_4,INT_5,INT_6,




"00 11 22 33 44 55 66",
STRING_0,

























