shouldGetMajorVersion,majorVersion,
METHOD_0,METHOD_1,

openhft,chronicle,Jvm,JVM_JAVA_MAJOR_VERSION,
IDENT_0,IDENT_1,IDENT_2,IDENT_3,


































