testMaxDirectMemory,maxDirectMemory,
METHOD_0,METHOD_1,

maxDirectMemory,openhft,chronicle,Jvm,MAX_DIRECT_MEMORY,
IDENT_0,IDENT_1,IDENT_2,IDENT_3,IDENT_4,


































