shouldHandleReasonableDateRange,currentCycle,toIndex,toCycle,toUInt31,
METHOD_0,METHOD_1,METHOD_2,METHOD_3,METHOD_4,

currentCycle,DefaultCycleCalculator,cycle,timeProvider,nowMillis,clock,openhft,chronicle,Maths,cycleShift,
IDENT_0,IDENT_1,IDENT_2,IDENT_3,IDENT_4,IDENT_5,IDENT_6,IDENT_7,IDENT_8,IDENT_9,

1500000000000L,2000000000000L,
INT_0,INT_1,







3.0E10,
FLOAT_0,






















