testMicro,fromString,
METHOD_0,METHOD_1,

openhft,chronicle,wire,MicroLongConverterTest,Data,Marshallable,
IDENT_0,IDENT_1,IDENT_2,IDENT_3,IDENT_4,IDENT_5,







"!net.openhft.chronicle.wire.MicroLongConverterTest$Data {\n"," time: 2019-01-20T23:45:11.123456,\n"," ttl: PT1H15M\n","}\n","ScalarStrategy<",">",
STRING_0,STRING_1,STRING_2,STRING_3,STRING_4,STRING_5,

























