returnsFieldsRegardlessOfVisibility,asFieldList,
METHOD_0,METHOD_1,

openhft,direct,IntrospectTest,InstanceOnlyNoStaticFields,
IDENT_0,IDENT_1,IDENT_2,IDENT_3,


































