testEquals_differentName,BasicGroup,
METHOD_0,METHOD_1,

basic,BasicGroup,groupX,ProbeImpl,identifier,
IDENT_0,IDENT_1,IDENT_2,IDENT_3,IDENT_4,







"group","groupX",
STRING_0,STRING_1,

























