getUsersForGroup_groupWithNoUsers,fullBasicRegistry,getUsersForGroup,getList,
METHOD_0,METHOD_1,METHOD_2,METHOD_3,

SearchResult,members,
IDENT_0,IDENT_1,







"myGroupWithNoUsers",
STRING_0,

























