setPoolTimestamp,TimedDirContext,getEnvironment,setPoolTimeStamp,getPoolTimestamp,
METHOD_0,METHOD_1,METHOD_2,METHOD_3,METHOD_4,

wim,TimedDirContext,iPoolTimestampSeconds,
IDENT_0,IDENT_1,IDENT_2,

12345L,
INT_0,































