testAddAllIntListOfRdn006,LdapName,
METHOD_0,METHOD_1,

LinkedList,naming,Rdn,LdapName,ln,
IDENT_0,IDENT_1,IDENT_2,IDENT_3,IDENT_4,







"t=test",
STRING_0,

























