getRealm,setServerConfiguration,
METHOD_0,METHOD_1,

websphere,simplicity,Log,basic,fat,FATTest,DEFAULT_CONFIG_FILE,
IDENT_0,IDENT_1,IDENT_2,IDENT_3,IDENT_4,IDENT_5,IDENT_6,







"getRealm","Checking expected realm","SampleBasicRealm",
STRING_0,STRING_1,STRING_2,

























