getUserDisplayName,
METHOD_0,

displayName,websphere,simplicity,Log,wim,fat,BasicTests,userRegistry,securityName,
IDENT_0,IDENT_1,IDENT_2,IDENT_3,IDENT_4,IDENT_5,IDENT_6,IDENT_7,IDENT_8,







"admin","getUserDisplayName","Checking with a valid user.",
STRING_0,STRING_1,STRING_2,

























