getGroupDisplayName,
METHOD_0,

websphere,simplicity,Log,wim,fat,URAPIs_ADLDAPTest,userRegistry,securityName,
IDENT_0,IDENT_1,IDENT_2,IDENT_3,IDENT_4,IDENT_5,IDENT_6,IDENT_7,







"TelnetClients","getGroupDisplayName","Checking with a valid group.",
STRING_0,STRING_1,STRING_2,

























