testAddRdn006,LdapName,Rdn,
METHOD_0,METHOD_1,METHOD_2,

naming,LdapName,ln,Rdn,toadd,
IDENT_0,IDENT_1,IDENT_2,IDENT_3,IDENT_4,







"t=test",
STRING_0,

























