testRemove003,Rdn,LdapName,getClassName,
METHOD_0,METHOD_1,METHOD_2,METHOD_3,

naming,Rdn,LdapName,ln,pair,
IDENT_0,IDENT_1,IDENT_2,IDENT_3,IDENT_4,







"t=test",'[',"=",']',
STRING_0,STRING_1,STRING_2,STRING_3,

























