testAutocastChar,BigDecimalValue,autocast,
METHOD_0,METHOD_1,METHOD_2,

charVal,openl,BigDecimalValue,expectedResult,
IDENT_0,IDENT_1,IDENT_2,IDENT_3,







'c',
STRING_0,

























