removeGroupMember_shouldReturnFalseWhenANonExistentObsIsRemoved,Obs,removeGroupMember,isDirty,getSession,
METHOD_0,METHOD_1,METHOD_2,METHOD_3,METHOD_4,

Obs,obs,
IDENT_0,IDENT_1,


































