getDrugs_shouldNotReturnDrugsThatAreRetired,getConceptService,getDrugs,getMemberships,getVoided,
METHOD_0,METHOD_1,METHOD_2,METHOD_3,METHOD_4,

Drug,drugs,Collectors,
IDENT_0,IDENT_1,IDENT_2,







"TEST_DRUG_NAME_RETIRED",
STRING_0,

























