purgeUser_shouldDeleteGivenUser,getUser,purgeUser,getCurrentSession,
METHOD_0,METHOD_1,METHOD_2,METHOD_3,

userService,sessionFactory,userId,
IDENT_0,IDENT_1,IDENT_2,

502,
INT_0,































