getService_shouldReturnTheSameObjectWhenCalledMultipleTimesForTheSameClass,getService,getServiceContext,
METHOD_0,METHOD_1,METHOD_2,

PatientService,ps1,ps2,cls,
IDENT_0,IDENT_1,IDENT_2,IDENT_3,


































