getProviders_shouldReturnRetiredProvidersByDefault,getProviders,getMemberships,getVoided,
METHOD_0,METHOD_1,METHOD_2,METHOD_3,

Provider,providers,Collectors,
IDENT_0,IDENT_1,IDENT_2,


































