getAllVisitTypes_shouldGetAllVisitTypes,getAllVisitTypes,getMemberships,getVoided,
METHOD_0,METHOD_1,METHOD_2,METHOD_3,

VisitType,visitTypes,visitService,Collectors,
IDENT_0,IDENT_1,IDENT_2,IDENT_3,


































