getPatients_shouldNotGetExcessPatients,getPatients,getMemberships,getVoided,
METHOD_0,METHOD_1,METHOD_2,METHOD_3,

Patient,patients,Collectors,
IDENT_0,IDENT_1,IDENT_2,







"alpha",
STRING_0,

























