unretireDrug_shouldMarkDrugAsNotRetired,getDrugByUuid,unretireDrug,getRetired,
METHOD_0,METHOD_1,METHOD_2,METHOD_3,

uuidOfDrugToCheck,Drug,drug,conceptService,retired,
IDENT_0,IDENT_1,IDENT_2,IDENT_3,IDENT_4,







"7e2323fa-0fa0-461f-9b59-6765997d849e",
STRING_0,

























