toString_shouldPrintEmptyStringIfLowAndHighAreInfinite,DoubleRange,
METHOD_0,METHOD_1,

DoubleRange,r1,NEGATIVE_INFINITY,POSITIVE_INFINITY,conceptId,
IDENT_0,IDENT_1,IDENT_2,IDENT_3,IDENT_4,







"Concept #",
STRING_0,

























