validate_shouldPassValidationIfAllFieldsAreCorrect,Form,setVersion,BindException,FormValidator,hasErrors,
METHOD_0,METHOD_1,METHOD_2,METHOD_3,METHOD_4,METHOD_5,

Form,form,Errors,erroneous,
IDENT_0,IDENT_1,IDENT_2,IDENT_3,







"1.0","form",
STRING_0,STRING_1,

























