testDeleteMa,deleteMaintenanceAssociation,anyTimes,mdName,maName,
METHOD_0,METHOD_1,METHOD_2,METHOD_3,METHOD_4,

mdService,cfm,MaWebResourceTest,MDNAME1,MANAME1,WebTarget,wt,
IDENT_0,IDENT_1,IDENT_2,IDENT_3,IDENT_4,IDENT_5,IDENT_6,







"md/","/ma/",
STRING_0,STRING_1,

























