testInterfaceId,addInterfaceId,interfaceId,
METHOD_0,METHOD_1,METHOD_2,

deviceInformation,onlab,Ip4Address,
IDENT_0,IDENT_1,IDENT_2,







"1.1.1.1",
STRING_0,

























