testIpv6RouterIds,setIpv6RouterIds,ipv6RouterIds,
METHOD_0,METHOD_1,METHOD_2,

onlab,Ip6Address,ospfDeviceTed,
IDENT_0,IDENT_1,IDENT_2,


































