testSetBadAgent,getAgentConfig,setAddress,addr,getValueFactory,getInt32,SnmpObjId,
METHOD_0,METHOD_1,METHOD_2,METHOD_3,METHOD_4,METHOD_5,METHOD_6,

netmgt,snmp,SnmpAgentConfig,sac,InetAddressUtils,MockSnmpStrategyTest,m_strategy,SnmpObjId,SnmpValue,oid,
IDENT_0,IDENT_1,IDENT_2,IDENT_3,IDENT_4,IDENT_5,IDENT_6,IDENT_7,IDENT_8,IDENT_9,







"1.2.3.4",".1.3.5.1.1.3.0",
STRING_0,STRING_1,

























