complexTest1,GregorianCalendar,setSubHourFieldsZero,parseTimes,
METHOD_0,METHOD_1,METHOD_2,METHOD_3,

cal,HOUR_OF_DAY,DAY_OF_YEAR,startDate,
IDENT_0,IDENT_1,IDENT_2,IDENT_3,







"noon yesterday -3hours","now",
STRING_0,STRING_1,

























