testInvalidRange,createBasicParams,poll,createMonitor,getReason,isAvailable,
METHOD_0,METHOD_1,METHOD_2,METHOD_3,METHOD_4,METHOD_5,

m_ignoreWarnings,netmgt,poller,PollStatus,available,
IDENT_0,IDENT_1,IDENT_2,IDENT_3,IDENT_4,







"min-services","8","max-services","5",
STRING_0,STRING_1,STRING_2,STRING_3,

























