testRegEx,compile,
METHOD_0,METHOD_1,

AssetsUpdater,PROPERTY_FIELD_PREFIX,Pattern,testString,Matcher,m_matched,
IDENT_0,IDENT_1,IDENT_2,IDENT_3,IDENT_4,IDENT_5,







"^","([0-9]+)$","field2",
STRING_0,STRING_1,STRING_2,

























