parseRrdWithComputedDs,unmarshal,
METHOD_0,METHOD_1,

netmgt,rrd,v3,RRDv3,JaxbUtils,VALIDATE_IF_POSSIBLE,
IDENT_0,IDENT_1,IDENT_2,IDENT_3,IDENT_4,IDENT_5,







"src/test/resources/rrd-dump-compute-ds.xml",
STRING_0,

























