shouldReturnThatHasNoDomain,destroyAllDomains,hasDomain,getDomains,
METHOD_0,METHOD_1,METHOD_2,METHOD_3,

openshift,DomainTestUtils,hasDomain,
IDENT_0,IDENT_1,IDENT_2,


































