shouldReturnThatHasntNamedDomain,hasDomain,createRandomName,
METHOD_0,METHOD_1,METHOD_2,

hasDomain,openshift,DomainTestUtils,
IDENT_0,IDENT_1,IDENT_2,


































