testGetNamespace,getNamespaceName,asString,
METHOD_0,METHOD_1,METHOD_2,

openshift,restclient,METADATA_NAMESPACE,
IDENT_0,IDENT_1,IDENT_2,


































