testCharsetName,Gsm7BitCharsetProvider,charsetForName,
METHOD_0,METHOD_1,METHOD_2,

smpp,charset,Gsm7BitCharsetProvider,Charset,charsetName,CHARSET_NAME,gsm7Bit,
IDENT_0,IDENT_1,IDENT_2,IDENT_3,IDENT_4,IDENT_5,IDENT_6,







"X-Gsm7Bit",
STRING_0,

























