isFailureShouldReturnFalseWhenNotFailure,isFailure,
METHOD_0,METHOD_1,

openshift,restclient,FAILURE,
IDENT_0,IDENT_1,IDENT_2,







"Other",
STRING_0,

























