testManagerId,ManagementWorkerThread,NoopAvailabilityMonitor,
METHOD_0,METHOD_1,METHOD_2,

gearman,AbstractWorkerThread,
IDENT_0,IDENT_1,

4730,
INT_0,




"GearmanServer","master_manager","master",
STRING_0,STRING_1,STRING_2,

























