verifyDefaultStateOfOperaRunning,TestOperaLauncherRunner,isOperaRunning,
METHOD_0,METHOD_1,METHOD_2,

opera,systems,OperaLauncherRunnerTest,settings,
IDENT_0,IDENT_1,IDENT_2,IDENT_3,


































