testSize,OperaArgument,
METHOD_0,METHOD_1,

arguments,opera,systems,
IDENT_0,IDENT_1,IDENT_2,







"hooba","flooba",
STRING_0,STRING_1,

























