selftestOnlyGroup,selftest,
METHOD_0,METHOD_1,

opera,systems,scope,Selftest,SelftestResult,ImmutableSet,
IDENT_0,IDENT_1,IDENT_2,IDENT_3,IDENT_4,IDENT_5,







"about.generateddocuments.dom:*",
STRING_0,

























