testGetUnAllowedGroupSubgroups,getSubgroups,getUnAllowedGroupWithSubgroups,
METHOD_0,METHOD_1,METHOD_2,

opengrok,indexer,Group,lines,
IDENT_0,IDENT_1,IDENT_2,IDENT_3,


































