testGetReposForNonExistentProject,
METHOD_0,

GenericType,repos,items,
IDENT_0,IDENT_1,IDENT_2,







"projects","totally-nonexistent-project","repositories",
STRING_0,STRING_1,STRING_2,

























