addLine,Annotation,
METHOD_0,METHOD_1,

opengrok,indexer,history,Annotation,lines,
IDENT_0,IDENT_1,IDENT_2,IDENT_3,IDENT_4,







"testfile.tst","1.0","Author",
STRING_0,STRING_1,STRING_2,

























