shouldNotNeedToHashShortNames,
METHOD_0,

newName,opengrok,indexer,TandemPath,flag,
IDENT_0,IDENT_1,IDENT_2,IDENT_3,IDENT_4,







"dir","file1","file1.gz",".gz",
STRING_0,STRING_1,STRING_2,STRING_3,

























