shouldReturnTrueWhenIndexIsValid,getMaxIndex,doCallRealMethod,isIndexValid,
METHOD_0,METHOD_1,METHOD_2,METHOD_3,

maxIndex,slidingWindow,
IDENT_0,IDENT_1,


































