shouldGetMicrometersPerPixel,getMicrometersPerPixel,
METHOD_0,METHOD_1,

orange,dgil,trail,AndroidMetrics,MICROMETERS_PER_INCH,ydpi,
IDENT_0,IDENT_1,IDENT_2,IDENT_3,IDENT_4,IDENT_5,


































