testDistanceContext,HatchedFill,setDistance,RealLiteral,getDistance,
METHOD_0,METHOD_1,METHOD_2,METHOD_3,METHOD_4,

orbisgis,coremap,se,fill,HatchedFill,hf,real,distance,
IDENT_0,IDENT_1,IDENT_2,IDENT_3,IDENT_4,IDENT_5,IDENT_6,IDENT_7,


































