testExtentAndImage,setExtent,setImage,getAdjustedExtent,
METHOD_0,METHOD_1,METHOD_2,METHOD_3,

mt,extent,img,adjustedExtent,
IDENT_0,IDENT_1,IDENT_2,IDENT_3,


































