testSerializeNativeAsWhole,serializeNativeAsWhole,deserializeNativeObject,deserialize,
METHOD_0,METHOD_1,METHOD_2,METHOD_3,

stringSerializer,OBJECT,startPosition,
IDENT_0,IDENT_1,IDENT_2,


































