testOpenKeepClean,OrientDB,defaultConfig,open,
METHOD_0,METHOD_1,METHOD_2,METHOD_3,

OrientDB,orientDb,OrientDBConfig,orientDB,
IDENT_0,IDENT_1,IDENT_2,IDENT_3,







"embedded:./","admin",
STRING_0,STRING_1,

























