testCompareToGT,OCompositeKey,addKey,
METHOD_0,METHOD_1,METHOD_2,

OCompositeKey,compositeKey,anotherCompositeKey,distributed,ODistributedRequestId,
IDENT_0,IDENT_1,IDENT_2,IDENT_3,IDENT_4,


































