testBasic,ODocument,getDirtyManager,getNewRecords,getReal,
METHOD_0,METHOD_1,METHOD_2,METHOD_3,METHOD_4,

ODocument,ODirtyManager,ORecordInternal,newRecords,
IDENT_0,IDENT_1,IDENT_2,IDENT_3,







"ddd",
STRING_0,

























