testEqualsDifferentItems,OMultiKey,
METHOD_0,METHOD_1,

OMultiKey,multiKey,anotherMultiKey,
IDENT_0,IDENT_1,IDENT_2,







"c",
STRING_0,

























