testCreateSingleValueByKey,createSingleValue,getDefaultJavaType,
METHOD_0,METHOD_1,METHOD_2,

propertyIndexByKey,OType,keyType,
IDENT_0,IDENT_1,IDENT_2,







"tt",
STRING_0,

























