testSimpleLimit2,
METHOD_0,

OResultSet,qResult,OMatchStatementExecutionNewTest,itty,
IDENT_0,IDENT_1,IDENT_2,IDENT_3,







"match {class:Person, as: person, where: (name = 'n1' or name = 'n2')} return person limit -1",
STRING_0,

























