testRunCommandWithMemoryOnlyResources,assumeWindows,getRunCommand,
METHOD_0,METHOD_1,METHOD_2,

YarnConfiguration,NM_WINDOWS_CONTAINER_MEMORY_LIMIT_ENABLED,containerExecutor,Resource,Shell,WINUTILS,lhs,rhs,
IDENT_0,IDENT_1,IDENT_2,IDENT_3,IDENT_4,IDENT_5,IDENT_6,IDENT_7,

1024,
INT_0,




"true","echo","group1","task","create","-m","1024","-c","-1","cmd /c ",
STRING_0,STRING_1,STRING_2,STRING_3,STRING_4,STRING_5,STRING_6,STRING_7,STRING_8,STRING_9,

























