testBoundingBox,WebMapServiceV1_3_0_Impl,readResource,getGeom,
METHOD_0,METHOD_1,METHOD_2,METHOD_3,

fi,mml,mapwindow,wms,WebMapServiceV1_3_0_Impl,WebMapServiceV1_3_0ImplTest,CHLORO,wkt,
IDENT_0,IDENT_1,IDENT_2,IDENT_3,IDENT_4,IDENT_5,IDENT_6,IDENT_7,







"http://unit.test/ing","arctic_sdi:LandSurfaceTemperature","POLYGON ((-180.0 30.669210068137946, -180.0 90.0, 180.0 90.0, 180.0 30.669210068137946, -180.0 30.669210068137946))",
STRING_0,STRING_1,STRING_2,

























