testIteratorRemove,CreasePattern,OriLine,
METHOD_0,METHOD_1,METHOD_2,

paperSize,oripa,paint,creasepattern,CreasePattern,cp,TYPE_RIDGE,iter,oriLine,vecmath,Vector2d,vertexSets,vertices,vertexSet,
IDENT_0,IDENT_1,IDENT_2,IDENT_3,IDENT_4,IDENT_5,IDENT_6,IDENT_7,IDENT_8,IDENT_9,IDENT_10,IDENT_11,IDENT_12,IDENT_13,

400,
INT_0,







100.0,10.0,20.0,
FLOAT_0,FLOAT_1,FLOAT_2,






















