testPostDocument,getTester,getDatabase,countClass,executeUrl,
METHOD_0,METHOD_1,METHOD_2,METHOD_3,METHOD_4,

current,ru,ydn,wicket,wicketorientdb,TestRestApi,TEST_REST_CLASS,WicketOrientDbTester,
IDENT_0,IDENT_1,IDENT_2,IDENT_3,IDENT_4,IDENT_5,IDENT_6,IDENT_7,







"{\"@class\":\"TestRest\",\"a\":\"test2\",\"b\":11,\"c\":false}","orientdb/document/db/","POST",
STRING_0,STRING_1,STRING_2,

























