canResolveIntArray,resolveType,createGenericArrayTypeFor,GenericArrayType,getGenericComponentType,
METHOD_0,METHOD_1,METHOD_2,METHOD_3,METHOD_4,

genericArrayTypeResolver,
IDENT_0,


































