filterChain_shouldIgonreNullFilterArray,FilterChain,
METHOD_0,METHOD_1,

openpojo,reflection,FilterChain,PojoClassFilter,pojoClassFilters,
IDENT_0,IDENT_1,IDENT_2,IDENT_3,IDENT_4,


































