withTesters_persistRules,getRandomValue,getTesters,
METHOD_0,METHOD_1,METHOD_2,

openpojo,Tester,anyTester,RandomFactory,ValidatorBuilder,validatorBuilder,testers,
IDENT_0,IDENT_1,IDENT_2,IDENT_3,IDENT_4,IDENT_5,IDENT_6,


































