insertTest,Log,setUserUUid,setUuid,concat,
METHOD_0,METHOD_1,METHOD_2,METHOD_3,METHOD_4,

easycassandra,Log,LogDAOTest,NICK_NAME,
IDENT_0,IDENT_1,IDENT_2,IDENT_3,


































