applyToFace,isHorizontal,byBlockYaw,blockYaw,turns,
METHOD_0,METHOD_1,METHOD_2,METHOD_3,METHOD_4,

turns,bukkit,BlockFace,face,BlockRotation,Axis,axis,X,Z,
IDENT_0,IDENT_1,IDENT_2,IDENT_3,IDENT_4,IDENT_5,IDENT_6,IDENT_7,IDENT_8,













%,
OP_0,



















