testWrap,wrap,
METHOD_0,METHOD_1,

overture,npp,Utilities,
IDENT_0,IDENT_1,IDENT_2,







"a string","(a string)","(",")",
STRING_0,STRING_1,STRING_2,STRING_3,

























