testColors,getRed,getGreen,getBlue,
METHOD_0,METHOD_1,METHOD_2,METHOD_3,

minecraft,MaterialMapColor,nmsColors,Color,bukkitColors,MapPalette,colors,rgb,L,modi,bukkit,MapTest,modifiers,mr,mg,mb,Level,WARNING,BIT_MASK,blue,
IDENT_0,IDENT_1,IDENT_2,IDENT_3,IDENT_4,IDENT_5,IDENT_6,IDENT_7,IDENT_8,IDENT_9,IDENT_10,IDENT_11,IDENT_12,IDENT_13,IDENT_14,IDENT_15,IDENT_16,IDENT_17,IDENT_18,IDENT_19,







"Missing color: c({0}, {1}, {2})","Incorrect color: {6} {7} c({0}, {1}, {2}) != c({3}, {4}, {5})",
STRING_0,STRING_1,

























