testCharAt,IRI,IndexOutOfBoundsException,
METHOD_0,METHOD_1,METHOD_2,

semanticweb,owlapi,ontology,IRI,iri,namespace,remainder,
IDENT_0,IDENT_1,IDENT_2,IDENT_3,IDENT_4,IDENT_5,IDENT_6,







"http://owlapi.sourceforge.net#ABC","http://owlapi.sourceforge.net#","ABC",
STRING_0,STRING_1,STRING_2,

























