testMillisSerialization,createTimestampGenson,ofInstant,ofEpochMilli,
METHOD_0,METHOD_1,METHOD_2,METHOD_3,

owlike,genson,Genson,LocalDateTime,TimestampFormat,MILLIS,millis,dt,Instant,defaultZoneId,jsr353,JSR353Bundle,
IDENT_0,IDENT_1,IDENT_2,IDENT_3,IDENT_4,IDENT_5,IDENT_6,IDENT_7,IDENT_8,IDENT_9,IDENT_10,IDENT_11,

4534654564653L,
INT_0,































