testObjectSerialization,createTimestampGenson,createWriter,serializeNull,
METHOD_0,METHOD_1,METHOD_2,METHOD_3,

owlike,genson,Genson,MonthDay,TimestampFormat,OBJECT,monthday,sw,ObjectWriter,
IDENT_0,IDENT_1,IDENT_2,IDENT_3,IDENT_4,IDENT_5,IDENT_6,IDENT_7,IDENT_8,







"{\"month\":12,\"day\":2}",
STRING_0,

























