testEqualySizedLists,cartesianProduct,multiply,intValue,
METHOD_0,METHOD_1,METHOD_2,METHOD_3,

s1,s2,s3,cp,abc4trust,CartesianProduct,resultSet,rl,MAX_LIST_SIZE,productSize,ONE,sets,ZERO,loopSize,
IDENT_0,IDENT_1,IDENT_2,IDENT_3,IDENT_4,IDENT_5,IDENT_6,IDENT_7,IDENT_8,IDENT_9,IDENT_10,IDENT_11,IDENT_12,IDENT_13,

100000,
INT_0,




"c","d","e","f","Will not generate carthesian product for more than "," elements ","(size would be ","). Not proceeding.",
STRING_0,STRING_1,STRING_2,STRING_3,STRING_4,STRING_5,STRING_6,STRING_7,




/=,%,
OP_0,OP_1,



















