canGetSetTypeCheck,getNewConfig,setShouldPerformTypeCheck,shouldPerformTypeCheck,
METHOD_0,METHOD_1,METHOD_2,METHOD_3,

pablissimo,sonar,TsLintExecutorConfig,
IDENT_0,IDENT_1,IDENT_2,


































