testDeleteWithoutItem,randomUUID,clearTestTable,deleteItem,
METHOD_0,METHOD_1,METHOD_2,METHOD_3,

abc4trust,SimpleParamTypes,TEST_TABLE,prefix,TestJdbcPersistentStorage,ps,
IDENT_0,IDENT_1,IDENT_2,IDENT_3,IDENT_4,IDENT_5,







"test-",
STRING_0,

























