testEmptyList,clearTestTable,listItems,keySet,
METHOD_0,METHOD_1,METHOD_2,METHOD_3,

abc4trust,SimpleParamTypes,TEST_TABLE,TestJdbcPersistentStorage,ps,
IDENT_0,IDENT_1,IDENT_2,IDENT_3,IDENT_4,


































