testTrimQueueNameEquals,trimQueueName,isWhitespace,
METHOD_0,METHOD_1,METHOD_2,

equalsStrings,resourcemanager,scheduler,fair,FairSchedulerUtilities,
IDENT_0,IDENT_1,IDENT_2,IDENT_3,IDENT_4,







" a"," 　a"," 　\r   　a"," 　   　 a","　 　　 \n 　a","a ","a  "," a ","　 　　 \n 　",
STRING_0,STRING_1,STRING_2,STRING_3,STRING_4,STRING_5,STRING_6,STRING_7,STRING_8,




--,
OP_0,



















