testEquals,Month,getModuleClass,
METHOD_0,METHOD_1,METHOD_2,

Month,m1,MonthConstants,MAY,m2,modules,PackageState,packageState,
IDENT_0,IDENT_1,IDENT_2,IDENT_3,IDENT_4,IDENT_5,IDENT_6,IDENT_7,

2002,
INT_0,































