save_should_generateId,createUserWithSampleAttributes,getItemName,
METHOD_0,METHOD_1,METHOD_2,

simpledb,SimpleDbUser,SimpleDbUserBuilder,itemName,
IDENT_0,IDENT_1,IDENT_2,IDENT_3,


































