testSetNullLinkedIdWhenAlreadySet,CommonProfile,setLinkedId,getLinkedId,
METHOD_0,METHOD_1,METHOD_2,METHOD_3,

pac4j,profile,CommonProfile,linkedId,
IDENT_0,IDENT_1,IDENT_2,IDENT_3,







"dummyLinkecId",
STRING_0,

























