hasNextBeforeTakingAnyElements,TakingIterator,
METHOD_0,METHOD_1,

numbers,jnape,palatable,lambda,iteration,TakingIterator,takingIterator,
IDENT_0,IDENT_1,IDENT_2,IDENT_3,IDENT_4,IDENT_5,IDENT_6,


































