should_not_create_indel_for_XNX_placeholder,Read,SES,
METHOD_0,METHOD_1,METHOD_2,

htsjdk,samtools,SAMRecord,wehi,idsv,IndelEvidence,kmers,
IDENT_0,IDENT_1,IDENT_2,IDENT_3,IDENT_4,IDENT_5,IDENT_6,







"1X10S","2X10S","1X1N1X10S","1X100N1X10S",
STRING_0,STRING_1,STRING_2,STRING_3,

























