should_not_trim_array_as_bcf_requires_counts_to_match_header,minimalVariant,attribute,make,getAttribute,jagged,noalt,
METHOD_0,METHOD_1,METHOD_2,METHOD_3,METHOD_4,METHOD_5,METHOD_6,

attr,
IDENT_0,







"LR",
STRING_0,

























