testPipingReadersAndWriters,StringReader,pipe,getAmount,
METHOD_0,METHOD_1,METHOD_2,METHOD_3,

Reader,Writer,destination,tddinaction,IO,currency,
IDENT_0,IDENT_1,IDENT_2,IDENT_3,IDENT_4,IDENT_5,







"abc","%.2f %s",
STRING_0,STRING_1,

























