testFileSystemReadsAndWritesByteArrays,writeFile,readFileAsBytes,readAsStream,readIntoByteArray,
METHOD_0,METHOD_1,METHOD_2,METHOD_3,METHOD_4,

path1,tddinaction,IO,
IDENT_0,IDENT_1,IDENT_2,


































