should_accept_all_up_to_accept_threshold,IntDensityThrottlingIterator,
METHOD_0,METHOD_1,

wehi,idsv,DensityThrottlingIteratorTest,kmers,
IDENT_0,IDENT_1,IDENT_2,IDENT_3,

1024,
INT_0,































