testInsert18WithIdsAcrossShardsAndCount,getConnectionManager,setLogCql,objectFromJsonResource,getClassLoader,buildKeyspace,setDefaultKeyspace,getObjectMapper,fromString,insertNObjects,Criteria,newTreeMap,setIndexKeys,teardown,getDefinitions,makeCQLforList,mapCount,getLimit,
METHOD_0,METHOD_1,METHOD_2,METHOD_3,METHOD_4,METHOD_5,METHOD_6,METHOD_7,METHOD_8,METHOD_9,METHOD_10,METHOD_11,METHOD_12,METHOD_13,METHOD_14,METHOD_15,METHOD_16,METHOD_17,

pardot,rhombus,ConnectionManager,cm,cobject,CKeyspaceDefinition,definition,JsonUtil,ObjectMapper,om,insertNum,functional,idList,Criteria,SortedMap,indexKeys,Maps,accountId,userId,objectType,CDefinition,def,keyspaceDefinition,CQLStatementIterator,statementIterator,cqlGenerator,
IDENT_0,IDENT_1,IDENT_2,IDENT_3,IDENT_4,IDENT_5,IDENT_6,IDENT_7,IDENT_8,IDENT_9,IDENT_10,IDENT_11,IDENT_12,IDENT_13,IDENT_14,IDENT_15,IDENT_16,IDENT_17,IDENT_18,IDENT_19,IDENT_20,IDENT_21,IDENT_22,IDENT_23,IDENT_24,IDENT_25,

18L,
INT_0,




"48574400-ba1e-11e2-8080-808080808080","7dcf8c00-bcc1-11e2-8080-808080808080","25e75400-bcc6-11e2-8080-808080808080","cdff1c00-bcca-11e2-8080-808080808080","723a9000-bcd6-11e2-8080-808080808080","5cff6400-9ed5-11e2-8080-808080808080","3ffb0000-a496-11e2-8080-808080808080","799bc000-7639-11e2-8080-808080808080","account_id","user_id",
STRING_0,STRING_1,STRING_2,STRING_3,STRING_4,STRING_5,STRING_6,STRING_7,STRING_8,STRING_9,

























