testGetCodeBlockWithComment,setReturns,newType,setComment,getCodeBlock,getModelWriter,writeParameter,
METHOD_0,METHOD_1,METHOD_2,METHOD_3,METHOD_4,METHOD_5,METHOD_6,

mth,
IDENT_0,







"blah","void","Hello","/**\n"," * Hello\n"," */\n","void blah();\n",
STRING_0,STRING_1,STRING_2,STRING_3,STRING_4,STRING_5,STRING_6,

























