testLongName,computeJobName,on,
METHOD_0,METHOD_1,METHOD_2,

abc,tinyAwsCluster,ontology2,haruhi,jobName,Joiner,jarArgs,
IDENT_0,IDENT_1,IDENT_2,IDENT_3,IDENT_4,IDENT_5,IDENT_6,







"x",
STRING_0,

























