testGetTagsReturnsEmptyArrayInsteadOfNull,newAbstractJavaEntity,getTags,
METHOD_0,METHOD_1,METHOD_2,

thoughtworks,qdox,AbstractJavaEntity,tags,
IDENT_0,IDENT_1,IDENT_2,IDENT_3,


































