testEnumConstant,isEnumConstant,writeField,
METHOD_0,METHOD_1,METHOD_2,

thoughtworks,qdox,JavaField,enumConstant,modelWriter,
IDENT_0,IDENT_1,IDENT_2,IDENT_3,IDENT_4,







"HADEAN","HADEAN;\n","++",
STRING_0,STRING_1,STRING_2,

























