testEnumConstantWithArguments,isEnumConstant,getParameterValue,getEnumConstantArguments,writeField,
METHOD_0,METHOD_1,METHOD_2,METHOD_3,METHOD_4,

thoughtworks,qdox,JavaField,enumConstant,Expression,mass,radius,modelWriter,
IDENT_0,IDENT_1,IDENT_2,IDENT_3,IDENT_4,IDENT_5,IDENT_6,IDENT_7,







"EARTH","5.976e+24","6.37814e6","EARTH( 5.976e+24, 6.37814e6 );\n","++",
STRING_0,STRING_1,STRING_2,STRING_3,STRING_4,

























