testSlice,DenseDoubleVector,sliceUnsafe,
METHOD_0,METHOD_1,METHOD_2,

vals1,vals2,hama,DoubleVector,vec1,vec2,vec3,newVec,vector,
IDENT_0,IDENT_1,IDENT_2,IDENT_3,IDENT_4,IDENT_5,IDENT_6,IDENT_7,IDENT_8,


































