retainsStuffThatsNotOptions,getRemainingArgs,
METHOD_0,METHOD_1,

devtools,Options,OptionsTest,HttpOptions,remainingArgs,
IDENT_0,IDENT_1,IDENT_2,IDENT_3,IDENT_4,







"these","aint","options",
STRING_0,STRING_1,STRING_2,

























