testAccumulatorRecovery1,accumulateRows,verifyRowCount,lookup,
METHOD_0,METHOD_1,METHOD_2,METHOD_3,

running,counter,accumulated,_id,_referent,_knownNull,
IDENT_0,IDENT_1,IDENT_2,IDENT_3,IDENT_4,IDENT_5,

10000,
INT_0,




"identifier not initialized",
STRING_0,

























