testSingleTrxManyInserts,begin,fetch,
METHOD_0,METHOD_1,METHOD_2,

INSERT_COUNT,trx1,ex1,persistit,Exchange,MVCCTestBase,
IDENT_0,IDENT_1,IDENT_2,IDENT_3,IDENT_4,IDENT_5,

5000,
INT_0,































