testGetOrdinal,SystemPropertyConfigSource,getOrdinal,
METHOD_0,METHOD_1,METHOD_2,

fish,payara,nucleus,microprofile,SystemPropertyConfigSource,
IDENT_0,IDENT_1,IDENT_2,IDENT_3,IDENT_4,

400,
INT_0,




"getOrdinal",
STRING_0,

























