testSetUuid,createTestIndexCreationStatus,setUuid,getUuid,
METHOD_0,METHOD_1,METHOD_2,METHOD_3,

pearson,docussandra,IndexCreatedEvent,testhelper,Fixtures,
IDENT_0,IDENT_1,IDENT_2,IDENT_3,IDENT_4,







"setUuid",
STRING_0,

























