decodeShortIntoObject,setType,decodeColumnValue,toBytes,
METHOD_0,METHOD_1,METHOD_2,METHOD_3,

stubValueMeta,Bytes,hBaseBytesUtilShim,var1,
IDENT_0,IDENT_1,IDENT_2,IDENT_3,


































