testCreateSuccess,forName,getRow,
METHOD_0,METHOD_1,METHOD_2,

charset,Charset,big,bundles,shim,ResultImpl,resultFactory,
IDENT_0,IDENT_1,IDENT_2,IDENT_3,IDENT_4,IDENT_5,IDENT_6,







"row","UTF-8",
STRING_0,STRING_1,

























