testCurrentTimeInMillis,injectEdge,currentTime,
METHOD_0,METHOD_1,METHOD_2,

EnvironmentEdge,EnvironmentEdgeManager,expectation,
IDENT_0,IDENT_1,IDENT_2,

3456,24,3600,
INT_0,INT_1,INT_2,































