testSetAndGetOperator,doCallRealMethod,setOperator,getOperator,thenCallRealMethod,
METHOD_0,METHOD_1,METHOD_2,METHOD_3,METHOD_4,

operator,
IDENT_0,


































