testGetStringOperators,getStringOperators,
METHOD_0,METHOD_1,

ops,shim,ColumnFilter,ComparisonType,SUBSTRING,PREFIX,REGEX,
IDENT_0,IDENT_1,IDENT_2,IDENT_3,IDENT_4,IDENT_5,IDENT_6,


































