testGetTableName,getHBaseValueMeta,getTableName,
METHOD_0,METHOD_1,METHOD_2,

shim,HBaseValueMeta,hbMeta,m_tableName,
IDENT_0,IDENT_1,IDENT_2,IDENT_3,


































