pCounter_01,PersistentState,getInteger,
METHOD_0,METHOD_1,METHOD_2,

seaborne,delta,PersistentState,pc,TestPersistentState,filename,
IDENT_0,IDENT_1,IDENT_2,IDENT_3,IDENT_4,IDENT_5,


































