testClass,ProgressNullMonitorListener,beginTask,subTask,worked,done,setTaskName,isCanceled,
METHOD_0,METHOD_1,METHOD_2,METHOD_3,METHOD_4,METHOD_5,METHOD_6,METHOD_7,

ProgressNullMonitorListener,
IDENT_0,


































