testWrite,WriterOutputStream,flush,getWriter,
METHOD_0,METHOD_1,METHOD_2,METHOD_3,

WriterOutputStream,Writer,streamWithEncoding,encoding,
IDENT_0,IDENT_1,IDENT_2,IDENT_3,

68,
INT_0,




"alu",
STRING_0,

























