testMessage,LifecycleException,getCause,getStackTrace,getClassName,getMethodName,getFileName,getLineNumber,
METHOD_0,METHOD_1,METHOD_2,METHOD_3,METHOD_4,METHOD_5,METHOD_6,METHOD_7,

lifecycle,retval,Const,CR,cause,StackTraceElement,ste,
IDENT_0,IDENT_1,IDENT_2,IDENT_3,IDENT_4,IDENT_5,IDENT_6,







"message"," at ","."," (",":",")",
STRING_0,STRING_1,STRING_2,STRING_3,STRING_4,STRING_5,




--,
OP_0,



















