testStopMessage,StopMessage,getReasonPhrase,
METHOD_0,METHOD_1,METHOD_2,

sMessage,encoder,decoder,oExpected,oActual,reasonPhrase,
IDENT_0,IDENT_1,IDENT_2,IDENT_3,IDENT_4,IDENT_5,







"MyStop Reason",
STRING_0,

























