testLoadSvgImage,loadSvgImage,nextBytes,
METHOD_0,METHOD_1,METHOD_2,

svg,SvgImage,SvgSupport,SvgSupportTest,svgImage,raw,UUID4Util,
IDENT_0,IDENT_1,IDENT_2,IDENT_3,IDENT_4,IDENT_5,IDENT_6,

63,128,
INT_0,INT_1,










&=,|=,
OP_0,OP_1,



















