testGetSafeFieldname_reservedWord,getReservedWords,getSafeFieldname,
METHOD_0,METHOD_1,METHOD_2,

BaseDatabaseMeta,CALLS_REAL_METHODS,fieldname,databaseDialect,
IDENT_0,IDENT_1,IDENT_2,IDENT_3,







"CASE","JOIN","case_","case",
STRING_0,STRING_1,STRING_2,STRING_3,

























