testSafeStop,setSafeStop,processRow,isSafeStopped,
METHOD_0,METHOD_1,METHOD_2,METHOD_3,

streamWindow,baseStreamStep,stepData,streamSource,safeStopped,
IDENT_0,IDENT_1,IDENT_2,IDENT_3,IDENT_4,


































