testRemove,addProviders,getModel,setSelectedItem,getModelObjects,
METHOD_0,METHOD_1,METHOD_2,METHOD_3,METHOD_4,

providers,
IDENT_0,


































