getDatabaseId_ExactMatch,randomUUID,saveDatabase,getDatabaseID,getObjectId,
METHOD_0,METHOD_1,METHOD_2,METHOD_3,METHOD_4,

DatabaseMeta,ObjectId,purRepository,
IDENT_0,IDENT_1,IDENT_2,


































