testGetSolutionPath,getConsoleConfig,getSolutionPath,
METHOD_0,METHOD_1,METHOD_2,

consoleConfig,spyAppConfigProperties,solutionPath,
IDENT_0,IDENT_1,IDENT_2,







"/home/users/solutionPath",
STRING_0,

























