testDecryptNullPassword,decrypt,Base64PasswordService,
METHOD_0,METHOD_1,METHOD_2,

decrypted,Base64PasswordService,ps,encoded,
IDENT_0,IDENT_1,IDENT_2,IDENT_3,







"ENC:",
STRING_0,

























