testGetProperty_unknown,SystemConfig,
METHOD_0,METHOD_1,

systemConfig,configs,propNameToPropMap,
IDENT_0,IDENT_1,IDENT_2,







"1000.X",
STRING_0,

























