testInvalidCharset,main,getException,
METHOD_0,METHOD_1,METHOD_2,

importexport,CommandLineProcessor,CommandLineProcessorTest,ARGS_INVALID,
IDENT_0,IDENT_1,IDENT_2,IDENT_3,


































