testCreateDataNode,createDataNode,
METHOD_0,METHOD_1,

repository2,unified,NodeHelperTest,mLog,DataNode,lDataNode,NodeHelper,
IDENT_0,IDENT_1,IDENT_2,IDENT_3,IDENT_4,IDENT_5,IDENT_6,







"testCreateDataNode..","TEST_NODE",
STRING_0,STRING_1,

























