testGetExtraCalculationFields,getExtraCalculationFields,
METHOD_0,METHOD_1,

expressionPropertyCore,metaData,
IDENT_0,IDENT_1,







"item",
STRING_0,

























