saveRetrySaved,WriteModel,deleteAll,
METHOD_0,METHOD_1,METHOD_2,

psddev,dari,h2,WriteModel,objectClass,
IDENT_0,IDENT_1,IDENT_2,IDENT_3,IDENT_4,


































