toLabel_null,toLabel,
METHOD_0,METHOD_1,

isShortened,diff,psddev,dari,DateUtils,
IDENT_0,IDENT_1,IDENT_2,IDENT_3,IDENT_4,

60,24,
INT_0,INT_1,




"less than a minute ago","1 minute ago"," minutes ago","1 hour ago"," hours ago","EEE, MMM d, yyyy, h:mm a zz",
STRING_0,STRING_1,STRING_2,STRING_3,STRING_4,STRING_5,




/=,
OP_0,



















