remove_size_field,ObjectMap,ObjRemove,
METHOD_0,METHOD_1,METHOD_2,

psddev,dari,ObjectMap,objmap,ObjectMapTest,rawValues,
IDENT_0,IDENT_1,IDENT_2,IDENT_3,IDENT_4,IDENT_5,







"field_pub",
STRING_0,

























