putByPath_path_existing_not_overlapping,putByPath,
METHOD_0,METHOD_1,

psddev,dari,CollectionUtils,names,newMap,
IDENT_0,IDENT_1,IDENT_2,IDENT_3,IDENT_4,







"x","y","value 2","c","value 1","a/b/c",
STRING_0,STRING_1,STRING_2,STRING_3,STRING_4,STRING_5,

























