testIsNeZeroEncoded_extended000100,createApduFromString,isNeZeroEncoded,
METHOD_0,METHOD_1,METHOD_2,

persosim,simulator,apdu,CommandApdu,commandApdu,isExtendedLength,ne,
IDENT_0,IDENT_1,IDENT_2,IDENT_3,IDENT_4,IDENT_5,IDENT_6,

65536,256,
INT_0,INT_1,




"00800000|000100",
STRING_0,

























