test_toString,getThreadId,getExecutionTime,getErrorCode,getDatabase,getSql,getStatement,hex,
METHOD_0,METHOD_1,METHOD_2,METHOD_3,METHOD_4,METHOD_5,METHOD_6,METHOD_7,

psddev,dari,typeId,
IDENT_0,IDENT_1,IDENT_2,







"DariQueryEventData","{threadId=",", executionTime=",", errorCode=",", database='",'\'',", sql='",", statement='",", id='",", typeId='",'}',
STRING_0,STRING_1,STRING_2,STRING_3,STRING_4,STRING_5,STRING_6,STRING_7,STRING_8,STRING_9,STRING_10,

























