testSubtractPaths4,subtractPathOrNull,
METHOD_0,METHOD_1,

Paths,sub,perlundq,yajsync,PathOps,ConnInfo,_userName,_address,_portNumber,
IDENT_0,IDENT_1,IDENT_2,IDENT_3,IDENT_4,IDENT_5,IDENT_6,IDENT_7,IDENT_8,


































