testI2os_ByteArray_lengthMatchingOctetString,i2os,toUnsignedByteArray,
METHOD_0,METHOD_1,METHOD_2,

bigInt,expectedResult,persosim,simulator,Tr03111Utils,ZERO,
IDENT_0,IDENT_1,IDENT_2,IDENT_3,IDENT_4,IDENT_5,

42,
INT_0,




"x must be non-negative",
STRING_0,

























