testEncodeDate_LeapDay,encodeDate,setTime,
METHOD_0,METHOD_1,METHOD_2,

calendar,YEAR,MONTH,FEBRUARY,DATE,HOUR_OF_DAY,MINUTE,SECOND,MILLISECOND,dateInput,dateExpected,dateReceived,persosim,simulator,year,month,day,DAY_OF_MONTH,y2,y1,m2,m1,d2,d1,
IDENT_0,IDENT_1,IDENT_2,IDENT_3,IDENT_4,IDENT_5,IDENT_6,IDENT_7,IDENT_8,IDENT_9,IDENT_10,IDENT_11,IDENT_12,IDENT_13,IDENT_14,IDENT_15,IDENT_16,IDENT_17,IDENT_18,IDENT_19,IDENT_20,IDENT_21,IDENT_22,IDENT_23,

1984,29,
INT_0,INT_1,










%=,%,
OP_0,OP_1,



















