testAsn1DateWrapperEncode,TlvTag,ConstructedTlvDataObject,clone,
METHOD_0,METHOD_1,METHOD_2,METHOD_3,

persosim,simulator,tlv,ConstructedTlvDataObject,received,Asn1DateWrapper,HexString,oidByteArray,
IDENT_0,IDENT_1,IDENT_2,IDENT_3,IDENT_4,IDENT_5,IDENT_6,IDENT_7,

99,
INT_0,




"20201031","630A12083230323031303331",
STRING_0,STRING_1,

























