testArrayHasPrefix_PrefixSameSizeAsData,arrayHasPrefix,
METHOD_0,METHOD_1,

persosim,simulator,HexString,prefix,
IDENT_0,IDENT_1,IDENT_2,IDENT_3,







"00112233445566778899",
STRING_0,

























