testAdd,Calculator,getResult,
METHOD_0,METHOD_1,METHOD_2,

ru,lessons,lesson_4,Calculator,calculator,
IDENT_0,IDENT_1,IDENT_2,IDENT_3,IDENT_4,


































