testMaskUnsignedByteToIntByte_SignedByteLimit,maskUnsignedByteToInt,
METHOD_0,METHOD_1,

persosim,simulator,byteValue,MASK_BYTE_TO_INT,
IDENT_0,IDENT_1,IDENT_2,IDENT_3,

127,
INT_0,































