testGetIntFromUnsignedByteArrayByteArray_HighestBit,getIntFromUnsignedByteArray,getDataTypeFromUnsignedByteArray,
METHOD_0,METHOD_1,METHOD_2,

bytearray,persosim,simulator,
IDENT_0,IDENT_1,IDENT_2,

128,8389123,4294967295L,
INT_0,INT_1,INT_2,































