testRemovePutFlip,waitTillFinished0,waitTillEqual,
METHOD_0,METHOD_1,METHOD_2,

map1,map2,timeOutMs,
IDENT_0,IDENT_1,IDENT_2,

1399459457425L,5000,
INT_0,INT_1,































