testWarningsAreCleared,createStatement,executeQuery,getWarnings,checkClosed,
METHOD_0,METHOD_1,METHOD_2,METHOD_3,METHOD_4,

Statement,con,warnings,
IDENT_0,IDENT_1,IDENT_2,







"CREATE TEMP TABLE unused (a int primary key)","SELECT 1",
STRING_0,STRING_1,

























