toStringTest,UIXRecordElement,
METHOD_0,METHOD_1,

phenotips,RecordElement,uiExtension,recordSection,
IDENT_0,IDENT_1,IDENT_2,IDENT_3,







"title","Age of onset",
STRING_0,STRING_1,

























