getDisplayedFieldsWithMissingProperty,UIXRecordElement,getDisplayedFields,
METHOD_0,METHOD_1,METHOD_2,

phenotips,RecordElement,uiExtension,recordSection,
IDENT_0,IDENT_1,IDENT_2,IDENT_3,


































