testGetWhenPanelIsEmpty,PanelData,emptySet,
METHOD_0,METHOD_1,METHOD_2,

phenotips,panels,PanelData,presentSet1,genePanelLoader,internalList,
IDENT_0,IDENT_1,IDENT_2,IDENT_3,IDENT_4,IDENT_5,


































