verifyDefaultTestImplementationIsNotCodeFieldsOnly,isCodeFieldsOnly,
METHOD_0,METHOD_1,

phenotips,AbstractComplexController,
IDENT_0,IDENT_1,


































