shouldGetViewArtifactFromUrl,FacesView,setUrl,getViewArtifact,ViewArtifact,getUrl,
METHOD_0,METHOD_1,METHOD_2,METHOD_3,METHOD_4,METHOD_5,

springfaces,mvc,FacesView,
IDENT_0,IDENT_1,IDENT_2,







"artifact",
STRING_0,

























