testVersionGetLowGivesRightOutput,Version,getLowNumber,
METHOD_0,METHOD_1,METHOD_2,

phoenicis,Version,lowNumber,
IDENT_0,IDENT_1,IDENT_2,







"4.1.9",
STRING_0,

























