testHashMapPutAllIsNotAllowed,putAll,getNodeName,
METHOD_0,METHOD_1,METHOD_2,

Characteristics,CDI,
IDENT_0,IDENT_1,







"BuilderNode: "," (\"","\")",
STRING_0,STRING_1,STRING_2,

























