testEmptyChain,ContainerChain,getLast,
METHOD_0,METHOD_1,METHOD_2,

picocontainer,chain,ContainerChain,last,
IDENT_0,IDENT_1,IDENT_2,IDENT_3,


































