testLocalStepWithLimitNotOnDb,addVertex,addEdge,traversal,V,local,limit,
METHOD_0,METHOD_1,METHOD_2,METHOD_3,METHOD_4,METHOD_5,METHOD_6,

gremlin,structure,Vertex,a1,sqlgGraph,label,b1,b2,b3,bb1,bb2,bb3,c11,c12,c13,c21,c22,c23,c31,c32,c33,traversal,dsl,DefaultGraphTraversal,__,umlg,sqlg,localvertexstep,vertices,
IDENT_0,IDENT_1,IDENT_2,IDENT_3,IDENT_4,IDENT_5,IDENT_6,IDENT_7,IDENT_8,IDENT_9,IDENT_10,IDENT_11,IDENT_12,IDENT_13,IDENT_14,IDENT_15,IDENT_16,IDENT_17,IDENT_18,IDENT_19,IDENT_20,IDENT_21,IDENT_22,IDENT_23,IDENT_24,IDENT_25,IDENT_26,IDENT_27,IDENT_28,







"BB","B","c13","bb3","c11","c22","c31","c32","c33","ab",
STRING_0,STRING_1,STRING_2,STRING_3,STRING_4,STRING_5,STRING_6,STRING_7,STRING_8,STRING_9,

























