testHashCode,ElapseTimeEntry,
METHOD_0,METHOD_1,

piraso,ElapseTimeEntry,e1,e2,e3,pathsSet,
IDENT_0,IDENT_1,IDENT_2,IDENT_3,IDENT_4,IDENT_5,

3L,2L,4L,
INT_0,INT_1,INT_2,































