testUnoptimizedRepeatDeep,addVertex,addEdge,traversal,V,hasLabel,repeat,until,has,
METHOD_0,METHOD_1,METHOD_2,METHOD_3,METHOD_4,METHOD_5,METHOD_6,METHOD_7,METHOD_8,

gremlin,structure,Vertex,a1,sqlgGraph,label,b1,b2,b3,c11,c12,c13,c21,c22,c23,c31,c32,c33,vertices,__,
IDENT_0,IDENT_1,IDENT_2,IDENT_3,IDENT_4,IDENT_5,IDENT_6,IDENT_7,IDENT_8,IDENT_9,IDENT_10,IDENT_11,IDENT_12,IDENT_13,IDENT_14,IDENT_15,IDENT_16,IDENT_17,IDENT_18,IDENT_19,







"A","hub","B","ab","C","bc","D","cd",
STRING_0,STRING_1,STRING_2,STRING_3,STRING_4,STRING_5,STRING_6,STRING_7,

























