testWhereVertexStepTraversalStep1,addVertex,addEdge,traversal,V,hasLabel,where,
METHOD_0,METHOD_1,METHOD_2,METHOD_3,METHOD_4,METHOD_5,METHOD_6,

gremlin,structure,Vertex,a1,sqlgGraph,label,a2,b1,b2,b3,traversal,dsl,GraphTraversal,__,vertices,
IDENT_0,IDENT_1,IDENT_2,IDENT_3,IDENT_4,IDENT_5,IDENT_6,IDENT_7,IDENT_8,IDENT_9,IDENT_10,IDENT_11,IDENT_12,IDENT_13,IDENT_14,







"A","a1","a2","B","b1","b2","b3","ab",
STRING_0,STRING_1,STRING_2,STRING_3,STRING_4,STRING_5,STRING_6,STRING_7,

























