testGetIntValueEmptyMap,Preferences,getIntValue,
METHOD_0,METHOD_1,METHOD_2,

piraso,Preferences,preferences,MapUtils,integerProperties,
IDENT_0,IDENT_1,IDENT_2,IDENT_3,IDENT_4,


































