testHashCode,UserRole,HashCodeBuilder,toHashCode,
METHOD_0,METHOD_1,METHOD_2,METHOD_3,

testRoleName,fiveamsolutions,plc,jaas,UserRole,testRole1,testRole2,
IDENT_0,IDENT_1,IDENT_2,IDENT_3,IDENT_4,IDENT_5,IDENT_6,







"testRole",
STRING_0,

























