testCallOptionalExistingMethod,make,ExprExecCtxt,
METHOD_0,METHOD_1,METHOD_2,

pm4j,pm,pathresolver,Pojo,Expression,PathExpressionChain,ctxt,
IDENT_0,IDENT_1,IDENT_2,IDENT_3,IDENT_4,IDENT_5,IDENT_6,







"head","(x)nonExistingMethod().name",
STRING_0,STRING_1,

























