testSetDbType,DBURI,DBType,setDbType,getDbType,
METHOD_0,METHOD_1,METHOD_2,METHOD_3,METHOD_4,

pmd,DBURI,DBURITest,C_ORACLE_OCI_2,DBType,dbType,
IDENT_0,IDENT_1,IDENT_2,IDENT_3,IDENT_4,IDENT_5,







"setDbType","postgresql",
STRING_0,STRING_1,

























