testFacadesOffByDefault,loadFirstRule,isDfa,
METHOD_0,METHOD_1,METHOD_2,

pmd,Rule,RuleSetFactoryTest,XPATH,
IDENT_0,IDENT_1,IDENT_2,IDENT_3,


































