testSetUri,DBURI,setUri,getUri,
METHOD_0,METHOD_1,METHOD_2,METHOD_3,

pmd,DBURITest,C_ORACLE_OCI_1,DBURI,C_TEST_URI,
IDENT_0,IDENT_1,IDENT_2,IDENT_3,IDENT_4,







"setUri",
STRING_0,

























