testGetCount,nextInt,Metric,getCount,
METHOD_0,METHOD_1,METHOD_2,METHOD_3,

pmd,stat,Metric,metric,testName,
IDENT_0,IDENT_1,IDENT_2,IDENT_3,IDENT_4,


































