testFileExistence,getSourceDistribution,
METHOD_0,METHOD_1,

pmd,PMDVersion,VERSION,
IDENT_0,IDENT_1,IDENT_2,







".","target/pmd-src-",".zip",
STRING_0,STRING_1,STRING_2,

























