testStaticImport,getNodes,isStatic,
METHOD_0,METHOD_1,METHOD_2,

pmd,ASTImportDeclaration,ops,ParserTstUtil,ASTImportDeclarationTest,TEST3,
IDENT_0,IDENT_1,IDENT_2,IDENT_3,IDENT_4,IDENT_5,


































