testAttributeWhitespaceEscaping,Html,head,done,getBuffer,
METHOD_0,METHOD_1,METHOD_2,METHOD_3,METHOD_4,

jatl,
IDENT_0,







"hello\nworld","hello\t\tworld","<html>\n","\t<head>\n","\t</head>\n","\t<input value=\"hello&#xA;world\"/>\n","\t<input value=\"hello&#x9;&#x9;world\"/>\n","</html>",
STRING_0,STRING_1,STRING_2,STRING_3,STRING_4,STRING_5,STRING_6,STRING_7,

























