testMaterialLookup,getMaterial,isPresent,getAndIncrement,
METHOD_0,METHOD_1,METHOD_2,METHOD_3,

pocketserver,Material,material,optional,counter,
IDENT_0,IDENT_1,IDENT_2,IDENT_3,IDENT_4,


































