testDecodeBSONSPEC1,decodeFromWire,decodeDocument,
METHOD_0,METHOD_1,METHOD_2,

jetdrone,BSONSPECTest,BSON,Buffer,BSONMessageCodec,
IDENT_0,IDENT_1,IDENT_2,IDENT_3,IDENT_4,

22,
INT_0,




'h','e','l','o','w','r','d',"hello","world",
STRING_0,STRING_1,STRING_2,STRING_3,STRING_4,STRING_5,STRING_6,STRING_7,STRING_8,

























