getMaxIndexRows,setInt,AccumuloIndexParameters,
METHOD_0,METHOD_1,METHOD_2,

AccumuloIndexParameters,MAX_INDEX_ROWS,maxRows,serde,
IDENT_0,IDENT_1,IDENT_2,IDENT_3,


































