testRenameVariables1,parse0,swapVariables,
METHOD_0,METHOD_1,METHOD_2,

vars,poly,multivar,MultivariatePolynomialZp64,nVariables,Poly,AMultivariatePolynomial,
IDENT_0,IDENT_1,IDENT_2,IDENT_3,IDENT_4,IDENT_5,IDENT_6,







"c","d","e","5+6*b*e+7*b^2+3*a^2+d+15*a^2*b^2+a^3+11*a^3*b*e^9+6*a^3*b^2+c*e^3",
STRING_0,STRING_1,STRING_2,STRING_3,

























