testQuickSortComparator1,IntComparator,Well1024a,nextInt,quickSort,
METHOD_0,METHOD_1,METHOD_2,METHOD_3,METHOD_4,

IntComparator,comparator,RandomGenerator,rnd,ArraysUtil,coSort,
IDENT_0,IDENT_1,IDENT_2,IDENT_3,IDENT_4,IDENT_5,

10000,
INT_0,































