testHashCodesM3_32_ints,Random,murmur3_32,nextInt,allocate,putInt,hashBytes,asInt,hash32,rotateLeft,
METHOD_0,METHOD_1,METHOD_2,METHOD_3,METHOD_4,METHOD_5,METHOD_6,METHOD_7,METHOD_8,METHOD_9,

seed,Random,rand,HashFunction,hf,Hashing,hc1,hc2,prasanthj,hll,Murmur3,nblocks,i_4,C1_32,R1_32,C2_32,R2_32,M_32,N_32,idx,k1,
IDENT_0,IDENT_1,IDENT_2,IDENT_3,IDENT_4,IDENT_5,IDENT_6,IDENT_7,IDENT_8,IDENT_9,IDENT_10,IDENT_11,IDENT_12,IDENT_13,IDENT_14,IDENT_15,IDENT_16,IDENT_17,IDENT_18,IDENT_19,IDENT_20,

123,24,2048144789,13,1028477387,
INT_0,INT_1,INT_2,INT_3,INT_4,










*=,^=,
OP_0,OP_1,



















