orderShouldNotBeFilled,hasInventory,Order,fill,never,isFilled,
METHOD_0,METHOD_1,METHOD_2,METHOD_3,METHOD_4,METHOD_5,

warehouse,pragmatists,OrderTestMockito,ZIEMNIAKI,Order,filled,
IDENT_0,IDENT_1,IDENT_2,IDENT_3,IDENT_4,IDENT_5,

51,
INT_0,































