isPathWithinSubtree_descendantInside,isPathWithinSubtree,depth,
METHOD_0,METHOD_1,METHOD_2,

subtree,FileUtils,
IDENT_0,IDENT_1,







"/foo/bar","/foo",
STRING_0,STRING_1,

























