testGetSetQuery,createObjectNode,setQuery,getQuery,
METHOD_0,METHOD_1,METHOD_2,METHOD_3,

JsonNode,JsonHandler,RequestResponseTest,requestResponse,
IDENT_0,IDENT_1,IDENT_2,IDENT_3,


































