getSearchStringReturnsSuppliedString,EntityLookupRequest,getSearchString,
METHOD_0,METHOD_1,METHOD_2,

stanford,bmir,protege,EntityLookupRequest,searchString,
IDENT_0,IDENT_1,IDENT_2,IDENT_3,IDENT_4,







"Test",
STRING_0,

























