getLexicalFormIsEqualToTheConstructorLexicalForm,getLexicalForm,
METHOD_0,METHOD_1,

stanford,bmir,protege,crud,EntityCrudKitId,lexicalForm,
IDENT_0,IDENT_1,IDENT_2,IDENT_3,IDENT_4,IDENT_5,







"A",
STRING_0,

























