shouldReturnLetterForHyphen,isUpperCase,isLowerCase,isDigit,
METHOD_0,METHOD_1,METHOD_2,METHOD_3,

stanford,bmir,protege,EntityNameCharType,Character,UPPER_CASE_LETTER,LETTER,DIGIT,SINGLE_QUOTE,ESCAPING_QUOTE,BOUNDARY,
IDENT_0,IDENT_1,IDENT_2,IDENT_3,IDENT_4,IDENT_5,IDENT_6,IDENT_7,IDENT_8,IDENT_9,IDENT_10,

33,47,58,64,91,96,123,126,
INT_0,INT_1,INT_2,INT_3,INT_4,INT_5,INT_6,INT_7,




'-',' ','\t','\n',
STRING_0,STRING_1,STRING_2,STRING_3,

























