testString,allocate,WriteSession,writeUTF8,
METHOD_0,METHOD_1,METHOD_2,METHOD_3,

MessagePack,UTF8,protostuff,LinkedBuffer,lb,WriteSession,StringSerializer,CharSequence,tail,xdata,
IDENT_0,IDENT_1,IDENT_2,IDENT_3,IDENT_4,IDENT_5,IDENT_6,IDENT_7,IDENT_8,IDENT_9,


































