testTextIsNotValid,
METHOD_0,

psdev,formvalidations,validations,Validation,InRange,
IDENT_0,IDENT_1,IDENT_2,IDENT_3,IDENT_4,







"[0-9a-zA-Z]*",
STRING_0,

























