testRunMethodInvocationExpr,Parser,preserveWhitespaces,printToString,printTo,PrintWriter,
METHOD_0,METHOD_1,METHOD_2,METHOD_3,METHOD_4,METHOD_5,

jlato,Parser,ParserConfiguration,Default,Expr,expr1,ParseContext,Expression,Tree,printer,Printer,
IDENT_0,IDENT_1,IDENT_2,IDENT_3,IDENT_4,IDENT_5,IDENT_6,IDENT_7,IDENT_8,IDENT_9,IDENT_10,







"scope/*a*/./*a*/method /*c*/ (/*1*/arg1/*2*/, /*3*/arg2/*4*/)",
STRING_0,

























