shouldRollbackOnErrorWhenBuild,setRollbackOnly,
METHOD_0,METHOD_1,

qcadoo,documentBuilder,transactionStatus,valid,
IDENT_0,IDENT_1,IDENT_2,IDENT_3,


































