shouldReturnNullIfGivenEntityIsNull,extractFullName,getStringField,
METHOD_0,METHOD_1,METHOD_2,

fullName,userService,qcadoo,firstName,UserFields,FIRST_NAME,lastName,LAST_NAME,
IDENT_0,IDENT_1,IDENT_2,IDENT_3,IDENT_4,IDENT_5,IDENT_6,IDENT_7,







"%s %s",
STRING_0,

























