httpUrlToFile,urlToFile,getProtocol,
METHOD_0,METHOD_1,METHOD_2,

qos,cal10n,MiscUtil,candidate,
IDENT_0,IDENT_1,IDENT_2,IDENT_3,







"http://www.xyz.com","file",
STRING_0,STRING_1,

























