innerClass_II,setLevel,getLogger,Inner,getEffectiveLevel,
METHOD_0,METHOD_1,METHOD_2,METHOD_3,METHOD_4,

Level,DEBUG,qos,logback,classic,Logger,lc,INFO,a_b,LoggerTest,level,effLevel,
IDENT_0,IDENT_1,IDENT_2,IDENT_3,IDENT_4,IDENT_5,IDENT_6,IDENT_7,IDENT_8,IDENT_9,IDENT_10,IDENT_11,


































