testLevel,setExpression,makeLoggingEvent,getRequestURL,
METHOD_0,METHOD_1,METHOD_2,METHOD_3,

jee,qos,logback,classic,ILoggingEvent,access,IAccessEvent,URLList,
IDENT_0,IDENT_1,IDENT_2,IDENT_3,IDENT_4,IDENT_5,IDENT_6,IDENT_7,







"level > DEBUG",
STRING_0,

























