testSetExcludedProtocols,setSupportedProtocols,setExcludedProtocols,configure,getEnabledProtocols,
METHOD_0,METHOD_1,METHOD_2,METHOD_3,METHOD_4,

configurable,enabledProtocols,
IDENT_0,IDENT_1,







"A","B",
STRING_0,STRING_1,

























