testEntering,getXLogger,
METHOD_0,METHOD_1,

slf4j,XLogger,XLoggerFactory,LoggingEvent,listAppender,MDC,NDC,PREFIX,
IDENT_0,IDENT_1,IDENT_2,IDENT_3,IDENT_4,IDENT_5,IDENT_6,IDENT_7,







"c","d","e","f","entry","entry with (1)","entry with (test)",
STRING_0,STRING_1,STRING_2,STRING_3,STRING_4,STRING_5,STRING_6,

























