testRetainMatchingWithNoPatterns,stringToList,retainMatching,
METHOD_0,METHOD_1,METHOD_2,

qos,logback,StringCollectionUtil,underlyingList,
IDENT_0,IDENT_1,IDENT_2,IDENT_3,







"A",
STRING_0,

























