getJoins2,addJoin,getJoins,JoinExpression,
METHOD_0,METHOD_1,METHOD_2,METHOD_3,

JoinType,DEFAULT,joinTarget,joins,JoinExpression,joinType,joinCondition,joinFlags,
IDENT_0,IDENT_1,IDENT_2,IDENT_3,IDENT_4,IDENT_5,IDENT_6,IDENT_7,


































