testConstructorWithEmptyInputIsAccepted,QueryBuilder,prettyPrint,
METHOD_0,METHOD_1,METHOD_2,

quantumdb,QueryBuilder,definitions,PrettyPrinter,
IDENT_0,IDENT_1,IDENT_2,IDENT_3,


































