any_in_where_and_projection,Cat,setKittens,where,fetch,innerList,
METHOD_0,METHOD_1,METHOD_2,METHOD_3,METHOD_4,METHOD_5,

Cat,aa,ab,ba,bb,QCat,cat,kittens,CollQueryFactory,
IDENT_0,IDENT_1,IDENT_2,IDENT_3,IDENT_4,IDENT_5,IDENT_6,IDENT_7,IDENT_8,







"aa","ab","ac","ba","bb",
STRING_0,STRING_1,STRING_2,STRING_3,STRING_4,

























