testEstimateSourceSizeTotalLength,SplitSample,estimateSourceSize,round,
METHOD_0,METHOD_1,METHOD_2,METHOD_3,

splitSample,ql,TestSplitSample,TOTAL_LENGTH,SEED_NUM,percent,targetSize,
IDENT_0,IDENT_1,IDENT_2,IDENT_3,IDENT_4,IDENT_5,IDENT_6,










100.0,
FLOAT_0,






















