valueIterator,
METHOD_0,

beanMap,answer,readMethods,iter,
IDENT_0,IDENT_1,IDENT_2,IDENT_3,







"firstName","John",
STRING_0,STRING_1,

























