sum_coalesce,sum,coalesce,fetchFirst,oneResult,
METHOD_0,METHOD_1,METHOD_2,METHOD_3,METHOD_4,

AbstractJPATest,cat,weight,
IDENT_0,IDENT_1,IDENT_2,


































