unknownKey,addWorkItem,isDormant,dormantToReady,
METHOD_0,METHOD_1,METHOD_2,METHOD_3,

K,W,rabbitmq,VariableLinkedBlockingQueue,enqueueingCallback,
IDENT_0,IDENT_1,IDENT_2,IDENT_3,IDENT_4,




synchronized,
MOD_0,




























