extract2,createMap,EmployeeX,
METHOD_0,METHOD_1,METHOD_2,

AnnotationMapper,DEFAULT,dml,AnnotationMapperTest,emp,batches,
IDENT_0,IDENT_1,IDENT_2,IDENT_3,IDENT_4,IDENT_5,


































