extract_failure,createMap,
METHOD_0,METHOD_1,

AnnotationMapper,DEFAULT,dml,AnnotationMapperTest,emp,employee,batches,
IDENT_0,IDENT_1,IDENT_2,IDENT_3,IDENT_4,IDENT_5,IDENT_6,


































