shouldReturnMinOffsetWhenOffsetIsBelowMin,determinePageOffset,
METHOD_0,METHOD_1,

openstack,PaginationHelper,MIN_PAGE_OFFSET,DEFAULT_PAGE_OFFSET,
IDENT_0,IDENT_1,IDENT_2,IDENT_3,


































