shouldRejectCluster,setCluster,Cluster,passedValidation,
METHOD_0,METHOD_1,METHOD_2,METHOD_3,

lb,openstack,validators,ValidatorResult,POST,expectationResultList,
IDENT_0,IDENT_1,IDENT_2,IDENT_3,IDENT_4,IDENT_5,


































