shouldAcceptValidEnum,passed,
METHOD_0,METHOD_1,

openstack,verifiers,VerifierResult,verifier,MustBeInArrayTest,SampleTypes1,S1,
IDENT_0,IDENT_1,IDENT_2,IDENT_3,IDENT_4,IDENT_5,IDENT_6,


































