shouldReturnTrueWhenEqualToEndTime,stringToCalendar,isBetween,
METHOD_0,METHOD_1,METHOD_2,

cal,openstack,CalendarUtils,startTime,endTime,isBetween,endTimeInclusive,
IDENT_0,IDENT_1,IDENT_2,IDENT_3,IDENT_4,IDENT_5,IDENT_6,







"2013-01-29 01:00:00","2013-01-29 00:00:00",
STRING_0,STRING_1,

























