shouldAcceptValidVip,passedValidation,
METHOD_0,METHOD_1,

openstack,ValidatorResult,lbvipvalidator,vip,mgmt,validators,VIPS_POST,expectationResultList,
IDENT_0,IDENT_1,IDENT_2,IDENT_3,IDENT_4,IDENT_5,IDENT_6,IDENT_7,


































