testEscape_html,escape_html,
METHOD_0,METHOD_1,

openstack,
IDENT_0,







"escape_html","<html>\"Tom & Jerry\"\n</html>","&lt;html&gt;&quot;Tom&nbsp;&amp;&nbsp;Jerry&quot;<br/>&lt;/html&gt;",' ',"&nbsp;",'<',"&lt;",'>',"&gt;",'"',"&quot;",'&',"&amp;",'\n',"<br/>",
STRING_0,STRING_1,STRING_2,STRING_3,STRING_4,STRING_5,STRING_6,STRING_7,STRING_8,STRING_9,STRING_10,STRING_11,STRING_12,STRING_13,STRING_14,

























