testBigIntToIPv6,IPv6,expand,
METHOD_0,METHOD_1,METHOD_2,

ip,openstack,
IDENT_0,IDENT_1,







"::feef:aeae","4277120686",
STRING_0,STRING_1,

























