testRangeIterator20m,makeRanges,getRangesToRollup,verifySingleSlot,slot,
METHOD_0,METHOD_1,METHOD_2,METHOD_3,METHOD_4,

rackspacecloud,blueflood,Range,expectedRanges,rollup,SlotTest,Granularity,MIN_20,actualRanges,baseMillis,hrs,endMillis,stop,
IDENT_0,IDENT_1,IDENT_2,IDENT_3,IDENT_4,IDENT_5,IDENT_6,IDENT_7,IDENT_8,IDENT_9,IDENT_10,IDENT_11,IDENT_12,

3600000,33,6500000,
INT_0,INT_1,INT_2,































