normalUsageCase008,processRecords,hasValues,
METHOD_0,METHOD_1,METHOD_2,

processedUsages,usageRollupProcessor,allUsageRecordsInOrder,hourToRollup,lbsActiveDuringHour,openstack,Usage,actualUsage,usagerefactor,AssertUsage,
IDENT_0,IDENT_1,IDENT_2,IDENT_3,IDENT_4,IDENT_5,IDENT_6,IDENT_7,IDENT_8,IDENT_9,

1234,
INT_0,




"2013-04-10 20:00:00","2013-04-10 21:00:00",
STRING_0,STRING_1,

























