testLongRollup,Average,addBatch,toLong,
METHOD_0,METHOD_1,METHOD_2,METHOD_3,

rackspacecloud,blueflood,Average,baseline,rollup,longValue,
IDENT_0,IDENT_1,IDENT_2,IDENT_3,IDENT_4,IDENT_5,

1234,7L,2565,11L,767,17L,
INT_0,INT_1,INT_2,INT_3,INT_4,INT_5,































