equalsOtherNotRollupReturnsFalse,BluefloodCounterRollup,
METHOD_0,METHOD_1,

rackspacecloud,blueflood,BluefloodCounterRollup,rollup,Granularity,
IDENT_0,IDENT_1,IDENT_2,IDENT_3,IDENT_4,


































