pointIsNotEqualIfDataPointsAreNotEqual,SimpleNumber,
METHOD_0,METHOD_1,

rackspacecloud,blueflood,SimpleNumber,timestamp,Points,Point,point,item2,point2,isEqual,SlotState,
IDENT_0,IDENT_1,IDENT_2,IDENT_3,IDENT_4,IDENT_5,IDENT_6,IDENT_7,IDENT_8,IDENT_9,IDENT_10,

42,1234L,43,
INT_0,INT_1,INT_2,































