deleteTopicLastPostIsNullShouldForceReload,newTopic,getForum,setLastPost,Post,getLastPost,deleted,
METHOD_0,METHOD_1,METHOD_2,METHOD_3,METHOD_4,METHOD_5,METHOD_6,

jforum,Topic,topic,Post,post,forum,
IDENT_0,IDENT_1,IDENT_2,IDENT_3,IDENT_4,IDENT_5,

11,
INT_0,































