customIteratorTest,ProductRepository,
METHOD_0,METHOD_1,

designpatternsaga,ProductRepository,productIterator,products,currentIndex,
IDENT_0,IDENT_1,IDENT_2,IDENT_3,IDENT_4,







"Guitar","Notebook","Tablet",
STRING_0,STRING_1,STRING_2,

























