testScopedJsonMetric,getScopedContainer,getValidationErrors,
METHOD_0,METHOD_1,METHOD_2,

jsonBody,current,rackspacecloud,blueflood,inputs,formats,JSONMetricsContainer,validationErrors,
IDENT_0,IDENT_1,IDENT_2,IDENT_3,IDENT_4,IDENT_5,IDENT_6,IDENT_7,







"[{\"tenantId\": 12345, \"collectionTime\":",",\"ttlInSeconds\":172800,\"metricValue\":1844,\"metricName\":\"metricName1\",\"unit\":\"unknown\"}]","786659",
STRING_0,STRING_1,STRING_2,

























