iterator_isEmptyAfterCreation,Member,UnsupportedOperationException,
METHOD_0,METHOD_1,METHOD_2,

namesIterator,names,JsonValue,valuesIterator,JsonObject,Member,
IDENT_0,IDENT_1,IDENT_2,IDENT_3,IDENT_4,IDENT_5,


































