unmodifiableArray_reflectsChanges,unmodifiableArray,unmodifiableList,
METHOD_0,METHOD_1,METHOD_2,

JsonArray,unmodifiableArray,
IDENT_0,IDENT_1,

23,
INT_0,































