copyConstructor_hasSameValues,JsonArray,unmodifiableList,
METHOD_0,METHOD_1,METHOD_2,

JsonArray,copy,
IDENT_0,IDENT_1,

23,
INT_0,































