set_boolean_enablesChaining,NullPointerException,
METHOD_0,METHOD_1,

JsonValue,names,
IDENT_0,IDENT_1,







"name is null","value is null",
STRING_0,STRING_1,

























