get_boolean_returnsDefaultForMissingMember,getBoolean,asBoolean,
METHOD_0,METHOD_1,METHOD_2,

JsonValue,defaultValue,
IDENT_0,IDENT_1,


































