testStdCandidates,getRecommendation,getItems,Tuple2od,
METHOD_0,METHOD_1,METHOD_2,METHOD_3,

Stream,candidates,ranksys,tuples,Tuple2od,recommender,T1,
IDENT_0,IDENT_1,IDENT_2,IDENT_3,IDENT_4,IDENT_5,IDENT_6,







"3","5","0",
STRING_0,STRING_1,STRING_2,

5.0,3.0,
FLOAT_0,FLOAT_1,






















