lsar_MultipleLsarEnumerateAccountsWithUserRightResponse,LsarEnumerateAccountsWithUserRightResponse,unmarshal,getPacketInput,RPCSID,setRevision,setIdentifierAuthority,setSubAuthority,getSids,
METHOD_0,METHOD_1,METHOD_2,METHOD_3,METHOD_4,METHOD_5,METHOD_6,METHOD_7,METHOD_8,

rapid7,dcerpc,mslsad,LsarEnumerateAccountsWithUserRightResponse,hexString,objects,RPCSID,sid1,sid2,sid3,sid4,expectedSids,sids,
IDENT_0,IDENT_1,IDENT_2,IDENT_3,IDENT_4,IDENT_5,IDENT_6,IDENT_7,IDENT_8,IDENT_9,IDENT_10,IDENT_11,IDENT_12,

501,545,544,
INT_0,INT_1,INT_2,




"04000000000002000400000004000200080002000c0002001000020002000000010200000000000501000000f50100000200000001020000000000050200000021020000020000000102000000000005030000002002000005000000010500000000000504000000000000000000000000000000f501000000000000",
STRING_0,

























