shouldNotMatchDifferentWithSearchTerm,Child,createOrUpdate,ChildSearch,getRecordsForFirstPage,rawQuery,moveToNext,getInt,
METHOD_0,METHOD_1,METHOD_2,METHOD_3,METHOD_4,METHOD_5,METHOD_6,METHOD_7,

rapidftr,Child,child1,child2,childSearch,highlightedFormFields,children,lombok,Cleanup,Cursor,cursor,userName,
IDENT_0,IDENT_1,IDENT_2,IDENT_3,IDENT_4,IDENT_5,IDENT_6,IDENT_7,IDENT_8,IDENT_9,IDENT_10,IDENT_11,







"id1","user1","{ 'name' : 'first second', 'test2' : 0, 'test3' : [ '1', 2, '3' ] }","id2","{ 'name' : 'john smith', 'test2' : 0, 'test3' : [ '1', 2, '3' ] }","sam","SELECT COUNT(1) FROM children WHERE child_owner = ?",
STRING_0,STRING_1,STRING_2,STRING_3,STRING_4,STRING_5,STRING_6,

























