testMergeDuplicateStrings,merge,
METHOD_0,METHOD_1,

Pair,outputs,rbc1b,roms,MergeUtil,CASE_INSENSITIVE_ORDER,Callback,leftValue,rightValue,ImmutablePair,Container,left,right,
IDENT_0,IDENT_1,IDENT_2,IDENT_3,IDENT_4,IDENT_5,IDENT_6,IDENT_7,IDENT_8,IDENT_9,IDENT_10,IDENT_11,IDENT_12,







"quux",
STRING_0,

























