testDeleteFailed,getCountDownLatch,
METHOD_0,METHOD_1,

redisson,RCountDownLatch,latch,
IDENT_0,IDENT_1,IDENT_2,







"latch",
STRING_0,

























