testExpire,getSetCache,expire,destroy,
METHOD_0,METHOD_1,METHOD_2,METHOD_3,

redisson,RSetCache,SECONDS,MILLISECONDS,
IDENT_0,IDENT_1,IDENT_2,IDENT_3,

500,
INT_0,




"simple","8",
STRING_0,STRING_1,

























