deserializeByteCollection,getRequestedType,deserialize,
METHOD_0,METHOD_1,METHOD_2,

reinert,requestor,DeserializationContext,Byte,MIN_VALUE,Number,serdes,C,collectionType,nextStart,nextEnd,
IDENT_0,IDENT_1,IDENT_2,IDENT_3,IDENT_4,IDENT_5,IDENT_6,IDENT_7,IDENT_8,IDENT_9,IDENT_10,







"[",",","<my>","</my>",
STRING_0,STRING_1,STRING_2,STRING_3,

























