testValueIteratorEmptyMap,
METHOD_0,

querqy,trie,TrieMap,NoSuchElementException,nextAvail,requiredClass,nextElement,F,
IDENT_0,IDENT_1,IDENT_2,IDENT_3,IDENT_4,IDENT_5,IDENT_6,IDENT_7,







"NoSuchElementException expected",
STRING_0,

























