testIntegerClassToLongPrimitiveConversion,ValueOfModel,
METHOD_0,METHOD_1,

resource4j,converters,TypeConverter,TYPE,vals,
IDENT_0,IDENT_1,IDENT_2,IDENT_3,IDENT_4,







",",
STRING_0,

























