testConvertLocalDateToUtilDateAndBack,
METHOD_0,

LocalDate,Month,FEBRUARY,utilDate,resource4j,converters,TypeConverter,fromValue,toDefaultValue,TypeCastException,
IDENT_0,IDENT_1,IDENT_2,IDENT_3,IDENT_4,IDENT_5,IDENT_6,IDENT_7,IDENT_8,IDENT_9,

2016,25,
INT_0,INT_1,































