testValidName,TreatmentOverride,
METHOD_0,METHOD_1,

rtr,alchemy,TreatmentOverride,override,filtering,FilterExpression,treatment,
IDENT_0,IDENT_1,IDENT_2,IDENT_3,IDENT_4,IDENT_5,IDENT_6,







"a_valid_name",
STRING_0,

























