testSetRotation,Matrix3,Quaternion,fromAngleAxis,cos,sin,
METHOD_0,METHOD_1,METHOD_2,METHOD_3,METHOD_4,METHOD_5,

ardor3d,Matrix3,mat3A,MathUtils,HALF_PI,Quaternion,quaternion,Vector3,UNIT_Y,dValue,
IDENT_0,IDENT_1,IDENT_2,IDENT_3,IDENT_4,IDENT_5,IDENT_6,IDENT_7,IDENT_8,IDENT_9,


































