testTrimMesssagesNotTrimmed,trimMessages,subList,
METHOD_0,METHOD_1,METHOD_2,

ptest,execution,JIRAService,MAX_MESSAGES,TRIMMED_MESSAGE,
IDENT_0,IDENT_1,IDENT_2,IDENT_3,IDENT_4,







"c",
STRING_0,

























