testResourceValueKeyReturnsSameKey,someContent,createValue,
METHOD_0,METHOD_1,METHOD_2,

resource4j,ResourceKey,ResourceValue,
IDENT_0,IDENT_1,IDENT_2,







"specific","key",
STRING_0,STRING_1,

























