testGenericContainsLocale,
METHOD_0,

resource4j,ResourceResolutionContext,generic,locale,US,Number,i18n,plural_rules,ldml,NumericSet,subsets,number,
IDENT_0,IDENT_1,IDENT_2,IDENT_3,IDENT_4,IDENT_5,IDENT_6,IDENT_7,IDENT_8,IDENT_9,IDENT_10,IDENT_11,


































