testDuration,getClassLoader,toURI,getAudioDuration,
METHOD_0,METHOD_1,METHOD_2,METHOD_3,

recordingFileUri,recordingFile,duration,restcomm,WavUtils,wavFile,
IDENT_0,IDENT_1,IDENT_2,IDENT_3,IDENT_4,IDENT_5,







"test_recording.wav",
STRING_0,

























