testCacheEntryWithNoVaryHeaderDoesNotHaveVariants,makeEntry,hasVariants,getFirstHeader,
METHOD_0,METHOD_1,METHOD_2,METHOD_3,

Header,HeaderConstants,VARY,
IDENT_0,IDENT_1,IDENT_2,


































