testCacheEntryWithOneVaryHeaderHasVariants,BasicHeader,makeEntry,hasVariants,getFirstHeader,
METHOD_0,METHOD_1,METHOD_2,METHOD_3,METHOD_4,

Header,HeaderConstants,VARY,
IDENT_0,IDENT_1,IDENT_2,







"Vary","User-Agent",
STRING_0,STRING_1,

























