parse_doesNotFailWithManyEmptyObjects,JsonArray,JsonObject,isArray,
METHOD_0,METHOD_1,METHOD_2,METHOD_3,

restfb,JsonArray,JsonValue,Json,
IDENT_0,IDENT_1,IDENT_2,IDENT_3,

1001,
INT_0,































