testResidentTimeSecondsIsTimeSinceResponseTime,makeCacheEntry,getResidentTimeSecs,
METHOD_0,METHOD_1,METHOD_2,

client5,HttpCacheEntry,HttpTestUtils,sixSecondsAgo,
IDENT_0,IDENT_1,IDENT_2,IDENT_3,

17,
INT_0,































