testDoesNotEqualSecondNull,Molecule,getAtoms,
METHOD_0,METHOD_1,METHOD_2,

rmn,pairwise,Molecule,molecule1,molecule2,atoms,
IDENT_0,IDENT_1,IDENT_2,IDENT_3,IDENT_4,IDENT_5,


































