streamsAnyMatch,Track,anyMatch,getLength,
METHOD_0,METHOD_1,METHOD_2,METHOD_3,

insightfullogic,java8,chapter1,Track,tracksOnColtrane,matchLength,track,
IDENT_0,IDENT_1,IDENT_2,IDENT_3,IDENT_4,IDENT_5,IDENT_6,

524,378,451,500,
INT_0,INT_1,INT_2,INT_3,




"Bakai","Violets for Your Furs","Time Was",
STRING_0,STRING_1,STRING_2,

























