testLoadWithEmptyOsgiDevProperty,loadDevProperties,DevPropertiesLoader,
METHOD_0,METHOD_1,METHOD_2,

bundleContext,codeaffine,testuite,DevPropertiesLoader,
IDENT_0,IDENT_1,IDENT_2,IDENT_3,







"osgi.dev",
STRING_0,

























