testResponseStatusCodeMatchesCacheEntry,generateResponse,
METHOD_0,METHOD_1,

client5,async,SimpleHttpResponse,ioReactor,
IDENT_0,IDENT_1,IDENT_2,IDENT_3,


































