testResponseContainsEntityToServeGETRequestIfEntryContainsResource,generateResponse,getBody,
METHOD_0,METHOD_1,METHOD_2,

client5,async,SimpleHttpResponse,
IDENT_0,IDENT_1,IDENT_2,


































