testUnknownKey,keyValueClient,getValuesAsString,defaultCharset,
METHOD_0,METHOD_1,METHOD_2,METHOD_3,

shouldBeEmpty,charset,Charset,
IDENT_0,IDENT_1,IDENT_2,







"unknownKey",
STRING_0,

























