getLinkTypeLOOP,getLinkType,
METHOD_0,METHOD_1,

linkTypeVal,pcap,PcapReader,LinkType,NULL,EN10MB,RAW,LOOP,LINUX_SLL,
IDENT_0,IDENT_1,IDENT_2,IDENT_3,IDENT_4,IDENT_5,IDENT_6,IDENT_7,IDENT_8,

101,108,113,
INT_0,INT_1,INT_2,































