test_equals_same,parsePkey,toUpperCase,Ipv4RouteEntry,
METHOD_0,METHOD_1,METHOD_2,METHOD_3,

iptree,Ipv4RouteEntry,Matcher,pkeyMatcher,pkey,ip,Ipv4Resource,prefix,origin,objectId,
IDENT_0,IDENT_1,IDENT_2,IDENT_3,IDENT_4,IDENT_5,IDENT_6,IDENT_7,IDENT_8,IDENT_9,

11,
INT_0,




"10.0.0.0/32 AS1234",
STRING_0,

























