findInIndex_single,addObject,findInIndex,
METHOD_0,METHOD_1,METHOD_2,

rpsl,RpslObject,inetnum,databaseHelper,RpslObjectInfo,whoisTemplate,
IDENT_0,IDENT_1,IDENT_2,IDENT_3,IDENT_4,IDENT_5,







"inetnum:10.0.0.0 - 10.0.0.255\n","netname:netname\n","mnt-routes: DEV-MNT {10.0.0.0/28}\n","DEV-MNT",
STRING_0,STRING_1,STRING_2,STRING_3,

























