testBuildUnconditionalRequestDoesNotUseIfRange,addHeader,buildUnconditionalRequest,getFirstHeader,
METHOD_0,METHOD_1,METHOD_2,METHOD_3,

HttpRequest,headergroup,
IDENT_0,IDENT_1,







"If-Range","\"etag\"",
STRING_0,STRING_1,

























