apply_inetnum,
METHOD_0,

rpsl,RpslObject,rpslObject,ResponseObject,
IDENT_0,IDENT_1,IDENT_2,IDENT_3,







"inetnum: 10.0.0.0\n","mnt-by: BAR\n","source: QUX\n","abuse-mailbox: abuse@me.now",
STRING_0,STRING_1,STRING_2,STRING_3,

























