apply_can_be_parsed_back,bytesFrom,
METHOD_0,METHOD_1,

rpsl,RpslObject,rpslObject,ResponseObject,
IDENT_0,IDENT_1,IDENT_2,IDENT_3,







"mntner:FOO\n","IREALLYDUNNO:BAR\n","source:QUX",
STRING_0,STRING_1,STRING_2,

























