cleanvalue_comparator_same_order,bytesFrom,
METHOD_0,METHOD_1,

rpsl,RpslObject,object1,object2,
IDENT_0,IDENT_1,IDENT_2,IDENT_3,







"mntner: DEV-MNT\nmnt-by:DEV-MNT1,DEV-MNT2,DEV-MNT3",
STRING_0,

























