supports_creating_inetnum,getAction,supports,
METHOD_0,METHOD_1,METHOD_2,

Action,CREATE,ObjectType,INETNUM,PreparedUpdate,ROUTE,ROUTE6,
IDENT_0,IDENT_1,IDENT_2,IDENT_3,IDENT_4,IDENT_5,IDENT_6,


































