supports_autnum_modify,getAction,supports,
METHOD_0,METHOD_1,METHOD_2,

Action,MODIFY,ObjectType,AUT_NUM,supported,PreparedUpdate,CREATE,ROUTE,ROUTE6,
IDENT_0,IDENT_1,IDENT_2,IDENT_3,IDENT_4,IDENT_5,IDENT_6,IDENT_7,IDENT_8,


































