testGaps,gaps,
METHOD_0,METHOD_1,

expectedGaps,gap,TreeSet,prev,clearedLedger,clearedLedgers,
IDENT_0,IDENT_1,IDENT_2,IDENT_3,IDENT_4,IDENT_5,


































