testIndexOf_03_SmallData,BinarySearcher,
METHOD_0,METHOD_1,

riversun,finbin,BinarySearcher,bs,srcBytes,SMALL_SIZE_TEST_BYTES,searchText,searchBytes,startIndex,resultVal,endIndex,
IDENT_0,IDENT_1,IDENT_2,IDENT_3,IDENT_4,IDENT_5,IDENT_6,IDENT_7,IDENT_8,IDENT_9,IDENT_10,

26,43,
INT_0,INT_1,




"world",
STRING_0,

























