testSearchBigBytes_3000K,BigBinarySearcher,loadBytesFromFile,startTimer,searchBigBytes,stopTimer,getMethodName,
METHOD_0,METHOD_1,METHOD_2,METHOD_3,METHOD_4,METHOD_5,METHOD_6,

riversun,finbin,BigBinarySearcher,bbs,srcBytes,BinaryUtil,searchText,searchBytes,expectedArray,resultList,ellapsedTimeInMillis,resultArray,TestBase,stopTime,startTime,
IDENT_0,IDENT_1,IDENT_2,IDENT_3,IDENT_4,IDENT_5,IDENT_6,IDENT_7,IDENT_8,IDENT_9,IDENT_10,IDENT_11,IDENT_12,IDENT_13,IDENT_14,

200000,400000,600000,800000,1000000,1200000,1400000,1600000,1800000,2000000,2200000,2400000,2600000,2800000,3000000,1024,
INT_0,INT_1,INT_2,INT_3,INT_4,INT_5,INT_6,INT_7,INT_8,INT_9,INT_10,INT_11,INT_12,INT_13,INT_14,INT_15,




"src/test/resources/finbin_test_3mbyte.bin","hello world","[","] ellapsed "," millis for "," kbytes",
STRING_0,STRING_1,STRING_2,STRING_3,STRING_4,STRING_5,

























