ifContainsThenIntersects,intersects,numberOfRuns,compareUnsigned,toIntUnsigned,
METHOD_0,METHOD_1,METHOD_2,METHOD_3,METHOD_4,

bitmap,minimum,supremum,intersects,roaringbitmap,Util,
IDENT_0,IDENT_1,IDENT_2,IDENT_3,IDENT_4,IDENT_5,


































