xortest1,RoaringBitmap,xor,elementAt,UnsupportedOperationException,
METHOD_0,METHOD_1,METHOD_2,METHOD_3,METHOD_4,

V1,V2,roaringbitmap,RoaringBitmap,rr,rr2,rrxor,valide,tab,Vector,vector,aTab,
IDENT_0,IDENT_1,IDENT_2,IDENT_3,IDENT_4,IDENT_5,IDENT_6,IDENT_7,IDENT_8,IDENT_9,IDENT_10,IDENT_11,

4000,3500,4500,65000,65536,30000,50000,65535,800,2000,
INT_0,INT_1,INT_2,INT_3,INT_4,INT_5,INT_6,INT_7,INT_8,INT_9,




"Not implemented in ImmutableConciseSet",
STRING_0,

























