iremove11,RunContainer,iadd,iremove,getCardinality,getLongCardinality,
METHOD_0,METHOD_1,METHOD_2,METHOD_3,METHOD_4,METHOD_5,

roaringbitmap,Container,rc,
IDENT_0,IDENT_1,IDENT_2,

30,35,
INT_0,INT_1,































