flipTestBigA,BitSet,Random,MutableRoaringBitmap,nextInt,nextDouble,flip,cardinality,nextSetBit,
METHOD_0,METHOD_1,METHOD_2,METHOD_3,METHOD_4,METHOD_5,METHOD_6,METHOD_7,METHOD_8,

numCases,roaringbitmap,BitSet,bs,Random,checkTime,MutableRoaringBitmap,rb1,rb2,r1,r2,mask,mask1,startM,endM,rb,TestRoaringBitmap,rr,
IDENT_0,IDENT_1,IDENT_2,IDENT_3,IDENT_4,IDENT_5,IDENT_6,IDENT_7,IDENT_8,IDENT_9,IDENT_10,IDENT_11,IDENT_12,IDENT_13,IDENT_14,IDENT_15,IDENT_16,IDENT_17,

3333,65536,100000,65536L,
INT_0,INT_1,INT_2,INT_3,







0.1,0.2,1.5,
FLOAT_0,FLOAT_1,FLOAT_2,

*=,
OP_0,



















