inotTest2,makeContainer,inot,checkContent,getShortIterator,print,
METHOD_0,METHOD_1,METHOD_2,METHOD_3,METHOD_4,METHOD_5,

roaringbitmap,MappeableContainer,TestContainer,ShortIterator,si,ctr,s1,
IDENT_0,IDENT_1,IDENT_2,IDENT_3,IDENT_4,IDENT_5,IDENT_6,

65535,
INT_0,




"fail, found ","\n expected ",
STRING_0,STRING_1,

























