testXORSimple,bitmapOf,xor,or,getContainerPointer,hasContainer,getCardinality,getContainer,advance,
METHOD_0,METHOD_1,METHOD_2,METHOD_3,METHOD_4,METHOD_5,METHOD_6,METHOD_7,METHOD_8,

roaringbitmap,MutableRoaringBitmap,rxor,ImmutableRoaringBitmap,ror,highLowContainer,MappeableContainerPointer,mp1,mp2,
IDENT_0,IDENT_1,IDENT_2,IDENT_3,IDENT_4,IDENT_5,IDENT_6,IDENT_7,IDENT_8,

73647,83469,11,13,14,17,18,19,21,25,26,27,28,29,30,32,33,34,35,36,37,39,40,41,51,69,79,80,81,88,89,172,
INT_0,INT_1,INT_2,INT_3,INT_4,INT_5,INT_6,INT_7,INT_8,INT_9,INT_10,INT_11,INT_12,INT_13,INT_14,INT_15,INT_16,INT_17,INT_18,INT_19,INT_20,INT_21,INT_22,INT_23,INT_24,INT_25,INT_26,INT_27,INT_28,INT_29,INT_30,INT_31,































