iremove,MappeableBitmapContainer,getCardinality,getLongCardinality,
METHOD_0,METHOD_1,METHOD_2,METHOD_3,

roaringbitmap,MappeableBitmapContainer,bc,
IDENT_0,IDENT_1,IDENT_2,

13,
INT_0,































