testPartialRadixSortSortsKeysCorrectlyWithDuplicates,copyOf,partialRadixSort,arraycopy,fill,
METHOD_0,METHOD_1,METHOD_2,METHOD_3,METHOD_4,

key1,key2,roaringbitmap,Util,radix,shift,mask,copy,histogram,
IDENT_0,IDENT_1,IDENT_2,IDENT_3,IDENT_4,IDENT_5,IDENT_6,IDENT_7,IDENT_8,

17,25,16711680,32,
INT_0,INT_1,INT_2,INT_3,










<<=,
OP_0,



















