not15,MappeableRunContainer,not,clone,inot,
METHOD_0,METHOD_1,METHOD_2,METHOD_3,METHOD_4,

roaringbitmap,MappeableRunContainer,MappeableContainer,MappeableBitmapContainer,answer,firstOfRange,lastOfRange,
IDENT_0,IDENT_1,IDENT_2,IDENT_3,IDENT_4,IDENT_5,IDENT_6,

20000,40000,60000,15000,25000,
INT_0,INT_1,INT_2,INT_3,INT_4,































