basictest,MutableRoaringBitmap,cardinality,getCardinality,getIntIterator,
METHOD_0,METHOD_1,METHOD_2,METHOD_3,METHOD_4,

roaringbitmap,MutableRoaringBitmap,rr,N,BitSet,ImmutableRoaringBitmap,bitset,bitmap,IntIterator,
IDENT_0,IDENT_1,IDENT_2,IDENT_3,IDENT_4,IDENT_5,IDENT_6,IDENT_7,IDENT_8,

4000,100000,110000,
INT_0,INT_1,INT_2,































