ne,Restriction,
METHOD_0,METHOD_1,

robe,criterion,Restriction,expectedRestriction,Operator,NOT_EQUALS,restriction,Restrictions,
IDENT_0,IDENT_1,IDENT_2,IDENT_3,IDENT_4,IDENT_5,IDENT_6,IDENT_7,







"kamil",
STRING_0,

























