nextThrowsNoSuchElementException,extractSpans,
METHOD_0,METHOD_1,

Iterable,nibor,autolink,Span,iterable,LinkExtractor,
IDENT_0,IDENT_1,IDENT_2,IDENT_3,IDENT_4,IDENT_5,


































