testValidate_1,AppendCommandInstruction,
METHOD_0,METHOD_1,

roboconf,AppendCommandInstruction,instr,ParsingError,
IDENT_0,IDENT_1,IDENT_2,IDENT_3,







"Append something into /this",
STRING_0,

























