testFindUsageStatistics_inexistingTarget,findUsageStatistics,
METHOD_0,METHOD_1,

roboconf,TargetUsageItem,items,mngr,
IDENT_0,IDENT_1,IDENT_2,IDENT_3,







"4",
STRING_0,

























