testApplicationTemplate,TestApplicationTemplate,
METHOD_0,METHOD_1,

roboconf,ApplicationTemplate,tpl,ModelError,RuntimeModelValidator,
IDENT_0,IDENT_1,IDENT_2,IDENT_3,IDENT_4,


































