shouldConstruct,newInstanceOf,
METHOD_0,METHOD_1,

webkit,JsPromptResult,robolectric,shadows,ShadowJsPromptResult,
IDENT_0,IDENT_1,IDENT_2,IDENT_3,IDENT_4,


































