getDisplayedChild_shouldDefaultToZero,addView,View,getDisplayedChild,
METHOD_0,METHOD_1,METHOD_2,METHOD_3,

viewAnimator,currentChild,
IDENT_0,IDENT_1,


































