shouldWrapAndFail,Target,guiThreadSafe,doIt,getCnt,
METHOD_0,METHOD_1,METHOD_2,METHOD_3,METHOD_4,

swiftexplorer,gui,GuiThreadingUtilsTest,Target,GuiTreadingUtils,Subject,cnt,
IDENT_0,IDENT_1,IDENT_2,IDENT_3,IDENT_4,IDENT_5,IDENT_6,

100L,
INT_0,































