testFindUser_empty_user,findUser,addAttribute,
METHOD_0,METHOD_1,METHOD_2,

userService,NULL_USER,Model,captaindebug,cargocult,
IDENT_0,IDENT_1,IDENT_2,IDENT_3,IDENT_4,







"user",
STRING_0,

























