shouldPopup,Target,mousePressed,MouseEvent,show,getCnt,
METHOD_0,METHOD_1,METHOD_2,METHOD_3,METHOD_4,METHOD_5,

swiftexplorer,gui,PopupTriggerTest,Target,PopupTrigger,trigger,popup,cnt,
IDENT_0,IDENT_1,IDENT_2,IDENT_3,IDENT_4,IDENT_5,IDENT_6,IDENT_7,







"enableDisable",
STRING_0,

























