testParseBigCommentBug,getImports,
METHOD_0,METHOD_1,

walkmod,javalang,CompilationUnit,cu,ASTManager,imports,
IDENT_0,IDENT_1,IDENT_2,IDENT_3,IDENT_4,IDENT_5,







"src/test/resources/bigCommentBug.txt",
STRING_0,

























