testParsing,
METHOD_0,

walkmod,javalang,CompilationUnit,cu,ASTManager,
IDENT_0,IDENT_1,IDENT_2,IDENT_3,IDENT_4,







"src/test/resources/source1.8.txt","UTF-8",
STRING_0,STRING_1,

























