testIsMyTypeVersionAbsent,setRootElement,isMyType,getRootElement,getNamespace,getRSSNamespace,
METHOD_0,METHOD_1,METHOD_2,METHOD_3,METHOD_4,METHOD_5,

jdom2,ok,rssRoot,Namespace,defaultNS,
IDENT_0,IDENT_1,IDENT_2,IDENT_3,IDENT_4,







"rss",
STRING_0,

























