testToString,SessionTicket,
METHOD_0,METHOD_1,

rub,nds,tlsattacker,
IDENT_0,IDENT_1,IDENT_2,







"NewSessionTicketMessage:","\n TicketLifeTimeHint: ","null","\n TicketLength: ","\n Ticket: ","HelloRequestMessage:",
STRING_0,STRING_1,STRING_2,STRING_3,STRING_4,STRING_5,

























