testAdd,FieldElementF2m,getData,mod,getModulus,FieldElementFp,
METHOD_0,METHOD_1,METHOD_2,METHOD_3,METHOD_4,METHOD_5,

rub,nds,tlsattacker,ec_,FieldElementF2m,tmp,p1,p2,modulus,FieldElement,
IDENT_0,IDENT_1,IDENT_2,IDENT_3,IDENT_4,IDENT_5,IDENT_6,IDENT_7,IDENT_8,IDENT_9,







"10",
STRING_0,

























