testGetOldValue,setMasterSecret,normalize,getOldValue,
METHOD_0,METHOD_1,METHOD_2,METHOD_3,

tlsContext,oldValue,
IDENT_0,IDENT_1,


































