testCloseConnection,initialize,Socket,InetSocketAddress,getPort,recheck,closeConnection,
METHOD_0,METHOD_1,METHOD_2,METHOD_3,METHOD_4,METHOD_5,METHOD_6,

E,
IDENT_0,







"localhost",
STRING_0,

























