testVerifyHMAC_SHA256,hexStringToByteArray,verifyHMAC,generateHMAC,
METHOD_0,METHOD_1,METHOD_2,METHOD_3,

rub,nds,tlsattacker,StaticTicketCryptoTest,mac,modifiablevariable,ArrayConverter,plaintext,StaticTicketCrypto,MacAlgorithm,HMAC_SHA256,constants,newmac,macalgo,
IDENT_0,IDENT_1,IDENT_2,IDENT_3,IDENT_4,IDENT_5,IDENT_6,IDENT_7,IDENT_8,IDENT_9,IDENT_10,IDENT_11,IDENT_12,IDENT_13,







"Verify HMAC SHA256","b0344c61d8db38535ca8afceaf0bf12b881dc200c9833da726e9376c2e32cff7","4869205468657265","0b0b0b0b0b0b0b0b0b0b0b0b0b0b0b0b0b0b0b0b",
STRING_0,STRING_1,STRING_2,STRING_3,

























