testGetOldValue,setSelectedCompressionMethod,getOldValue,
METHOD_0,METHOD_1,METHOD_2,

tlsContext,CompressionMethod,NULL,oldValue,
IDENT_0,IDENT_1,IDENT_2,IDENT_3,


































