testDecrypt12,setRandom,BadRandom,Random,setConnection,OutboundConnection,setSelectedCipherSuite,setSelectedProtocolVersion,setClientRandom,hexStringToByteArray,setServerRandom,setMasterSecret,RecordBlockCipher,generateKeySet,decrypt,DecryptionRequest,getDecryptedCipherText,
METHOD_0,METHOD_1,METHOD_2,METHOD_3,METHOD_4,METHOD_5,METHOD_6,METHOD_7,METHOD_8,METHOD_9,METHOD_10,METHOD_11,METHOD_12,METHOD_13,METHOD_14,METHOD_15,METHOD_16,

rub,nds,modifiablevariable,RandomHelper,tlsattacker,CipherSuite,TLS_RSA_WITH_AES_128_CBC_SHA256,ProtocolVersion,TLS12,ArrayConverter,cipher,cryptohelper,KeySetGenerator,plaintext,correctPlaintext,decryptedCipherText,
IDENT_0,IDENT_1,IDENT_2,IDENT_3,IDENT_4,IDENT_5,IDENT_6,IDENT_7,IDENT_8,IDENT_9,IDENT_10,IDENT_11,IDENT_12,IDENT_13,IDENT_14,IDENT_15,







"03c08c3460b420bb3851d9d47acb933dbe70399bf6c92da33af01d4fb770e98c","78f0c84e04d3c23cad94aad61ccae23ce79bcd9d2d6953f8ccbe0e528c63a238","F81015161244782B3541E6020140556E4FFEA98C57FCF6CEC172CD8B577DC73CCDE4B724E07DB8687DDF327CD8A68891","45DCB1853201C59037AFF4DFE3F442B7CDB4DB1348894AE76E251F4491A6F5F859B2DE12879C6D86D4BDC83CAB854E33EF5CC51B25942E64EC6730AB1DDB5806E900B7B0C32D9BFF59C0F01334C0F673","7F1F9E3AA2EAD435ED42143C54D81FEDAC85A400AF369CABFA1B77EBB3647B534FB8447306D14FE610F897EBE455A43ED47140370DB20BF3181067641D20E425",
STRING_0,STRING_1,STRING_2,STRING_3,STRING_4,

























