Test_GlobPatternMatcher_AbsolutePath_InRoot,normalize,getDefault,getPathMatcher,
METHOD_0,METHOD_1,METHOD_2,METHOD_3,

Paths,examplePath,PathMatcher,testMatcher,FileSystems,
IDENT_0,IDENT_1,IDENT_2,IDENT_3,IDENT_4,







"c:\\temp","c:\\temp\\blabla.sql","glob:%1$s%2$s%3$s",'\\','/',"**/*.sql","glob:%1$s",
STRING_0,STRING_1,STRING_2,STRING_3,STRING_4,STRING_5,STRING_6,

























