testIncrement,AutoIncrement,
METHOD_0,METHOD_1,

yax,udf,number,AutoIncrement,autoIncrement,
IDENT_0,IDENT_1,IDENT_2,IDENT_3,IDENT_4,


































