authenticateTestWithGoodPassword,DemoAuthenticator,authenticate,
METHOD_0,METHOD_1,METHOD_2,

USERNAME,PASSWORD,axiom,delauth,DemoAuthenticator,demo,username,password,
IDENT_0,IDENT_1,IDENT_2,IDENT_3,IDENT_4,IDENT_5,IDENT_6,IDENT_7,







"TestUsername","123456",
STRING_0,STRING_1,

























