testHasScope_1,OAuthConfig,setRequestProxy,hasScope,
METHOD_0,METHOD_1,METHOD_2,METHOD_3,

jinstagram,OAuthConfig,OAuthConfigTest,scope,
IDENT_0,IDENT_1,IDENT_2,IDENT_3,







"key","secret","callback","scope","display",
STRING_0,STRING_1,STRING_2,STRING_3,STRING_4,

























