testPLFM1859,setEntityBundleJSON,setDaemonId,
METHOD_0,METHOD_1,METHOD_2,

submission,submissionDAO,UploadDaemonStatus,StubUploadDeamonStatusDao,sequence,
IDENT_0,IDENT_1,IDENT_2,IDENT_3,IDENT_4,


































