testGetAclId,getAclId,
METHOD_0,METHOD_1,

AccessControlList,acl,aclList,aclId,aclDAO,ObjectType,ENTITY,acl2,teamDAO,
IDENT_0,IDENT_1,IDENT_2,IDENT_3,IDENT_4,IDENT_5,IDENT_6,IDENT_7,IDENT_8,


































