testInteger,getRowSizeBytes,
METHOD_0,METHOD_1,

some,bytesUsed,jdo,SizeLimitRowMapper,rowMap,sValue,BYTES_PER_CHAR,BYTES_PER_LONG,BYTES_PER_INTEGER,BYTES_PER_DOUBLE,
IDENT_0,IDENT_1,IDENT_2,IDENT_3,IDENT_4,IDENT_5,IDENT_6,IDENT_7,IDENT_8,IDENT_9,







"someKey","Unknown value type: ",
STRING_0,STRING_1,

























