testParserType,parserType,toUpperCase,
METHOD_0,METHOD_1,METHOD_2,

MySqlColumnType,typeString,lookup,
IDENT_0,IDENT_1,IDENT_2,







"(1)","\\(",
STRING_0,STRING_1,

























