testEntity,FileEntity,getObjectId,
METHOD_0,METHOD_1,METHOD_2,

FileEntity,ob,IdExtractorUtil,
IDENT_0,IDENT_1,IDENT_2,







"syn123",
STRING_0,

























