testGetDateStringTimeMS,getClaendarUTC,getDateString,getTimeInMillis,extractDataParts,
METHOD_0,METHOD_1,METHOD_2,METHOD_3,METHOD_4,

cal,s3,LogKeyUtils,parts,timeMS,
IDENT_0,IDENT_1,IDENT_2,IDENT_3,IDENT_4,

2001,11,30,22,49,
INT_0,INT_1,INT_2,INT_3,INT_4,




"2001-12-30",
STRING_0,

























