testCreateISO8601GMTLogString,createISO8601GMTLogString,extractDataParts,
METHOD_0,METHOD_1,METHOD_2,

s3,LogKeyUtils,parts,timestamp,ISO8601_TEMPLATE,
IDENT_0,IDENT_1,IDENT_2,IDENT_3,IDENT_4,

1327532399842L,
INT_0,




"=","2012-01-25 22:59:59,842",
STRING_0,STRING_1,

























