testGetTotalTimeMillis,addElapsedTime,getTotalTimeMilis,round,getValueSum,
METHOD_0,METHOD_1,METHOD_2,METHOD_3,METHOD_4,

frame,elapsedTimeStatistics,
IDENT_0,IDENT_1,


































