createList,saveBatch,
METHOD_0,METHOD_1,

audit,AccessRecord,AuditTestUtils,mockAccessRecordDAO,accessRecordDAO,
IDENT_0,IDENT_1,IDENT_2,IDENT_3,IDENT_4,

123,
INT_0,




"thekey!",
STRING_0,

























