testDoesTableExistTrue,keyToString,doesNodeExist,doesTableExist,stringToKey,
METHOD_0,METHOD_1,METHOD_2,METHOD_3,METHOD_4,

synId,jdo,KeyFactory,mockNodeDao,nodeDao,tableId,
IDENT_0,IDENT_1,IDENT_2,IDENT_3,IDENT_4,IDENT_5,

123L,
INT_0,































