shouldPersistACustomer,Customer03,begin,persist,
METHOD_0,METHOD_1,METHOD_2,METHOD_3,

agoncal,book,javaee7,chapter06,ex03,Customer03,customer,
IDENT_0,IDENT_1,IDENT_2,IDENT_3,IDENT_4,IDENT_5,IDENT_6,







"Antony","Balla","tballa@mail.com",
STRING_0,STRING_1,STRING_2,

























