testUpdateBooleanObject_Null,BooleanObject,setAwesome,getAwesome,
METHOD_0,METHOD_1,METHOD_2,METHOD_3,

jmethods,catatumbo,BooleanObject,TRUE,EntityManagerTest,awesome,
IDENT_0,IDENT_1,IDENT_2,IDENT_3,IDENT_4,IDENT_5,


































