testUpdateDoubleObject_Null,DoubleObject,setArea,getArea,
METHOD_0,METHOD_1,METHOD_2,METHOD_3,

jmethods,catatumbo,DoubleObject,EntityManagerTest,area,
IDENT_0,IDENT_1,IDENT_2,IDENT_3,IDENT_4,


































