testInsert_Item,Item,setPrice,setDiscount,
METHOD_0,METHOD_1,METHOD_2,METHOD_3,

jmethods,catatumbo,Item,ZERO,EntityManagerTest,entity2,GeoLocation,latitude,longitude,
IDENT_0,IDENT_1,IDENT_2,IDENT_3,IDENT_4,IDENT_5,IDENT_6,IDENT_7,IDENT_8,







"Candy",
STRING_0,

























