testToDatastore_8,FloatMapper,toDatastore,printf,
METHOD_0,METHOD_1,METHOD_2,METHOD_3,

Float,MIN_VALUE,jmethods,catatumbo,mappers,FloatMapper,Value,StringSetIndex,Objects,colors,sizes,
IDENT_0,IDENT_1,IDENT_2,IDENT_3,IDENT_4,IDENT_5,IDENT_6,IDENT_7,IDENT_8,IDENT_9,IDENT_10,







"%s ---> %s%n",
STRING_0,

























