testMetricDeserializationList,readValue,getMetrics,
METHOD_0,METHOD_1,METHOD_2,

salesforce,dva,argus,tsdb,_mapper,TypeReference,Metric,_metrics,
IDENT_0,IDENT_1,IDENT_2,IDENT_3,IDENT_4,IDENT_5,IDENT_6,IDENT_7,







"[{\"metric\"],\"0mem.heap.used-__-argus.jvm\",\"tags\":{\"host\"],\"0host1\",\"meta\"],\"0eyJkaXNwbGF5TmFtZSI6bnVsbCwidW5pdHMiOiJieXRlcyJ9\"},\"aggregateTags\":[],\"tsuids\":[\"00000000000E000000000001000000000003000000000002000000000002\"],\"dps\":{\"1477386300\":4.940423168E9}},{\"metric\"],\"0mem.heap.used-__-argus.jvm\",\"tags\":{\"host\"],\"0host2\",\"meta\"],\"0eyJkaXNwbGF5TmFtZSI6bnVsbCwidW5pdHMiOiJieXRlcyJ9\"},\"aggregateTags\":[],\"tsuids\":[\"00000000000E00000000000100000000000300000000000200000000000A\"],\"dps\":{\"1477386300\":4.940423168E9}}]","Failed to deserialize metrics. Reason: ",
STRING_0,STRING_1,

























