testInsertSorted,Random,insertSorted,nextInt,
METHOD_0,METHOD_1,METHOD_2,METHOD_3,

Random,rand,samskivert,ComparableArrayList,slist,ii,mutex,
IDENT_0,IDENT_1,IDENT_2,IDENT_3,IDENT_4,IDENT_5,IDENT_6,

25,
INT_0,

synchronized,
MOD_0,




























