serializes_nested_collections,MapSerializer,
METHOD_0,METHOD_1,

noodlesandwich,rekord,Rekord,LegoBag,lego,sets,Brick,Red,Green,Blue,serialized,Serializer,
IDENT_0,IDENT_1,IDENT_2,IDENT_3,IDENT_4,IDENT_5,IDENT_6,IDENT_7,IDENT_8,IDENT_9,IDENT_10,IDENT_11,







"lego sets",
STRING_0,

























