a_Rekord_contains_a_value,
METHOD_0,

noodlesandwich,rekord,Rekord,Sandvich,sandvich,filling,Filling,Cheese,V,Key,
IDENT_0,IDENT_1,IDENT_2,IDENT_3,IDENT_4,IDENT_5,IDENT_6,IDENT_7,IDENT_8,IDENT_9,


































