testIterate,createSet,
METHOD_0,METHOD_1,

samskivert,AbstractIntSet,jset,TreeSet,swing,RuntimeAdjust,Adjust,_name,
IDENT_0,IDENT_1,IDENT_2,IDENT_3,IDENT_4,IDENT_5,IDENT_6,IDENT_7,


































