testInvalidObjNestedBraces,DefaultMessageConverter,setFlatten,formatMsg,
METHOD_0,METHOD_1,METHOD_2,METHOD_3,

nestedBracesMsg,logMsg,sap,hcp,cf,DefaultMessageConverter,jmc,mc,
IDENT_0,IDENT_1,IDENT_2,IDENT_3,IDENT_4,IDENT_5,IDENT_6,IDENT_7,







"\"request\": \"/Foo(${bar)\""," {",
STRING_0,STRING_1,

























