testUpdatePassword,setUserId,setPassword,getUserId,getPassword,
METHOD_0,METHOD_1,METHOD_2,METHOD_3,METHOD_4,

g7w14,UserManagerTest,selectStatement,ud,SQLException,
IDENT_0,IDENT_1,IDENT_2,IDENT_3,IDENT_4,

7L,
INT_0,




"desi79","Update users set password=? where UserId=? ",
STRING_0,STRING_1,

























