testEmpty,ContextPropsConverter,clear,mapFrom,makeEvent,mdcMap,
METHOD_0,METHOD_1,METHOD_2,METHOD_3,METHOD_4,METHOD_5,

sap,hcp,cf,logback,ContextPropsConverter,cpc,slf4j,MDC,actMap,TEST_MSG_NO_ARGS,NO_ARGS,
IDENT_0,IDENT_1,IDENT_2,IDENT_3,IDENT_4,IDENT_5,IDENT_6,IDENT_7,IDENT_8,IDENT_9,IDENT_10,


































