testNonEqualCharset,
METHOD_0,

sap,odata,ContentType,t1,t2,MessageReference,
IDENT_0,IDENT_1,IDENT_2,IDENT_3,IDENT_4,IDENT_5,







"aaa/bbb;charset=c1","aaa/bbb;charset=c2",
STRING_0,STRING_1,

























