testHasMatchNoMatch,hasMatch,
METHOD_0,METHOD_1,

sap,odata,ContentType,m1,m2,m3,toMatchContentTypes,check,
IDENT_0,IDENT_1,IDENT_2,IDENT_3,IDENT_4,IDENT_5,IDENT_6,IDENT_7,







"aaa/bbb;x=z;a=b","aaa/ccc","foo/me","for/me",
STRING_0,STRING_1,STRING_2,STRING_3,

























