testGetVersion,getVersion,YoutubeDLRequest,setOption,getOut,
METHOD_0,METHOD_1,METHOD_2,METHOD_3,METHOD_4,

sapher,youtubedl,YoutubeDLRequest,YoutubeDL,
IDENT_0,IDENT_1,IDENT_2,IDENT_3,







"version",
STRING_0,

























