dotSelf,initVector,reduce,
METHOD_0,METHOD_1,METHOD_2,

MathTestConstants,VAL_NOT_EQUALS,testVector,NIL_DELTA,
IDENT_0,IDENT_1,IDENT_2,IDENT_3,


































