testGetMultiple,getFileSystem,readAttributes,
METHOD_0,METHOD_1,METHOD_2,

answer,
IDENT_0,







"basic:isRegularFile,isDirectory","isDirectory","isRegularFile",
STRING_0,STRING_1,STRING_2,

























