testPreserveCase,createDirectories,newDirectoryStream,getFileName,newPath,
METHOD_0,METHOD_1,METHOD_2,METHOD_3,METHOD_4,

fAr,Files,DirectoryStream,paths,parts,
IDENT_0,IDENT_1,IDENT_2,IDENT_3,IDENT_4,







"fAr",
STRING_0,

























