testGroup,createFile,getAttribute,
METHOD_0,METHOD_1,METHOD_2,

Files,attribute,GroupPrincipal,sbridges,ephemeralfs,EphemeralFsPath,ResolvedPath,
IDENT_0,IDENT_1,IDENT_2,IDENT_3,IDENT_4,IDENT_5,IDENT_6,







"file","posix:group",
STRING_0,STRING_1,

























