testGetWithView,getFileSystem,readAttributes,
METHOD_0,METHOD_1,METHOD_2,

answer,
IDENT_0,







"basic:isDirectory","isDirectory",
STRING_0,STRING_1,

























