testGCD,BigRational,gcd,
METHOD_0,METHOD_1,METHOD_2,

jbasics,BigRational,gcd,SimpleExpression,
IDENT_0,IDENT_1,IDENT_2,IDENT_3,

2L,4L,
INT_0,INT_1,































