testGoldenRatio,round,valueToPrecision,
METHOD_0,METHOD_1,METHOD_2,

jbasics,GoldenRatioIrationalNumberTest,GOLDEN_RATIO_OEIS,MC,BigDecimalMathLibrary,PHI,MathContext,
IDENT_0,IDENT_1,IDENT_2,IDENT_3,IDENT_4,IDENT_5,IDENT_6,


































