testRead,newByteChannel,getFileSystem,
METHOD_0,METHOD_1,METHOD_2,

Files,moveTo,OpenOption,openOptions,StandardOpenOption,READ,channels,SeekableByteChannel,
IDENT_0,IDENT_1,IDENT_2,IDENT_3,IDENT_4,IDENT_5,IDENT_6,IDENT_7,







"newFile",
STRING_0,

























