testInterruptible,assumePOSIX,SleepThread,interrupt,getResult,
METHOD_0,METHOD_1,METHOD_2,METHOD_3,METHOD_4,

scijava,ProcessUtilsTest,SleepThread,thread,
IDENT_0,IDENT_1,IDENT_2,IDENT_3,

5000,
INT_0,































