testToArray,ObjectIndex,Float,
METHOD_0,METHOD_1,METHOD_2,

scijava,ObjectIndex,objectIndex,objects,
IDENT_0,IDENT_1,IDENT_2,IDENT_3,










2.5F,
FLOAT_0,






















