testFindOhip,getProvidersWithNonEmptyOhip,getHibernateTemplate,
METHOD_0,METHOD_1,METHOD_2,

Provider,providers,
IDENT_0,IDENT_1,







"FROM Provider WHERE ohip_no != '' order by last_name, first_name",
STRING_0,

























