shouldReturnSignatureMethodString,getSignatureMethod,
METHOD_0,METHOD_1,

scribejava,RSASha1SignatureService,METHOD,
IDENT_0,IDENT_1,IDENT_2,







"HMAC-SHA1",
STRING_0,

























