testFindAll,findAll,getServiceContext,
METHOD_0,METHOD_1,METHOD_2,

sculptor,ejb,helloworld,milkyway,Planet,planets,planetService,AppEngineTestHelper,
IDENT_0,IDENT_1,IDENT_2,IDENT_3,IDENT_4,IDENT_5,IDENT_6,IDENT_7,


































