testLoadingProperties,
METHOD_0,

fromAddress,WaitListManager,waitListProperties,oscar,OscarProperties,proper,proName,
IDENT_0,IDENT_1,IDENT_2,IDENT_3,IDENT_4,IDENT_5,IDENT_6,







"from_address",
STRING_0,

























