testFind,getServiceContext,CarrierMovementId,
METHOD_0,METHOD_1,METHOD_2,

sculptor,dddsample,carrier,CarrierMovement,carrierService,AppEngineTestHelper,
IDENT_0,IDENT_1,IDENT_2,IDENT_3,IDENT_4,IDENT_5,







"CAR_001",
STRING_0,

























