shouldConsiderDifferentClassHierarchiesNotEqual,A,D,getCanonicalName,
METHOD_0,METHOD_1,METHOD_2,METHOD_3,

sculptor,EqualsTest,A,D,LeafProperty,thisString,owningClass,otherString,
IDENT_0,IDENT_1,IDENT_2,IDENT_3,IDENT_4,IDENT_5,IDENT_6,IDENT_7,

17,
INT_0,































