testFindByName,findByName,getServiceContext,
METHOD_0,METHOD_1,METHOD_2,

helloworld,milkyway,Planet,mars,planetService,
IDENT_0,IDENT_1,IDENT_2,IDENT_3,IDENT_4,







"Mars",
STRING_0,

























