testGetScriptResources,appendScriptResources,getScriptResources,
METHOD_0,METHOD_1,METHOD_2,

scripts,resourceManager,scriptResources,
IDENT_0,IDENT_1,IDENT_2,







"a/b.js","z/a.js","a/a.js",
STRING_0,STRING_1,STRING_2,

























