equalsReturnsTrueForSameIndices,addIndex,DroidClientConfig,
METHOD_0,METHOD_1,METHOD_2,

searchbox,indices,Flush,flush1,flush1Duplicate,searchly,jestdroid,
IDENT_0,IDENT_1,IDENT_2,IDENT_3,IDENT_4,IDENT_5,IDENT_6,







"twitter","myspace",
STRING_0,STRING_1,

























