DumpFileEmptyRuntimeException,getDumpFilePath,
METHOD_0,METHOD_1,

seasar,DumpFileEmptyRuntimeException,dumpFilePath,
IDENT_0,IDENT_1,IDENT_2,







"aaa",
STRING_0,

























