CommandFailedRuntimeException,getCommandClassName,
METHOD_0,METHOD_1,

seasar,CommandFailedRuntimeException,commandClassName,
IDENT_0,IDENT_1,IDENT_2,







"aaa",
STRING_0,

























