queryObjectForSql2,save2,queryObjectForSql,
METHOD_0,METHOD_1,METHOD_2,

userId,jdbcDao,refSql,
IDENT_0,IDENT_1,IDENT_2,







"select max(user_id) from USER where user_id < ?",
STRING_0,

























