testCompareTo,DefaultActionMapping,
METHOD_0,METHOD_1,

netbeans,modules,gradle,actions,DefaultActionMapping,instance1,instance2,GradleConfiguration,extendsFrom,
IDENT_0,IDENT_1,IDENT_2,IDENT_3,IDENT_4,IDENT_5,IDENT_6,IDENT_7,IDENT_8,







"run",
STRING_0,

























