testGetOriginalBand,SpectrumBand,getOriginalBand,
METHOD_0,METHOD_1,METHOD_2,

esa,snap,product,spectrum,SpectrumBand,spectrumBand,band,
IDENT_0,IDENT_1,IDENT_2,IDENT_3,IDENT_4,IDENT_5,IDENT_6,


































