testGetBuildScript,newFile,GradleFiles,getRoot,getBuildScript,
METHOD_0,METHOD_1,METHOD_2,METHOD_3,METHOD_4,

netbeans,modules,gradle,GradleFiles,gf,buildScript,
IDENT_0,IDENT_1,IDENT_2,IDENT_3,IDENT_4,IDENT_5,







"build.gradle",
STRING_0,

























