preHandle,refreshCatalogUserConfigContext,
METHOD_0,METHOD_1,

userConfigService,HttpServletRequest,HttpServletResponse,
IDENT_0,IDENT_1,IDENT_2,


































