testAddAll,IntVector,
METHOD_0,METHOD_1,

d1,zemberek,IntVector,darray,Iterable,morphology,lexicon,DictionaryItem,items,
IDENT_0,IDENT_1,IDENT_2,IDENT_3,IDENT_4,IDENT_5,IDENT_6,IDENT_7,IDENT_8,

17,123,
INT_0,INT_1,































