ids,toJSONString,createSnakeCase,toJson,
METHOD_0,METHOD_1,METHOD_2,METHOD_3,

generatedJson,seratch,jslack,rtm,PresenceQuery,expectedJson,GsonFactory,
IDENT_0,IDENT_1,IDENT_2,IDENT_3,IDENT_4,IDENT_5,IDENT_6,







"{\"type\":\"presence_query\",\"ids\":[\"1\",\"2\"]}",
STRING_0,

























