isArray_A$String_argNull,AvailableTypeDetector,isArray,
METHOD_0,METHOD_1,METHOD_2,

junithelper,ClassMeta,classMeta,extractor,AvailableTypeDetector,typeName,
IDENT_0,IDENT_1,IDENT_2,IDENT_3,IDENT_4,IDENT_5,







".+?\\[\\]$",
STRING_0,

























