getGenericsAsString_A$,ArgTypeMeta,getGenericsAsString,
METHOD_0,METHOD_1,METHOD_2,

junithelper,ArgTypeMeta,generics,
IDENT_0,IDENT_1,IDENT_2,







"String","Object","<String, Object>","<",", ",">",
STRING_0,STRING_1,STRING_2,STRING_3,STRING_4,STRING_5,

























