addFilter_A$TrimFilterArray_0,TrimFilterManager,addFilter,getFilters,
METHOD_0,METHOD_1,METHOD_2,METHOD_3,

junithelper,TrimFilterManager,TrimFilter,
IDENT_0,IDENT_1,IDENT_2,


































