getCrontabDayOfWeekNumber_A$Calendar,getCalendar,getCrontabDayOfWeekNumber,getDayOfWeekNumber,
METHOD_0,METHOD_1,METHOD_2,METHOD_3,

cal,seratch,taskun,CalendarUtil,
IDENT_0,IDENT_1,IDENT_2,IDENT_3,







"2010","07","01",
STRING_0,STRING_1,STRING_2,

























