getFixedNextInvocationValue_A$int$List,getFixedNextInvocationValue,
METHOD_0,METHOD_1,

arg0,arg1,fixedInvocations,fixed,currentValue,
IDENT_0,IDENT_1,IDENT_2,IDENT_3,IDENT_4,







"Invalid configuration...",
STRING_0,

























