inject_A$Class,S2TaskunInjector,inject,getComponent,
METHOD_0,METHOD_1,METHOD_2,METHOD_3,

seratch,taskun,inject,S2TaskunInjector,scheduler,TaskunConfig,s2Container,
IDENT_0,IDENT_1,IDENT_2,IDENT_3,IDENT_4,IDENT_5,IDENT_6,


































