testGet,parseMessage,ConnectionErrorDlg,
METHOD_0,METHOD_1,METHOD_2,

netbeans,modules,uihandler,ConnectionErrorDlg,Segment,segments,
IDENT_0,IDENT_1,IDENT_2,IDENT_3,IDENT_4,IDENT_5,







"get",
STRING_0,

























