checkRangeForAddOrNotAddInStorageInTrash,Bananas,GregorianCalendar,Trash,matchRange,
METHOD_0,METHOD_1,METHOD_2,METHOD_3,METHOD_4,

ru,szhernovoy,Food,food,AUGUST,today,Trash,trssh,products,
IDENT_0,IDENT_1,IDENT_2,IDENT_3,IDENT_4,IDENT_5,IDENT_6,IDENT_7,IDENT_8,

2016,45,
INT_0,INT_1,




"Banana","Empty",
STRING_0,STRING_1,

























