testGetJavaClassesByRegExp,getJavaClassesByRegExp,
METHOD_0,METHOD_1,

regexp,heap,dataLock,curSize,
IDENT_0,IDENT_1,IDENT_2,IDENT_3,




synchronized,
MOD_0,

".*Lock.*",
STRING_0,

























