calcFuncOneValue,Square,calcFunction,
METHOD_0,METHOD_1,METHOD_2,

chapter1,loop,Square,sq,
IDENT_0,IDENT_1,IDENT_2,IDENT_3,

11,
INT_0,































