whenWeDeleteSizeOfPhoneBookReduce,PhoneBook,
METHOD_0,METHOD_1,

ru,szhernovoy,PhoneBook,tinyBook,iter,listLeaf,inner,
IDENT_0,IDENT_1,IDENT_2,IDENT_3,IDENT_4,IDENT_5,IDENT_6,







"89053758569","Julia","89053758565","Sergey","89053758566","Petr",
STRING_0,STRING_1,STRING_2,STRING_3,STRING_4,STRING_5,

























