causeIsNull,ReportTypeException,causedBySecurityException,getCause,
METHOD_0,METHOD_1,METHOD_2,METHOD_3,

sernet,verinice,ReportTypeException,reportTypeException,
IDENT_0,IDENT_1,IDENT_2,IDENT_3,


































