testListAllMatchingQueries,listQueries,
METHOD_0,METHOD_1,

dataLock,curSize,
IDENT_0,IDENT_1,




synchronized,
MOD_0,

"listAllMatchingQueries",".+?allocated.*",
STRING_0,STRING_1,

























