getDiskImageName,RORDiskImage,
METHOD_0,METHOD_1,

HierarchicalConfiguration,ror,RORDiskImageTest,DISKIMAGENAME,rorDiskImage,
IDENT_0,IDENT_1,IDENT_2,IDENT_3,IDENT_4,







"diskimageName",
STRING_0,

























