passwordAuth_equal2,PasswordAuthentication,getDomainClass,
METHOD_0,METHOD_1,METHOD_2,

v2_0,PasswordAuthentication,domobjects,DomainObject,
IDENT_0,IDENT_1,IDENT_2,IDENT_3,







"user","passwd",
STRING_0,STRING_1,

























