countAuditLogs,givenAuditLogs,countAuditLogsInTx,runTX,
METHOD_0,METHOD_1,METHOD_2,METHOD_3,

operatorIds,cnt,Callable,auditlog,operationName,startTime,endTime,
IDENT_0,IDENT_1,IDENT_2,IDENT_3,IDENT_4,IDENT_5,IDENT_6,







"opId1",
STRING_0,

























