getEnglishOrFirst_englishFisrt,getEnglishOrFirst,givenText,LocalizedText,setLocale,setText,
METHOD_0,METHOD_1,METHOD_2,METHOD_3,METHOD_4,METHOD_5,

BesDAO,v2_0,LocalizedText,voText,locale,
IDENT_0,IDENT_1,IDENT_2,IDENT_3,IDENT_4,







"en","en_text","de","de_text",
STRING_0,STRING_1,STRING_2,STRING_3,

























