testcase18,createPictScenario18,performBillingRun,getSubscriptionDetails,getEvaluator,
METHOD_0,METHOD_1,METHOD_2,METHOD_3,METHOD_4,

testSetup,VOSubscriptionDetails,sub,billingservice,evaluation,BillingResultEvaluator,eva,voSubscription,
IDENT_0,IDENT_1,IDENT_2,IDENT_3,IDENT_4,IDENT_5,IDENT_6,IDENT_7,







"2013-04-29 23:00:00","PICT_TEST_18","2013-03-15 00:00:00","2013-04-15 00:00:00",
STRING_0,STRING_1,STRING_2,STRING_3,

























