equalsIgnoreDiacritics,isAsciiEqual,
METHOD_0,METHOD_1,

zemberek,turkish,TurkishAlphabet,alphabet,s1,s2,c1,c2,
IDENT_0,IDENT_1,IDENT_2,IDENT_3,IDENT_4,IDENT_5,IDENT_6,IDENT_7,







"siraci","aac","aa","rac","agac",
STRING_0,STRING_1,STRING_2,STRING_3,STRING_4,

























