testEncodeParam_nullParamList,encodeParameters,
METHOD_0,METHOD_1,

ParameterEncoder,paramList,encodedString,PARAMETER_SEPARATOR,base64Encoder,
IDENT_0,IDENT_1,IDENT_2,IDENT_3,IDENT_4,


































