testPhysicalFileSet,PhysicalFileSet,getFiles,getLocalPath,
METHOD_0,METHOD_1,METHOD_2,METHOD_3,

ant,Files,IFileSet,IFile,localpath,
IDENT_0,IDENT_1,IDENT_2,IDENT_3,IDENT_4,







"resources/files","**/*.txt","a.txt","dir/c.txt",
STRING_0,STRING_1,STRING_2,STRING_3,

























