testParse_GermanLocaleNegativeAllowed,PriceConverter,getActiveLocale,
METHOD_0,METHOD_1,METHOD_2,

PriceConverter,GERMAN,activeLocale,
IDENT_0,IDENT_1,IDENT_2,







"-50,00",
STRING_0,

























