testDecodeParam_nullParam,decodeParameters,decodeBuffer,
METHOD_0,METHOD_1,METHOD_2,

ParameterEncoder,encodedString,decodedString,base64Decoder,PARAMETER_SEPARATOR,
IDENT_0,IDENT_1,IDENT_2,IDENT_3,IDENT_4,


































