testGetVatAmount_NullTotalCosts,createVRD,setNetCosts,getVatAmount,
METHOD_0,METHOD_1,METHOD_2,METHOD_3,

billingservice,VatRateDetails,vrd,vatAmount,
IDENT_0,IDENT_1,IDENT_2,IDENT_3,


































