testHashtable,singletonMap,hashtable,cast,
METHOD_0,METHOD_1,METHOD_2,METHOD_3,

Hashtable,ParameterizedTypes,K,V,ktype,vtype,
IDENT_0,IDENT_1,IDENT_2,IDENT_3,IDENT_4,IDENT_5,







"hello","world",
STRING_0,STRING_1,

























