isConstruct_false_notAConstruct,isConstruct,requireNonNull,parseQuery,parseUpdate,
METHOD_0,METHOD_1,METHOD_2,METHOD_3,METHOD_4,

sparql,QueryInvestigator,PARSER,Pattern,rdf4j,MalformedQueryException,queryE,updateE,
IDENT_0,IDENT_1,IDENT_2,IDENT_3,IDENT_4,IDENT_5,IDENT_6,IDENT_7,







"SELECT * WHERE { ?a ?b ?c . }","[\\s\\S]*?construct\\s*?\\{[\\s\\S]*?\\}[\\s\\S]*?where\\s*\\{[\\s\\S]*?\\}",
STRING_0,STRING_1,

























