isInsert_false_notAnInsert,isInsertWhere,requireNonNull,parseUpdate,parseQuery,
METHOD_0,METHOD_1,METHOD_2,METHOD_3,METHOD_4,

sparql,QueryInvestigator,PARSER,Pattern,rdf4j,MalformedQueryException,updateE,queryE,
IDENT_0,IDENT_1,IDENT_2,IDENT_3,IDENT_4,IDENT_5,IDENT_6,IDENT_7,







"PREFIX dc: <http://purl.org/dc/elements/1.1/> ","PREFIX xsd: <http://www.w3.org/2001/XMLSchema#> ","DELETE { ","?book ?p ?v ","} WHERE { ","?book dc:date ?date . ","FILTER ( ?date < \"2000-01-01T00:00:00\"^^xsd:dateTime ) ","}","[\\s\\S]*?insert\\s*?\\{[\\s\\S]*?\\}[\\s\\S]*?where\\s*\\{[\\s\\S]*?\\}",
STRING_0,STRING_1,STRING_2,STRING_3,STRING_4,STRING_5,STRING_6,STRING_7,STRING_8,

























