replaceSubstring_fromGreaterTo,replaceSubstring,
METHOD_0,METHOD_1,

Strings,head,tail,
IDENT_0,IDENT_1,IDENT_2,







"test string","replacement",
STRING_0,STRING_1,

























