setValue_JapaneseCharsPlusInvalid,setDescription,getDescription,
METHOD_0,METHOD_1,METHOD_2,

svc,tppd,VOService,billingservice,billingresult,DescriptionType,
IDENT_0,IDENT_1,IDENT_2,IDENT_3,IDENT_4,IDENT_5,







"",
STRING_0,

























