getObject_byColumnIndex,addRow,getObject,columnIndex,
METHOD_0,METHOD_1,METHOD_2,METHOD_3,

metaData,columnName,
IDENT_0,IDENT_1,


































