startsWithDiacriticsIgnoredTest,startsWithIgnoreDiacritics,isAsciiEqual,
METHOD_0,METHOD_1,METHOD_2,

zemberek,turkish,TurkishAlphabet,alphabet,s1,s2,c1,c2,
IDENT_0,IDENT_1,IDENT_2,IDENT_3,IDENT_4,IDENT_5,IDENT_6,IDENT_7,







"siraci","alayan","rac","cag",
STRING_0,STRING_1,STRING_2,STRING_3,

























