getCategories_nonExistingMP,getCategories,
METHOD_0,METHOD_1,

VOCategory,categorizationService,categoriesForMarketplace,
IDENT_0,IDENT_1,IDENT_2,







"xyz","de",
STRING_0,STRING_1,

























