toString_Warning,ReturnCode,hasToString,TestWithToString,
METHOD_0,METHOD_1,METHOD_2,METHOD_3,

ReturnCode,returnCode,ReturnType,WARNING,JavaMatchersTest,JavaMatchers,
IDENT_0,IDENT_1,IDENT_2,IDENT_3,IDENT_4,IDENT_5,







"KEY","param1",
STRING_0,STRING_1,

























