testGetArgumentNames,getArgumentNames,
METHOD_0,METHOD_1,

operatorsvc,AddAvailablePaymentTypesCommand,ARG_ORGID,ARG_PAYMENTTYPES,
IDENT_0,IDENT_1,IDENT_2,IDENT_3,


































