testDetermineRegistrationLink,setUseCreditCard,determineRegistrationLink,
METHOD_0,METHOD_1,METHOD_2,

im,registrationLink,pps,voPaymentInfo,psp,RequestData,
IDENT_0,IDENT_1,IDENT_2,IDENT_3,IDENT_4,IDENT_5,


































