getOperations_SelectedServiceIsNull,getSelectedTechnicalService,getOperations,
METHOD_0,METHOD_1,METHOD_2,

OperationRow,categoriesForMarketplace,
IDENT_0,IDENT_1,


































