isFilterTagSelected_notSet,setFilterTag,isFilterTagSelected,
METHOD_0,METHOD_1,METHOD_2,

tagSelected,
IDENT_0,







"aTag",
STRING_0,

























