testGetKeyForParam_NullInput,getKeyForParam,
METHOD_0,METHOD_1,

keyForParam,ExceptionHandler,SaaSApplicationException,ENUM_PREFIX,
IDENT_0,IDENT_1,IDENT_2,IDENT_3,


































