getSelectedUserId_NotExisting,setSelectedUserId,getSelectedUserId,
METHOD_0,METHOD_1,METHOD_2,

ctrl,selId,selectedUserId,
IDENT_0,IDENT_1,IDENT_2,







"notExisting",
STRING_0,

























