isRolesRendered,initializePartnerServiceView,getModel,setRolePrices,
METHOD_0,METHOD_1,METHOD_2,METHOD_3,

ctrl,rolesRendered,
IDENT_0,IDENT_1,


































