refreshOwner_ClickNoOwner,setNoSubscriptionOwner,setSelectedOwner,VOUserDetails,refreshOwner,getSelectedOwner,
METHOD_0,METHOD_1,METHOD_2,METHOD_3,METHOD_4,METHOD_5,

ctrl,selectedOwner,
IDENT_0,IDENT_1,


































