testAddGroupAnd,addGroup,getGroups,isVisible,eval,isHidden,
METHOD_0,METHOD_1,METHOD_2,METHOD_3,METHOD_4,METHOD_5,

menu,ALWAYS,NEVER,MenuGroup,visibility,uiStatus,
IDENT_0,IDENT_1,IDENT_2,IDENT_3,IDENT_4,IDENT_5,







"id",
STRING_0,

























