retrieveUnitForUnitAdmin_user3,retrieveUnitForAdmin,
METHOD_0,METHOD_1,

unitKeys,user3,categoriesForMarketplace,
IDENT_0,IDENT_1,IDENT_2,


































