getRootTemplateProduct_NoTemplate,givenProduct,getRootTemplateProduct,getTemplate,
METHOD_0,METHOD_1,METHOD_2,METHOD_3,

domobjects,Product,product,logEntry,
IDENT_0,IDENT_1,IDENT_2,IDENT_3,


































