isNewValue_newValStringValue,isNewValue,isBlank,
METHOD_0,METHOD_1,METHOD_2,

parameterParserSpy,strMaxValue,oldVal,newVal,
IDENT_0,IDENT_1,IDENT_2,IDENT_3,


































