getActiveSubscriptions,runTX,
METHOD_0,METHOD_1,

domobjects,Subscription,Callable,subscriptionservice,categoriesForMarketplace,
IDENT_0,IDENT_1,IDENT_2,IDENT_3,IDENT_4,


































