createTimerWithPeriod_discountEndCheckTimerNotCreated,prepareTimerList,createTimerWithPeriod,getTimers,
METHOD_0,METHOD_1,METHOD_2,METHOD_3,

TimerType,DISCOUNT_END_CHECK,tm,tss,Period,DAY,
IDENT_0,IDENT_1,IDENT_2,IDENT_3,IDENT_4,IDENT_5,

10000,
INT_0,































