testOutbundTypeOk,handleMessage,addMessage,
METHOD_0,METHOD_1,METHOD_2,

MessageContext,MESSAGE_OUTBOUND_PROPERTY,loginHandler,soap,SOAPMessageContext,
IDENT_0,IDENT_1,IDENT_2,IDENT_3,IDENT_4,


































