testInjectField,Reference,getDeclaredField,Bean,inject,setAccessible,
METHOD_0,METHOD_1,METHOD_2,METHOD_3,METHOD_4,METHOD_5,

Bean,foo,ejb,Reference,
IDENT_0,IDENT_1,IDENT_2,IDENT_3,




private,
MOD_0,

"Hello",
STRING_0,

























