newAciaShouldHaveTxEmptyStatus,Acia6551,
METHOD_0,METHOD_1,

loomcom,symon,devices,Acia,acia,Crtc,REGISTER_RW,currentRegister,CURSOR_POSITION_LOW,cursorPosition,CURSOR_POSITION_HIGH,
IDENT_0,IDENT_1,IDENT_2,IDENT_3,IDENT_4,IDENT_5,IDENT_6,IDENT_7,IDENT_8,IDENT_9,IDENT_10,


































