assertIsDatabaseShardingOnlyWithoutSet,isDatabaseShardingOnly,
METHOD_0,METHOD_1,

hint,HintManager,hintManager,HINT_MANAGER_HOLDER,databaseShardingOnly,
IDENT_0,IDENT_1,IDENT_2,IDENT_3,IDENT_4,


































