assertGetQuoteCharacterWithNullValue,getQuoteCharacter,isNullOrEmpty,
METHOD_0,METHOD_1,METHOD_2,

Strings,constant,QuoteCharacter,NONE,each,startDelimiter,
IDENT_0,IDENT_1,IDENT_2,IDENT_3,IDENT_4,IDENT_5,


































