assertGetMoreResults,getMoreResults,getRoutedStatements,
METHOD_0,METHOD_1,METHOD_2,

Statement,each,statements,
IDENT_0,IDENT_1,IDENT_2,


































