testListPackages,postPackageServiceWithHttpInfo,
METHOD_0,METHOD_1,

cmd,shinesolutions,swaggeraem4j,ApiResponse,crx,statusCode,
IDENT_0,IDENT_1,IDENT_2,IDENT_3,IDENT_4,IDENT_5,







"ls",
STRING_0,

























