userName,UserForm,getErrorMessage,
METHOD_0,METHOD_1,METHOD_2,

ch03,UserForm,sut,
IDENT_0,IDENT_1,IDENT_2,







"1234","ID",
STRING_0,STRING_1,

























