testGetAsTypeArchivePath,getArchive,getAsType,
METHOD_0,METHOD_1,METHOD_2,

shrinkwrap,Archive,archive,GenericArchive,ShrinkWrap,exporter,ZipExporter,ArchivePaths,
IDENT_0,IDENT_1,IDENT_2,IDENT_3,IDENT_4,IDENT_5,IDENT_6,IDENT_7,


































