test_byte,nextInt,allocateDirect,compressByte,decompressByte,checkEquals,
METHOD_0,METHOD_1,METHOD_2,METHOD_3,METHOD_4,METHOD_5,

item_size,indexr,compress,bh,BHCompressTest,ByteSlice,bb,max_val,cmp,BHCompressor,dp,s1,s2,
IDENT_0,IDENT_1,IDENT_2,IDENT_3,IDENT_4,IDENT_5,IDENT_6,IDENT_7,IDENT_8,IDENT_9,IDENT_10,IDENT_11,IDENT_12,

65536,256,128,255L,
INT_0,INT_1,INT_2,INT_3,































