testIsReadable,createFrenchSimpleAttachment,ShareableAttachment,SimpleFileAccessControl,isReadable,
METHOD_0,METHOD_1,METHOD_2,METHOD_3,METHOD_4,

silverpeas,contribution,attachment,SimpleDocument,sharing,ShareableAttachment,SimpleFileAccessControl,Objects,
IDENT_0,IDENT_1,IDENT_2,IDENT_3,IDENT_4,IDENT_5,IDENT_6,IDENT_7,







"965e985d-c711-47b3-a467-62779505965e985d-c711-47b3-a467-62779505",
STRING_0,

























