convertAnDocDocumentToHTML,getDocumentNamed,inFormat,
METHOD_0,METHOD_1,METHOD_2,

convertedDocument,silverpeas,contribution,ToHTMLConverterIT,DOC_DOCUMENT_NAME,
IDENT_0,IDENT_1,IDENT_2,IDENT_3,IDENT_4,


































