getRightRecoveringService,sameInstance,
METHOD_0,METHOD_1,

silverpeas,RightRecover,rightRecoverInstance,AdministrationServiceProvider,rightRecover,
IDENT_0,IDENT_1,IDENT_2,IDENT_3,IDENT_4,


































