testGetName,TypeStatistics,
METHOD_0,METHOD_1,

stratelia,silverpeas,silverstatistics,TypeStatistics,Objects,
IDENT_0,IDENT_1,IDENT_2,IDENT_3,IDENT_4,


































