testGetHtmlStyle,getHtmlStyle,
METHOD_0,METHOD_1,

silverpeas,importExport,HtmlExportGenerator,Objects,
IDENT_0,IDENT_1,IDENT_2,IDENT_3,







"<link href='treeview/display.css' type='text/css' rel='stylesheet'/>",
STRING_0,

























