testGetPurge,TypeStatistics,getPurge,
METHOD_0,METHOD_1,METHOD_2,

stratelia,silverpeas,silverstatistics,TypeStatistics,Objects,
IDENT_0,IDENT_1,IDENT_2,IDENT_3,IDENT_4,


































