shouldNotPlaceItemWhenThereIsNoCapacityLeft,ItemsContainer,placeItem,ItemCopper,
METHOD_0,METHOD_1,METHOD_2,METHOD_3,

simon987,game,objects,ItemsContainer,itemsContainer,Item,
IDENT_0,IDENT_1,IDENT_2,IDENT_3,IDENT_4,IDENT_5,


































