testAutoCommitWithScheduler,getResourceManager,beginNodeTrx,getRevisionNumber,
METHOD_0,METHOD_1,METHOD_2,METHOD_3,

sirix,XmlNodeTrx,wtx,holder,MILLISECONDS,mRevision,
IDENT_0,IDENT_1,IDENT_2,IDENT_3,IDENT_4,IDENT_5,

500,1500,
INT_0,INT_1,































