notEqualsNull,HashData,
METHOD_0,METHOD_1,

lightboxtechnologies,nsrl,HashData,hd,HashDataTest,sha1,md5,crc32,prod_code,os_code,special_code,
IDENT_0,IDENT_1,IDENT_2,IDENT_3,IDENT_4,IDENT_5,IDENT_6,IDENT_7,IDENT_8,IDENT_9,IDENT_10,


































