testLockWithTimeout,lock,await,
METHOD_0,METHOD_1,METHOD_2,

obtainedLock,writeLock,SECONDS,nearinfinity,zookeeper,BlockingWriteLock,timeout,lockAcquiredSignal,
IDENT_0,IDENT_1,IDENT_2,IDENT_3,IDENT_4,IDENT_5,IDENT_6,IDENT_7,







"{} requesting lock on {} with timeout {} {}...",
STRING_0,

























