asString,setAttribute,copy,
METHOD_0,METHOD_1,METHOD_2,

tester,baos,slim3,upload,Streams,pStream,
IDENT_0,IDENT_1,IDENT_2,IDENT_3,IDENT_4,IDENT_5,







"aaa",
STRING_0,

























