multiLineValues,appendItem,ReportItem,
METHOD_0,METHOD_1,METHOD_2,

pcj,fluo,Report,card,te,
IDENT_0,IDENT_1,IDENT_2,IDENT_3,IDENT_4,







"Title 1","Value 1","Multiple Lines","This is the first line.","This is the second line.","Value 2","| Title 1 | Value 1 |\n","| Multiple Lines | This is the first line. |\n","| | This is the second line. |\n","| Title 2 | Value 2 |\n",
STRING_0,STRING_1,STRING_2,STRING_3,STRING_4,STRING_5,STRING_6,STRING_7,STRING_8,STRING_9,

























