notEqualsNull,ProdData,
METHOD_0,METHOD_1,

lightboxtechnologies,nsrl,ProdData,pd,ProdDataTest,os_code,mfg_code,language,app_type,
IDENT_0,IDENT_1,IDENT_2,IDENT_3,IDENT_4,IDENT_5,IDENT_6,IDENT_7,IDENT_8,


































