testUnmarshallFileStream,toBytes,unmarshall,
METHOD_0,METHOD_1,METHOD_2,

colSpec,lightboxtechnologies,spectrum,FILE_STREAM,Bytes,StreamProxy,FileProxy,fp,FilePath,
IDENT_0,IDENT_1,IDENT_2,IDENT_3,IDENT_4,IDENT_5,IDENT_6,IDENT_7,IDENT_8,







'f',"a/path/to/a/file.txt",
STRING_0,STRING_1,

























