putAsyncForModels,putAsync,Hoge,getAttributeNames,hasMoreElements,nextElement,
METHOD_0,METHOD_1,METHOD_2,METHOD_3,METHOD_4,METHOD_5,

appengine,Key,Transaction,slim3,Enumeration,
IDENT_0,IDENT_1,IDENT_2,IDENT_3,IDENT_4,







"Hoge",
STRING_0,

























