getAsObjectAndGetAsString,DateConverter,getAsObject,getAsString,
METHOD_0,METHOD_1,METHOD_2,METHOD_3,

slim3,DateConverter,DateUtil,
IDENT_0,IDENT_1,IDENT_2,







"MM/dd/yyyy","01/16/2008","The class(",") can not be assigned to date.",
STRING_0,STRING_1,STRING_2,STRING_3,

























