test8,compile,TransformPathFlatternStd,asQuery,setPrefix,
METHOD_0,METHOD_1,METHOD_2,METHOD_3,METHOD_4,

QueryFactory,sparql,algebra,Op,Algebra,Transformer,optimize,OpAsQuery,aksw,jena_sparql_api,views,MyOpAsQuery,Dialect,DEFAULT,
IDENT_0,IDENT_1,IDENT_2,IDENT_3,IDENT_4,IDENT_5,IDENT_6,IDENT_7,IDENT_8,IDENT_9,IDENT_10,IDENT_11,IDENT_12,IDENT_13,







"PREFIX : <http://ex.org/> SELECT * { { ?s :p1 ?o } UNION { ?s :p2 ?o } }","PREFIX : <http://ex.org/> SELECT * { ?s :p1|:p2 ?o }","http://ex.org/",
STRING_0,STRING_1,STRING_2,

























