testGetComponentsOfType,getComponentsOfType,
METHOD_0,METHOD_1,

dllearner,Component,AnnComponentManager,ReasonerComponent,monitors,
IDENT_0,IDENT_1,IDENT_2,IDENT_3,IDENT_4,


































