validProperty,KafkaTopicPropertiesBuilder,setCleanupPolicy,Compact,CleanupPolicyProp,
METHOD_0,METHOD_1,METHOD_2,METHOD_3,METHOD_4,

interactor,LogConfig,RyaIRI,Property,typeId,
IDENT_0,IDENT_1,IDENT_2,IDENT_3,IDENT_4,


































