testSearch,searchResources,getResults,
METHOD_0,METHOD_1,METHOD_2,

smartsheet,SearchResult,
IDENT_0,IDENT_1,







"aditi",
STRING_0,

























