checkMessageMethod,ActionExecuteException,
METHOD_0,METHOD_1,

smart_tools,smartactors,iaction,ActionExecuteException,
IDENT_0,IDENT_1,IDENT_2,IDENT_3,


































