checkMessageMethod,EvaluatingExpressionException,
METHOD_0,METHOD_1,

smart_tools,smartactors,morph_expressions,EvaluatingExpressionException,
IDENT_0,IDENT_1,IDENT_2,IDENT_3,


































