checkToString,Key,
METHOD_0,METHOD_1,

smart_tools,smartactors,ioc,ikey,IKey,string_ioc_key,identifier,
IDENT_0,IDENT_1,IDENT_2,IDENT_3,IDENT_4,IDENT_5,IDENT_6,







"key",
STRING_0,

























