searchIssues,GitHubService,getIssues,
METHOD_0,METHOD_1,METHOD_2,

mylyn,GitHubService,GitHubIssues,issues,TEST_USER,TEST_PROJECT,
IDENT_0,IDENT_1,IDENT_2,IDENT_3,IDENT_4,IDENT_5,







"open",
STRING_0,

























