testParseExpectation,getMethod,getAnnotation,Range,
METHOD_0,METHOD_1,METHOD_2,METHOD_3,

sniffy,Range,RangeTest,SqlExpectation,Count,
IDENT_0,IDENT_1,IDENT_2,IDENT_3,IDENT_4,







"testParseExpectation",
STRING_0,

























