testEnableShouldSetExplainPropertyToTrue,getProperties,
METHOD_0,METHOD_1,

agent,SoarProperties,EXPLAIN,jsoar,DefaultSoarCommandContext,
IDENT_0,IDENT_1,IDENT_2,IDENT_3,IDENT_4,







"save-backtraces","-e",
STRING_0,STRING_1,

























