testmultiply,multiply,
METHOD_0,METHOD_1,

Future,myMathService,InterruptedException,ExecutionException,OutputStream,
IDENT_0,IDENT_1,IDENT_2,IDENT_3,IDENT_4,


































