testGetBadInteger,newOption,requiredArg,done,getInteger,has,NullPointerException,
METHOD_0,METHOD_1,METHOD_2,METHOD_3,METHOD_4,METHOD_5,METHOD_6,

alpha,E,longOption,arguments,
IDENT_0,IDENT_1,IDENT_2,IDENT_3,







"command","--alpha","1.0","Long option is null.","Call process() before testing for options.",
STRING_0,STRING_1,STRING_2,STRING_3,STRING_4,

























