off,Emitter,Listener,on,emit,sameAs,
METHOD_0,METHOD_1,METHOD_2,METHOD_3,METHOD_4,METHOD_5,

socket,emitter,Emitter,calls,Listener,one,two,Emitter$Listener,ConcurrentLinkedQueue,callbacks,fn,
IDENT_0,IDENT_1,IDENT_2,IDENT_3,IDENT_4,IDENT_5,IDENT_6,IDENT_7,IDENT_8,IDENT_9,IDENT_10,







"one","two",
STRING_0,STRING_1,




...,
OP_0,



















