on,Emitter,Listener,emit,
METHOD_0,METHOD_1,METHOD_2,METHOD_3,

socket,emitter,Emitter,calls,ConcurrentLinkedQueue,callbacks,fn,
IDENT_0,IDENT_1,IDENT_2,IDENT_3,IDENT_4,IDENT_5,IDENT_6,







"one","two",
STRING_0,STRING_1,




...,
OP_0,



















