testSetOrderBy,setOrderBy,getList,
METHOD_0,METHOD_1,METHOD_2,

OrderBy,DESC,inria,soctrace,EventProducer,elist,last,framesoc,eventtable,EventTableView,ID,
IDENT_0,IDENT_1,IDENT_2,IDENT_3,IDENT_4,IDENT_5,IDENT_6,IDENT_7,IDENT_8,IDENT_9,IDENT_10,







"ID",
STRING_0,

























