testWorksProperlyWithConverters,ofByte,fromString,
METHOD_0,METHOD_1,METHOD_2,

Byte,datakernel,ConfigConverters,SimpleConfigConverter,
IDENT_0,IDENT_1,IDENT_2,IDENT_3,




protected,
MOD_0,

"key5.key6",
STRING_0,

























