testSetEventProducer,createEvent,Event,setEventProducer,getEventProducer,
METHOD_0,METHOD_1,METHOD_2,METHOD_3,METHOD_4,

inria,soctrace,Event,IModelFactory,ep,
IDENT_0,IDENT_1,IDENT_2,IDENT_3,IDENT_4,


































