testConcat,allocate,slice,recycle,readRemaining,
METHOD_0,METHOD_1,METHOD_2,METHOD_3,METHOD_4,

datakernel,bytebuf,ByteBuf,ByteBufPool,ByteBufTest,BYTES,secondBuf,chars,head,
IDENT_0,IDENT_1,IDENT_2,IDENT_3,IDENT_4,IDENT_5,IDENT_6,IDENT_7,IDENT_8,

64,32,256,9166,65533,
INT_0,INT_1,INT_2,INT_3,INT_4,




'\n',' ',
STRING_0,STRING_1,

























