testRemoveTrailingSlashes,removeTrailingSlashes,
METHOD_0,METHOD_1,

restheart,URLUtils,
IDENT_0,IDENT_1,







"/ciao/this/has/trailings/////","/ciao/this/has/trailings",'/',
STRING_0,STRING_1,STRING_2,

























