testMD5HashForLongWritableKey,LongWritable,parseLong,getMD5Hash,digest,
METHOD_0,METHOD_1,METHOD_2,METHOD_3,METHOD_4,

LongWritable,MD5Hash,md5HashKey1,nubetech,hiho,dedup,HashUtility,md5HashKey2,
IDENT_0,IDENT_1,IDENT_2,IDENT_3,IDENT_4,IDENT_5,IDENT_6,IDENT_7,







"123",
STRING_0,

























