lazyLoadingCloseWarning,createEntityManager,getTwitterAccounts,
METHOD_0,METHOD_1,METHOD_2,

EntityManager,meri,relationships,simon,SIMON_SLASH_ID,twitterAccounts,
IDENT_0,IDENT_1,IDENT_2,IDENT_3,IDENT_4,IDENT_5,


































