testStringVersionComparator_mixedVersionAndNonVersionStringAreSortedTogether,sort,
METHOD_0,METHOD_1,

versions,VersionComparator,manipulation,Sorter,Sortable,sorter,
IDENT_0,IDENT_1,IDENT_2,IDENT_3,IDENT_4,IDENT_5,







"2.0.0","1.0-foo","1.0-beta","1.2","1.1-SNAPSHOT","2foo",
STRING_0,STRING_1,STRING_2,STRING_3,STRING_4,STRING_5,

























