testSetName,ColumnInfo,
METHOD_0,METHOD_1,

nubetech,hiho,ColumnInfo,cInfo,Types,INTEGER,
IDENT_0,IDENT_1,IDENT_2,IDENT_3,IDENT_4,IDENT_5,







"Student",
STRING_0,

























