testGenerateLong,DefaultKeyGenerator,generateLong,
METHOD_0,METHOD_1,METHOD_2,

spikeify,DefaultKeyGenerator,
IDENT_0,IDENT_1,


































