testGetValueRawJsonNoAttrNoStream,createRawJsonProcessor,Expectations,getInputStream,
METHOD_0,METHOD_1,METHOD_2,METHOD_3,

mockit,paramIndex,
IDENT_0,IDENT_1,


































