testScalarMultipleAggregateViaSparkPath,executeQuery,toStringUnsorted,
METHOD_0,METHOD_1,METHOD_2,

sqlText,methodWatcher,resultString,FormattedResult,ResultFactory,homeless,
IDENT_0,IDENT_1,IDENT_2,IDENT_3,IDENT_4,IDENT_5,







"select count(a2), avg(cast(b2 as float)), sum(distinct c2), max(distinct d2), count(distinct e2) from t2 --splice-properties useSpark=true","select count(distinct c2), sum(d2), count(distinct e2) from t1, t2 --splice-properties useSpark=true\n where b1=b2","------------------------\n","40960 | 5 |61440 | 5 |",
STRING_0,STRING_1,STRING_2,STRING_3,

























