testComplementMap6,complementMap,printArrays,
METHOD_0,METHOD_1,METHOD_2,

complement,IntArrays,
IDENT_0,IDENT_1,







"FilterMap: "," Size: ","\nResult: ","\nActual: ",
STRING_0,STRING_1,STRING_2,STRING_3,

























