testSelectDate,executeQuery,toStringUnsorted,
METHOD_0,METHOD_1,METHOD_2,

sqlText,methodWatcher,homeless,FormattedResult,ResultFactory,
IDENT_0,IDENT_1,IDENT_2,IDENT_3,IDENT_4,







"SELECT DATE('2016-01-04') FROM SYSIBM.SYSDUMMY1","1 |\n","------------\n","2016-01-04 |",
STRING_0,STRING_1,STRING_2,STRING_3,

























