testInsertionToHiveParquetData,executeUpdate,getResourceDirectory,executeQuery,
METHOD_0,METHOD_1,METHOD_2,METHOD_3,

methodWatcher,derby,SpliceUnitTest,FormattedResult,ResultFactory,homeless,
IDENT_0,IDENT_1,IDENT_2,IDENT_3,IDENT_4,IDENT_5,







"create external table pt_parquet(col1 varchar(10), col2 int, col3 char(2)) partitioned by (col3) stored as parquet location '%s'","pt_parquet","insert into pt_parquet values ('Kate', 19, 'HI')","select * from pt_parquet order by 1","COL1 |COL2 |COL3 |\n","------------------\n","Kate | 19 | HI |\n"," Sam | 20 | CA |\n"," Tom | 21 | NY |",
STRING_0,STRING_1,STRING_2,STRING_3,STRING_4,STRING_5,STRING_6,STRING_7,STRING_8,

























