testGroupedMultipleAggregateViaControlPath,executeQuery,toStringUnsorted,
METHOD_0,METHOD_1,METHOD_2,

sqlText,methodWatcher,resultString,FormattedResult,ResultFactory,homeless,
IDENT_0,IDENT_1,IDENT_2,IDENT_3,IDENT_4,IDENT_5,







"group by 1, b2 order by b2","4096 | 1 |eee | 1 | 3 |\n","1 | 2 |E2 | 4 | 5 |\n","4096 | 1 |ddd | 1 | 2 |\n"," 4 | 2 | 1 | 2 |\n","4096 | 2 |fff | 2 | 3 |\n","4096 | 2 |jjj | 2 | 5 |"," 2 | 1 |419491840 |20480 |",
STRING_0,STRING_1,STRING_2,STRING_3,STRING_4,STRING_5,STRING_6,STRING_7,

























