testJoinWithNonCoveringIndexInDTAndOuterJoin,executeQuery,
METHOD_0,METHOD_1,

joinStrategy,derby,compile,NonCoveringIndexIT,spliceClassWatcher,homeless,FormattedResult,ResultFactory,
IDENT_0,IDENT_1,IDENT_2,IDENT_3,IDENT_4,IDENT_5,IDENT_6,IDENT_7,







"select * from --splice-properties joinOrder=fixed\n","t1 left join \n","(select * from\n"," t2 --splice-properties index=ix_t2\n"," where b2=4) dt --splice-properties joinStrategy=%s\n","A1 |B1 |C1 | A2 | B2 | C2 |\n","------------------------------\n"," 1 | 1 | 1 |NULL |NULL |NULL |\n"," 2 | 2 | 2 |NULL |NULL |NULL |\n"," 3 | 3 | 3 |NULL |NULL |NULL |\n",
STRING_0,STRING_1,STRING_2,STRING_3,STRING_4,STRING_5,STRING_6,STRING_7,STRING_8,STRING_9,

























