testPlusDateValues,executeQuery,toStringUnsorted,
METHOD_0,METHOD_1,METHOD_2,

sqlText,derby,SimpleDateArithmeticIT,spliceClassWatcher,homeless,FormattedResult,ResultFactory,
IDENT_0,IDENT_1,IDENT_2,IDENT_3,IDENT_4,IDENT_5,IDENT_6,







"values date('2011-12-26') + 1","1 |\n","------------\n","2011-12-27 |",
STRING_0,STRING_1,STRING_2,STRING_3,

























