testGetTables,getStatement,executeQuery,stepNext,
METHOD_0,METHOD_1,METHOD_2,METHOD_3,

Statement,methodWatcher,
IDENT_0,IDENT_1,







"SELECT ","TABLE_NAME","TABLENAME AS TABLE_NAME, ","CAST ('' AS VARCHAR(128)) AS REMARKS, ","CAST (NULL AS VARCHAR(128)) AS SELF_REFERENCING_COL_NAME, ","FROM SYS.SYSTABLES, ","(VALUES ('T','TABLE'), ('S','SYSTEM TABLE'), ('V', 'VIEW'), ('A', 'SYNONYM')) T(TTABBREV,TABLE_TYPE) ","ORDER BY ","TABLE_SCHEM, ",
STRING_0,STRING_1,STRING_2,STRING_3,STRING_4,STRING_5,STRING_6,STRING_7,STRING_8,

























