testFindSuitableHit,findSuitableModulus,
METHOD_0,METHOD_1,

modBitLength,dk,alexandra,fresco,ModulusFinder,precomputed,
IDENT_0,IDENT_1,IDENT_2,IDENT_3,IDENT_4,IDENT_5,







"65519","Bit length must be divisible by 8",
STRING_0,STRING_1,




%,
OP_0,



















