testRangeUnboundedPrecedingUnboundedFollowing,getTableReference,executeQuery,toStringUnsorted,
METHOD_0,METHOD_1,METHOD_2,METHOD_3,

sqlText,derby,WindowFunctionIT,EMPTAB,useSpark,methodWatcher,homeless,FormattedResult,ResultFactory,
IDENT_0,IDENT_1,IDENT_2,IDENT_3,IDENT_4,IDENT_5,IDENT_6,IDENT_7,IDENT_8,







"from %s --SPLICE-PROPERTIES useSpark = %s \n order by dept, empnum","------------------------------\n"," 10 | 1 | 50000 |436000 |\n"," 20 | 1 | 75000 |436000 |\n"," 70 | 1 | 76000 |436000 |\n"," 100 | 3 | 55000 |293000 |\n"," 44 | 2 | 52000 |208000 |\n"," 30 | 3 | 84000 |293000 |\n"," 80 | 3 | 79000 |293000 |\n"," 120 | 3 | 75000 |293000 |",
STRING_0,STRING_1,STRING_2,STRING_3,STRING_4,STRING_5,STRING_6,STRING_7,STRING_8,STRING_9,

























