testFileVTIWithJoin,getResourceDirectory,executeQuery,stepNext,
METHOD_0,METHOD_1,METHOD_2,METHOD_3,

derby,VTIOperationIT,spliceClassWatcher,
IDENT_0,IDENT_1,IDENT_2,







"importTest.in","select * from new com.splicemachine.derby.vti.SpliceFileVTI('%s','',',') as b (c1 varchar(128), c2 varchar(128), c3 int)",", employee where employee.id + 25 = b.c3",
STRING_0,STRING_1,STRING_2,

























