testNullsMultiFunctionSamePartitionDifferentOrderBy_WO_hiredate,getTableReference,executeQuery,toStringUnsorted,
METHOD_0,METHOD_1,METHOD_2,METHOD_3,

sqlText,derby,WindowFunctionIT,EMPTAB_NULLS,useSpark,methodWatcher,homeless,FormattedResult,ResultFactory,
IDENT_0,IDENT_1,IDENT_2,IDENT_3,IDENT_4,IDENT_5,IDENT_6,IDENT_7,IDENT_8,







"SELECT empnum, salary, "," 70 | 76000 | 6 | 1 | 7 |\n"," 44 | 52000 | 3 | 2 | 2 |\n","ROW_NUMBER() OVER (PARTITION BY dept ORDER BY dept, empnum) AS RowNumber FROM %s --SPLICE-PROPERTIES useSpark = %s \n order by dept, empnum","EMPNUM |SALARY | DENSERANK |DEPT | ROWNUMBER |\n","----------------------------------------------\n"," 10 | 50000 | 1 | 1 | 1 |\n"," 60 | 78000 | 7 | 1 | 6 |\n"," 40 | 52000 | 2 | 2 | 1 |\n"," 49 | 53000 | 4 | 2 | 3 |\n",
STRING_0,STRING_1,STRING_2,STRING_3,STRING_4,STRING_5,STRING_6,STRING_7,STRING_8,STRING_9,

























