testMultiFunctionSamePartitionDifferentOrderBy_WO_hiredate,getTableReference,executeQuery,toStringUnsorted,
METHOD_0,METHOD_1,METHOD_2,METHOD_3,

sqlText,derby,WindowFunctionIT,EMPTAB_HIRE_DATE,useSpark,methodWatcher,homeless,FormattedResult,ResultFactory,
IDENT_0,IDENT_1,IDENT_2,IDENT_3,IDENT_4,IDENT_5,IDENT_6,IDENT_7,IDENT_8,







"SELECT empnum, salary, "," 110 | 53000 | 3 | 1 | 7 |\n"," --SPLICE-PROPERTIES useSpark = %s \n order by empnum","EMPNUM |SALARY | DENSERANK |DEPT | ROWNUMBER |\n","----------------------------------------------\n"," 10 | 50000 | 1 | 1 | 1 |\n"," 50 | 52000 | 2 | 1 | 3 |\n"," 60 | 78000 | 6 | 1 | 5 |\n"," 80 | 79000 | 3 | 3 | 2 |\n"," 120 | 75000 | 2 | 3 | 4 |",
STRING_0,STRING_1,STRING_2,STRING_3,STRING_4,STRING_5,STRING_6,STRING_7,STRING_8,STRING_9,

























