testMultiFunctionSamePartitionDifferentOrderBy_MissingKeyColumn,getTableReference,executeQuery,toStringUnsorted,
METHOD_0,METHOD_1,METHOD_2,METHOD_3,

sqlText,derby,WindowFunctionIT,EMPTAB_HIRE_DATE,useSpark,methodWatcher,homeless,FormattedResult,ResultFactory,
IDENT_0,IDENT_1,IDENT_2,IDENT_3,IDENT_4,IDENT_5,IDENT_6,IDENT_7,IDENT_8,







"SELECT empnum, salary, ","DENSE_RANK() OVER (PARTITION BY dept ORDER BY salary) AS DenseRank, "," 90 | 51000 | 1 | 4 |\n","EMPNUM |SALARY | DENSERANK | ROWNUMBER |\n","----------------------------------------\n"," 10 | 50000 | 1 | 1 |\n"," 44 | 52000 | 2 | 2 |\n"," 49 | 53000 | 3 | 3 |\n"," 20 | 75000 | 4 | 2 |\n"," 70 | 76000 | 5 | 6 |\n",
STRING_0,STRING_1,STRING_2,STRING_3,STRING_4,STRING_5,STRING_6,STRING_7,STRING_8,STRING_9,

























