isConsumer_yes,Invocation,isConsumer,
METHOD_0,METHOD_1,METHOD_2,

servicecomb,Invocation,invocation,endpoint,operationMeta,swaggerArguments,
IDENT_0,IDENT_1,IDENT_2,IDENT_3,IDENT_4,IDENT_5,


































