verifySplitKeys,executeQuery,loggingEnabled,traceEntry,findColumnX,getSQLException,
METHOD_0,METHOD_1,METHOD_2,METHOD_3,METHOD_4,METHOD_5,

derby,HBaseBulkLoadIndexIT,notSupported,methodWatcher,startKeys,agent_,logWriter_,columnName,am,SqlException,se,
IDENT_0,IDENT_1,IDENT_2,IDENT_3,IDENT_4,IDENT_5,IDENT_6,IDENT_7,IDENT_8,IDENT_9,IDENT_10,







"call syscs_util.get_regions('HBASEBULKLOADINDEXIT', 'LINEITEM', ","'L_SHIPDATE_IDX',null, null,null,null,null,null,null)","{ NULL, NULL, NULL, NULL }","{ 1993-05-30, 58476, 5737.88, 0.04 }","{ 1995-02-01, 133234, 24077.37, 0.03 }","{ 1996-04-20, NULL, 48881, 0.06 }","{ 1996-04-20, 94751, 48881, 0.06 }","getString",
STRING_0,STRING_1,STRING_2,STRING_3,STRING_4,STRING_5,STRING_6,STRING_7,

























