testTimeStampDiffWithTimestamp,executeQuery,toStringUnsorted,
METHOD_0,METHOD_1,METHOD_2,

sqlText,derby,SpliceDateFunctionsIT,tableWatcherG,methodWatcher,homeless,FormattedResult,ResultFactory,
IDENT_0,IDENT_1,IDENT_2,IDENT_3,IDENT_4,IDENT_5,IDENT_6,IDENT_7,







"select {fn TIMESTAMPDIFF(SQL_TSI_DAY, date('2012-12-26'), col3)}, date(col3), date('2012-12-26') from "," order by col3","1 | 2 | 3 |\n","-360 |2012-01-01 |2012-12-26 |\n"," -86 |2012-10-01 |2012-12-26 |\n"," -25 |2012-12-01 |2012-12-26 |\n"," 4 |2012-12-30 |2012-12-26 |\n"," 5 |2012-12-31 |2012-12-26 |\n"," 5 |2012-12-31 |2012-12-26 |",
STRING_0,STRING_1,STRING_2,STRING_3,STRING_4,STRING_5,STRING_6,STRING_7,STRING_8,

























