testQuarterTimestamp,executeQuery,toStringUnsorted,
METHOD_0,METHOD_1,METHOD_2,

sqlText,derby,SpliceDateFunctionsIT,tableWatcherI,methodWatcher,homeless,FormattedResult,ResultFactory,
IDENT_0,IDENT_1,IDENT_2,IDENT_3,IDENT_4,IDENT_5,IDENT_6,IDENT_7,







"select ts, QUARTER(ts) as \"QUARTER\" from ","2009-07-02 11:22:33.04 | 3 |\n","----------------------------------\n","2009-01-02 11:22:33.04 | 1 |\n","2009-09-02 11:22:33.04 | 3 |\n","2012-12-31 00:00:00.03 | 4 |\n"," 2012-12-31 20:38:40.0 | 4 |\n","2013-12-31 05:22:33.04 | 4 |",
STRING_0,STRING_1,STRING_2,STRING_3,STRING_4,STRING_5,STRING_6,STRING_7,

























