testDefaultFormatComplex,getDefault,setDefault,getLocale,Complex,getDecimalCharacter,ComplexFormat,FieldPosition,
METHOD_0,METHOD_1,METHOD_2,METHOD_3,METHOD_4,METHOD_5,METHOD_6,METHOD_7,

defaultLocal,complex,Complex,Vector3D,
IDENT_0,IDENT_1,IDENT_2,IDENT_3,







"232","2222222222 - 342","3333333333i",
STRING_0,STRING_1,STRING_2,

232.22222222222,342.3333333333,
FLOAT_0,FLOAT_1,






















