testZeroReal,Complex,getDecimalCharacter,
METHOD_0,METHOD_1,METHOD_2,

complex,Complex,complexFormat,arguments,
IDENT_0,IDENT_1,IDENT_2,IDENT_3,







"0 - 1","4343434343i",
STRING_0,STRING_1,

1.434343434343,
FLOAT_0,






















