testSimpleNoDecimals,Vector2D,
METHOD_0,METHOD_1,

euclidean,twod,Vector2D,vector2DFormat,arguments,
IDENT_0,IDENT_1,IDENT_2,IDENT_3,IDENT_4,







"{1; 1}",
STRING_0,

























