VersionedCache,
METHOD_0,

servicecomb,foundation,VersionedCache,bizkeeper,ThrowExceptionFallbackPolicy,POLICY_NAME,
IDENT_0,IDENT_1,IDENT_2,IDENT_3,IDENT_4,IDENT_5,







"n",
STRING_0,

























