testSimpleWithDecimals,Vector2D,getDecimalCharacter,
METHOD_0,METHOD_1,METHOD_2,

euclidean,twod,Vector2D,vector2DFormat,arguments,
IDENT_0,IDENT_1,IDENT_2,IDENT_3,IDENT_4,







"{1","23; 1","43}",
STRING_0,STRING_1,STRING_2,

1.23,1.43,
FLOAT_0,FLOAT_1,






















