testNegativeY,ArrayRealVector,getDecimalCharacter,
METHOD_0,METHOD_1,METHOD_2,

ArrayRealVector,realVectorFormat,arguments,
IDENT_0,IDENT_1,IDENT_2,







"{1","23; -1","4343434343; 1","63}",
STRING_0,STRING_1,STRING_2,STRING_3,

1.23,1.434343434343,1.63,
FLOAT_0,FLOAT_1,FLOAT_2,






















