testClasses,DefaultTransformer,TransformerMap,putTransformer,
METHOD_0,METHOD_1,METHOD_2,METHOD_3,

NumberTransformer,TransformerMap,TransformerMapTest,existing,
IDENT_0,IDENT_1,IDENT_2,IDENT_3,


































