testReseed,PoissonDistribution,reseedRandomGenerator,sample,nextInversionDeviate,
METHOD_0,METHOD_1,METHOD_2,METHOD_3,METHOD_4,

distribution,PoissonDistribution,u,randomData,
IDENT_0,IDENT_1,IDENT_2,IDENT_3,










3.0,
FLOAT_0,






















