runDoctest,getGlobal,enterContext,setOptimizationLevel,Global,exit,
METHOD_0,METHOD_1,METHOD_2,METHOD_3,METHOD_4,METHOD_5,

mozilla,ContextFactory,cx,optimizationLevel,Global,global,testsPassed,
IDENT_0,IDENT_1,IDENT_2,IDENT_3,IDENT_4,IDENT_5,IDENT_6,







"(","): "," passed.","): FAILED due to ",
STRING_0,STRING_1,STRING_2,STRING_3,

























