testTimeZoneMatches,getTimeZone,
METHOD_0,METHOD_1,

DateParser,FastDateParserTest,yMdHmsSZ,REYKJAVIK,timeZone,
IDENT_0,IDENT_1,IDENT_2,IDENT_3,IDENT_4,


































