testObjectCycle,ObjectCycle,toBaseString,
METHOD_0,METHOD_1,METHOD_2,

ToStringBuilderTest,ObjectCycle,probabilistic,
IDENT_0,IDENT_1,IDENT_2,







"[","]]","[p=",
STRING_0,STRING_1,STRING_2,

























