getChildren,MeasurementNode,
METHOD_0,METHOD_1,

servicecomb,foundation,publish,spectator,MeasurementNode,children,
IDENT_0,IDENT_1,IDENT_2,IDENT_3,IDENT_4,IDENT_5,


































