testCopy,SimpleJsonObject,copy,
METHOD_0,METHOD_1,METHOD_2,

servicecomb,foundation,SimpleJsonObject,
IDENT_0,IDENT_1,IDENT_2,


































