testGetRemoteAddr,Expectations,getRemoteAddr,
METHOD_0,METHOD_1,METHOD_2,

mockit,socketAddress,
IDENT_0,IDENT_1,







"host",
STRING_0,

























