getHeaders,enumeration,getAll,
METHOD_0,METHOD_1,METHOD_2,

vertxRequest,
IDENT_0,







"h1","h1_1","h1_2",
STRING_0,STRING_1,STRING_2,

























