testConstructorCause,ConvergenceException,getCause,
METHOD_0,METHOD_1,METHOD_2,

inMsg,cause,ConvergenceException,rootCause,
IDENT_0,IDENT_1,IDENT_2,IDENT_3,







"inner message",
STRING_0,

























