testZeroImaginary,Complex,getDecimalCharacter,
METHOD_0,METHOD_1,METHOD_2,

complex,Complex,complexFormat,arguments,
IDENT_0,IDENT_1,IDENT_2,IDENT_3,







"30","23",
STRING_0,STRING_1,

30.233,
FLOAT_0,






















