testCoshNaN,cosh,isNaN,getReal,getImaginary,Complex,cos,sinh,sin,
METHOD_0,METHOD_1,METHOD_2,METHOD_3,METHOD_4,METHOD_5,METHOD_6,METHOD_7,METHOD_8,

complex,Complex,z,NaN,MathUtils,
IDENT_0,IDENT_1,IDENT_2,IDENT_3,IDENT_4,


































