testSimpleNoDecimals,Vector3D,
METHOD_0,METHOD_1,

Vector3D,vector3DFormat,arguments,
IDENT_0,IDENT_1,IDENT_2,







"{1; 1; 1}",
STRING_0,

























