testGetArrayRef,ResizableDoubleArray,setElement,getArrayRef,getStartIndex,getElement,
METHOD_0,METHOD_1,METHOD_2,METHOD_3,METHOD_4,METHOD_5,

ResizableDoubleArray,aInternalArray,eDA,
IDENT_0,IDENT_1,IDENT_2,










1.2,3.4,
FLOAT_0,FLOAT_1,






















