test4,NopolExample,isPrime,sqrt,
METHOD_0,METHOD_1,METHOD_2,METHOD_3,

nopol_examples,nopol_example_7,NopolExample,intermediaire,sqrtMiddle,tmp,
IDENT_0,IDENT_1,IDENT_2,IDENT_3,IDENT_4,IDENT_5,













%,
OP_0,



















