a_positive_value_should_be_returned_negative,neg,
METHOD_0,METHOD_1,

inria,lille,bool,constant,Neg,
IDENT_0,IDENT_1,IDENT_2,IDENT_3,IDENT_4,


































