test3,NopolExample,isOddNumber,
METHOD_0,METHOD_1,METHOD_2,

nopol_examples,nopol_example_3,NopolExample,tmp,
IDENT_0,IDENT_1,IDENT_2,IDENT_3,













%,
OP_0,



















