testGenericListMap_intf,Generic,getIntf,genericMapList,
METHOD_0,METHOD_1,METHOD_2,METHOD_3,

servicecomb,Generic,mapListGeneric,testcase,TestGeneric,consumers,idx,
IDENT_0,IDENT_1,IDENT_2,IDENT_3,IDENT_4,IDENT_5,IDENT_6,







"hello",
STRING_0,

























