allowsOverrideHeaderValues,forStatus,withHeader,RuleRouter,copyOf,
METHOD_0,METHOD_1,METHOD_2,METHOD_3,METHOD_4,

apollo,OK,Iterable,
IDENT_0,IDENT_1,IDENT_2,







"Content-Type","application/json","application/protobuf",
STRING_0,STRING_1,STRING_2,

























