testGetExtractionCount,fromUri,getExtractionCount,
METHOD_0,METHOD_1,METHOD_2,

apollo,Rule,RuleRouterTest,TARGET,extractionCount,
IDENT_0,IDENT_1,IDENT_2,IDENT_3,IDENT_4,







"/bar/<baz>","GET",
STRING_0,STRING_1,

























