remoteHelloPojo_sayHello,SayHello,
METHOD_0,METHOD_1,

PojoService,hello,
IDENT_0,IDENT_1,







"whatever","Hello Message fast",
STRING_0,STRING_1,

























