testOf,ofEncoded,PubsubFuture,
METHOD_0,METHOD_1,METHOD_2,

pubsub,PublishRequest,publishRequest,RequestInfo,requestInfo,
IDENT_0,IDENT_1,IDENT_2,IDENT_3,IDENT_4,







"m1","m2",
STRING_0,STRING_1,

























