testQueryGroupBy,insertRandom,kindOf,groupBy,getAll,
METHOD_0,METHOD_1,METHOD_2,METHOD_3,METHOD_4,

asyncdatastoreclient,QueryBuilder,
IDENT_0,IDENT_1,







"employee","senior",
STRING_0,STRING_1,

























