immediateValueIsAvailable,AwaitValue,immediateValue,consume,awaitAndGet,await,
METHOD_0,METHOD_1,METHOD_2,METHOD_3,METHOD_4,METHOD_5,

flo,AwaitValue,
IDENT_0,IDENT_1,







"hello","Value did not arrive",
STRING_0,STRING_1,

























