roundtripClosure,closure,roundtrip,serializeContinuation,readContinuation,
METHOD_0,METHOD_1,METHOD_2,METHOD_3,METHOD_4,

hype,Fn,fn,SerializationUtilTest,fn1,SerializationUtil,
IDENT_0,IDENT_1,IDENT_2,IDENT_3,IDENT_4,IDENT_5,







"hello",
STRING_0,

























