testQuaternion,writeQuaternion,readQuaternion,readFloat,Quaternionf,
METHOD_0,METHOD_1,METHOD_2,METHOD_3,METHOD_4,

ByteBuf,Unpooled,spout,ByteBufUtils,Quaternionf,IDENTITY,z,w,imaginary,
IDENT_0,IDENT_1,IDENT_2,IDENT_3,IDENT_4,IDENT_5,IDENT_6,IDENT_7,IDENT_8,


































