testFindAll,register,findAll,queryForList,toUri,
METHOD_0,METHOD_1,METHOD_2,METHOD_3,METHOD_4,

test1URI,test2URI,uriMap,jdbcTemplate,deployer,RdbmsUriRegistry,SELECT_ALL_SQL,
IDENT_0,IDENT_1,IDENT_2,IDENT_3,IDENT_4,IDENT_5,IDENT_6,







"http://test1URI","http://test2URI","source.test1","sink.test2","NAME","URI",
STRING_0,STRING_1,STRING_2,STRING_3,STRING_4,STRING_5,

























