testGetReferenceConfig,getReferenceConfig,
METHOD_0,METHOD_1,

servicecomb,ReferenceConfig,requestmeta,referenceConfig,
IDENT_0,IDENT_1,IDENT_2,IDENT_3,


































