testGetStepExecutionCount,countStepExecutionsForStep,getExecutionCount,
METHOD_0,METHOD_1,METHOD_2,

jobService,executionCount,
IDENT_0,IDENT_1,







"job","step",
STRING_0,STRING_1,

























