homePageSubmitMessage,sendMessage,
METHOD_0,METHOD_1,

showcase,HomeController,
IDENT_0,IDENT_1,







"unit test message","String message: ","String message received! Your message: ",
STRING_0,STRING_1,STRING_2,

























