testWithinJsonArrayRangesFiltersLocationAndAttendees,findByLocationWithin,
METHOD_0,METHOD_1,

Party,parties,JsonArray,
IDENT_0,IDENT_1,IDENT_2,

115,132,
INT_0,INT_1,































