considersOneToOneMappedPropertyAnAssociation,getRequiredPersistentProperty,isAssociation,
METHOD_0,METHOD_1,METHOD_2,

JpaPersistentProperty,
IDENT_0,







"other",
STRING_0,

























