executeDocument,executeQuery,getCollectionName,DocumentCallbackHandler,processDocument,
METHOD_0,METHOD_1,METHOD_2,METHOD_3,METHOD_4,

names,
IDENT_0,







"Tom","Dick","Harry","firstName",
STRING_0,STRING_1,STRING_2,STRING_3,

























