writesMapTypeCorrectly,singletonMap,
METHOD_0,METHOD_1,

US,
IDENT_0,







"Foo","XObject [x="," count = ",
STRING_0,STRING_1,STRING_2,

























