testEvalReturnArrayStrings,eval,getResults,
METHOD_0,METHOD_1,METHOD_2,

ReturnType,MULTI,
IDENT_0,IDENT_1,







"return {KEYS[1],ARGV[1]}",
STRING_0,

























