testPrimitivesAndCustomCollectionName,Location,where,
METHOD_0,METHOD_1,METHOD_2,

Location,loc,Criteria,
IDENT_0,IDENT_1,IDENT_2,







"_id","places",
STRING_0,STRING_1,

1.0F,2.0F,
FLOAT_0,FLOAT_1,






















