cursorShouldNotLoopWhenNoValuesFound,initCursor,LinkedList,
METHOD_0,METHOD_1,METHOD_2,

ScanCursorUnitTests,CapturingCursorDummy,cursor,
IDENT_0,IDENT_1,IDENT_2,


































