testAddSort,by,SimpleQuery,Criteria,addSort,getSort,
METHOD_0,METHOD_1,METHOD_2,METHOD_3,METHOD_4,METHOD_5,

Sort,sort,parametersParameterAccessorDelegate,
IDENT_0,IDENT_1,IDENT_2,







"field_2","field_3","field_1","value_1",
STRING_0,STRING_1,STRING_2,STRING_3,

























