testConvertFromText,convertFromText,
METHOD_0,METHOD_1,

Enum,enumConverter,roo,converters,EnumConverterTest,Flavour,BANANA,tag,
IDENT_0,IDENT_1,IDENT_2,IDENT_3,IDENT_4,IDENT_5,IDENT_6,IDENT_7,







"anything",
STRING_0,

























