testNullMidIsNotValid,
METHOD_0,

metadataIdentificationString,roo,MetadataIdentificationUtils,MID_PREFIX_LENGTH,MID_PREFIX_CHARACTERS,
IDENT_0,IDENT_1,IDENT_2,IDENT_3,IDENT_4,


































