sortTest,ILhyunMergeSort,sort,mergeSort,
METHOD_0,METHOD_1,METHOD_2,METHOD_3,

chapter3,mergesort,MergeSort,mergeSort,
IDENT_0,IDENT_1,IDENT_2,IDENT_3,

31,65,73,11,29,48,
INT_0,INT_1,INT_2,INT_3,INT_4,INT_5,































