testHeapSort3,JaegyuHeapSort,sort,heapSort,reverse,
METHOD_0,METHOD_1,METHOD_2,METHOD_3,METHOD_4,

chapter3,heapsort,JaegyuHeapSort,ArrayUtils,
IDENT_0,IDENT_1,IDENT_2,IDENT_3,


































