bubbleSortTest,SeunghoMergeSort,sort,mergeSort,
METHOD_0,METHOD_1,METHOD_2,METHOD_3,

chapter3,mergesort,MergeSort,mergeSort,
IDENT_0,IDENT_1,IDENT_2,IDENT_3,

33,39,
INT_0,INT_1,































