resolveSoapMessageSaaj,createSaajMessageContext,resolveArgument,getRequest,
METHOD_0,METHOD_1,METHOD_2,METHOD_3,

MessageContext,messageContext,soapMessageParameter,
IDENT_0,IDENT_1,IDENT_2,


































