getAccessLogEnabled,getBooleanProperty,
METHOD_0,METHOD_1,

AccessLogConfiguration,servicecomb,accesslog,ACCESSLOG_ENABLED,
IDENT_0,IDENT_1,IDENT_2,IDENT_3,


































