writeSourceWithZeroIsNoOp,ForwardingSource,Buffer,AssertionError,
METHOD_0,METHOD_1,METHOD_2,METHOD_3,

okio,Source,sink,byteCount,Utf8,
IDENT_0,IDENT_1,IDENT_2,IDENT_3,IDENT_4,







"abc","transr",
STRING_0,STRING_1,

























