testPlacement,unvisualize,DebugPlacement,place,toBitFieldStringArray,getBits,getNumrows,getNumcols,
METHOD_0,METHOD_1,METHOD_2,METHOD_3,METHOD_4,METHOD_5,METHOD_6,METHOD_7,

codewords,zxing,datamatrix,encoder,PlacementTestCase,DebugPlacement,placement,bits,numrows,numcols,startpos,
IDENT_0,IDENT_1,IDENT_2,IDENT_3,IDENT_4,IDENT_5,IDENT_6,IDENT_7,IDENT_8,IDENT_9,IDENT_10,







"66 74 78 66 74 78 129 56 35 102 192 96 226 100 156 1 107 221","011100001111","001010101000","100010010111","001010100010","000111000100","011000010000","011101011010","001011001010",'1','0',
STRING_0,STRING_1,STRING_2,STRING_3,STRING_4,STRING_5,STRING_6,STRING_7,STRING_8,STRING_9,STRING_10,

























