readStringTooShortThrows,writeString,emit,readString,readUtf8,
METHOD_0,METHOD_1,METHOD_2,METHOD_3,METHOD_4,

sink,kotlin,Charsets,US_ASCII,EOFException,
IDENT_0,IDENT_1,IDENT_2,IDENT_3,IDENT_4,







"abc",
STRING_0,

























