testCountNumberOne,countNumberOne,checkArgument,countNumberOneCore,
METHOD_0,METHOD_1,METHOD_2,METHOD_3,

Preconditions,ssj,MathUtil,
IDENT_0,IDENT_1,IDENT_2,


































