testToByteArrayWithPadding,CompUInt128,
METHOD_0,METHOD_1,

dk,alexandra,fresco,suite,spdz2k,datatypes,UInt,CompUInt128,uint,ByteAndBitConverter,
IDENT_0,IDENT_1,IDENT_2,IDENT_3,IDENT_4,IDENT_5,IDENT_6,IDENT_7,IDENT_8,IDENT_9,

66,
INT_0,































