Null_Is_Not_Meaningful_Against_Nonexisting,diff,newLinkedHashMap,
METHOD_0,METHOD_1,METHOD_2,

diff,javersion,Diff,DiffTest,K,V,Maps,k1,k2,
IDENT_0,IDENT_1,IDENT_2,IDENT_3,IDENT_4,IDENT_5,IDENT_6,IDENT_7,IDENT_8,


































