testBuildMatrix,BitArray,appendBits,ByteMatrix,buildMatrix,getVersionForNumber,getSymbolWidth,getSymbolHeight,getSymbolDataWidth,getSymbolDataHeight,
METHOD_0,METHOD_1,METHOD_2,METHOD_3,METHOD_4,METHOD_5,METHOD_6,METHOD_7,METHOD_8,METHOD_9,

zxing,BitArray,bits,qrcode,encoder,ByteMatrix,matrix,MatrixUtil,ErrorCorrectionLevel,H,decoder,Version,rectangular,matrixWidth,matrixHeight,dataCapacity,errorCodewords,
IDENT_0,IDENT_1,IDENT_2,IDENT_3,IDENT_4,IDENT_5,IDENT_6,IDENT_7,IDENT_8,IDENT_9,IDENT_10,IDENT_11,IDENT_12,IDENT_13,IDENT_14,IDENT_15,IDENT_16,

32,65,205,69,41,220,46,128,236,42,159,74,221,244,169,239,150,138,70,237,85,224,96,219,61,21,
INT_0,INT_1,INT_2,INT_3,INT_4,INT_5,INT_6,INT_7,INT_8,INT_9,INT_10,INT_11,INT_12,INT_13,INT_14,INT_15,INT_16,INT_17,INT_18,INT_19,INT_20,INT_21,INT_22,INT_23,INT_24,INT_25,




" 1 1 1 1 1 1 1 0 0 1 1 0 0 0 1 1 1 1 1 1 1\n"," 1 0 0 0 0 0 1 0 0 0 1 1 1 0 1 0 0 0 0 0 1\n"," 1 0 1 1 1 0 1 0 0 1 1 0 0 0 1 0 1 1 1 0 1\n"," 0 0 0 0 0 0 0 0 1 1 0 1 1 0 0 0 0 0 0 0 0\n"," 1 1 1 1 0 1 1 0 1 0 1 1 1 0 0 1 1 1 0 1 0\n"," 1 0 1 1 1 0 1 0 1 1 0 1 0 0 0 0 0 1 1 1 0\n"," 1 1 1 1 1 1 1 0 1 1 1 1 0 0 0 0 1 0 1 1 0\n"," 1 0 0 0 0 0 1 0 0 0 0 1 0 1 1 1 0 0 0 0 0\n"," 1 0 1 1 1 0 1 0 0 1 0 0 1 1 0 0 1 0 0 1 1\n"," 1 0 1 1 1 0 1 0 1 1 1 1 0 0 0 0 1 1 1 0 0\n","Rectangular Symbol:","Square Symbol:"," data region ",'x',", symbol size ",", symbol data size ",", codewords ",'+',
STRING_0,STRING_1,STRING_2,STRING_3,STRING_4,STRING_5,STRING_6,STRING_7,STRING_8,STRING_9,STRING_10,STRING_11,STRING_12,STRING_13,STRING_14,STRING_15,STRING_16,STRING_17,

























