testMoreThanHalfEle,moreThanHalfEle,checkNotNull,checkArgument,checkMoreThanHalf,
METHOD_0,METHOD_1,METHOD_2,METHOD_3,METHOD_4,

Preconditions,most_ele,ele,Objects,ssj,ArrayUtil,
IDENT_0,IDENT_1,IDENT_2,IDENT_3,IDENT_4,IDENT_5,













--,
OP_0,



















