testRemove2,ClassToBeTested,methodBoolean,
METHOD_0,METHOD_1,METHOD_2,

inria,removebadtest,ClassToBeTested,classToBeTested,
IDENT_0,IDENT_1,IDENT_2,IDENT_3,


































