testNextRoads,getRoadMap,getHashMapOfRoads,getNextRoads,
METHOD_0,METHOD_1,METHOD_2,METHOD_3,

polimi,deib,provaFinale2014,andrea,celli_stefano1,cereda,gameModel,objectsOfGame,RoadMap,roadMap,Road,r5,r6,nextRoads,
IDENT_0,IDENT_1,IDENT_2,IDENT_3,IDENT_4,IDENT_5,IDENT_6,IDENT_7,IDENT_8,IDENT_9,IDENT_10,IDENT_11,IDENT_12,IDENT_13,


































