testGetAge,Sheep,setID,getAge,
METHOD_0,METHOD_1,METHOD_2,METHOD_3,

age,polimi,deib,provaFinale2014,andrea,celli_stefano1,cereda,gameModel,animals,TypeOfSheep,tos,MALESHEEP,objectsOfGame,Terrain,C1,Sheep,sheep,
IDENT_0,IDENT_1,IDENT_2,IDENT_3,IDENT_4,IDENT_5,IDENT_6,IDENT_7,IDENT_8,IDENT_9,IDENT_10,IDENT_11,IDENT_12,IDENT_13,IDENT_14,IDENT_15,IDENT_16,


































