clickableWidgetToProperty,onClick,click,
METHOD_0,METHOD_1,METHOD_2,

binder,box,tessell,DummyModel,
IDENT_0,IDENT_1,IDENT_2,IDENT_3,







"gotclicked",
STRING_0,

























