canConvertDoubles,DoubleStringConverter,canConvertTo,isAssignableFrom,
METHOD_0,METHOD_1,METHOD_2,METHOD_3,

sjl,dsl4xml,DoubleStringConverter,_c,aClass,TYPE,
IDENT_0,IDENT_1,IDENT_2,IDENT_3,IDENT_4,IDENT_5,


































