asIntsAInsertPositionInDerivedListIsRespected,StringToElementConverter,
METHOD_0,METHOD_1,

tessell,ListProperty,ints,ListPropertyTest,joist,Copy,DummyModel,
IDENT_0,IDENT_1,IDENT_2,IDENT_3,IDENT_4,IDENT_5,IDENT_6,







"3",
STRING_0,

























