bindDoesNotNullPointerExceptionForViews,bind,getWidgetCount,
METHOD_0,METHOD_1,METHOD_2,

names,binder,panel,viewFactory,joist,Copy,
IDENT_0,IDENT_1,IDENT_2,IDENT_3,IDENT_4,IDENT_5,







"one",
STRING_0,

























