testSchema,addColumn,newTableMeta,clone,UnsupportedException,
METHOD_0,METHOD_1,METHOD_2,METHOD_3,METHOD_4,

tajo,schema1,BLOB,TEXT,TableMeta,meta1,CatalogUtil,StoreType,CSV,meta2,
IDENT_0,IDENT_1,IDENT_2,IDENT_3,IDENT_4,IDENT_5,IDENT_6,IDENT_7,IDENT_8,IDENT_9,







"addr","clone",
STRING_0,STRING_1,

























