stringToKeyUpSetsMaxLength,bind,toKeyUp,getMaxLength,
METHOD_0,METHOD_1,METHOD_2,METHOD_3,

binder,box,maxLength,
IDENT_0,IDENT_1,IDENT_2,


































