convertsEmptyStringToNull,ByteStringConverter,
METHOD_0,METHOD_1,

sjl,dsl4xml,ByteStringConverter,_c,aValue,
IDENT_0,IDENT_1,IDENT_2,IDENT_3,IDENT_4,


































