testSome18,$array,$set,AtomicInteger,$invoke,incrementAndGet,$delete,some,
METHOD_0,METHOD_1,METHOD_2,METHOD_3,METHOD_4,METHOD_5,METHOD_6,METHOD_7,

stjs,Array,JSCollections,AtomicInteger,callCnt,ArraySomeTest,SomeCB,callbackfn,idx,
IDENT_0,IDENT_1,IDENT_2,IDENT_3,IDENT_4,IDENT_5,IDENT_6,IDENT_7,IDENT_8,

999,
INT_0,































