testSome03,$array,$invoke,$delete,some,f3,
METHOD_0,METHOD_1,METHOD_2,METHOD_3,METHOD_4,METHOD_5,

stjs,Array,JSCollections,ArraySomeTest,SomeCB,callbackfn,functions,Function1,Function3,f3,Functions,
IDENT_0,IDENT_1,IDENT_2,IDENT_3,IDENT_4,IDENT_5,IDENT_6,IDENT_7,IDENT_8,IDENT_9,IDENT_10,


































