testLastIndexOf10,$array,$set,lastIndexOf,$length,
METHOD_0,METHOD_1,METHOD_2,METHOD_3,METHOD_4,

stjs,Array,JSCollections,V,searchElement,
IDENT_0,IDENT_1,IDENT_2,IDENT_3,IDENT_4,


































