testBuildFilter,buildFilter,SimpleDateFormat,getDatePattern,
METHOD_0,METHOD_1,METHOD_2,METHOD_3,

dateCheckpointType,fieldValue,
IDENT_0,IDENT_1,


































