testAsInt4,createDate,asInt4,InvalidCastException,
METHOD_0,METHOD_1,METHOD_2,METHOD_3,

tajo,datum,Datum,DatumFactory,TestDateDatum,DATE,copy,
IDENT_0,IDENT_1,IDENT_2,IDENT_3,IDENT_4,IDENT_5,IDENT_6,







" cannot be casted to INT type",
STRING_0,

























