testClone,DoubleTypeSupport,clone,deepCopy,
METHOD_0,METHOD_1,METHOD_2,METHOD_3,

DoubleTypeSupport,ts,ListTypeSupport,
IDENT_0,IDENT_1,IDENT_2,










1.2,
FLOAT_0,






















