testSize,createInt4,
METHOD_0,METHOD_1,

tajo,datum,Datum,DatumFactory,taskRequestQueue,
IDENT_0,IDENT_1,IDENT_2,IDENT_3,IDENT_4,


































