testCreate,TTypeSupport,
METHOD_0,METHOD_1,

TypeSupport,tt,TestTypeSupport,FileRef,FILE_REF,
IDENT_0,IDENT_1,IDENT_2,IDENT_3,IDENT_4,


































