testDeleteMultiplePipelines,post,
METHOD_0,METHOD_1,










"/v1/pipelines/delete","[\"myPipeline1\", \"myPipeline2\"]",
STRING_0,STRING_1,

























