testParserNoHeaders,CsvParser,getReader,getHeaders,getHeaderFields,
METHOD_0,METHOD_1,METHOD_2,METHOD_3,METHOD_4,

csv,CsvParser,CSVFormat,DEFAULT,
IDENT_0,IDENT_1,IDENT_2,IDENT_3,







"TestCsvParser-default.csv",
STRING_0,

























