testToStringStage,Issue,
METHOD_0,METHOD_1,

datacollector,Issue,stage,TestIssue,RandomError,ERR_001,
IDENT_0,IDENT_1,IDENT_2,IDENT_3,IDENT_4,IDENT_5,







"HappinessGenerator","Schema = '{}', Table = '{}'",
STRING_0,STRING_1,

























