testExpressionPartitioner,ExpressionPartitioner,partition,nextHexString,
METHOD_0,METHOD_1,METHOD_2,METHOD_3,

stage,kinesis,Partitioner,partitioner,partitionKey,
IDENT_0,IDENT_1,IDENT_2,IDENT_3,IDENT_4,







"abcdef",
STRING_0,

























