testClientGet,spy,getConnection,doHttp,setDoOutput,
METHOD_0,METHOD_1,METHOD_2,METHOD_3,METHOD_4,

RestClient,HttpURLConnection,
IDENT_0,IDENT_1,







"http://foo","GET",
STRING_0,STRING_1,

























