endOfFileIsTrueAtEnd,BigDecoder,readBytes,eof,fill,
METHOD_0,METHOD_1,METHOD_2,METHOD_3,METHOD_4,

flagstone,coder,BigDecoder,
IDENT_0,IDENT_1,IDENT_2,


































