skip,SWFDecoder,readByte,fill,ArrayIndexOutOfBoundsException,
METHOD_0,METHOD_1,METHOD_2,METHOD_3,METHOD_4,

flagstone,coder,SWFDecoder,BYTE_MASK,
IDENT_0,IDENT_1,IDENT_2,IDENT_3,


































