writeBitsAcrossShortBoundary,SWFEncoder,writeBits,alignToByte,flush,
METHOD_0,METHOD_1,METHOD_2,METHOD_3,METHOD_4,

flagstone,coder,SWFEncoder,encoder,diff,
IDENT_0,IDENT_1,IDENT_2,IDENT_3,IDENT_4,

64,18,
INT_0,INT_1,































