testTableInfoXML,createUnmarshaller,unmarshal,getBody,checkTableInfo,
METHOD_0,METHOD_1,METHOD_2,METHOD_3,METHOD_4,

TestTableResource,TABLE,MIMETYPE_XML,TableInfoModel,
IDENT_0,IDENT_1,IDENT_2,IDENT_3,







"/regions",
STRING_0,

























