testToString,SearchJob,setTimezone,setTo,setFrom,setQuery,
METHOD_0,METHOD_1,METHOD_2,METHOD_3,METHOD_4,METHOD_5,

sumologic,SearchJob,searchJob,sheetName,
IDENT_0,IDENT_1,IDENT_2,IDENT_3,







"PST","9/2/2015","9/1/2015","error","ReportSheet{","sheetName='",'\'',", searchJob=",'}',
STRING_0,STRING_1,STRING_2,STRING_3,STRING_4,STRING_5,STRING_6,STRING_7,STRING_8,

























