testRead,
METHOD_0,

knowledge,LocaleTextReader,localeTextReader,LocaleTextReaderTest,JAPAN,check,FileUtil,path_ja,
IDENT_0,IDENT_1,IDENT_2,IDENT_3,IDENT_4,IDENT_5,IDENT_6,IDENT_7,







"UTF-8",
STRING_0,

























