testUniqueMethods,getUniqueDeclaredMethods,
METHOD_0,METHOD_1,

supaham,ReflectionUtils,ReflectionUtilsTest,B,
IDENT_0,IDENT_1,IDENT_2,IDENT_3,


































