WorkflowBundle,getParent,
METHOD_0,METHOD_1,

taverna,scufl2,WorkflowBundle,wb1,AbstractNamed,Child,WorkflowBean,otherParent,Typed,myId,otherId,
IDENT_0,IDENT_1,IDENT_2,IDENT_3,IDENT_4,IDENT_5,IDENT_6,IDENT_7,IDENT_8,IDENT_9,IDENT_10,


































