testDifferenceDaysDateDate,differenceDays,
METHOD_0,METHOD_1,

calendar,MILLISECOND,calendar2,DateUtils,
IDENT_0,IDENT_1,IDENT_2,IDENT_3,

2015,
INT_0,































