testGetPaths,getPaths,
METHOD_0,METHOD_1,

numpaths,umass,surveyman,qc,SurveyDAG,MetricsTest,survey,
IDENT_0,IDENT_1,IDENT_2,IDENT_3,IDENT_4,IDENT_5,IDENT_6,


































