singleFile,getResources,addResource,listResources,
METHOD_0,METHOD_1,METHOD_2,METHOD_3,

taverna,scufl2,ucfpackage,UCFPackage,wb,
IDENT_0,IDENT_1,IDENT_2,IDENT_3,IDENT_4,







"Hello there","hello.txt","text/plain",
STRING_0,STRING_1,STRING_2,

























