testKqueue,isBSD,kqueue,
METHOD_0,METHOD_1,METHOD_2,

pachler,BSDTest,kqueueFD,BSD,osName,
IDENT_0,IDENT_1,IDENT_2,IDENT_3,IDENT_4,







"kqueue","os.name","BSD","Mac OS X",
STRING_0,STRING_1,STRING_2,STRING_3,

























