get_a_not_existed_type,getOrDefault,
METHOD_0,METHOD_1,

yufan,gossip,mybatis,enums,AuthorType,typeMap,GUEST,
IDENT_0,IDENT_1,IDENT_2,IDENT_3,IDENT_4,IDENT_5,IDENT_6,







"113434",
STRING_0,

























