testFindVerticalSeparators,findVerticalSeparators,
METHOD_0,METHOD_1,

seperators,pProfile,begin,
IDENT_0,IDENT_1,IDENT_2,










2.5F,
FLOAT_0,






















