testQuickSortRectangleList,Rectangle,sort,
METHOD_0,METHOD_1,METHOD_2,

technology,tabula,Rectangle,second,third,fourth,fifth,sixth,expectedList,toSortList,ILL_DEFINED_ORDER,Comparator,useQuickSort,QuickSort,comparator,
IDENT_0,IDENT_1,IDENT_2,IDENT_3,IDENT_4,IDENT_5,IDENT_6,IDENT_7,IDENT_8,IDENT_9,IDENT_10,IDENT_11,IDENT_12,IDENT_13,IDENT_14,










172.93F,51.48F,4.0F,4.31F,175.72F,72.72F,1.67F,1.52F,96.36F,100.32F,103.68F,4.33F,169.21F,161.16F,
FLOAT_0,FLOAT_1,FLOAT_2,FLOAT_3,FLOAT_4,FLOAT_5,FLOAT_6,FLOAT_7,FLOAT_8,FLOAT_9,FLOAT_10,FLOAT_11,FLOAT_12,FLOAT_13,






















