testQuickSortOneElementList,sort,naturalOrder,
METHOD_0,METHOD_1,METHOD_2,

numbers,technology,tabula,QuickSort,
IDENT_0,IDENT_1,IDENT_2,IDENT_3,


































