testInstall,DefinitionRegistry,install,getDefinitions,
METHOD_0,METHOD_1,METHOD_2,METHOD_3,

DefinitionRegistry,definition,definitions,
IDENT_0,IDENT_1,IDENT_2,


































