testSetOutputFileName,setOutputFileName,getOutputFileName,
METHOD_0,METHOD_1,METHOD_2,

outputFileName,
IDENT_0,







"outputFile",
STRING_0,

























