testGetWriteOperation,JiraWriter,getWriteOperation,
METHOD_0,METHOD_1,METHOD_2,

jira,JiraWriter,writeOperation,JiraWriteOperation,actualWriteOperation,
IDENT_0,IDENT_1,IDENT_2,IDENT_3,IDENT_4,


































