testToString,
METHOD_0,

sforce,Verbose,exceptionMessage,
IDENT_0,IDENT_1,IDENT_2,







"MarketoError{api='REST', code='666', message='erreur'}","[BulkV2ClientException "," exceptionMessage=","'","\'\n","]\n",
STRING_0,STRING_1,STRING_2,STRING_3,STRING_4,STRING_5,

























