testSetAndGetLastObjects,recordProvided,getLastRecord,
METHOD_0,METHOD_1,METHOD_2,

INSERT,lastRecord,
IDENT_0,IDENT_1,

10L,
INT_0,




"String",
STRING_0,

1.1,
FLOAT_0,






















