testGetSchemaNames,getSchemaNames,
METHOD_0,METHOD_1,

daikon,NamedThing,schemaNames,closeSourceOrSink,RuntimeContainer,
IDENT_0,IDENT_1,IDENT_2,IDENT_3,IDENT_4,


































