shouldGetPreparationThatWasAdded,getPreparation,
METHOD_0,METHOD_1,

dataprep,preparation,Preparation,
IDENT_0,IDENT_1,IDENT_2,







"7561486",
STRING_0,

























