shouldDealWithEdition,UpgradeTaskId,getVersion,leftPad,getOrder,
METHOD_0,METHOD_1,METHOD_2,METHOD_3,METHOD_4,

dataprep,upgrade,UpgradeTaskId,id1,id2,versionParts,otherVersionParts,currentPart,otherPart,
IDENT_0,IDENT_1,IDENT_2,IDENT_3,IDENT_4,IDENT_5,IDENT_6,IDENT_7,IDENT_8,







"5.3.0-PE","5.3.1-EE","\\.",'0',"000000",
STRING_0,STRING_1,STRING_2,STRING_3,STRING_4,

























