shouldNotFindFolder,given,statusCode,ifError,
METHOD_0,METHOD_1,METHOD_2,METHOD_3,

jayway,restassured,
IDENT_0,IDENT_1,

404,
INT_0,




"/folders?parentId={parentId}","unknownId",
STRING_0,STRING_1,

























