testEncrypt4Null,getDefault,encrypt,doFinal,encodeBase64,
METHOD_0,METHOD_1,METHOD_2,METHOD_3,METHOD_4,

encrypt,CryptoHelper,AES,EMPTY_STRING,enc,ecipher,UTF8,encryptedData,binary,Base64,
IDENT_0,IDENT_1,IDENT_2,IDENT_3,IDENT_4,IDENT_5,IDENT_6,IDENT_7,IDENT_8,IDENT_9,


































