testRemoveEndingString5,removeEndingString,
METHOD_0,METHOD_1,

EXPECT,ENDING,testString,StringUtilities,items,importexport,handlers,ImportItem,
IDENT_0,IDENT_1,IDENT_2,IDENT_3,IDENT_4,IDENT_5,IDENT_6,IDENT_7,







"removeEnding",
STRING_0,

























