test_getManifest_null,getManifest,
METHOD_0,METHOD_1,

jar,Manifest,manifest,updates,JarMenifestUtil,BundleFileUtil,
IDENT_0,IDENT_1,IDENT_2,IDENT_3,IDENT_4,IDENT_5,


































