getIdentifier,InteractionEvent,
METHOD_0,METHOD_1,

interactionEvent,isis,applib,identifier,serialVersionUID,
IDENT_0,IDENT_1,IDENT_2,IDENT_3,IDENT_4,




private,static,
MOD_0,MOD_1,




























