testConvertToDatum,BigDecimalStringDoubleConverter,convertToDatum,
METHOD_0,METHOD_1,METHOD_2,

daikon,AvroConverter,codegen,
IDENT_0,IDENT_1,IDENT_2,







"1234567890123456789.123456789",
STRING_0,

























