testWriteString,JobVMArgumentsUtil,writeString,getField_list,getEntry_list,getError,
METHOD_0,METHOD_1,METHOD_2,METHOD_3,METHOD_4,METHOD_5,

designer,runprocess,JobVMArgumentsUtil,jobVM,srg0,srg2,expectResult,sugarws,Get_entry_result,__equalsCalc,_equals,field_list,entry_list,
IDENT_0,IDENT_1,IDENT_2,IDENT_3,IDENT_4,IDENT_5,IDENT_6,IDENT_7,IDENT_8,IDENT_9,IDENT_10,IDENT_11,IDENT_12,







"{[<,>]};:\' \"/\\+\t+\b+\f+\n=\r|","String a = \\\\ + [array];","{\"JOB_RUN_VM_ARGUMENTS\":[\"{[<,>]};:\' \\\"/\\\\+\\t+\\b+\\f+\\n=\\r|\",\"String a = \\\\\\\\ + [array];\"]}",
STRING_0,STRING_1,STRING_2,

























