testSupportAliasesInGroupBy,getMysqlDbmsLanguage,supportAliasesInGroupBy,
METHOD_0,METHOD_1,METHOD_2,

dq,dbms,DbmsLanguage,
IDENT_0,IDENT_1,IDENT_2,


































