testAppendEmptyStringLeavesBufferUnchanged,getActionMemento,getNameParmsId,getNumber,
METHOD_0,METHOD_1,METHOD_2,METHOD_3,

t1,
IDENT_0,







"#",
STRING_0,

























