testAReasonReturnsString,getReason,isNotVetoing,
METHOD_0,METHOD_1,METHOD_2,

reason,reasonBuf,
IDENT_0,IDENT_1,







"reason 1",
STRING_0,

























