testOutput100Mt,prepare,DummyContentSource,execTriples,consume,
METHOD_0,METHOD_1,METHOD_2,METHOD_3,METHOD_4,

lines,Triple,triples,deri,tarql,LargeInputTest,CONSTRUCT_2TRIPLES,
IDENT_0,IDENT_1,IDENT_2,IDENT_3,IDENT_4,IDENT_5,IDENT_6,

50000000,
INT_0,




"testOutput100Mt","Consuming results..."," Result # ","Done: "," results",
STRING_0,STRING_1,STRING_2,STRING_3,STRING_4,




%,
OP_0,



















