testEqualsObjectFailsWithDifferentCurrencies,Money,
METHOD_0,METHOD_1,

isis,applib,Money,m1,m2,viewer,wicket,mementos,PropertyMemento,identifier,
IDENT_0,IDENT_1,IDENT_2,IDENT_3,IDENT_4,IDENT_5,IDENT_6,IDENT_7,IDENT_8,IDENT_9,







"pds","usd",
STRING_0,STRING_1,

























