testIsLessThanZero,Money,isLessThanZero,
METHOD_0,METHOD_1,METHOD_2,

isis,applib,Money,m1,amount,
IDENT_0,IDENT_1,IDENT_2,IDENT_3,IDENT_4,







"usd",
STRING_0,

























