testDescriptionString,PanelItemBuilder,getDescription,
METHOD_0,METHOD_1,METHOD_2,

world,bentobox,panels,builders,PanelItemBuilder,PanelItem,
IDENT_0,IDENT_1,IDENT_2,IDENT_3,IDENT_4,IDENT_5,







"test line 5",
STRING_0,

























