testGetTopicsDefaultValue,getTopics,strToArr,
METHOD_0,METHOD_1,METHOD_2,

topics,tcdl,msb,CliTool,argString,
IDENT_0,IDENT_1,IDENT_2,IDENT_3,IDENT_4,







"--follow response,ack",
STRING_0,

























