shouldFindProjectForCustomersAll,Customer,findProjectForCustomers,
METHOD_0,METHOD_1,METHOD_2,

rrm,ehour,Customer,ids,Project,projectDAO,joinTables,
IDENT_0,IDENT_1,IDENT_2,IDENT_3,IDENT_4,IDENT_5,IDENT_6,

30,
INT_0,































