should_mark_date_in_sequence_as_locked,Timesheet,setLockedDays,setDateSequence,isLocked,
METHOD_0,METHOD_1,METHOD_2,METHOD_3,METHOD_4,

rrm,ehour,timesheet,Timesheet,lockedDays,dateSequence,seq,
IDENT_0,IDENT_1,IDENT_2,IDENT_3,IDENT_4,IDENT_5,IDENT_6,


































