shouldBeModifiedWhenEntryIsAdded,MockFileBuilder,addEntry,isModified,
METHOD_0,METHOD_1,METHOD_2,METHOD_3,

designer,workspace,MockFileBuilder,fileBuilder,vdb,
IDENT_0,IDENT_1,IDENT_2,IDENT_3,IDENT_4,







"Test","txt",
STRING_0,STRING_1,

























