testCaseOverInlineView,helpResolve,verifyProjectedTypes,eIsProxy,
METHOD_0,METHOD_1,METHOD_2,METHOD_3,

Command,v7,keywords,
IDENT_0,IDENT_1,IDENT_2,







"SELECT CASE WHEN x > 0 THEN 1.0 ELSE 2.0 END FROM (SELECT e2 AS x FROM pm1.g1) AS g"," (description: ",", keywords: ",')',
STRING_0,STRING_1,STRING_2,STRING_3,

























