testSetReadOnly1,getMMConnection,setReadOnly,isReadOnly,
METHOD_0,METHOD_1,METHOD_2,METHOD_3,

ConnectionImpl,TestConnection,
IDENT_0,IDENT_1,


































