testIsBeforeFirst2,helpGetNoResults,isBeforeFirst,getAbsoluteRowNumber,
METHOD_0,METHOD_1,METHOD_2,METHOD_3,

ResultSetImpl,TestAllResultsImpl,TYPE_FORWARD_ONLY,BEFORE_FIRST_ROW,
IDENT_0,IDENT_1,IDENT_2,IDENT_3,


































