testNotEqual,VDBKey,
METHOD_0,METHOD_1,

vdb,VDBKey,key1,anObject,EntryResult,anEntryResult,word,refs,otherRefs,fileRefs,
IDENT_0,IDENT_1,IDENT_2,IDENT_3,IDENT_4,IDENT_5,IDENT_6,IDENT_7,IDENT_8,IDENT_9,


































