test_table_with_underscore,getMetaData,getTables,checkClosed,
METHOD_0,METHOD_1,METHOD_2,METHOD_3,

DatabaseMetaData,batchResults,
IDENT_0,IDENT_1,







"pg_index",
STRING_0,

























