testRestartVDB,restartVDB,getVDB,
METHOD_0,METHOD_1,METHOD_2,

TestEmbeddedServerAdmin,embeddedServer,vdbName,vdbVersion,
IDENT_0,IDENT_1,IDENT_2,IDENT_3,







"AdminAPITestVDB","TestModel",
STRING_0,STRING_1,

























