testParseTrueString,parseTextEntry,on,parseInt,asSpans,
METHOD_0,METHOD_1,METHOD_2,METHOD_3,METHOD_4,

parsed,Iterable,Splitter,Iterables,Function,isis,applib,MemberGroupLayout,ColumnSpans,
IDENT_0,IDENT_1,IDENT_2,IDENT_3,IDENT_4,IDENT_5,IDENT_6,IDENT_7,IDENT_8,







"TRue",",",
STRING_0,STRING_1,

























