shouldConvertStringToId,PathId,PathIdConverter,toEntityAttribute,
METHOD_0,METHOD_1,METHOD_2,METHOD_3,

openkilda,PathId,pathId,actualEntity,converters,
IDENT_0,IDENT_1,IDENT_2,IDENT_3,IDENT_4,







"test_path_id",
STRING_0,

























