testDoStripHeader,findHeaderBoundary,
METHOD_0,METHOD_1,

headerSupport,jobIdentifier,triggerIdentifier,
IDENT_0,IDENT_1,IDENT_2,







"name,phone,zip\n","Joe,phone,95121\n","Sally,phone,95121\n","Sam,phone,95120\n","Michael,phone,94550\n","JobSchedulerEvent{","event=",", jobIdentifier=",", triggerIdentifier=",", message='",'\'','}',
STRING_0,STRING_1,STRING_2,STRING_3,STRING_4,STRING_5,STRING_6,STRING_7,STRING_8,STRING_9,STRING_10,STRING_11,

























