testParse,parseTextEntry,getActionMemento,getNameParmsId,getNumber,
METHOD_0,METHOD_1,METHOD_2,METHOD_3,METHOD_4,

parsed,
IDENT_0,







"120","#",
STRING_0,STRING_1,

























