testNamedFaced,getFacet,getAction,
METHOD_0,METHOD_1,METHOD_2,

isis,metamodel,facetapi,Facet,facet,specification,facets,all,named,NamedFacet,FacetHolder,facetHolder,facetType,
IDENT_0,IDENT_1,IDENT_2,IDENT_3,IDENT_4,IDENT_5,IDENT_6,IDENT_7,IDENT_8,IDENT_9,IDENT_10,IDENT_11,IDENT_12,


































