testUAndQuery_Space,u,isSimpleValueType,mapToQuery,
METHOD_0,METHOD_1,METHOD_2,METHOD_3,

inputStr,LinkedHashMap,terasoluna,gfw,Functions,BeanUtils,OBJECT_TO_MAP_CONVERTER,
IDENT_0,IDENT_1,IDENT_2,IDENT_3,IDENT_4,IDENT_5,IDENT_6,







"spr ing","name=",
STRING_0,STRING_1,

























