testGetExtraHiddenFields,getExtraHiddenFields,
METHOD_0,METHOD_1,

requestDataValueProcessorAdaptor,HttpServletRequest,
IDENT_0,IDENT_1,


































