testFindOne01,Customer,findById,findOne,orElse,
METHOD_0,METHOD_1,METHOD_2,METHOD_3,METHOD_4,

terasoluna,tourreservation,Customer,customerRepository,customerService,customerCode,
IDENT_0,IDENT_1,IDENT_2,IDENT_3,IDENT_4,IDENT_5,







"xxx",
STRING_0,

























