testEvalIfThenElse,TermInfoParser,parseSingleOpCode,eval,EvalContext,
METHOD_0,METHOD_1,METHOD_2,METHOD_3,METHOD_4,

termd,term,OpCode,opCode,
IDENT_0,IDENT_1,IDENT_2,IDENT_3,







"%?%{0}%tA%;","%?%{0}%tA%e%{0}%tB%eC%;","B","%?%{1}%tA%eB%;","%?%{0}%tA%e%{1}%tB%;","%?%{1}%tA%e%{1}%tB%;","%?%{0}%tA%e%{0}%tB%;","%?%{1}%tA%e%{0}%tB%;","%?%{0}%tA%e%{1}%tB%eC%;","%?%{1}%tA%e%{0}%tB%eC%;","key:",
STRING_0,STRING_1,STRING_2,STRING_3,STRING_4,STRING_5,STRING_6,STRING_7,STRING_8,STRING_9,STRING_10,

























