testUniformSizedClaims,PowerOfTwoAllocator,claim,occupied,
METHOD_0,METHOD_1,METHOD_2,METHOD_3,

terracotta,offheapstore,allocator,PowerOfTwoAllocator,
IDENT_0,IDENT_1,IDENT_2,IDENT_3,


































