testNeedKeep01,TransactionTokenInfo,needKeep,
METHOD_0,METHOD_1,METHOD_2,

tokenName,terasoluna,gfw,TransactionTokenType,tokenType,NONE,TransactionTokenInfo,
IDENT_0,IDENT_1,IDENT_2,IDENT_3,IDENT_4,IDENT_5,IDENT_6,







"aaa",
STRING_0,

























