testValid08,TransactionToken,valid,
METHOD_0,METHOD_1,METHOD_2,

terasoluna,gfw,TransactionToken,valid,
IDENT_0,IDENT_1,IDENT_2,IDENT_3,


































