differentByPermGroup,IsisPermission,
METHOD_0,METHOD_1,

isis,shiro,IsisPermission,perm1,perm2,viewer,wicket,mementos,PropertyMemento,identifier,
IDENT_0,IDENT_1,IDENT_2,IDENT_3,IDENT_4,IDENT_5,IDENT_6,IDENT_7,IDENT_8,IDENT_9,







"adm/*","aba/*",
STRING_0,STRING_1,

























