testAFileShouldNotHoldAnyDocument,listDocuments,createDocument,
METHOD_0,METHOD_1,METHOD_2,

novatec,testit,livingdoc,listing,
IDENT_0,IDENT_1,IDENT_2,IDENT_3,







"test.html",
STRING_0,

























