testTagMustMatch,ExpectedElementInList,
METHOD_0,METHOD_1,

novatec,testit,livingdoc,samples,calculator,
IDENT_0,IDENT_1,IDENT_2,IDENT_3,IDENT_4,







"<div>html fragment</div>",
STRING_0,

























