addingAccountIncreasesHolderCount,addAccount,Account,getAccountCount,
METHOD_0,METHOD_1,METHOD_2,METHOD_3,

fi,helsinki,tmc,accountArray,
IDENT_0,IDENT_1,IDENT_2,IDENT_3,







"aaa","ooo",
STRING_0,STRING_1,

























