compareToWorksIfEqualButDifferentMeta,Version,
METHOD_0,METHOD_1,

fi,helsinki,tmc,updater,Version,ver1,ver2,majorDiff,major,minorDiff,minor,patchDiff,patch,
IDENT_0,IDENT_1,IDENT_2,IDENT_3,IDENT_4,IDENT_5,IDENT_6,IDENT_7,IDENT_8,IDENT_9,IDENT_10,IDENT_11,IDENT_12,

44,33,22,
INT_0,INT_1,INT_2,




"alpha1","foobar",
STRING_0,STRING_1,

























