testListByNameNull,listByPlatformType,
METHOD_0,METHOD_1,

bbsrc,tgac,miso,InstrumentModel,platforms,
IDENT_0,IDENT_1,IDENT_2,IDENT_3,IDENT_4,


































