getIdentityByNonIdentityAlias,getIdentitiesByExternalNameOrAliasAndProject,
METHOD_0,METHOD_1,

bbsrc,tgac,miso,SampleIdentity,identities,
IDENT_0,IDENT_1,IDENT_2,IDENT_3,IDENT_4,







"TEST_0001_Bn_P_nn_1-1_D_1",
STRING_0,

























