testListTypes,listTypes,currentSession,createCriteria,SuppressWarnings,
METHOD_0,METHOD_1,METHOD_2,METHOD_3,METHOD_4,

Criteria,bbsrc,tgac,miso,PartitionQCType,
IDENT_0,IDENT_1,IDENT_2,IDENT_3,IDENT_4,







"unchecked",
STRING_0,

























