testListAllLibrarySelectionTypes,listAllLibrarySelectionTypes,
METHOD_0,METHOD_1,

bbsrc,tgac,miso,LibrarySelectionType,librarySelectionTypes,
IDENT_0,IDENT_1,IDENT_2,IDENT_3,IDENT_4,


































