testListByIlluminaBadSearchWithLimit,
METHOD_0,

bbsrc,tgac,miso,Library,libraries,PaginationFilter,
IDENT_0,IDENT_1,IDENT_2,IDENT_3,IDENT_4,IDENT_5,







"id","; DROP TABLE Library;",
STRING_0,STRING_1,

























