testIntersectsPolygon,WKTReader,getGeometriesIn,
METHOD_0,METHOD_1,METHOD_2,

polygonStr,Geometry,intersecting,hortonmachine,dbs,TestPostgisDbsMain,TestUtilities,MPOLY_TABLE,nCols,
IDENT_0,IDENT_1,IDENT_2,IDENT_3,IDENT_4,IDENT_5,IDENT_6,IDENT_7,IDENT_8,







"POLYGON ((71 70, 40 70, 40 40, 5 40, 5 15, 15 15, 15 4, 50 4, 71 70))",
STRING_0,

























