testGetIdentityRefNull,getIdentityRef,fromString,
METHOD_0,METHOD_1,METHOD_2,

Authorizable,Value,external,basic,DefaultSyncContext,REP_EXTERNAL_ID,ExternalIdentityRef,
IDENT_0,IDENT_1,IDENT_2,IDENT_3,IDENT_4,IDENT_5,IDENT_6,


































