testGetValue,LongCollectionSqlType,
METHOD_0,METHOD_1,

cassandrareaper,RepairSchedule,LongCollectionSqlType,
IDENT_0,IDENT_1,IDENT_2,

2L,3L,4L,5L,
INT_0,INT_1,INT_2,INT_3,































