mapCancelOrderSuccessReturnsTrue,mapCancelOrder,fromJson,getAsInt,
METHOD_0,METHOD_1,METHOD_2,METHOD_3,

success,cancelOrderResult,cf,poloniex,JsonObject,
IDENT_0,IDENT_1,IDENT_2,IDENT_3,IDENT_4,







"{\"success\":1}","success",
STRING_0,STRING_1,

























