testListByInstrumentIdNone,listByInstrumentId,
METHOD_0,METHOD_1,

bbsrc,tgac,miso,ServiceRecord,
IDENT_0,IDENT_1,IDENT_2,IDENT_3,

100L,
INT_0,































