testGetIdentityFromNull,DefaultSyncResultImpl,getIdentity,
METHOD_0,METHOD_1,METHOD_2,

external,SyncResult,basic,NOP,
IDENT_0,IDENT_1,IDENT_2,IDENT_3,


































