extensionNotEqual,keySet,getFileExtension,lastIndexOf,
METHOD_0,METHOD_1,METHOD_2,METHOD_3,

MimeType,mimeTypes,fileName,parse4j,
IDENT_0,IDENT_1,IDENT_2,IDENT_3,







"extensionNotEqual(): initializing...","test.","x",'.',
STRING_0,STRING_1,STRING_2,STRING_3,

























