testPurgeOrphanedUsersNoPurge,syncAllExternalUsers,purgeOrphanedUsers,getDelegatee,
METHOD_0,METHOD_1,METHOD_2,METHOD_3,

syncMBean,external,jmx,Delegatee,delegatee,
IDENT_0,IDENT_1,IDENT_2,IDENT_3,IDENT_4,


































