invokeTest,TestRunnable,tee,ranOnce,
METHOD_0,METHOD_1,METHOD_2,METHOD_3,

threadly,TestRunnable,tr,Runnable,InvocationTee,runCount,
IDENT_0,IDENT_1,IDENT_2,IDENT_3,IDENT_4,IDENT_5,


































