cancelRunsListenersTest,TestRunnable,cancel,ranOnce,
METHOD_0,METHOD_1,METHOD_2,METHOD_3,

threadly,TestRunnable,tr,slf,runCount,
IDENT_0,IDENT_1,IDENT_2,IDENT_3,IDENT_4,


































