testValidateNotConnected,isConnected,denotesRootPath,
METHOD_0,METHOD_1,METHOD_2,

LdapConnection,PathUtils,last,
IDENT_0,IDENT_1,IDENT_2,







'/',"Path may not end with '/': ","Path may not contains '//': ",
STRING_0,STRING_1,STRING_2,

























