hasCauseOfTypeNoInputTest,hasCauseOfType,getCauseOfType,
METHOD_0,METHOD_1,METHOD_2,

threadly,ExceptionUtils,rootError,
IDENT_0,IDENT_1,IDENT_2,


































