equalsDiffObjectTest,Function,getThread,
METHOD_0,METHOD_1,METHOD_2,

threadly,Profiler,Function,ThreadSample,
IDENT_0,IDENT_1,IDENT_2,IDENT_3,


































