appendCharSquenceRangeTest,makeRandomString,subSequence,
METHOD_0,METHOD_1,METHOD_2,

rangeStart,rangeEnd,testStr,threadly,sbw,
IDENT_0,IDENT_1,IDENT_2,IDENT_3,IDENT_4,


































