testGetPolicies,getPolicies,UnsupportedOperationException,
METHOD_0,METHOD_1,METHOD_2,

AccessControlPolicy,policies,cugAccessControlManager,cug,SUPPORTED_PATH,
IDENT_0,IDENT_1,IDENT_2,IDENT_3,IDENT_4,


































