equalsFailTest,makePair,makeRandomString,
METHOD_0,METHOD_1,METHOD_2,

threadly,Pair,p1,p2,ComparableTrace,ClassCastException,
IDENT_0,IDENT_1,IDENT_2,IDENT_3,IDENT_4,IDENT_5,


































