lastTickTimeTest,lastKnownTimeMillis,tick,getLastTickTime,
METHOD_0,METHOD_1,METHOD_2,METHOD_3,

threadly,Clock,scheduler,nowInMillis,
IDENT_0,IDENT_1,IDENT_2,IDENT_3,


































