testGetPrincipals2,createEmptyCugPolicy,getPrincipals,
METHOD_0,METHOD_1,METHOD_2,

cug,CugPolicyImpl,principals,
IDENT_0,IDENT_1,IDENT_2,


































