test_LocalDateTime_adjustToSymmetry010Date,adjustInto,
METHOD_0,METHOD_1,

threeten,extra,chrono,Symmetry010Date,sym010,LocalDateTime,MIN,temporal,TemporalAdjuster,YearQuarter,adjuster,
IDENT_0,IDENT_1,IDENT_2,IDENT_3,IDENT_4,IDENT_5,IDENT_6,IDENT_7,IDENT_8,IDENT_9,IDENT_10,

2012,19,
INT_0,INT_1,































