test_hashCode_sameWhenSharedUpdates,epochUTC,withZone,
METHOD_0,METHOD_1,METHOD_2,

threeten,extra,MutableClock,clock,withOtherZone,ZoneOffset,MIN,withSameZone,UTC,seconds,
IDENT_0,IDENT_1,IDENT_2,IDENT_3,IDENT_4,IDENT_5,IDENT_6,IDENT_7,IDENT_8,IDENT_9,


































