testGetUrl,getUrl,
METHOD_0,METHOD_1,

gitlab,GitlabAPIIT,TEST_URL,tailAPIUrl,hostUrl,
IDENT_0,IDENT_1,IDENT_2,IDENT_3,IDENT_4,


































