testLookupWithAtBranching,DummySymbolNode,cons,branch,lookup,getVarLoc,
METHOD_0,METHOD_1,METHOD_2,METHOD_3,METHOD_4,METHOD_5,

tlc2,ContextTest,DummySymbolNode,ctx1,Empty,branch,UniqueString,loc,var,
IDENT_0,IDENT_1,IDENT_2,IDENT_3,IDENT_4,IDENT_5,IDENT_6,IDENT_7,IDENT_8,







"ctx1","value1",
STRING_0,STRING_1,

























