testEmptyArray,asArray,
METHOD_0,METHOD_1,

mictale,jsonite,JsonValue,JsonArray,members,
IDENT_0,IDENT_1,IDENT_2,IDENT_3,IDENT_4,







"[]",
STRING_0,

























