testCtor1,DynamicFPSetManager,getMask,
METHOD_0,METHOD_1,METHOD_2,

tlc2,tool,distributed,fp,DynamicFPSetManager,dynamicFPSetManager,mask,
IDENT_0,IDENT_1,IDENT_2,IDENT_3,IDENT_4,IDENT_5,IDENT_6,


































