shouldParseThreads,getThreads,
METHOD_0,METHOD_1,

jscover,filesystem,ConfigurationForFS,threads,
IDENT_0,IDENT_1,IDENT_2,IDENT_3,







"-fs","--threads=7","src","doc",
STRING_0,STRING_1,STRING_2,STRING_3,

























