testSetttingOnePainterDoesNotEnableCache,setPainters,shouldUseCache,
METHOD_0,METHOD_1,METHOD_2,

jdesktop,swingx,painter,CompoundPainter,Painter,
IDENT_0,IDENT_1,IDENT_2,IDENT_3,IDENT_4,


































