shouldInstrumentES6StatementBodies,instrumentSource,
METHOD_0,METHOD_1,

instrumentedSource,sourceProcessor,expectedSource,
IDENT_0,IDENT_1,IDENT_2,







"nums.forEach(v => {\n"," if (v % 5 === 0)\n"," fives.push(v)\n","})","_$jscoverage[\'test.js\'].lineData[1]++;\n"," }\n"," if (v % 5 === 0) {\n"," _$jscoverage[\'test.js\'].lineData[3]++;\n"," fives.push(v);\n","});\n",
STRING_0,STRING_1,STRING_2,STRING_3,STRING_4,STRING_5,STRING_6,STRING_7,STRING_8,STRING_9,

























