executeTrackerCmd,TrackerListGroupsCommand,executeFdfsCmd,
METHOD_0,METHOD_1,METHOD_2,

tobato,fastdfs,fdfs,GroupState,proto,tracker,FdfsCommand,TestConstants,
IDENT_0,IDENT_1,IDENT_2,IDENT_3,IDENT_4,IDENT_5,IDENT_6,IDENT_7,







"----------",
STRING_0,

























