shouldBeTrueIfPropertyStringsMatch,setState,isActive,
METHOD_0,METHOD_1,METHOD_2,

togglz,FeatureState,FeatureUser,
IDENT_0,IDENT_1,IDENT_2,







"foo.bar","foobar",
STRING_0,STRING_1,

























