testElasticStingToDate,fromElasticString,toDateObject,SimpleDateFormat,
METHOD_0,METHOD_1,METHOD_2,METHOD_3,

dateString,actDate,il,topq,difido,DateTimeConverter,expDate,
IDENT_0,IDENT_1,IDENT_2,IDENT_3,IDENT_4,IDENT_5,IDENT_6,







"2017/12/28 20:38:32","yyyy/MM/dd HH:mm:ss",
STRING_0,STRING_1,

























