informationDictionary,setInformationDictionary,getInformation,defaultString,
METHOD_0,METHOD_1,METHOD_2,METHOD_3,

victim,
IDENT_0,







"key",
STRING_0,

























