nullValue,addValue,getDataForModule,putIfAbsent,
METHOD_0,METHOD_1,METHOD_2,METHOD_3,

victim,emptyValues,
IDENT_0,IDENT_1,







"module","key",
STRING_0,STRING_1,

























