notNullArg,OpenUrlRequest,getUrl,
METHOD_0,METHOD_1,METHOD_2,

pdfsam,OpenUrlRequest,victim,
IDENT_0,IDENT_1,IDENT_2,







"ChuckNorris",
STRING_0,

























