positive,MoveSelectedEvent,
METHOD_0,METHOD_1,

pdfsam,selection,multiple,move,MoveSelectedEvent,victim,MoveType,DOWN,
IDENT_0,IDENT_1,IDENT_2,IDENT_3,IDENT_4,IDENT_5,IDENT_6,IDENT_7,


































