compareToInputNotNullOutputPositive,COSObjectKey,
METHOD_0,METHOD_1,

sejda,sambox,cos,COSObjectKey,objectUnderTest,retval,pdmodel,font,FontMapperImpl$FontMatch,score,
IDENT_0,IDENT_1,IDENT_2,IDENT_3,IDENT_4,IDENT_5,IDENT_6,IDENT_7,IDENT_8,IDENT_9,

9223372036854775808L,
INT_0,































