testDeviations,parseLiteral,
METHOD_0,METHOD_1,

deviation,sejda,sambox,cos,PDFDocEncodingTest,deviations,COSString,cosString,charset,StandardCharsets,UTF_16BE,UTF_16LE,PDFDocEncoding,
IDENT_0,IDENT_1,IDENT_2,IDENT_3,IDENT_4,IDENT_5,IDENT_6,IDENT_7,IDENT_8,IDENT_9,IDENT_10,IDENT_11,IDENT_12,

254,
INT_0,































