nextNull,COSParser,inMemorySeekableSourceFrom,
METHOD_0,METHOD_1,METHOD_2,

victim,sejda,sambox,COSNull,NULL,
IDENT_0,IDENT_1,IDENT_2,IDENT_3,IDENT_4,







"53 0 obj <</key null>>",
STRING_0,

























