mvp,createFilter,isAlwaysFalse,
METHOD_0,METHOD_1,METHOD_2,

Filter,alwaysFalse,
IDENT_0,IDENT_1,







"//*[(@prop = 'aaa' and @prop = 'bbb' and @prop = 'ccc')]",
STRING_0,

























