testGetCtfTmfTrace,getCtfTmfTrace,
METHOD_0,METHOD_1,

tracecompass,tmf,ctf,CtfTmfTrace,fTrace,
IDENT_0,IDENT_1,IDENT_2,IDENT_3,IDENT_4,


































