testGetAndSetName,TraceControlComponent,TraceControlRoot,setToolTip,addChild,
METHOD_0,METHOD_1,METHOD_2,METHOD_3,METHOD_4,

tracecompass,lttng2,views,TraceControlComponent,fName,
IDENT_0,IDENT_1,IDENT_2,IDENT_3,IDENT_4,







"node",
STRING_0,

























