testGetCacheSize,CtfTmfTrace,getCacheSize,dispose,
METHOD_0,METHOD_1,METHOD_2,METHOD_3,

tracecompass,tmf,ctf,CtfTmfTrace,emptyFixture,fCacheSize,
IDENT_0,IDENT_1,IDENT_2,IDENT_3,IDENT_4,IDENT_5,


































