testNoCryptoToken,getJwsPayload,encodeWithoutPadding,
METHOD_0,METHOD_1,METHOD_2,

joseHeader,jwsPayload,trajano,Base64,jwks,
IDENT_0,IDENT_1,IDENT_2,IDENT_3,IDENT_4,







"{\"alg\":\"none\"}","HELLO","UTF-8",".",
STRING_0,STRING_1,STRING_2,STRING_3,

























