testGetFieldNames,getFieldNames,readLock,lock,unlock,
METHOD_0,METHOD_1,METHOD_2,METHOD_3,METHOD_4,

labels,names,fEventContent1,fLock,fStartTimesIndex,
IDENT_0,IDENT_1,IDENT_2,IDENT_3,IDENT_4,







"Host","Logger","File","Line","Message",
STRING_0,STRING_1,STRING_2,STRING_3,STRING_4,

























