testMultipleEmptyIterators,
METHOD_0,

brown,tracingplane,atomlayer,MergeTwoIterator,merged,TestMergeTwoIterator,integerComparator,nexta,nextb,
IDENT_0,IDENT_1,IDENT_2,IDENT_3,IDENT_4,IDENT_5,IDENT_6,IDENT_7,IDENT_8,


































