applyTwoHandlersWithLocal,AtomicReference,ensure,
METHOD_0,METHOD_1,METHOD_2,

AtomicReference,localValue,trane,Local,Promise,threadLocal,
IDENT_0,IDENT_1,IDENT_2,IDENT_3,IDENT_4,IDENT_5,


































