poolMaxSizeOptionalPresent,poolMaxSize,
METHOD_0,METHOD_1,

trane,ndbc,Config,dataSourceSupplierClass,poolMaxSize,
IDENT_0,IDENT_1,IDENT_2,IDENT_3,IDENT_4,


































