testEndWithoutAcl,checkState,track,
METHOD_0,METHOD_1,METHOD_2,

importer,accessControlledTree,whiteboard,Whiteboard,tracker,stopped,
IDENT_0,IDENT_1,IDENT_2,IDENT_3,IDENT_4,IDENT_5,


































