databaseOptionalPresent,
METHOD_0,

trane,ndbc,Config,dataSourceSupplierClass,
IDENT_0,IDENT_1,IDENT_2,IDENT_3,







"database",
STRING_0,

























