TestChannel,notExpected,
METHOD_0,METHOD_1,

trane,ndbc,proto,Exchange,ExchangeTest,timeout,
IDENT_0,IDENT_1,IDENT_2,IDENT_3,IDENT_4,IDENT_5,


































