getShort,ShortValue,
METHOD_0,METHOD_1,

Short,trane,ndbc,ShortValue,wrapper,
IDENT_0,IDENT_1,IDENT_2,IDENT_3,IDENT_4,

32,
INT_0,































