getFloat,FloatValue,Float,
METHOD_0,METHOD_1,METHOD_2,

Float,trane,ndbc,FloatValue,wrapper,
IDENT_0,IDENT_1,IDENT_2,IDENT_3,IDENT_4,










1.2F,
FLOAT_0,






















