testValidUrlToUri,toUri,toURI,
METHOD_0,METHOD_1,METHOD_2,

eluder,coveralls,UrlUtils,URISyntaxException,
IDENT_0,IDENT_1,IDENT_2,IDENT_3,







"http://google.com",
STRING_0,

























