testPullRequestFalse,env,getPullRequest,Shippable,
METHOD_0,METHOD_1,METHOD_2,METHOD_3,

env,Shippable,SHIPPABLE_PULL_REQUEST,eluder,coveralls,Appveyor,APPVEYOR_PULL_REQUEST,
IDENT_0,IDENT_1,IDENT_2,IDENT_3,IDENT_4,IDENT_5,IDENT_6,







"false",
STRING_0,

























