defaultOpts,getDefaultOptions,isDefault,
METHOD_0,METHOD_1,METHOD_2,

tridentsdk,world,opt,WorldCreateSpec,def,
IDENT_0,IDENT_1,IDENT_2,IDENT_3,IDENT_4,


































