testKongInfo,getInfo,
METHOD_0,METHOD_1,

t1t,apim,KongExtraInfo,extraInfo,KongClientIntegrationTest,kongClient,currentUserFacade,
IDENT_0,IDENT_1,IDENT_2,IDENT_3,IDENT_4,IDENT_5,IDENT_6,


































