testSimpleLoop,Grammar,createATN,getDecoded,getRuleNames,getTokenNames,
METHOD_0,METHOD_1,METHOD_2,METHOD_3,METHOD_4,METHOD_5,

tool,Grammar,expecting,atn,ATN,ATNSerializer,tokenNames,
IDENT_0,IDENT_1,IDENT_2,IDENT_3,IDENT_4,IDENT_5,IDENT_6,







"7->8 ATOM 2,0,0\n","a : A+ B ;","max type 2\n","1:RULE_STOP 0\n","2:BASIC 0\n","4:BLOCK_END 0\n","5:PLUS_LOOP_BACK 0\n","7:BASIC 0\n","2->4 ATOM 1,0,0\n","5->6 EPSILON 0,0,0\n",
STRING_0,STRING_1,STRING_2,STRING_3,STRING_4,STRING_5,STRING_6,STRING_7,STRING_8,STRING_9,

























