testNotSingleElement,complement,
METHOD_0,METHOD_1,

misc,IntervalSet,vocabulary,expecting,
IDENT_0,IDENT_1,IDENT_2,IDENT_3,

2000,3000,
INT_0,INT_1,




"{1..49, 51..1000, 2000..3000}","..",
STRING_0,STRING_1,

























