testMergeOfRangesAndSingleValues,
METHOD_0,

misc,IntervalSet,expecting,
IDENT_0,IDENT_1,IDENT_2,

41,42,43,65534,
INT_0,INT_1,INT_2,INT_3,




"{0..65534}","..",
STRING_0,STRING_1,

























