testNotSetFragmentedVocabulary,complement,
METHOD_0,METHOD_1,

misc,IntervalSet,vocabulary,expecting,
IDENT_0,IDENT_1,IDENT_2,IDENT_3,

2000,9999,60,250,300,10000,
INT_0,INT_1,INT_2,INT_3,INT_4,INT_5,




"{1..2, 4..49, 61..249, 1000..2000, 9999}","..",
STRING_0,STRING_1,

























