testNonGreedyConfigs,execLexer,
METHOD_0,METHOD_1,

grammar,expecting,grammarFileName,grammarStr,lexerName,
IDENT_0,IDENT_1,IDENT_2,IDENT_3,IDENT_4,







"lexer grammar L;\n","I : .*? (\'a\' | \'ab\') {System.out.println(getText());} ;\n","WS : (\' \'|\'\\n\') -> skip ;\n","J : . {System.out.println(getText());};\n","L.g4","L","ab","a\n","[@1,1:1=\'b\',<3>,1:1]\n","[@2,2:1=\'<EOF>\',<-1>,1:2]\n",
STRING_0,STRING_1,STRING_2,STRING_3,STRING_4,STRING_5,STRING_6,STRING_7,STRING_8,STRING_9,

























