testIDnotEnum,execLexer,rawGenerateAndBuildRecognizer,writeFile,writeLexerTestFile,compile,execClass,
METHOD_0,METHOD_1,METHOD_2,METHOD_3,METHOD_4,METHOD_5,METHOD_6,

grammar,expecting,success,grammarFileName,grammarStr,lexerName,tool,BaseTest,tmpdir,showDFA,stderrDuringParse,
IDENT_0,IDENT_1,IDENT_2,IDENT_3,IDENT_4,IDENT_5,IDENT_6,IDENT_7,IDENT_8,IDENT_9,IDENT_10,







"lexer grammar L;\n","ENUM : [a-z]+ {false}? ;\n","ID : [a-z]+ ;\n","[@1,5:7=\'abc\',<2>,1:5]\n","L.g4","L","[@0,0:3=\'enum\',<2>,1:0]\n","[@2,9:12=\'enum\',<2>,1:9]\n","[@3,13:12=\'<EOF>\',<-1>,1:13]\n","s0-\' \'->:s2=>3\n","input","Test.java","Test",
STRING_0,STRING_1,STRING_2,STRING_3,STRING_4,STRING_5,STRING_6,STRING_7,STRING_8,STRING_9,STRING_10,STRING_11,STRING_12,

























