testLargeLexer,execLexer,
METHOD_0,METHOD_1,

grammar,expecting,
IDENT_0,IDENT_1,

4000,
INT_0,




"lexer grammar L;\n","WS : [ \\t\\r\\n]+ -> skip;\n","KW"," : 'KW' '","\';\n","KW400","L.g4","L","[@0,0:4=\'KW400\',<402>,1:0]\n","[@1,5:4=\'<EOF>\',<-1>,1:5]\n",
STRING_0,STRING_1,STRING_2,STRING_3,STRING_4,STRING_5,STRING_6,STRING_7,STRING_8,STRING_9,

























