testParentheses,execLexer,
METHOD_0,METHOD_1,

grammar,expecting,grammarFileName,grammarStr,lexerName,
IDENT_0,IDENT_1,IDENT_2,IDENT_3,IDENT_4,







"-.-.-!","START_BLOCK: \'-.-.-\';\n","ID : (LETTER SEPARATOR) (LETTER SEPARATOR)+;\n","fragment LETTER: L_A|L_K;\n","fragment L_A: \'.-\';\n","fragment L_K: \'-.-\';\n","SEPARATOR: \'!\';\n","Demo.g4","Demo",
STRING_0,STRING_1,STRING_2,STRING_3,STRING_4,STRING_5,STRING_6,STRING_7,STRING_8,

























