testEmptyTestSet,TestSet,getTestResult,getTestNumber,
METHOD_0,METHOD_1,METHOD_2,METHOD_3,

tap4j,TestSet,testSet,TestResult,foundTestResult,testResult,testResults,testNumber,
IDENT_0,IDENT_1,IDENT_2,IDENT_3,IDENT_4,IDENT_5,IDENT_6,IDENT_7,


































