testMembers,members,getMembers,
METHOD_0,METHOD_1,METHOD_2,

no,tv2,serf,SerfClientIT,client1,SERF2_IP,SERF2_PORT,MembersResponse,
IDENT_0,IDENT_1,IDENT_2,IDENT_3,IDENT_4,IDENT_5,IDENT_6,IDENT_7,







"testMembers",":",
STRING_0,STRING_1,

























