encodeDataSM,DataSm,setSequenceNumber,setSourceAddress,Address,setDestAddress,setEsmClass,setRegisteredDelivery,setDataCoding,Tlv,addOptionalParameter,toHexString,createByteArray,toUpperCase,readableBytes,readerIndex,
METHOD_0,METHOD_1,METHOD_2,METHOD_3,METHOD_4,METHOD_5,METHOD_6,METHOD_7,METHOD_8,METHOD_9,METHOD_10,METHOD_11,METHOD_12,METHOD_13,METHOD_14,METHOD_15,

cloudhopper,smpp,transcoder,DataSm,pdu0,tlv,Tlv,tlv0,SmppConstants,TAG_MESSAGE_PAYLOAD,ChannelBuffer,expectedHex,actualHex,HexUtil,BufferHelper,
IDENT_0,IDENT_1,IDENT_2,IDENT_3,IDENT_4,IDENT_5,IDENT_6,IDENT_7,IDENT_8,IDENT_9,IDENT_10,IDENT_11,IDENT_12,IDENT_13,IDENT_14,







"5552710000","9695","Test","ISO-8859-1","000000300000010300000000000000000001013535353237313030303000000139363935000001000424000454657374",
STRING_0,STRING_1,STRING_2,STRING_3,STRING_4,

























