getCodeShouldNotThrowExceptionWhenCodeIsNull,ApiException,
METHOD_0,METHOD_1,

twilio,ApiException,anyMessage,
IDENT_0,IDENT_1,IDENT_2,


































