testMultipleKeys,emptyMap,flatten,
METHOD_0,METHOD_1,METHOD_2,

nested,watson,twilio,PrefixedCollapsibleMap,flattened,prefix,
IDENT_0,IDENT_1,IDENT_2,IDENT_3,IDENT_4,IDENT_5,







"baz","language","en","alice","bob","watson","Prefix","Prefix.foo.bar",".",
STRING_0,STRING_1,STRING_2,STRING_3,STRING_4,STRING_5,STRING_6,STRING_7,STRING_8,

























