testAddPrecondition,addPrecondition,areSatisfied,containsAll,
METHOD_0,METHOD_1,METHOD_2,METHOD_3,

preconditions,dirty,satisfied,candidates,
IDENT_0,IDENT_1,IDENT_2,IDENT_3,


































