testDifferentLocaleRFC2822,setDefault,rfc2822DateTimeFromString,
METHOD_0,METHOD_1,METHOD_2,

DateTime,dateTime,twilio,DateConverter,dateTimeString,RFC2822_DATE_TIME_FORMATTER,
IDENT_0,IDENT_1,IDENT_2,IDENT_3,IDENT_4,IDENT_5,







"fr","CA","Tue, 29 Mar 2016 13:00:05 +0000",
STRING_0,STRING_1,STRING_2,

























