testQuickSplit_OnlyDelimiters,quickSplit,getStringValueCount,
METHOD_0,METHOD_1,METHOD_2,

xenqtt,XenqttUtil,EMPTY_STRING_ARRAY,delimiter,last,
IDENT_0,IDENT_1,IDENT_2,IDENT_3,IDENT_4,







"/////",'/',
STRING_0,STRING_1,

























