testFlatMap4,flatMap4,resultFromNode,resultFromFuture,
METHOD_0,METHOD_1,METHOD_2,METHOD_3,

twitter,second,third,fourth,flatMappedNode,result1,result2,result3,result4,Future,NodeTestBase,
IDENT_0,IDENT_1,IDENT_2,IDENT_3,IDENT_4,IDENT_5,IDENT_6,IDENT_7,IDENT_8,IDENT_9,IDENT_10,

300,400,
INT_0,INT_1,




"FlatMap4",
STRING_0,

























