testCtor_NullPayload,PublishMessage,getPayload,getPayloadIndex,
METHOD_0,METHOD_1,METHOD_2,METHOD_3,

xenqtt,QoS,AT_MOST_ONCE,
IDENT_0,IDENT_1,IDENT_2,







"grand/foo/bar",
STRING_0,

























