testOneWaySwitch,ifThen,resultFromNode,resultFromFuture,
METHOD_0,METHOD_1,METHOD_2,METHOD_3,

twitter,trueNode,NodeTestBase,
IDENT_0,IDENT_1,IDENT_2,


































