testQueryUser5,UserSearch,setUsername,setMinAge,setMaxAge,setOffset,setLimit,setIds,setIdArr,queryUser5,
METHOD_0,METHOD_1,METHOD_2,METHOD_3,METHOD_4,METHOD_5,METHOD_6,METHOD_7,METHOD_8,METHOD_9,

tg,UserSearch,users,limit,
IDENT_0,IDENT_1,IDENT_2,IDENT_3,

30,
INT_0,




"twogoods",
STRING_0,

























