testToString,JobKey,TaskKey,getJobIdString,
METHOD_0,METHOD_1,METHOD_2,METHOD_3,

twitter,hraven,JobKey,jKey,TaskKey,SEP,jobId,
IDENT_0,IDENT_1,IDENT_2,IDENT_3,IDENT_4,IDENT_5,IDENT_6,

1234L,
INT_0,




"test@local","testuser","app","job_20120101000000_1111","m_001",
STRING_0,STRING_1,STRING_2,STRING_3,STRING_4,

























