testUpdate,setPassword,setAge,setOldAddress,setNowAddress,
METHOD_0,METHOD_1,METHOD_2,METHOD_3,METHOD_4,

tg,nowAddress,
IDENT_0,IDENT_1,

8L,23,
INT_0,INT_1,




"123",
STRING_0,

























