testNotMember,getUserManager,createGroup,randomUUID,removeMembers,getID,
METHOD_0,METHOD_1,METHOD_2,METHOD_3,METHOD_4,METHOD_5,

Group,gr,failed,testGroup,
IDENT_0,IDENT_1,IDENT_2,IDENT_3,







"testGroup",
STRING_0,

























