error3,fromHeaders,
METHOD_0,METHOD_1,

websocket,Extension,extensions,tyrus,TyrusExtension,
IDENT_0,IDENT_1,IDENT_2,IDENT_3,IDENT_4,







"ext1,param=value",
STRING_0,

























