testValidAndNullIdModifiesRoot,addMembers,getTestUser,getID,hasPendingChanges,
METHOD_0,METHOD_1,METHOD_2,METHOD_3,METHOD_4,

testGroup,nodetype,ConstraintViolationException,
IDENT_0,IDENT_1,IDENT_2,


































