testSplitMerge63,Random,nextLong,merge,getBit,
METHOD_0,METHOD_1,METHOD_2,METHOD_3,METHOD_4,

Random,rnd,ethz,globis,phtree,BitTools,l2,trg,dims,maskTrg,nBitsPerValue,posBit,bit,BitsInt,toSplit,
IDENT_0,IDENT_1,IDENT_2,IDENT_3,IDENT_4,IDENT_5,IDENT_6,IDENT_7,IDENT_8,IDENT_9,IDENT_10,IDENT_11,IDENT_12,IDENT_13,IDENT_14,

63,
INT_0,










|=,>>>=,
OP_0,OP_1,



















