testEmptyDB,copyDB,getDbName,
METHOD_0,METHOD_1,METHOD_2,

zoodb,ZooCompareDb,testutil,TestTools,jdo,Test_015_DatabaseComparison,DB2,DB_NAME,
IDENT_0,IDENT_1,IDENT_2,IDENT_3,IDENT_4,IDENT_5,IDENT_6,IDENT_7,


































