testNeighbour1of5DirectHit,newTreeF,nearestNeighbour,check,
METHOD_0,METHOD_1,METHOD_2,METHOD_3,

ethz,globis,phtree,PhTreeF,idx,
IDENT_0,IDENT_1,IDENT_2,IDENT_3,IDENT_4,


































