testHex,openPM,currentTransaction,begin,newQuery,setFilter,closePM,
METHOD_0,METHOD_1,METHOD_2,METHOD_3,METHOD_4,METHOD_5,METHOD_6,

jdo,PersistenceManager,pm,zoodb,testutil,TestTools,TestClass,
IDENT_0,IDENT_1,IDENT_2,IDENT_3,IDENT_4,IDENT_5,IDENT_6,







"SELECT FROM ","_int == 0x1 && _short == 0x7D00 && _long == 0x499602D2 && _byte == 0x7F",
STRING_0,STRING_1,

























