isNotEqualsWorking1,UaiRoute,
METHOD_0,METHOD_1,

uaihebert,uaimockserver,UaiRoute,uaiRoute1,uaiRoute2,uaiRoute,
IDENT_0,IDENT_1,IDENT_2,IDENT_3,IDENT_4,IDENT_5,







"111","222",
STRING_0,STRING_1,

























