test0Times0Matrix,createMatrixWithAnnotation,erase,getLabel,getLabelObject,
METHOD_0,METHOD_1,METHOD_2,METHOD_3,METHOD_4,

ujmp,Matrix,m1,m2,m3,Erasable,HasLabel,
IDENT_0,IDENT_1,IDENT_2,IDENT_3,IDENT_4,IDENT_5,IDENT_6,


































