testSparseMultiplySmall,createMatrix,isTestSparse,isSparse,setAsDouble,mtimes,Mtimes,calc,
METHOD_0,METHOD_1,METHOD_2,METHOD_3,METHOD_4,METHOD_5,METHOD_6,METHOD_7,

ujmp,Matrix,m1,m2,m3,m4,Ret,LINK,calculation,Calculation,doublematrix,basic,ignoreNaN,matrix,returnType,
IDENT_0,IDENT_1,IDENT_2,IDENT_3,IDENT_4,IDENT_5,IDENT_6,IDENT_7,IDENT_8,IDENT_9,IDENT_10,IDENT_11,IDENT_12,IDENT_13,IDENT_14,










5.0,4.0,3.0,7.0,6.0,
FLOAT_0,FLOAT_1,FLOAT_2,FLOAT_3,FLOAT_4,






















