testXPlus0MatrixMatrix,createMatrixWithAnnotation,randn,plus,erase,getLabel,getLabelObject,
METHOD_0,METHOD_1,METHOD_2,METHOD_3,METHOD_4,METHOD_5,METHOD_6,

ujmp,Matrix,m1,m2,Ret,ORIG,m3,Erasable,HasLabel,
IDENT_0,IDENT_1,IDENT_2,IDENT_3,IDENT_4,IDENT_5,IDENT_6,IDENT_7,IDENT_8,


































