test1,linkToArray,mtimes,JScienceDenseDoubleMatrix2D,
METHOD_0,METHOD_1,METHOD_2,METHOD_3,

ujmp,Matrix,Factory,c_correct,Ret,NEW,c1,jscience,JScienceDenseDoubleMatrix2D,matrix,
IDENT_0,IDENT_1,IDENT_2,IDENT_3,IDENT_4,IDENT_5,IDENT_6,IDENT_7,IDENT_8,IDENT_9,


































