MOTLmessage301,getModel,destroy,
METHOD_0,METHOD_1,METHOD_2,

cruise,umple,UmpleModel,happened,SampleFileWriter,
IDENT_0,IDENT_1,IDENT_2,IDENT_3,IDENT_4,







"class Tracer { str; trace x; }","301","testTest.ump",
STRING_0,STRING_1,STRING_2,

























