addAttribute_WithAttributeVar,getAttributes,Attribute,
METHOD_0,METHOD_1,METHOD_2,

valsBefore,umpleClass,cruise,umple,Attribute,attr,m_attributes,
IDENT_0,IDENT_1,IDENT_2,IDENT_3,IDENT_4,IDENT_5,IDENT_6,







"asd","sad","immutable",
STRING_0,STRING_1,STRING_2,

























