TypesIsANormalVariableNow,Attribute,
METHOD_0,METHOD_1,

attr,cruise,umple,m_type,
IDENT_0,IDENT_1,IDENT_2,IDENT_3,







"Blah",
STRING_0,

























