stateMachineTraits060Test,getModelByFilename,destroy,
METHOD_0,METHOD_1,METHOD_2,

cruise,umple,UmpleModel,SampleFileWriter,
IDENT_0,IDENT_1,IDENT_2,IDENT_3,







"trait_test_data_0018.ump","236","traitTest.ump",
STRING_0,STRING_1,STRING_2,

























