BlockingCollector,
METHOD_0,

umermansoor,trafficdistributor,collectors,BlockingCollector,blc,eventsQueue,
IDENT_0,IDENT_1,IDENT_2,IDENT_3,IDENT_4,IDENT_5,







"exception thrown",
STRING_0,

























