getCodeInjectionUnfoundExtendedMethod_Simple,getModel,getLastResult,getErrorMessages,
METHOD_0,METHOD_1,METHOD_2,METHOD_3,

cruise,umple,UmpleModel,ParseResult,ErrorMessage,m_size,
IDENT_0,IDENT_1,IDENT_2,IDENT_3,IDENT_4,IDENT_5,







"class A { k; } class B { isA A; after setK,getK{ foo(); } }",
STRING_0,

























