testHasProperty,hasProperty,never,autosave,
METHOD_0,METHOD_1,METHOD_2,METHOD_3,

dlg,autosaveMgr,
IDENT_0,IDENT_1,







"propName",
STRING_0,

























