testGetPrincipal,getPrincipal,never,autosave,
METHOD_0,METHOD_1,METHOD_2,METHOD_3,

dlg,autosaveMgr,principal,
IDENT_0,IDENT_1,IDENT_2,


































