testIsPreview,JRowsSelectorPanel,GraphPanel,isPreview,
METHOD_0,METHOD_1,METHOD_2,METHOD_3,

kg,apc,jmeter,graphs,JRowsSelectorPanel,
IDENT_0,IDENT_1,IDENT_2,IDENT_3,IDENT_4,







"isPreview",
STRING_0,

























