testGetArgumentDesc,FifoSize,getArgumentDesc,
METHOD_0,METHOD_1,METHOD_2,

kg,apc,jmeter,functions,FifoSize,graphRow,
IDENT_0,IDENT_1,IDENT_2,IDENT_3,IDENT_4,IDENT_5,







"getArgumentDesc",
STRING_0,

























