testGetFileToSend,getFileToSend,getPropertyAsString,
METHOD_0,METHOD_1,METHOD_2,

kg,apc,jmeter,samplers,HTTPRawSampler,FILE_NAME,
IDENT_0,IDENT_1,IDENT_2,IDENT_3,IDENT_4,IDENT_5,







"getFileToSend",
STRING_0,

























