rebaseInvariant,getRoot,setChildNode,getBaseState,rebase,
METHOD_0,METHOD_1,METHOD_2,METHOD_3,METHOD_4,

NodeBuilder,added,NodeState,
IDENT_0,IDENT_1,IDENT_2,







"added",
STRING_0,

























