testForXml,forXml,forObject,buildUrn,getSections,setCharAt,
METHOD_0,METHOD_1,METHOD_2,METHOD_3,METHOD_4,METHOD_5,

unidal,webres,Root,src,Models,src2,Urn,urn,section,
IDENT_0,IDENT_1,IDENT_2,IDENT_3,IDENT_4,IDENT_5,IDENT_6,IDENT_7,IDENT_8,







"model_final.xml","utf-8","${",'.','}',
STRING_0,STRING_1,STRING_2,STRING_3,STRING_4,

























