testSignedNegative,BitReader,bits2SInt,bits2UInt,getBit,setBit,
METHOD_0,METHOD_1,METHOD_2,METHOD_3,METHOD_4,METHOD_5,

ucar,nc2,iosp,BitReader,bu,binary,nb,LONG_BITMASK,
IDENT_0,IDENT_1,IDENT_2,IDENT_3,IDENT_4,IDENT_5,IDENT_6,IDENT_7,

160,
INT_0,










~,
OP_0,



















