testNestedDirs,open,getDatasetsLocal,
METHOD_0,METHOD_1,METHOD_2,

thredds,Catalog,cat,TdsLocalCatalog,Dataset,topList,top,children,_pos,
IDENT_0,IDENT_1,IDENT_2,IDENT_3,IDENT_4,IDENT_5,IDENT_6,IDENT_7,IDENT_8,







"catalog/station/profiler/wind/06min/catalog.xml",
STRING_0,

























