moveExistingNode,getAdminSession,getRootNode,addNode,getNode,move,concat,
METHOD_0,METHOD_1,METHOD_2,METHOD_3,METHOD_4,METHOD_5,METHOD_6,

Session,
IDENT_0,







"new","/new","/moved",
STRING_0,STRING_1,STRING_2,

























