testGetProtein,Protein,getProtein,getProteinName,
METHOD_0,METHOD_1,METHOD_2,METHOD_3,

ebi,ep,ebeye,protein,EntryTest,Protein,proteinName,
IDENT_0,IDENT_1,IDENT_2,IDENT_3,IDENT_4,IDENT_5,IDENT_6,







"getProtein","O76074",
STRING_0,STRING_1,

























