testSetSelected,setSelected,isSelected,
METHOD_0,METHOD_1,METHOD_2,

ebi,ep,EcNumberTest,selected,
IDENT_0,IDENT_1,IDENT_2,IDENT_3,







"setSelected",
STRING_0,

























