testInverse,inverse,doubleValue,getUnit,
METHOD_0,METHOD_1,METHOD_2,METHOD_3,

measure,Unit,one,tec,units,ri,AbstractQuantity,Q,quantity,NumberQuantity,
IDENT_0,IDENT_1,IDENT_2,IDENT_3,IDENT_4,IDENT_5,IDENT_6,IDENT_7,IDENT_8,IDENT_9,


































