pnrExampleTest,getMessageText,getBags,
METHOD_0,METHOD_1,METHOD_2,

pnrExample,gtas,parsers,pnrgov,PnrGovParserTest,PNR_EXAMPLE,PnrVo,bagsInPNRExample,bags,
IDENT_0,IDENT_1,IDENT_2,IDENT_3,IDENT_4,IDENT_5,IDENT_6,IDENT_7,IDENT_8,

18,
INT_0,































