getAdminSession,getRootNode,addNode,getWorkspace,getQueryManager,createQuery,getNodes,
METHOD_0,METHOD_1,METHOD_2,METHOD_3,METHOD_4,METHOD_5,METHOD_6,

Session,t1,t2,PropertyType,DATE,QueryResult,NodeIterator,
IDENT_0,IDENT_1,IDENT_2,IDENT_3,IDENT_4,IDENT_5,IDENT_6,







"t1","x","22.06.07","t2","2007-06-22T01:02:03.000Z","//*[x='a' or x='b']","xpath",
STRING_0,STRING_1,STRING_2,STRING_3,STRING_4,STRING_5,STRING_6,

























