testToTextNormalized,CpcClassification,parseText,getTextNormalized,
METHOD_0,METHOD_1,METHOD_2,METHOD_3,

uspto,patent,classification,CpcClassification,cpcClass,section,mainClass,subClass,mainGroup,subGroup,
IDENT_0,IDENT_1,IDENT_2,IDENT_3,IDENT_4,IDENT_5,IDENT_6,IDENT_7,IDENT_8,IDENT_9,







"D07B2201/2051","D07B 2201/2051",
STRING_0,STRING_1,

























