whenAddThreePointsAndOneSideMoreThenTwoOthersResultZero,Point,Triangle,area,distanceTo,sqrt,
METHOD_0,METHOD_1,METHOD_2,METHOD_3,METHOD_4,METHOD_5,

vkaretko,Task_3_1,Point,Triangle,tri,sideAB,sideBC,sideAC,halfP,
IDENT_0,IDENT_1,IDENT_2,IDENT_3,IDENT_4,IDENT_5,IDENT_6,IDENT_7,IDENT_8,







"  ",
STRING_0,

30.0,60.0,
FLOAT_0,FLOAT_1,






















