whenAddThreeElementThenFirstElementIsOne,MyArrayList,getOrDefault,
METHOD_0,METHOD_1,METHOD_2,

vkaretko,MyArrayList,K,
IDENT_0,IDENT_1,IDENT_2,


































