whenInitActionManagerThenResultListWithThreeActions,getActions,
METHOD_0,METHOD_1,

expectedSizeOfMenu,actions,
IDENT_0,IDENT_1,


































