whenEnterWordThenResultRandomMessage,setIn,ConsoleChat,
METHOD_0,METHOD_1,METHOD_2,

stopKey,vkaretko,chat,filePathPhrase,filePathLog,ioe,
IDENT_0,IDENT_1,IDENT_2,IDENT_3,IDENT_4,IDENT_5,







"bree","User %s",
STRING_0,STRING_1,

























