testHasValue1,setLocale,getDefault,ValueContext,getHasValue,
METHOD_0,METHOD_1,METHOD_2,METHOD_3,METHOD_4,

binder,ValueContext,fromComponent,textField,hasValue,
IDENT_0,IDENT_1,IDENT_2,IDENT_3,IDENT_4,


































