save_bound_beanIsUpdated,Binder,bind,setFirstName,writeBean,getFirstName,
METHOD_0,METHOD_1,METHOD_2,METHOD_3,METHOD_4,METHOD_5,

binder,Binder,nameField,getFirstName,setFirstName,fieldValue,
IDENT_0,IDENT_1,IDENT_2,IDENT_3,IDENT_4,IDENT_5,







"First",
STRING_0,

























