treeData_remove_root_item,removeItem,getChildren,unmodifiableList,
METHOD_0,METHOD_1,METHOD_2,METHOD_3,

itemToWrapperMap,
IDENT_0,







"Item '","' not in the hierarchy",
STRING_0,STRING_1,

























