removeSingleStyle,createDiv,getStyle,has,
METHOD_0,METHOD_1,METHOD_2,METHOD_3,

ElementFactory,Style,lookupTable,
IDENT_0,IDENT_1,IDENT_2,







"Tried to lookup type "," but no instance has been registered",
STRING_0,STRING_1,

























