stringToNumber_convertableString_valueIsConverted,createInstance,
METHOD_0,METHOD_1,

Number,decoder,elemental,Json,communication,rpc,ReflectTools,
IDENT_0,IDENT_1,IDENT_2,IDENT_3,IDENT_4,IDENT_5,IDENT_6,










823.6349,
FLOAT_0,






















