testAddBeanWithoutResolver,addBean,addBeanAfter,addBeanAt,updateCount,sizeOfAddedItems,
METHOD_0,METHOD_1,METHOD_2,METHOD_3,METHOD_4,METHOD_5,

v7,BeanContainer,removedItems,
IDENT_0,IDENT_1,IDENT_2,







"John","Jane","Jack",
STRING_0,STRING_1,STRING_2,

























