equals_compareWithSameInstance_shouldBeTrue,ReadOnlyRowId,
METHOD_0,METHOD_1,

v7,sqlcontainer,ReadOnlyRowId,rid,rid2,GridRefreshWithGetId,TestObject,myObject,
IDENT_0,IDENT_1,IDENT_2,IDENT_3,IDENT_4,IDENT_5,IDENT_6,IDENT_7,

1337,
INT_0,































