hashCode_equalInstances_shouldBeEqual,Between,getSignature,
METHOD_0,METHOD_1,METHOD_2,

v7,Between,b1,b2,
IDENT_0,IDENT_1,IDENT_2,IDENT_3,


































