cacheDisabling,ExtractedTextCache,getCacheStats,
METHOD_0,METHOD_1,METHOD_2,

ExtractedTextCache,nodeDocumentsCacheStats,prevDocumentsCacheStats,
IDENT_0,IDENT_1,IDENT_2,


































