testHasValue1,setLocale,ValueContext,getHasValue,ofNullable,
METHOD_0,METHOD_1,METHOD_2,METHOD_3,METHOD_4,

ValueContext,fromComponent,textField,hasValue,
IDENT_0,IDENT_1,IDENT_2,IDENT_3,


































