load_bound_fieldValueIsUpdated,bind,setFirstName,readBean,getFirstSelectedOption,
METHOD_0,METHOD_1,METHOD_2,METHOD_3,METHOD_4,

binder,nameField,getFirstName,setFirstName,
IDENT_0,IDENT_1,IDENT_2,IDENT_3,


































