testCreationFromNull,putAll,ConfigurationParameters,
METHOD_0,METHOD_1,METHOD_2,

ConfigurationParameters,cp,EMPTY,
IDENT_0,IDENT_1,IDENT_2,


































