testGetTileAt_withXExceedingGridWidth,getWidth,getTileAt,
METHOD_0,METHOD_1,METHOD_2,

gridWidth,StaticGrid,TILE_GRID,valkryst,VTerminal,Tile,character,tiles,
IDENT_0,IDENT_1,IDENT_2,IDENT_3,IDENT_4,IDENT_5,IDENT_6,IDENT_7,


































