testTimeout,check,getCallbackAsync,timeout,onSuccess,onFailure,
METHOD_0,METHOD_1,METHOD_2,METHOD_3,METHOD_4,METHOD_5,

callback,vbauer,caesar,AsyncCallback,caught,
IDENT_0,IDENT_1,IDENT_2,IDENT_3,IDENT_4,


































