testTimeout,getFutureAsync,timeout,
METHOD_0,METHOD_1,METHOD_2,

Future,vbauer,caesar,SimpleSync,TIMEOUT_VALUE,
IDENT_0,IDENT_1,IDENT_2,IDENT_3,IDENT_4,


































