compareTo_with_buildNumber,Semver,isGreaterThan,isLowerThan,
METHOD_0,METHOD_1,METHOD_2,METHOD_3,

vdurmont,semver4j,Semver,v3,
IDENT_0,IDENT_1,IDENT_2,IDENT_3,







"1.24.1-rc3+903423.234","1.24.1-rc3+903423.235",
STRING_0,STRING_1,

























