testEncodeUri1,encodeUri,encodeOrDecode,
METHOD_0,METHOD_1,METHOD_2,

uriString,feilong,slf4j,Slf4jUtil,URIUtil,CharsetType,UTF8,charsetType,
IDENT_0,IDENT_1,IDENT_2,IDENT_3,IDENT_4,IDENT_5,IDENT_6,IDENT_7,







"mailto:venus@163.com?subject={}&body={}","<br>",
STRING_0,STRING_1,

























