testGenerateInterfaceWithDefaultMethod,GeneratorHelper,generateClass,getMethods,
METHOD_0,METHOD_1,METHOD_2,METHOD_3,

codegen,ClassModel,InterfaceWithDefaultMethod,
IDENT_0,IDENT_1,IDENT_2,


































