group4,getMatcher,emptyMap,groupCount,newLinkedHashMap,isTraceEnabled,
METHOD_0,METHOD_1,METHOD_2,METHOD_3,METHOD_4,METHOD_5,

regexPattern,feilong,RegexUtil,CharSequence,Matcher,groupCount,MapUtil,groupValue,
IDENT_0,IDENT_1,IDENT_2,IDENT_3,IDENT_4,IDENT_5,IDENT_6,IDENT_7,







"s=(\\d*)","ss=123456789","[not matches] ,\n\tregexPattern:[{}] \n\tinput:[{}]","matcher group[{}],start-end:[{}-{}],groupValue:[{}]","regexPattern:[{}],input:[{}],groupMap:{}",
STRING_0,STRING_1,STRING_2,STRING_3,STRING_4,

























