testMethodInvocationWithoutArgs,Mirror,on,withoutArgs,getArgNum,
METHOD_0,METHOD_1,METHOD_2,METHOD_3,METHOD_4,

vidageek,mirror,dsl,fixtures,MethodFixture,argNum,
IDENT_0,IDENT_1,IDENT_2,IDENT_3,IDENT_4,IDENT_5,







"methodWithNoArgs",
STRING_0,

























