testClosed,InspectableFileCachedInputStream,wrap,isOpen,
METHOD_0,METHOD_1,METHOD_2,METHOD_3,

unimi,dsi,fastutil,InspectableFileCachedInputStream,icis,
IDENT_0,IDENT_1,IDENT_2,IDENT_3,IDENT_4,


































