testLoadFromModel,loadFromModel,setProject,setHours,getTimesheetDayEntry,getProject,getHours,
METHOD_0,METHOD_1,METHOD_2,METHOD_3,METHOD_4,METHOD_5,METHOD_6,

presenterImpl,oldProject,
IDENT_0,IDENT_1,







"01:00","00:00",
STRING_0,STRING_1,

























