testRowAccess_3x3,setRow,getRow,arraycopy,BasicVector,
METHOD_0,METHOD_1,METHOD_2,METHOD_3,METHOD_4,

la4j,matrix,Matrix,MatrixTest,columns,self,vector,dense,
IDENT_0,IDENT_1,IDENT_2,IDENT_3,IDENT_4,IDENT_5,IDENT_6,IDENT_7,










5.0,9.0,
FLOAT_0,FLOAT_1,






















