testCreateFromEmptyList,CompositePattern,
METHOD_0,METHOD_1,

restriction,RestrictionPattern,rp,CompositePattern,patterns,EMPTY,
IDENT_0,IDENT_1,IDENT_2,IDENT_3,IDENT_4,IDENT_5,


































