TestGetIdWithoutPrefix,
METHOD_0,

inID,admiral,kubernetes,KubernetesContainerStateMapper,
IDENT_0,IDENT_1,IDENT_2,IDENT_3,







"some-random-id","docker://",
STRING_0,STRING_1,

























