testGetTenantsNull,getTenants,
METHOD_0,METHOD_1,

tenants,admiral,QueryUtil,tenantLinks,tl,TENANT_IDENTIFIER,GROUP_IDENTIFIER,Collectors,
IDENT_0,IDENT_1,IDENT_2,IDENT_3,IDENT_4,IDENT_5,IDENT_6,IDENT_7,


































