TestInvalidParseMem,parseMem,parseLong,endsWith,
METHOD_0,METHOD_1,METHOD_2,METHOD_3,

admiral,kubernetes,KubernetesContainerStateMapper,mult,mag,magnitude,NumberFormatException,ignored,
IDENT_0,IDENT_1,IDENT_2,IDENT_3,IDENT_4,IDENT_5,IDENT_6,IDENT_7,

1024L,1000L,
INT_0,INT_1,




"4PiP","[KMGTP]i?","i",
STRING_0,STRING_1,STRING_2,




*=,
OP_0,



















