testConvertFromJsonToYaml,fromJsonToYaml,objectMapper,readTree,writeValueAsString,
METHOD_0,METHOD_1,METHOD_2,METHOD_3,METHOD_4,

jsonInput,expectedYamlOutput,actualYamlOutput,admiral,YamlMapper,JsonNode,jsonNode,
IDENT_0,IDENT_1,IDENT_2,IDENT_3,IDENT_4,IDENT_5,IDENT_6,







"{\"person\":{\"name\":\"test-name\",\"age\":14}}","---\n","person:\n"," name: \"test-name\"\n"," age: 14\n",
STRING_0,STRING_1,STRING_2,STRING_3,STRING_4,

























