testGetEveryone2,PrincipalManagerImpl,TestPrincipalProvider,getEveryone,
METHOD_0,METHOD_1,METHOD_2,METHOD_3,

Principal,principal,EveryonePrincipal,
IDENT_0,IDENT_1,IDENT_2,


































