testIntArrayZero,getMissingIntArray,checkContents,sizeInRows,
METHOD_0,METHOD_1,METHOD_2,METHOD_3,

hillview,columns,IntArrayColumn,col,IntArrayGenerator,
IDENT_0,IDENT_1,IDENT_2,IDENT_3,IDENT_4,







"X",
STRING_0,

























