testParseZonedDateTime,setTimeZone,getTimeZone,ofInstant,toInstant,fromJson,getJsonMapperFor,
METHOD_0,METHOD_1,METHOD_2,METHOD_3,METHOD_4,METHOD_5,METHOD_6,

cal,TimeZone,MILLISECOND,ZoneId,zid,ZonedDateTime,xenon,GsonSerializers,
IDENT_0,IDENT_1,IDENT_2,IDENT_3,IDENT_4,IDENT_5,IDENT_6,IDENT_7,

2013,30,23,38,27,85,
INT_0,INT_1,INT_2,INT_3,INT_4,INT_5,




"Australia/Sydney","\"2013-05-30T23:38:27.085+10:00[Australia/Sydney]\"",
STRING_0,STRING_1,

























