testAbsoluteUri,keySet,booleanValue,isAbsoluteUri,getScheme,
METHOD_0,METHOD_1,METHOD_2,METHOD_3,METHOD_4,

thinapp,AfUtilsTest,isAbsTestCases,AfUtil,uriString,URISyntaxException,
IDENT_0,IDENT_1,IDENT_2,IDENT_3,IDENT_4,IDENT_5,







"isAbsolute(",") = ",
STRING_0,STRING_1,

























