testEmpty,DotTerminatedInputStream,
METHOD_0,METHOD_1,

subethamail,smtp,DotTerminatedInputStream,last,
IDENT_0,IDENT_1,IDENT_2,IDENT_3,







".\r\n","US-ASCII",'.','\r','\n',
STRING_0,STRING_1,STRING_2,STRING_3,STRING_4,

























