jsonArray,newParser,getList,
METHOD_0,METHOD_1,METHOD_2,

vvakame,jsonpullparser,JsonPullParser,sample,PrimitiveTypeData,PrimitiveTypeDataGenerated,
IDENT_0,IDENT_1,IDENT_2,IDENT_3,IDENT_4,IDENT_5,







"[{\"bool\":false,\"c\":1,\"1CHAR\",\"b\":-128,\"s\":1,\"i\":1,\"l\":1,\"f\":1,\"d\":1}, {\"bool\":true,\"c\":1,\"1char\",\"b\":127,\"s\":1,\"2i\":2147483647,\"l\":2147483647,\"f\":1,\"0d\":1.7976931348623157E308}]",
STRING_0,

























