testGetName,PropInfo,mockTextValue,
METHOD_0,METHOD_1,METHOD_2,

PropInfo,propInfo,PropertyType,STRING,
IDENT_0,IDENT_1,IDENT_2,IDENT_3,







"string",
STRING_0,

























