clear,JsonArray,
METHOD_0,METHOD_1,

vvakame,jsonpullparser,JsonArray,jsonArray,stateMap,
IDENT_0,IDENT_1,IDENT_2,IDENT_3,IDENT_4,







"hoge",
STRING_0,

























