testPoolingDimension,setPoolingDimensions,getPoolingDimensions,
METHOD_0,METHOD_1,METHOD_2,

dim,wrapper,
IDENT_0,IDENT_1,

25,
INT_0,































