testAllocNew,allocNew,getLastAllocatedCluster,
METHOD_0,METHOD_1,METHOD_2,

fat,lastAllocatedCluster,
IDENT_0,IDENT_1,







"allocNew",
STRING_0,

























