testWriteData,allocate,writeData,rewind,readData,SuperFloppyFormatter,
METHOD_0,METHOD_1,METHOD_2,METHOD_3,METHOD_4,METHOD_5,

chunkSize,writes,waldheinz,BlockDevice,fat,dev,
IDENT_0,IDENT_1,IDENT_2,IDENT_3,IDENT_4,IDENT_5,

123,
INT_0,




"writeData",
STRING_0,




%,
OP_0,



















