testCreateSessionOptions,assistantId,newBuilder,
METHOD_0,METHOD_1,METHOD_2,

watson,assistant,CreateSessionOptions,createSessionOptions,AssistantTest,ASSISTANT_ID,
IDENT_0,IDENT_1,IDENT_2,IDENT_3,IDENT_4,IDENT_5,


































