readBytesFromFile,readFile,HTTPParser,
METHOD_0,METHOD_1,METHOD_2,

wayfair,wiff,HTTPParser,prefix,suffix,
IDENT_0,IDENT_1,IDENT_2,IDENT_3,IDENT_4,







"./src/test/resources/http_gzip.txt","Could not open resource: ","./src/test/resources/http_gzip_json.txt",
STRING_0,STRING_1,STRING_2,

























