testHas2,has,hasRegex,hasNormal,
METHOD_0,METHOD_1,METHOD_2,METHOD_3,

perm,perms,useRegex,alpenblock,bungeeperms,PermissionsResolver,
IDENT_0,IDENT_1,IDENT_2,IDENT_3,IDENT_4,IDENT_5,







"test.test1.test2","-test.test1.test2",
STRING_0,STRING_1,

























