testAdd,ObservedArmPerformance,
METHOD_0,METHOD_1,

wealthfront,thompsonsampling,ObservedArmPerformance,a1,a2,successes,failures,
IDENT_0,IDENT_1,IDENT_2,IDENT_3,IDENT_4,IDENT_5,IDENT_6,


































