createConfiguration,FreeMarkerResourcesFactory,
METHOD_0,METHOD_1,

webpagebytes,cms,FreeMarkerResourcesFactory,freemarker,
IDENT_0,IDENT_1,IDENT_2,IDENT_3,


































