list_oneline,CollectionBuilder,setOneLine,
METHOD_0,METHOD_1,METHOD_2,

citrus,ToStringBuilder,CollectionBuilder,
IDENT_0,IDENT_1,IDENT_2,







"111","444","666","[111, 444, 666]","JspEngine[",
STRING_0,STRING_1,STRING_2,STRING_3,STRING_4,

























