test_matchSubUrls_ok_noparams,matchSubUrls,
METHOD_0,METHOD_1,

urlMarcher,expectParams,webpagebytes,cms,FreeMarkerTemplateObject,lastModified,externalKey,
IDENT_0,IDENT_1,IDENT_2,IDENT_3,IDENT_4,IDENT_5,IDENT_6,


































