defaultTimeoutNotSpecified,getValve,getDefaultTimeout,
METHOD_0,METHOD_1,METHOD_2,

valve,citrus,async,PerformRunnableAsyncValve,defaultTimeout,
IDENT_0,IDENT_1,IDENT_2,IDENT_3,IDENT_4,







"pipeline1",
STRING_0,

























