testAssignability11,getBeans,
METHOD_0,METHOD_1,

enterprise,inject,Bean,beanManager,TypeLiteral,weld,assignability,Animal,
IDENT_0,IDENT_1,IDENT_2,IDENT_3,IDENT_4,IDENT_5,IDENT_6,IDENT_7,


































