testObserverBridgeMethodIsIgnored,fire,Bar,
METHOD_0,METHOD_1,METHOD_2,

enterprise,Event,CharlieObserver,OBSERVATIONS,weld,bridge,ELCreationalContext,
IDENT_0,IDENT_1,IDENT_2,IDENT_3,IDENT_4,IDENT_5,IDENT_6,


































