testInjectedInterfaceTypeWhenInplementationHasFinalMethod,makeInjectedDuckSwim,swim,
METHOD_0,METHOD_1,METHOD_2,

duck,
IDENT_0,


































