shouldRepresentItselfAsAString,GUID,
METHOD_0,METHOD_1,

wesabe,guid,GUID,guid1,
IDENT_0,IDENT_1,IDENT_2,IDENT_3,







"yay",
STRING_0,

























