shouldProduceARandomGUIDOfTheRequestedLength,generateRandom,
METHOD_0,METHOD_1,

wesabe,guid,GUID,characters,
IDENT_0,IDENT_1,IDENT_2,IDENT_3,

40,
INT_0,































