testGetMessages,getMessages,
METHOD_0,METHOD_1,

whispir,WhispirResponse,whispirSDK,statusCode,
IDENT_0,IDENT_1,IDENT_2,IDENT_3,


































