sinter,sadd,
METHOD_0,METHOD_1,

lambdaworks,
IDENT_0,







"key1","c","d","key2","key3","e",
STRING_0,STRING_1,STRING_2,STRING_3,STRING_4,STRING_5,

























