isAnyPatchInstalled,getHistory,
METHOD_0,METHOD_1,

extras,creaper,patching,PatchingOperations,PatchHistoryEntry,history,patchingOps,
IDENT_0,IDENT_1,IDENT_2,IDENT_3,IDENT_4,IDENT_5,IDENT_6,


































