testUnboundPort,getLocalHost,getNextAvailable,
METHOD_0,METHOD_1,METHOD_2,

InetAddress,addr,portA,AvailablePortFinder,portB,UnknownHostException,fromPort,
IDENT_0,IDENT_1,IDENT_2,IDENT_3,IDENT_4,IDENT_5,IDENT_6,


































