testEncodeBitString,DEREncoder,encodeBitString,getEncoded,clone,
METHOD_0,METHOD_1,METHOD_2,METHOD_3,METHOD_4,

asn1,DEREncoder,encoder,encoded,
IDENT_0,IDENT_1,IDENT_2,IDENT_3,

110,93,64,
INT_0,INT_1,INT_2,































