returnEmptyListIfNoMatchesFound,createModules,complete,
METHOD_0,METHOD_1,METHOD_2,

completion,modules,ModuleNameTabCompleterTestCase,cmdCompleter,candidates,
IDENT_0,IDENT_1,IDENT_2,IDENT_3,IDENT_4,







"com",
STRING_0,

























