testCanRemoveFormatter,createRemoveHandlerReferenceOperation,executeForResult,
METHOD_0,METHOD_1,METHOD_2,

logDir,dmr,ModelNode,
IDENT_0,IDENT_1,IDENT_2,







"test-file.log","test-file",
STRING_0,STRING_1,

























