testStopEmbeddedServer,validateServerConnectivity,sendLine,isConnected,
METHOD_0,METHOD_1,METHOD_2,METHOD_3,










"stop-embedded-host-controller",
STRING_0,

























