removeBean,getBeans,decrementUsage,
METHOD_0,METHOD_1,METHOD_2,

clustering,marshalling,MarshalledValue,MarshallingContext,I,
IDENT_0,IDENT_1,IDENT_2,IDENT_3,IDENT_4,







"id",
STRING_0,

























