test001,getStream,autodetect,
METHOD_0,METHOD_1,METHOD_2,

kapott,hbci,sepa,PainVersion,files,PAIN_001_001_02,PAIN_001_002_02,PAIN_001_002_03,PAIN_001_003_03,PAIN_001_001_03,
IDENT_0,IDENT_1,IDENT_2,IDENT_3,IDENT_4,IDENT_5,IDENT_6,IDENT_7,IDENT_8,IDENT_9,







"sepa/test-pain-parse-00100102.xml","sepa/test-pain-parse-00100202.xml","sepa/test-pain-parse-00100203.xml","sepa/test-pain-parse-00100303.xml","sepa/test-pain-parse-00100103.xml",
STRING_0,STRING_1,STRING_2,STRING_3,STRING_4,

























