testOverload5,
METHOD_0,

inria,corese,Graph,QueryProcess,kgram,Mappings,
IDENT_0,IDENT_1,IDENT_2,IDENT_3,IDENT_4,IDENT_5,







"insert data { ","if (contains(?a, 'kg'), 1000 * us:value(?a), us:value(?a))","us:t2 us:length '1000 m'^^us:length .","graph ?g { ?x ?p ?v . ?y ?p ?w filter (?v = ?w) }","@type dt:error ","us:convert(?a) = us:convert(?b)","if (contains(?a, 'km'), 1000 * us:value(?a), us:value(?a))","function us:convertw(?a) {","function us:value(?a) {","xsd:integer(strbefore(?a, ' '))",
STRING_0,STRING_1,STRING_2,STRING_3,STRING_4,STRING_5,STRING_6,STRING_7,STRING_8,STRING_9,

























