testMap2,eval,
METHOD_0,METHOD_1,

inria,corese,QueryProcess,sparql,IDatatype,dt,
IDENT_0,IDENT_1,IDENT_2,IDENT_3,IDENT_4,IDENT_5,







"function xt:main() {","let (?m = xt:map()) {","xt:set(?m, 1, 1) ;","xt:set(?m, 01, 01) ;","xt:set(?m, 'test', 'test') ;","xt:set(?m, 1.0e0, 1.0e0) ;","xt:set(?m, '1'^^xsd:int, '1'^^xsd:int) ;","xt:set(?m, true, true) ;","xt:set(?m, st:test, st:test) ;","return (?m)",
STRING_0,STRING_1,STRING_2,STRING_3,STRING_4,STRING_5,STRING_6,STRING_7,STRING_8,STRING_9,

























