testUnion2,eval,getPointerObject,getMappings,
METHOD_0,METHOD_1,METHOD_2,METHOD_3,

inria,corese,Graph,QueryProcess,sparql,IDatatype,dt,kgram,Mappings,
IDENT_0,IDENT_1,IDENT_2,IDENT_3,IDENT_4,IDENT_5,IDENT_6,IDENT_7,IDENT_8,







"us:test()","}","function us:test(){","let (?g = us:union(),","?m = select * where { graph ?g {?x foaf:knows+ ?y}})","{ ?m }","function us:union(){","let (","?g1 = construct {us:John foaf:knows us:Jim} where {},","xt:union(?g1, ?g2)",
STRING_0,STRING_1,STRING_2,STRING_3,STRING_4,STRING_5,STRING_6,STRING_7,STRING_8,STRING_9,

























