testUnnestGraph,
METHOD_0,

inria,corese,Graph,GraphStore,QueryProcess,kgram,Mappings,
IDENT_0,IDENT_1,IDENT_2,IDENT_3,IDENT_4,IDENT_5,IDENT_6,







"prefix ex: <htp://example.org/>","select ?s ?p ?o where {","bind (us:test() as ?g)","http://www.inria.fr/acacia/comma#","graph ?g {?s ?p ?o}","}","function us:test(){","let (?g = construct { us:John rdfs:label 'John', 'Johnny' } where {})","{?g}",
STRING_0,STRING_1,STRING_2,STRING_3,STRING_4,STRING_5,STRING_6,STRING_7,STRING_8,

























