testCustomAgg,intValue,
METHOD_0,METHOD_1,

inria,corese,Graph,QueryProcess,kgram,Mappings,sparql,IDatatype,dt,lvalue,
IDENT_0,IDENT_1,IDENT_2,IDENT_3,IDENT_4,IDENT_5,IDENT_6,IDENT_7,IDENT_8,IDENT_9,







" xt:get(?l, xsd:integer((xt:size(?l) - 1) / 2))","[] rdf:value 4, 5, 6, 7","}","where {"," ?x rdf:value ?v ","function us:mediane(?list){"," let (?l = xt:sort(?list)){"," }","?res",
STRING_0,STRING_1,STRING_2,STRING_3,STRING_4,STRING_5,STRING_6,STRING_7,STRING_8,

























