testDescr,createGraph,getAST,getConstruct,
METHOD_0,METHOD_1,METHOD_2,METHOD_3,

inria,corese,Graph,QueryProcess,kgram,Mappings,sparql,triple,ASTQuery,EngineException,construct,
IDENT_0,IDENT_1,IDENT_2,IDENT_3,IDENT_4,IDENT_5,IDENT_6,IDENT_7,IDENT_8,IDENT_9,IDENT_10,







"prefix ex: <http://test/> ","prefix foaf: <http://foaf/> ","describe ?z where {","?x ?p ?y filter exists { ?x ?p ?z}","}",
STRING_0,STRING_1,STRING_2,STRING_3,STRING_4,

























