testCustom,createGraph,eval,intValue,
METHOD_0,METHOD_1,METHOD_2,METHOD_3,

inria,corese,Graph,QueryProcess,sparql,IDatatype,dt,lvalue,
IDENT_0,IDENT_1,IDENT_2,IDENT_3,IDENT_4,IDENT_5,IDENT_6,IDENT_7,







"function xt:main(){","cs:test(10) ","}",
STRING_0,STRING_1,STRING_2,

























