testfocus,intValue,
METHOD_0,METHOD_1,

inria,corese,Graph,QueryProcess,kgram,Mappings,sparql,IDatatype,dt,lvalue,
IDENT_0,IDENT_1,IDENT_2,IDENT_3,IDENT_4,IDENT_5,IDENT_6,IDENT_7,IDENT_8,IDENT_9,







"select (us:foo() as ?f) where {","}","function us:foo() {","let (?g = construct {us:John rdfs:label 'John'} where {}) {","xt:focus(?g, us:bar())","function us:bar() {","let (select (count(*) as ?c) where {?x ?p ?y}) { ?c }","?f",
STRING_0,STRING_1,STRING_2,STRING_3,STRING_4,STRING_5,STRING_6,STRING_7,

























