testSparql,getPointerObject,getMappings,intValue,
METHOD_0,METHOD_1,METHOD_2,METHOD_3,

inria,corese,Graph,QueryProcess,kgram,Mappings,sparql,IDatatype,dt,sum,lvalue,
IDENT_0,IDENT_1,IDENT_2,IDENT_3,IDENT_4,IDENT_5,IDENT_6,IDENT_7,IDENT_8,IDENT_9,IDENT_10,







"select (kg:sparql('select * (sum(?i) as ?sum) where { values ?i { unnest(xt:iota(5))} }') as ?res) ","where {}","?res","?sum",
STRING_0,STRING_1,STRING_2,STRING_3,

























