testArray,
METHOD_0,

expectedJavascript,generatedJavascript,odlabs,wiquery,JsUtils,JsUtilsTestCase,
IDENT_0,IDENT_1,IDENT_2,IDENT_3,IDENT_4,IDENT_5,







"['a', 'b', 'c']","'a'","'b'","'c'",
STRING_0,STRING_1,STRING_2,STRING_3,

























