parseShouldSupportPartialYearsFromLastCentury,getDate,
METHOD_0,METHOD_1,

james,mime4j,DateTimeField,field1,LenientDateTimeFieldTest,field2,
IDENT_0,IDENT_1,IDENT_2,IDENT_3,IDENT_4,IDENT_5,







"Date: 16 Jul 99 17:12:33 +0200","Date: 16 Jul 1999 17:12:33 +0200",
STRING_0,STRING_1,

























