toStringForNullValue,LhsValue,createMapForNullRepresentation,
METHOD_0,METHOD_1,METHOD_2,

objectstyle,wolips,ruleeditor,_bindingName,_bindingMember,_parent,
IDENT_0,IDENT_1,IDENT_2,IDENT_3,IDENT_4,IDENT_5,







"[BindingKey: bindingName = ","; bindingMember = ","; parent = ","null",
STRING_0,STRING_1,STRING_2,STRING_3,

























