test_param_string_positional_injection_03,ParameterizedSparqlString,setLiteral,asUpdate,getOperations,keySet,
METHOD_0,METHOD_1,METHOD_2,METHOD_3,METHOD_4,METHOD_5,

ParameterizedSparqlString,pss,UpdateRequest,updates,
IDENT_0,IDENT_1,IDENT_2,IDENT_3,







"PREFIX : <http://example/>\nINSERT DATA { <s> <p> ? . }","hello\" } ; DROP ALL ; INSERT DATA { <s> <p> <goodbye>",
STRING_0,STRING_1,

























