testGenerator_Default2,columnWidth,generateDiffRows,print,
METHOD_0,METHOD_1,METHOD_2,METHOD_3,

second,difflib,DiffRowGenerator,DiffRow,rows,lines,
IDENT_0,IDENT_1,IDENT_2,IDENT_3,IDENT_4,IDENT_5,







"anything \n \nother","anything\n\nother",
STRING_0,STRING_1,

























