testCreateIteratorTriples_01,createIteratorTriples,
METHOD_0,METHOD_1,

Triple,riot,RDFDataMgr,StandardCharsets,RDFLanguages,NTRIPLES,has,closed,
IDENT_0,IDENT_1,IDENT_2,IDENT_3,IDENT_4,IDENT_5,IDENT_6,IDENT_7,







"http://example/",
STRING_0,

























