test_streamed_quads,CollectorStreamQuads,writeQuads,getCollected,
METHOD_0,METHOD_1,METHOD_2,METHOD_3,

riot,CollectorStreamQuads,sparql,Quad,triples,
IDENT_0,IDENT_1,IDENT_2,IDENT_3,IDENT_4,


































