testLegalClosedPolygon,polygon,point,toShape,getSpatial4jShape,getSpatialContext,
METHOD_0,METHOD_1,METHOD_2,METHOD_3,METHOD_4,METHOD_5,

openspaces,spatial,shapes,Polygon,polygonWithCloseRing,ShapeFactory,spatial4j,shape,Shape,spatial4jPolygon,_handler,Spatial4jShapeProvider,_luceneConfiguration,
IDENT_0,IDENT_1,IDENT_2,IDENT_3,IDENT_4,IDENT_5,IDENT_6,IDENT_7,IDENT_8,IDENT_9,IDENT_10,IDENT_11,IDENT_12,







"Unsupported shape [",
STRING_0,

75.05722045898438,41.14039880964587,73.30490112304686,41.15797827873605,73.64822387695311,40.447992135544304,
FLOAT_0,FLOAT_1,FLOAT_2,FLOAT_3,FLOAT_4,FLOAT_5,






















