testReuseJedisWhenPipelineIsEmpty,pipelined,sendCommand,
METHOD_0,METHOD_1,METHOD_2,

clients,jedis,Pipeline,GET,
IDENT_0,IDENT_1,IDENT_2,IDENT_3,







"3",
STRING_0,

























