bitposWithNoMatchingBitExist,setbit,bitpos,BitPosParams,
METHOD_0,METHOD_1,METHOD_2,METHOD_3,

foo,jedis,idx,clients,
IDENT_0,IDENT_1,IDENT_2,IDENT_3,


































