publishAndConsume,Producer,Jedis,Consumer,publish,consume,
METHOD_0,METHOD_1,METHOD_2,METHOD_3,METHOD_4,METHOD_5,

rmq,Producer,clients,jedis,Consumer,
IDENT_0,IDENT_1,IDENT_2,IDENT_3,IDENT_4,







"localhost","a subscriber","hello world!",
STRING_0,STRING_1,STRING_2,

























