testGetDouble,addDouble,getDouble,convertToDouble,
METHOD_0,METHOD_1,METHOD_2,METHOD_3,

CharSequence,valueConverter,
IDENT_0,IDENT_1,







"header",
STRING_0,

























