direct_3t,
METHOD_0,

sparql,Binding,TestSpecialGraphNames,Mode,TRIPLES,rows,
IDENT_0,IDENT_1,IDENT_2,IDENT_3,IDENT_4,IDENT_5,







"(graph <g1> (bgp (<s1> ?p ?o)))",
STRING_0,

























