filter_notexists_1,
METHOD_0,

sparql,Binding,TestSpecialGraphNames,Mode,TRIPLES,rows,
IDENT_0,IDENT_1,IDENT_2,IDENT_3,IDENT_4,IDENT_5,







"(filter (notexists (bgp (?s <p> <o>))) (bgp (?s ?p ?o)))",
STRING_0,

























