js_1,eval,createTest,booleanEffectiveValue,
METHOD_0,METHOD_1,METHOD_2,METHOD_3,

sparql,NodeValue,nv,Expr,ExprUtils,LibTestExpr,nodevalue,XSDFuncOp,
IDENT_0,IDENT_1,IDENT_2,IDENT_3,IDENT_4,IDENT_5,IDENT_6,IDENT_7,







"identity",
STRING_0,

























