testCreateNodeValueSortKey,NodeValueSortKey,isSortKey,
METHOD_0,METHOD_1,METHOD_2,

sparql,nodevalue,NodeValueSortKey,nv,TRUE,
IDENT_0,IDENT_1,IDENT_2,IDENT_3,IDENT_4,


































