testCreateNodeValueSortKeyWithNode,NodeValueSortKey,getNode,
METHOD_0,METHOD_1,METHOD_2,

ANY,sparql,nodevalue,NodeValueSortKey,nv,m_node,
IDENT_0,IDENT_1,IDENT_2,IDENT_3,IDENT_4,IDENT_5,


































