getMethodWhenNoMatchingMethod,StringReader,
METHOD_0,METHOD_1,

rev,
IDENT_0,







"template","$var.notexisting()",
STRING_0,STRING_1,

























