parseWhenPrepareErrorsState,
METHOD_0,

MailState,PREPARE_SUCCESS,PREPARE_ERROR,SEND_SUCCESS,SEND_ERROR,SEND_FATAL_ERROR,
IDENT_0,IDENT_1,IDENT_2,IDENT_3,IDENT_4,IDENT_5,







"prepare_error","READY","SENT","FAILED","Invalid mail state [%s]",
STRING_0,STRING_1,STRING_2,STRING_3,STRING_4,

























