take_02,take,checkRead,getBaseItem,
METHOD_0,METHOD_1,METHOD_2,METHOD_3,

data2,Iter,holder,
IDENT_0,IDENT_1,IDENT_2,







"A","B","CC",
STRING_0,STRING_1,STRING_2,

























