parseWithEmptyContent,getComponentUnderTest,StringReader,getChildren,
METHOD_0,METHOD_1,METHOD_2,METHOD_3,

rendering,XDOM,xdom,mocker,childrenBlocks,
IDENT_0,IDENT_1,IDENT_2,IDENT_3,IDENT_4,


































