testWhenException,setDocument,getErrors,clear,
METHOD_0,METHOD_1,METHOD_2,METHOD_3,

exceptionCaught,html5Document,errorHandler,
IDENT_0,IDENT_1,IDENT_2,


































