testFindAbsoluteURLsMaxURLs,findAbsoluteURLs,
METHOD_0,METHOD_1,

detectedURLs,yacy,ContentScraper,elt,
IDENT_0,IDENT_1,IDENT_2,IDENT_3,







"Some test URLS : http://yacy.net - http://forum.yacy.de - https://en.wikipedia.org",
STRING_0,

























