testIsLocal,keySet,MultiProtocolURL,isLocal,ArrayIndexOutOfBoundsException,
METHOD_0,METHOD_1,METHOD_2,METHOD_3,METHOD_4,

LinkedHashMap,testurls,TRUE,FALSE,u,yacy,cora,MultiProtocolURL,elt,
IDENT_0,IDENT_1,IDENT_2,IDENT_3,IDENT_4,IDENT_5,IDENT_6,IDENT_7,IDENT_8,







"http://[fc00:0:0:0:0:0:0:1]/index.html","http://[::1]:8090/index.html","http://fdedit.com","http://fe8edit.com","http://[3ffe:2a00:100:7031::1]","http://[1080::8:800:200C:417A]/foo","http://[::192.9.5.5]/ipng","http://[::FFFF:129.144.52.38]:80/index.html","http://[2010:836B:4179::836B:4179]","testIsLocal: ",
STRING_0,STRING_1,STRING_2,STRING_3,STRING_4,STRING_5,STRING_6,STRING_7,STRING_8,STRING_9,

























