test3,getWithMultKey,
METHOD_0,METHOD_1,

cn,xiaowenjie,retrofitdemo,ResultBean,get3,demo,
IDENT_0,IDENT_1,IDENT_2,IDENT_3,IDENT_4,IDENT_5,







"param111","param222",
STRING_0,STRING_1,

























