testSizesToString,IconEntry,DigestURL,sizesToString,
METHOD_0,METHOD_1,METHOD_2,METHOD_3,

sizes,icon,yacy,cora,rels,sizesStr,elt,
IDENT_0,IDENT_1,IDENT_2,IDENT_3,IDENT_4,IDENT_5,IDENT_6,







"http://yacy.net",
STRING_0,

























