testRealModAssign,executeWithDefaultScope,getRealValue,getVariable,
METHOD_0,METHOD_1,METHOD_2,METHOD_3,










"realVar=42.0f","realVar%=1.0f","realVar",
STRING_0,STRING_1,STRING_2,

























