testIntModulo,executeWithDefaultScope,getIntValue,getVariable,
METHOD_0,METHOD_1,METHOD_2,METHOD_3,










"intVar = 42 % 2","intVar",
STRING_0,STRING_1,

























