testFormatDuration,formatDuration,
METHOD_0,METHOD_1,

moviejukebox,DateTimeToolsTest,duration,DateTimeTools,returnString,nbHours,nbMinutes,
IDENT_0,IDENT_1,IDENT_2,IDENT_3,IDENT_4,IDENT_5,IDENT_6,

60,3600,
INT_0,INT_1,




"formatDuration","2h 12m","h","m","Formatted duration {} to {}",
STRING_0,STRING_1,STRING_2,STRING_3,STRING_4,

























