map_slot_2,mapIdx,
METHOD_0,METHOD_1,

TupleMap,tmap,Tuple,TupleFactory,tuple1,tuple2,src,getTransform,
IDENT_0,IDENT_1,IDENT_2,IDENT_3,IDENT_4,IDENT_5,IDENT_6,IDENT_7,







"SPO","POS","S","P","O",
STRING_0,STRING_1,STRING_2,STRING_3,STRING_4,

























