getShort,nextTempFile,open,
METHOD_0,METHOD_1,METHOD_2,

snum,primitives,Shorts,channels,FileChannel,StandardOpenOption,READ,DELETE_ON_CLOSE,yandex,yoctodb,Buffer,
IDENT_0,IDENT_1,IDENT_2,IDENT_3,IDENT_4,IDENT_5,IDENT_6,IDENT_7,IDENT_8,IDENT_9,IDENT_10,

123,
INT_0,































