getShortTestWithIndex,nextTempFile,open,getShort,
METHOD_0,METHOD_1,METHOD_2,METHOD_3,

channels,FileChannel,StandardOpenOption,READ,DELETE_ON_CLOSE,yandex,yoctodb,Buffer,
IDENT_0,IDENT_1,IDENT_2,IDENT_3,IDENT_4,IDENT_5,IDENT_6,IDENT_7,

32765,
INT_0,































