theresOneTextWoLang,listStatements,checkRead,getBaseItem,
METHOD_0,METHOD_1,METHOD_2,METHOD_3,

rdf,StmtIterator,TestListStatements,Statement,lis,holder,
IDENT_0,IDENT_1,IDENT_2,IDENT_3,IDENT_4,IDENT_5,







"text",
STRING_0,

























