LinkedList,VariableLengthByteArrayIndexedList,
METHOD_0,METHOD_1,

yandex,yoctodb,UnsignedByteArray,UnsignedByteArrays,ByteArrayIndexedList,UTF8,
IDENT_0,IDENT_1,IDENT_2,IDENT_3,IDENT_4,IDENT_5,


































