segment,enableTitleWord,tokenize,
METHOD_0,METHOD_1,METHOD_2,

expectedResults,yizhiru,thulac4j,Segmenter,SegmenterTest,SENTENCES,sentence,StandardCharsets,elapsed,TOKENIZER,word,Collectors,
IDENT_0,IDENT_1,IDENT_2,IDENT_3,IDENT_4,IDENT_5,IDENT_6,IDENT_7,IDENT_8,IDENT_9,IDENT_10,IDENT_11,

18,08,13,17,14,11,09,
INT_0,INT_1,INT_2,INT_3,INT_4,INT_5,INT_6,




"  ","BP             ","C + +  c #     11 + 122 = 133     PI = 3.14159","    ","        ",
STRING_0,STRING_1,STRING_2,STRING_3,STRING_4,

1024.0F,1000.0F,
FLOAT_0,FLOAT_1,
















00,04,05,02,03,06,01,07,
OCT_0,OCT_1,OCT_2,OCT_3,OCT_4,OCT_5,OCT_6,OCT_7,




