testHrlist,hset,hrlist,combineBlocks,sendRequestToAll,
METHOD_0,METHOD_1,METHOD_2,METHOD_3,METHOD_4,

ssdbClient,startExclude,endInclude,limit,
IDENT_0,IDENT_1,IDENT_2,IDENT_3,







"h1","name_of_h1","h2","name_of_h2","h9","h0","hrlist",
STRING_0,STRING_1,STRING_2,STRING_3,STRING_4,STRING_5,STRING_6,

























