testCreatedOnProperty,AccessToken,setCreatedOn,getCreatedOn,
METHOD_0,METHOD_1,METHOD_2,METHOD_3,

jp,eisbahn,oauth2,AccessToken,createdOn,
IDENT_0,IDENT_1,IDENT_2,IDENT_3,IDENT_4,


































