listByTxGroupId,opsForHash,entries,cacheKey,
METHOD_0,METHOD_1,METHOD_2,METHOD_3,

dromara,raincat,TxTransactionItem,txTransactionItems,txManagerService,entries,redisTemplate,txGroupId,
IDENT_0,IDENT_1,IDENT_2,IDENT_3,IDENT_4,IDENT_5,IDENT_6,IDENT_7,







"872308019",
STRING_0,

























