testSeg,ReverseMinimumMatching,seg,setPartOfSpeech,isDebugEnabled,
METHOD_0,METHOD_1,METHOD_2,METHOD_3,METHOD_4,

apdplat,word,segmentation,Segmentation,Word,WordConfTools,
IDENT_0,IDENT_1,IDENT_2,IDENT_3,IDENT_4,IDENT_5,







"[]","[, , , , ]","[, , , , , ]","[, , , , , , , , ]","[, , ]","=",
STRING_0,STRING_1,STRING_2,STRING_3,STRING_4,STRING_5,

























