testCreateEphemeral1,reconnect,retryUntilConnected,getZooKeeper,
METHOD_0,METHOD_1,METHOD_2,METHOD_3,

zkClient,CreateMode,EPHEMERAL,Callable,api6,zkclient,watch,
IDENT_0,IDENT_1,IDENT_2,IDENT_3,IDENT_4,IDENT_5,IDENT_6,







"/test12","123",
STRING_0,STRING_1,

























