setAndGetPhotoTest,print,getBuilder,setPhoto,getPhoto,isNotNull,
METHOD_0,METHOD_1,METHOD_2,METHOD_3,METHOD_4,METHOD_5,

ua,alexcoffee,category,Category,photo,Photo,photoBuilder,
IDENT_0,IDENT_1,IDENT_2,IDENT_3,IDENT_4,IDENT_5,IDENT_6,







"-> setAndGetPhoto() - ","OK!",
STRING_0,STRING_1,

























