toStringTest,print,getBuilder,setEmail,setPhone,setRole,
METHOD_0,METHOD_1,METHOD_2,METHOD_3,METHOD_4,METHOD_5,

email,phone,ua,alexcoffee,UserRole,ADMIN,role,
IDENT_0,IDENT_1,IDENT_2,IDENT_3,IDENT_4,IDENT_5,IDENT_6,







"-> toString() - ","Name","Email","Phone","Name: ","\nRole: ","\nEmail: ","\nPhone: ","OK!",
STRING_0,STRING_1,STRING_2,STRING_3,STRING_4,STRING_5,STRING_6,STRING_7,STRING_8,

























