testBinarySearch,BinarySearch,Random,nextInt,sort,binarySearch,
METHOD_0,METHOD_1,METHOD_2,METHOD_3,METHOD_4,METHOD_5,

basic,BinarySearch,bs,Random,rnd,cases,idx,A,mid,
IDENT_0,IDENT_1,IDENT_2,IDENT_3,IDENT_4,IDENT_5,IDENT_6,IDENT_7,IDENT_8,

10000,
INT_0,































