testBwt,BurrowsWheelerTransform,bwt,setLength,sort,
METHOD_0,METHOD_1,METHOD_2,METHOD_3,METHOD_4,

basic,BurrowsWheelerTransform,bwt,eof,s1,r1,strList,
IDENT_0,IDENT_1,IDENT_2,IDENT_3,IDENT_4,IDENT_5,IDENT_6,







"#","google","elo#gog",
STRING_0,STRING_1,STRING_2,

























