equalsReflexiveTest,print,Product,
METHOD_0,METHOD_1,METHOD_2,

ua,alexcoffee,product,Product,article,price,title,
IDENT_0,IDENT_1,IDENT_2,IDENT_3,IDENT_4,IDENT_5,IDENT_6,







"-> Reflexive equals - ","OK!",
STRING_0,STRING_1,

























