testToString,getDateInstance,Event,
METHOD_0,METHOD_1,METHOD_2,

DateFormat,yet,spring,Event,dateFormat,
IDENT_0,IDENT_1,IDENT_2,IDENT_3,IDENT_4,







"Event [id=",", msg=",", date=",
STRING_0,STRING_1,STRING_2,

























