shouldCompareMixedIdentifiersLexicallyInAsciiSortOrder,MetadataVersion,
METHOD_0,METHOD_1,

zafarkhaja,semver,MetadataVersion,Version,normal,preRelease,
IDENT_0,IDENT_1,IDENT_2,IDENT_3,IDENT_4,IDENT_5,







"beta","abc","111",
STRING_0,STRING_1,STRING_2,

























