shouldReturnFalseIfOtherVersionIsOfDifferentType,
METHOD_0,

zafarkhaja,semver,Version,
IDENT_0,IDENT_1,IDENT_2,







"2.3.7",
STRING_0,

























