journal_04,mem,writeJournal,entries,checkRead,getBaseItem,
METHOD_0,METHOD_1,METHOD_2,METHOD_3,METHOD_4,METHOD_5,

dboe,txn,journal,Journal,jrnl,Location,JournalEntry,COMMIT,ABORT,iter,holder,
IDENT_0,IDENT_1,IDENT_2,IDENT_3,IDENT_4,IDENT_5,IDENT_6,IDENT_7,IDENT_8,IDENT_9,IDENT_10,


































