nullCompatibilityMode,hsqldb,withMode,
METHOD_0,METHOD_1,METHOD_2,

zapodot,EmbeddedDatabaseRule,CompatibilityMode,
IDENT_0,IDENT_1,IDENT_2,


































