store_params_13,getTripleIndexes,
METHOD_0,METHOD_1,

xs,JsonObject,JSON,tdb2,setup,StoreParams,StoreParamsCodec,tripleIndexes,
IDENT_0,IDENT_1,IDENT_2,IDENT_3,IDENT_4,IDENT_5,IDENT_6,IDENT_7,







"{ \"tdb.triple_indexes\" : [ \"POS\" , \"PSO\"] } ","POS","PSO",
STRING_0,STRING_1,STRING_2,

























