testReqRouterTcpPoll,testWithPoll,printf,
METHOD_0,METHOD_1,METHOD_2,

zeromq,TooManyOpenFilesTester,Pair,pairs,idx,pair,finished,
IDENT_0,IDENT_1,IDENT_2,IDENT_3,IDENT_4,IDENT_5,IDENT_6,

10000,
INT_0,




"Test %s finished in %s millis.\n",
STRING_0,




&=,
OP_0,



















