isPresentSuccessTest,AtomicInteger,Success,ifPresent,incrementAndGet,getResult,
METHOD_0,METHOD_1,METHOD_2,METHOD_3,METHOD_4,METHOD_5,

AtomicInteger,atomicInteger,zenika,Success,success,
IDENT_0,IDENT_1,IDENT_2,IDENT_3,IDENT_4,


































