testDeleteUserRole,countRowsInTable,deleteUserRole,
METHOD_0,METHOD_1,METHOD_2,

renren,infra,xweb,userDao,nowcount,
IDENT_0,IDENT_1,IDENT_2,IDENT_3,IDENT_4,







"xweb_user_role",
STRING_0,

























