test_equals,
METHOD_0,

zhuoran,crawler4j,crawler,url1,url2,parts,part,
IDENT_0,IDENT_1,IDENT_2,IDENT_3,IDENT_4,IDENT_5,IDENT_6,







"http://book.douban.com/annotation/write?sid=19928910","sid","19928910","http","book.douban.com","annotation/write","url == null","url format error","?","\\&",'=',"://","url missing protocol: \"","\"",":/",
STRING_0,STRING_1,STRING_2,STRING_3,STRING_4,STRING_5,STRING_6,STRING_7,STRING_8,STRING_9,STRING_10,STRING_11,STRING_12,STRING_13,STRING_14,

























