forEach,click,jq,waitResponse,isZKLogAvailable,getWebDriver,findElement,
METHOD_0,METHOD_1,METHOD_2,METHOD_3,METHOD_4,METHOD_5,METHOD_6,

IntStream,WebElement,By,NoSuchElementException,
IDENT_0,IDENT_1,IDENT_2,IDENT_3,







".z-button","zk_log",
STRING_0,STRING_1,

























