trackable_input_post_close_06,generateData,SuppressWarnings,skip,
METHOD_0,METHOD_1,METHOD_2,METHOD_3,

rdf,TrackableInputStream,trackable,
IDENT_0,IDENT_1,IDENT_2,







"resource",
STRING_0,

























