click,jq,waitResponse,getZKLog,closeZKLog,getWebDriver,findElement,getAttribute,
METHOD_0,METHOD_1,METHOD_2,METHOD_3,METHOD_4,METHOD_5,METHOD_6,METHOD_7,

selectedItems,By,
IDENT_0,IDENT_1,







".z-listheader-checkable:eq(0)",".z-listheader-checkable:eq(1)","zk_log",
STRING_0,STRING_1,STRING_2,

























