insert_Doughnut_chart,jq,click,setSelection,
METHOD_0,METHOD_1,METHOD_2,METHOD_3,

widgetSize,tRow,lCol,bRow,rCol,spreadsheet,jqFactory,selector,
IDENT_0,IDENT_1,IDENT_2,IDENT_3,IDENT_4,IDENT_5,IDENT_6,IDENT_7,

11,13,
INT_0,INT_1,




".zswidget",".zstab-insertPanel",".zstbtn-otherChart .zstbtn-arrow",".zsmenuitem-doughnutChart","'",
STRING_0,STRING_1,STRING_2,STRING_3,STRING_4,

























