click,jq,waitResponse,JQuery,
METHOD_0,METHOD_1,METHOD_2,METHOD_3,

zkoss,zktest,zats,ztl,selector,
IDENT_0,IDENT_1,IDENT_2,IDENT_3,IDENT_4,







"$loadButton",".z-combobox-button",".z-comboitem",
STRING_0,STRING_1,STRING_2,

























