click,jq,waitResponse,getZKLog,getWebDriver,findElement,getAttribute,
METHOD_0,METHOD_1,METHOD_2,METHOD_3,METHOD_4,METHOD_5,METHOD_6,

By,
IDENT_0,







"@button","zk_log",
STRING_0,STRING_1,

























