testCsvWriter2,CharSeparatedValues,writeElement,
METHOD_0,METHOD_1,METHOD_2,

spf4j,csv,CharSeparatedValues,CsvWriter,csvW,wrapped,
IDENT_0,IDENT_1,IDENT_2,IDENT_3,IDENT_4,IDENT_5,







' ',
STRING_0,

























