testNoRetryPolicy2,SuppressWarnings,newBuilder,
METHOD_0,METHOD_1,METHOD_2,

spf4j,failsafe,RetryPolicy,Callable,rp,Pair,memory,symbolTable,
IDENT_0,IDENT_1,IDENT_2,IDENT_3,IDENT_4,IDENT_5,IDENT_6,IDENT_7,







"unchecked",
STRING_0,

























