testQueryAllObjects,getAll,getList,
METHOD_0,METHOD_1,METHOD_2,

zupcat,sample,allUsers,userDAO,
IDENT_0,IDENT_1,IDENT_2,IDENT_3,


































