createRandom,assertNotEquals,
METHOD_0,METHOD_1,

zsmartsystems,zigbee,ExtendedPanId,pan1,pan2,
IDENT_0,IDENT_1,IDENT_2,IDENT_3,IDENT_4,


































