eventNotified,post,ApplicationEvent,
METHOD_0,METHOD_1,METHOD_2,

eventBus,nnsoft,guice,gguava,eventbus,
IDENT_0,IDENT_1,IDENT_2,IDENT_3,IDENT_4,


































