testGetFirstNonEmpty,getFirstNonEmpty,
METHOD_0,METHOD_1,

second,third,fourth,adobe,acs,TextUtil,
IDENT_0,IDENT_1,IDENT_2,IDENT_3,IDENT_4,IDENT_5,







"third","fourth",
STRING_0,STRING_1,

























