shouldCheckGetCustomerByLoginResponse,
METHOD_0,

agoncal,sample,CustomerCRUDRestServiceIT,
IDENT_0,IDENT_1,IDENT_2,







"http://localhost:8282/customer/agoncal",
STRING_0,

























