testDeleteSubdirs,newFolder,getRoot,deleteSubdirs,
METHOD_0,METHOD_1,METHOD_2,METHOD_3,

subFolder,folder,bixly,pastevid,FileUtil,
IDENT_0,IDENT_1,IDENT_2,IDENT_3,IDENT_4,







"deleteSubdirs","folder",
STRING_0,STRING_1,

























