elementsAsSerializableList,asSerializableList,
METHOD_0,METHOD_1,

Serializable,alfresco,org_alfresco_module_rm,RMCollectionUtils,
IDENT_0,IDENT_1,IDENT_2,IDENT_3,







"one","two","three",
STRING_0,STRING_1,STRING_2,

























