connection_get_statement_02,getConnection,createStatement,isClosed,
METHOD_0,METHOD_1,METHOD_2,METHOD_3,

connections,JenaConnection,ds,
IDENT_0,IDENT_1,IDENT_2,


































