testConstructors,StringToDoubleConverter,
METHOD_0,METHOD_1,

sandia,cognition,number,StringToDoubleConverter,
IDENT_0,IDENT_1,IDENT_2,IDENT_3,


































