testEqualsForEqualTrivialPackages,instantiatePackage,
METHOD_0,METHOD_1,

packageName,aries,modelling,ExportedPackage,package1,package2,
IDENT_0,IDENT_1,IDENT_2,IDENT_3,IDENT_4,IDENT_5,







"package.name","1.0.0",
STRING_0,STRING_1,

























