forwardCompatibility,putCreditScore,
METHOD_0,METHOD_1,

email,resourcesClient,
IDENT_0,IDENT_1,

700,
INT_0,




"hal.jordan@example.com","creditScore",
STRING_0,STRING_1,

























