testHostOsInstance,HostOs,
METHOD_0,METHOD_1,

compress,archivers,arj,ArjArchiveEntry,HostOs,hostOs,
IDENT_0,IDENT_1,IDENT_2,IDENT_3,IDENT_4,IDENT_5,


































