testFindByConnectorNames,findByConnectorNames,
METHOD_0,METHOD_1,

griffin,measure,DataConnector,connectors,dcRepo,
IDENT_0,IDENT_1,IDENT_2,IDENT_3,IDENT_4,







"name1","name2",
STRING_0,STRING_1,

























