testKafkaResultExporterFactory,KafkaBindingSetExporterFactory,
METHOD_0,METHOD_1,

pcj,fluo,export,KafkaBindingSetExporterFactory,
IDENT_0,IDENT_1,IDENT_2,IDENT_3,


































