updateSchemaOfNull,updateSchemaIn,
METHOD_0,METHOD_1,

updatedValue,transforms,SetSchemaMetadata,INT32_SCHEMA,
IDENT_0,IDENT_1,IDENT_2,IDENT_3,


































