testEquals,ProtoURI,
METHOD_0,METHOD_1,

openrdf,uri1,marmotta,ostrich,uri2,
IDENT_0,IDENT_1,IDENT_2,IDENT_3,IDENT_4,







"http://apache.org/example",
STRING_0,

























