test_store_is_created_on_before_suite_event,getManager,fire,BeforeSuite,AfterSuite,
METHOD_0,METHOD_1,METHOD_2,METHOD_3,METHOD_4,

arquillian,suite,
IDENT_0,IDENT_1,


































