getNonExistentItem,getTable,getItem,
METHOD_0,METHOD_1,METHOD_2,

dynamodbv2,Table,dynamo,quickstart,TABLE_NAME,Item,HASH_KEY_NAME,RANGE_KEY_NAME,
IDENT_0,IDENT_1,IDENT_2,IDENT_3,IDENT_4,IDENT_5,IDENT_6,IDENT_7,

99,
INT_0,































