testTooLargeSize,OoaBFilter,
METHOD_0,METHOD_1,

spimedb,bloom,
IDENT_0,IDENT_1,

30,
INT_0,




"should have thrown an IllegalArgumentException","array size may not be larger than 2**31-1, but will be rounded to larger. was ",
STRING_0,STRING_1,

























