testExtraFieldsInSerializedFormat,fromJson,
METHOD_0,METHOD_1,

JSON,dynamodb,exportformat,ExportManifestEntry,deserialized,
IDENT_0,IDENT_1,IDENT_2,IDENT_3,IDENT_4,







"{\"url\":\"","\",\"mandatory\":true,\"extra\":true}",
STRING_0,STRING_1,

























