missingClosingObject,createParser,StringReader,JsonInMemoryParser,
METHOD_0,METHOD_1,METHOD_2,METHOD_3,

JsonParser,Json,JsonArray,johnzon,
IDENT_0,IDENT_1,IDENT_2,IDENT_3,







"{\"a\":5, \"d\": {\"m\":6}, \"z\":true",
STRING_0,

























