fromStringReturnsUnknown,
METHOD_0,

provisioning,ProvisioningStatus,mockit,Deencapsulation,
IDENT_0,IDENT_1,IDENT_2,IDENT_3,







"fromString","unknown",
STRING_0,STRING_1,

























