whenFlatMapEmployeeNames_thenGetNameStream,flatMap,
METHOD_0,METHOD_1,

namesNested,namesFlatStream,Collectors,
IDENT_0,IDENT_1,IDENT_2,







"Jeff","Bezos","Bill","Gates","Mark","Zuckerberg",
STRING_0,STRING_1,STRING_2,STRING_3,STRING_4,STRING_5,

























