testValueAssignment,PreferenceNode,
METHOD_0,METHOD_1,

cordova,PreferenceNode,foo,
IDENT_0,IDENT_1,IDENT_2,







"fullscreen","false","maybe",
STRING_0,STRING_1,STRING_2,

























