testEncodeFirstTransformation,
METHOD_0,

encodedString,johnzon,JsonPointerUtil,
IDENT_0,IDENT_1,IDENT_2,







"~","~0","~1",
STRING_0,STRING_1,STRING_2,

























