whenApplyDistinct_thenRemoveDuplicatesFromStream,distinct,
METHOD_0,METHOD_1,

intList,distinctIntList,Collectors,
IDENT_0,IDENT_1,IDENT_2,


































