testInit_PortletConfig,GAPortlet,
METHOD_0,METHOD_1,

portlet,PortletConfig,gatein,analyticportal,GAPortlet,
IDENT_0,IDENT_1,IDENT_2,IDENT_3,IDENT_4,







"init",
STRING_0,

























