testNotFindByUsernameAndPassword,findByUsernameAndPassword,
METHOD_0,METHOD_1,

bahadirakin,userRepository,
IDENT_0,IDENT_1,







"bhdrkn",
STRING_0,

























