testParseString,readValue,
METHOD_0,METHOD_1,

pinDataString,blynk,pojo,PinData,pinData,JsonParser,MAPPER,
IDENT_0,IDENT_1,IDENT_2,IDENT_3,IDENT_4,IDENT_5,IDENT_6,







"[{\"timestamp\" : 123, \"value\":\"100\"}]",
STRING_0,

























