adderObject,MapperBuilder,readObject,
METHOD_0,METHOD_1,METHOD_2,

johnzon,AdderTest,MyMapOfObjects,unmodifieableBackingList,
IDENT_0,IDENT_1,IDENT_2,IDENT_3,







"{\"foo\":{\"value\":\"bar\"}}",
STRING_0,

























