testGetPlaceholder,PrintfLikeIntegrityChecker,getPlaceholders,
METHOD_0,METHOD_1,METHOD_2,

box,l10n,mojito,assetintegritychecker,integritychecker,PrintfLikeIntegrityChecker,checker,placeholders,PrintfLikeIntegrityCheckerTest,
IDENT_0,IDENT_1,IDENT_2,IDENT_3,IDENT_4,IDENT_5,IDENT_6,IDENT_7,IDENT_8,







"%1$ld  %2$@   %d %1$-04d %1$04d %2$.2ld","%1$ld","%2$@","%d","%1$-04d","%1$04d","%2$.2ld","expected: {}","actual: {}",
STRING_0,STRING_1,STRING_2,STRING_3,STRING_4,STRING_5,STRING_6,STRING_7,STRING_8,

























