testToStringOfCircularObject,at,
METHOD_0,METHOD_1,

mjson,Json,asstring,
IDENT_0,IDENT_1,IDENT_2,







"x","tuple","backref",
STRING_0,STRING_1,STRING_2,

























