buildFacetJson,AggregationWaitable,toJson,
METHOD_0,METHOD_1,METHOD_2,

careerbuilder,relevancy,waitable,AggregationWaitable,limit,Deencapsulation,actualStr,
IDENT_0,IDENT_1,IDENT_2,IDENT_3,IDENT_4,IDENT_5,IDENT_6,

25,
INT_0,




"query","testfield","{\"facet\":{\"queryFacet\":{\"query\":{\"facet\":{\"fieldFacet\":{\"field\":","{\"type\":\"field\",\"field\":\"testfield\",\"limit\":","}}},\"q\":\"query\"}}}}","buildFacetJson",
STRING_0,STRING_1,STRING_2,STRING_3,STRING_4,STRING_5,

























