testPageModeEmptyRange,getSearchRanges,
METHOD_0,METHOD_1,

carrot2,MultipageSearchEngine,SearchRange,
IDENT_0,IDENT_1,IDENT_2,


































