testInit,TimeRangeConstraint,getTimeZone,getDefault,
METHOD_0,METHOD_1,METHOD_2,METHOD_3,

schedule,constraint,TimeRangeConstraint,timeRangeConstraint,TimeZone,
IDENT_0,IDENT_1,IDENT_2,IDENT_3,IDENT_4,







"16:00","17:00","PST","03:16","03:17","3:17","22:30","10:00",
STRING_0,STRING_1,STRING_2,STRING_3,STRING_4,STRING_5,STRING_6,STRING_7,

























