testCDKBasedAtomTypeConfigurator,CDKBasedAtomTypeConfigurator,
METHOD_0,METHOD_1,

CDKBasedAtomTypeConfigurator,configurator,
IDENT_0,IDENT_1,


































