toString1,TreeMap,LinkedHashMap,
METHOD_0,METHOD_1,METHOD_2,

juneau,sorted,SimpleJsonSerializer,DEFAULT,
IDENT_0,IDENT_1,IDENT_2,IDENT_3,


































