testPoint_double_double_double,Point,
METHOD_0,METHOD_1,

rebond,Point,point,
IDENT_0,IDENT_1,IDENT_2,










0.1,0.2,0.3,
FLOAT_0,FLOAT_1,FLOAT_2,






















