testWFSFilterDelegate,WfsFilterDelegate,
METHOD_0,METHOD_1,

spatial,ogc,wfs,v1_0_0,WfsFilterDelegate,featureMetacardType,WfsFilterDelegateTest,SUPPORTED_GEO,SRS_NAME,
IDENT_0,IDENT_1,IDENT_2,IDENT_3,IDENT_4,IDENT_5,IDENT_6,IDENT_7,IDENT_8,


































