testSort,RegionOperations,Feature,Region,Chromosome,getEmptyExtraFieldMap,sort,
METHOD_0,METHOD_1,METHOD_2,METHOD_3,METHOD_4,METHOD_5,METHOD_6,

fi,csc,microarray,visualisation,gbrowser,RegionOperations,tool,LinkedList,Feature,rows,sortedRows,
IDENT_0,IDENT_1,IDENT_2,IDENT_3,IDENT_4,IDENT_5,IDENT_6,IDENT_7,IDENT_8,IDENT_9,IDENT_10,

210L,600L,300L,350L,100L,200L,
INT_0,INT_1,INT_2,INT_3,INT_4,INT_5,































