areEqual,DateTime,BearerToken,emptySet,
METHOD_0,METHOD_1,METHOD_2,METHOD_3,

clouway,oauth2,DateTime,creationDate,BearerToken,token1,GrantType,AUTHORIZATION_CODE,token2,
IDENT_0,IDENT_1,IDENT_2,IDENT_3,IDENT_4,IDENT_5,IDENT_6,IDENT_7,IDENT_8,







"identityId","::client id::","::email::","::index::","::1::",
STRING_0,STRING_1,STRING_2,STRING_3,STRING_4,

























