testEncodeListString,encodeListString,
METHOD_0,METHOD_1,

ctrip,xpipe,email,CtripPlatformEmailService,
IDENT_0,IDENT_1,IDENT_2,IDENT_3,







"123,456,789","123","456","789",
STRING_0,STRING_1,STRING_2,STRING_3,

























