testGetEsQueryWithDates,getEsQueryWithDates,
METHOD_0,METHOD_1,

esQuery,cognizant,devops,platformcommons,enums,JobSchedule,schedule,baseActionTest,
IDENT_0,IDENT_1,IDENT_2,IDENT_3,IDENT_4,IDENT_5,IDENT_6,IDENT_7,







"query","Success",
STRING_0,STRING_1,

























