testCreateConfigEntryTableInstance,ConfigEntryTable,
METHOD_0,METHOD_1,

crosswire,jsword,book,sword,ConfigEntryTable,
IDENT_0,IDENT_1,IDENT_2,IDENT_3,IDENT_4,







"TestBook",
STRING_0,

























