renameNoChange_NameGiven_ParamNull,
METHOD_0,

coobird,thumbnailator,ThumbnailParameter,filename,Rename,NO_CHANGE,
IDENT_0,IDENT_1,IDENT_2,IDENT_3,IDENT_4,IDENT_5,







"filename",
STRING_0,

























