testEquals,DefaultCategoryItemRenderer,
METHOD_0,METHOD_1,

category,DefaultCategoryItemRenderer,r1,r2,
IDENT_0,IDENT_1,IDENT_2,IDENT_3,


































