testDifferentMajors,VersionComparator,
METHOD_0,METHOD_1,

datacleaner,VersionComparator,comparator,versions,
IDENT_0,IDENT_1,IDENT_2,IDENT_3,







"3.7.2","4.0.4","4.0.6","5.0",
STRING_0,STRING_1,STRING_2,STRING_3,

























