testToListUntilChangedWithOnlyChange,just,compose,toListUntilChanged,toBlocking,single,
METHOD_0,METHOD_1,METHOD_2,METHOD_3,METHOD_4,METHOD_5,

rx,Observable,lists,Transformers,
IDENT_0,IDENT_1,IDENT_2,IDENT_3,


































