testAutoBroadcastShape,broadcastOutputShape,
METHOD_0,METHOD_1,

lombok,assertion,shapeTest,shape,Shape,
IDENT_0,IDENT_1,IDENT_2,IDENT_3,IDENT_4,


































