testEquals,Mutation,
METHOD_0,METHOD_1,

unisb,st,javalanche,mutation,Mutation,MutationTestCase,TEST_CLASS,TEST_METHOD,MutationType,ARITHMETIC_REPLACE,m2,
IDENT_0,IDENT_1,IDENT_2,IDENT_3,IDENT_4,IDENT_5,IDENT_6,IDENT_7,IDENT_8,IDENT_9,IDENT_10,


































