nextUp1,nextUp,TimePeriod,
METHOD_0,METHOD_1,METHOD_2,

diirt,graphene,TimeScales,TimePeriod,nextUp,SECOND,
IDENT_0,IDENT_1,IDENT_2,IDENT_3,IDENT_4,IDENT_5,


































