testGenerateSecureAESKeyOnToken,setupSafeNetToken,generateKey,
METHOD_0,METHOD_1,METHOD_2,

pkcs11ProvName,KeyGenerator,keyGen,SecureRandom,SecretKey,
IDENT_0,IDENT_1,IDENT_2,IDENT_3,IDENT_4,







"AES","PKCS11",
STRING_0,STRING_1,

























