testConstruction_nullGeneralCondition_assertException,VariableCompletionCondition,
METHOD_0,METHOD_1,

TxCompletionCondition,cond,exceptionOccured,
IDENT_0,IDENT_1,IDENT_2,


































