testIsComplete_nullTxs_assertEmptyList,GeneralCompletionCondition,getIncompleteRecipients,
METHOD_0,METHOD_1,METHOD_2,

GeneralCompletionCondition,recips,
IDENT_0,IDENT_1,


































