sb07_ResponseHeader_onPojo_nocode,getResponseInfo,getHeader,getDescription,
METHOD_0,METHOD_1,METHOD_2,METHOD_3,

juneau,HeaderInfo,ResponseHeaderAnnotationTest,mb,
IDENT_0,IDENT_1,IDENT_2,IDENT_3,







"/sb07","get","H","description",
STRING_0,STRING_1,STRING_2,STRING_3,

























