testConnectionDelay,milliseconds,connectionDelay,expirationDelayMs,
METHOD_0,METHOD_1,METHOD_2,METHOD_3,

delay,blackedOut,
IDENT_0,IDENT_1,


































