testPrepareIndexedCollection_ArrayResize,prepareIndexedCollection,
METHOD_0,METHOD_1,

dozermapper,MappingUtils,
IDENT_0,IDENT_1,







"some entry",
STRING_0,

























