toStringTest,
METHOD_0,

graalvm,OptionDescriptor,OptionType,Debug,TestOptionKey,Options,MyOption,
IDENT_0,IDENT_1,IDENT_2,IDENT_3,IDENT_4,IDENT_5,IDENT_6,







"MyOption",
STRING_0,

























