testInterfaceTrust0,createWithoutAssumptions,getMetaAccess,lookupJavaType,
METHOD_0,METHOD_1,METHOD_2,METHOD_3,

graalvm,Stamp,notTrusted,StampFactory,TypeReference,I,
IDENT_0,IDENT_1,IDENT_2,IDENT_3,IDENT_4,IDENT_5,


































