testJoin1,objectNonNull,
METHOD_0,METHOD_1,

graalvm,Stamp,aNonNull,StampFactory,A,B,bNonNull,
IDENT_0,IDENT_1,IDENT_2,IDENT_3,IDENT_4,IDENT_5,IDENT_6,


































