isInterfaceTest,lookupJavaType,isInterface,
METHOD_0,METHOD_1,METHOD_2,

jdk,vm,ci,ResolvedJavaType,metaAccess,
IDENT_0,IDENT_1,IDENT_2,IDENT_3,IDENT_4,


































