testBug2024,compile,getPackagePath,getCompilerTask,
METHOD_0,METHOD_1,METHOD_2,METHOD_3,

LinkedList,defaultOptions,ceylon,CeyloncTaskImpl,
IDENT_0,IDENT_1,IDENT_2,IDENT_3,







"bug20xx/bug2024a/module.ceylon","bug20xx/bug2024a/package.ceylon","bug20xx/bug2024a/Instant.ceylon","bug20xx/bug2024b/module.ceylon","bug20xx/bug2024b/Bug2024.ceylon","bug20xx/bug2024b/Bug2024.java","bug20xx/bug2024b/Bug2024B.java","-src","/bug20xx","bug2024c",
STRING_0,STRING_1,STRING_2,STRING_3,STRING_4,STRING_5,STRING_6,STRING_7,STRING_8,STRING_9,

























