testCopy,MutableLongObjectId,fromRaw,
METHOD_0,METHOD_1,METHOD_2,

lfs,MutableLongObjectId,
IDENT_0,IDENT_1,

2L,3L,4L,
INT_0,INT_1,INT_2,































