testEqualsWorksInHashSet,Link,
METHOD_0,METHOD_1,

lyo,oslc4j,Link,setA,LinkTest,URI_A,LABEL_A,URI_B,LABEL_B,setB,
IDENT_0,IDENT_1,IDENT_2,IDENT_3,IDENT_4,IDENT_5,IDENT_6,IDENT_7,IDENT_8,IDENT_9,


































