testSortFilter,SortFilter,
METHOD_0,METHOD_1,

linuxtools,systemtap,graphing,SortFilter,ASCENDING,
IDENT_0,IDENT_1,IDENT_2,IDENT_3,IDENT_4,


































