givenSystem_whenCalledGetPropertyDefaultValue_thenReturnPropertyinResult,clearProperty,
METHOD_0,METHOD_1,

myKey,
IDENT_0,







"dbHost","db.host.com",
STRING_0,STRING_1,

























