whenCountingDigitsInString_ShouldReturnActualCountOfDigits,digit,countIn,
METHOD_0,METHOD_1,METHOD_2,

inputPhoneNumber,CharMatcher,
IDENT_0,IDENT_1,







"8 123 456 123",
STRING_0,

























