whenSaturatedAddTwoLongValues_shouldAddThemAndReturnIntMaxIfOverflow,saturatedAdd,
METHOD_0,METHOD_1,

LongMath,
IDENT_0,

1000L,
INT_0,































