givenMaybe_whenAssembled_shouldExecuteTheHook,setOnMaybeAssembly,just,
METHOD_0,METHOD_1,METHOD_2,

reactivex,RxJavaPlugins,maybe,hookCalled,Maybe,
IDENT_0,IDENT_1,IDENT_2,IDENT_3,IDENT_4,


































