testMatches,HasJsonField,textNode,
METHOD_0,METHOD_1,METHOD_2,

fd,HasJsonField,hasJsonFieldMatcher,jsonNodeFactory,book,
IDENT_0,IDENT_1,IDENT_2,IDENT_3,IDENT_4,







"title","Romeo and Juliette",
STRING_0,STRING_1,

























