cannotRemoveKeyValuePairwhenKeyIsWrongFromMap,
METHOD_0,

javafortesters,chap010collections,
IDENT_0,IDENT_1,







"key1","value1","key2","value2","key3","value3","key15",
STRING_0,STRING_1,STRING_2,STRING_3,STRING_4,STRING_5,STRING_6,

























