testMatches,arrayNode,IsJsonArray,
METHOD_0,METHOD_1,METHOD_2,

ArrayNode,arrayNode,jsonNodeFactory,fd,IsJsonArray,
IDENT_0,IDENT_1,IDENT_2,IDENT_3,IDENT_4,


































