testEqualsBothNull,MPDArtwork,
METHOD_0,METHOD_1,

bff,javampd,art,MPDArtwork,artwork1,artwork2,
IDENT_0,IDENT_1,IDENT_2,IDENT_3,IDENT_4,IDENT_5,


































