testEqualsSingleParam,MPDCommand,
METHOD_0,METHOD_1,

bff,javampd,MPDCommand,command1,command2,
IDENT_0,IDENT_1,IDENT_2,IDENT_3,IDENT_4,







"command1","param1",
STRING_0,STRING_1,

























