testNew,Ranges,Range,
METHOD_0,METHOD_1,METHOD_2,

jp,uroborosql,coverage,Ranges,ranges,
IDENT_0,IDENT_1,IDENT_2,IDENT_3,IDENT_4,


































