NULL,getProgress,
METHOD_0,METHOD_1,

progress,Progress,ProgressManager,
IDENT_0,IDENT_1,IDENT_2,







"memcachedProgressTest_",
STRING_0,

























