testFindAll,createQuery,getResultList,
METHOD_0,METHOD_1,METHOD_2,

geowarin,standalone,allUsers,entityManager,
IDENT_0,IDENT_1,IDENT_2,IDENT_3,







"from User",
STRING_0,

























