testTooSmall,ShortFastestWeighting,PMap,
METHOD_0,METHOD_1,METHOD_2,

routing,weighting,encoder,
IDENT_0,IDENT_1,IDENT_2,







"short_fastest.distance_factor=0|short_fastest.time_factor=0",
STRING_0,

























