notDone,Gen1,barBuilder,bc0,bc1,bd0,bd1,bc2,barUpdaterFactory,updater,done,
METHOD_0,METHOD_1,METHOD_2,METHOD_3,METHOD_4,METHOD_5,METHOD_6,METHOD_7,METHOD_8,METHOD_9,METHOD_10,

zerobuilder,generics,Gen1,Bar,bar,Gen1Builders,updated,
IDENT_0,IDENT_1,IDENT_2,IDENT_3,IDENT_4,IDENT_5,IDENT_6,







"someString","6","10",
STRING_0,STRING_1,STRING_2,

























