metadataDecode_surrogate,parseBytes,
METHOD_0,METHOD_1,

MESSAGE_KEY,
IDENT_0,







'%','F','0','9','8','1',
STRING_0,STRING_1,STRING_2,STRING_3,STRING_4,STRING_5,

























