testEqualsOther,
METHOD_0,

twelvemonkeys,MappedBeanFactoryTestCase,Foo,foo,MappedBeanFactory,DefaultFoo,
IDENT_0,IDENT_1,IDENT_2,IDENT_3,IDENT_4,IDENT_5,


































