en2es,englishToSpanish,
METHOD_0,METHOD_1,

translationService,
IDENT_0,







"drink milk","bebe leche","en2es(), {} -> {}",
STRING_0,STRING_1,STRING_2,

























