testNotWithNull,testExpr,Values,
METHOD_0,METHOD_1,METHOD_2,

hortonworks,streamline,Values,
IDENT_0,IDENT_1,IDENT_2,







"NOT TRUE","NOT FALSE","NOT UNKNOWN",
STRING_0,STRING_1,STRING_2,

























