testExpectOperator,testExpr,Values,
METHOD_0,METHOD_1,METHOD_2,

hortonworks,streamline,Values,
IDENT_0,IDENT_1,IDENT_2,







"TRUE IS TRUE","TRUE IS NOT TRUE","UNKNOWN IS TRUE","UNKNOWN IS NOT TRUE","TRUE IS FALSE","UNKNOWN IS NULL","UNKNOWN IS NOT NULL",
STRING_0,STRING_1,STRING_2,STRING_3,STRING_4,STRING_5,STRING_6,

























