testBug53469a,TesterMockRequest,setRequest,encodeURL,
METHOD_0,METHOD_1,METHOD_2,METHOD_3,

catalina,connector,Request,resp,
IDENT_0,IDENT_1,IDENT_2,IDENT_3,







"../bar.html",
STRING_0,

























