testBug51544Direct,ELContextImpl,createValueExpression,getVariableMapper,setVariable,
METHOD_0,METHOD_1,METHOD_2,METHOD_3,METHOD_4,

ExpressionFactory,ELContext,jasper,ValueExpression,var,ve,
IDENT_0,IDENT_1,IDENT_2,IDENT_3,IDENT_4,IDENT_5,







"list","${list.size()}",
STRING_0,STRING_1,

























