testPerformance,testPerformanceImpl,
METHOD_0,METHOD_1,

maxTime,
IDENT_0,

5000,
INT_0,




"testPerformance() test completed in "," ms","testPerformance() test rerun completed in ",
STRING_0,STRING_1,STRING_2,

























