fixPdfTest04,PdfReader,PdfDocument,
METHOD_0,METHOD_1,METHOD_2,

filename,PdfReaderTest,sourceFolder,PdfReader,PdfException,
IDENT_0,IDENT_1,IDENT_2,IDENT_3,IDENT_4,







"CompressionWrongObjStm.pdf",
STRING_0,

























