testInvokeOperationToString,invokeOperationToString,
METHOD_0,METHOD_1,

val1,val2,j256,simplejmx,JmxClientTest,objectName,Short,
IDENT_0,IDENT_1,IDENT_2,IDENT_3,IDENT_4,IDENT_5,IDENT_6,

21231,524,
INT_0,INT_1,




"times",
STRING_0,

























