checkLoggerNames,getLogManager,getLogger,getLoggerNames,
METHOD_0,METHOD_1,METHOD_2,METHOD_3,

LogManager,logManager,logmanager,expectedNames,Logger,
IDENT_0,IDENT_1,IDENT_2,IDENT_3,IDENT_4,







"test1","org.jboss","org.jboss.logmanager","other","stdout",
STRING_0,STRING_1,STRING_2,STRING_3,STRING_4,

























