shouldContainsAllGivenDoesNotContainAll,containsAll,
METHOD_0,METHOD_1,

webamoeba,OrderedSet,elementOne,elementTwo,containsAll,
IDENT_0,IDENT_1,IDENT_2,IDENT_3,IDENT_4,










0.1,12.2,0.01,3.1,
FLOAT_0,FLOAT_1,FLOAT_2,FLOAT_3,






















