testConfigSpecDifferentOS,ConfigSpec,
METHOD_0,METHOD_1,

clearcase,ConfigSpec,cs1,cs2,
IDENT_0,IDENT_1,IDENT_2,IDENT_3,







"element /MyVOB/... .../MyBranch/LATEST","element \\MyVOB\\... ...\\MyBranch\\LATEST",
STRING_0,STRING_1,

























