testEquals,Day,Hour,Minute,
METHOD_0,METHOD_1,METHOD_2,METHOD_3,

Day,day1,MonthConstants,MARCH,Hour,hour1,Minute,minute1,day2,hour2,minute2,
IDENT_0,IDENT_1,IDENT_2,IDENT_3,IDENT_4,IDENT_5,IDENT_6,IDENT_7,IDENT_8,IDENT_9,IDENT_10,

29,2002,
INT_0,INT_1,































