generateReferenceIdFromCitation,generateReferenceId,
METHOD_0,METHOD_1,

eol,globi,StudyImporterForTSV,STUDY_SOURCE_CITATION,REFERENCE_CITATION,
IDENT_0,IDENT_1,IDENT_2,IDENT_3,IDENT_4,







"http://source","http://bla",
STRING_0,STRING_1,

























