testZipAllWithFirstStreamLongerThanTheSecondOneAndCustomZipper,zipAll,
METHOD_0,METHOD_1,

jooq,lambda,Seq,s1,s2,
IDENT_0,IDENT_1,IDENT_2,IDENT_3,IDENT_4,

42,
INT_0,































