mockInnerClassWhichUsesTypeVariableOfOuterClass,getSomeValue,
METHOD_0,METHOD_1,

mockit,GenericMockedTypesTest$Outer$Inner,
IDENT_0,IDENT_1,


































