testKieContainer,getComponentInstance,
METHOD_0,METHOD_1,

KieContainer,kieContainer,aries,blueprint,KieBlueprintBasicTest,
IDENT_0,IDENT_1,IDENT_2,IDENT_3,IDENT_4,







"defaultContainer",
STRING_0,

























