testKieSession,getComponentInstance,
METHOD_0,METHOD_1,

StatelessKieSession,ksession,aries,blueprint,KieBlueprintBasicTest,
IDENT_0,IDENT_1,IDENT_2,IDENT_3,IDENT_4,







"ksession9",
STRING_0,

























