shellOps,FsShell,ls,
METHOD_0,METHOD_1,METHOD_2,

oreilly,springdata,filepolling,FsShellTests,fsShell,FileStatus,coll,
IDENT_0,IDENT_1,IDENT_2,IDENT_3,IDENT_4,IDENT_5,IDENT_6,


































