testConstructor_emptyList,BeanPropertyComparator,
METHOD_0,METHOD_1,

failedAsExpected,kuali,rice,krad,
IDENT_0,IDENT_1,IDENT_2,IDENT_3,


































