equalsTrueB,B,
METHOD_0,METHOD_1,

annis,TestDataObject,B,b1,S1,C1,b2,
IDENT_0,IDENT_1,IDENT_2,IDENT_3,IDENT_4,IDENT_5,IDENT_6,


































