testDepth2,RecursiveMapIterator,newHashSet,
METHOD_0,METHOD_1,METHOD_2,

d2,kitesdk,filesystem,TestMultiLevelIterator,l1,Sets,
IDENT_0,IDENT_1,IDENT_2,IDENT_3,IDENT_4,IDENT_5,







"l1_1","l2_1_1","l2_1_2","l1_3","l2_3_1",
STRING_0,STRING_1,STRING_2,STRING_3,STRING_4,

























