testRemoveActiveFilter,getModel,ActiveFilterItem,removeActiveFilter,
METHOD_0,METHOD_1,METHOD_2,METHOD_3,

jbpm,active,ActiveFilterItem,activeFiltersList,
IDENT_0,IDENT_1,IDENT_2,IDENT_3,







"key1","key2","key3",
STRING_0,STRING_1,STRING_2,

























