testParseFEELListWithASemicolon,parseFEELList,
METHOD_0,METHOD_1,

actualList,expectedList,
IDENT_0,IDENT_1,







"abcdef, \"Sao Paulo, SP\"; 123","abcdef","\"Sao Paulo, SP\"",
STRING_0,STRING_1,STRING_2,

























