initialize_string_array_java_shortcut,
METHOD_0,

nflNorthStadiums,
IDENT_0,







"Lambeau Field","Soldier Field","Mall of America Fielddagger","Ford Fielddagger",
STRING_0,STRING_1,STRING_2,STRING_3,

























