testPassThroughPost,getLocalPort,post,readEntity,
METHOD_0,METHOD_1,METHOD_2,METHOD_3,

responseBody,kunai,keyvault,IntegrationTest,RULE,
IDENT_0,IDENT_1,IDENT_2,IDENT_3,IDENT_4,







"somedata","http://localhost:","/proxy","proxy-url","http://httpbin.org/post",
STRING_0,STRING_1,STRING_2,STRING_3,STRING_4,

























