sort_string_array_in_java,sort,
METHOD_0,METHOD_1,

wiStateParks,levelup,SortArray,
IDENT_0,IDENT_1,IDENT_2,







"Mill Bluff State Park","Amnicon Falls State Park","Wyalusing State Park","Big Foot Beach State Park","Willow River State Park","Roche-A-Cri State Park",
STRING_0,STRING_1,STRING_2,STRING_3,STRING_4,STRING_5,

























