rowIsReused,deserialize,
METHOD_0,METHOD_1,

serde,mockRecord,fm,last,Row,capturedRow,
IDENT_0,IDENT_1,IDENT_2,IDENT_3,IDENT_4,IDENT_5,


































