sort_numeric_array_in_java8,sorted,
METHOD_0,METHOD_1,

uwConferenceTitles,sortedTitles,IntStream,levelup,SortArray,
IDENT_0,IDENT_1,IDENT_2,IDENT_3,IDENT_4,

1896,2011,1901,1912,1952,1959,1962,1999,1897,1906,1993,1998,2010,2012,
INT_0,INT_1,INT_2,INT_3,INT_4,INT_5,INT_6,INT_7,INT_8,INT_9,INT_10,INT_11,INT_12,INT_13,































