array_contains_element_java_binary_search,sort,binarySearch,
METHOD_0,METHOD_1,METHOD_2,

vikQueensLosingSeasons,elementPosition,
IDENT_0,IDENT_1,

1962,1967,1984,2011,1966,1963,1982,2001,1990,2002,2006,2010,1965,1972,1979,1981,1985,
INT_0,INT_1,INT_2,INT_3,INT_4,INT_5,INT_6,INT_7,INT_8,INT_9,INT_10,INT_11,INT_12,INT_13,INT_14,INT_15,INT_16,































