convert_string_array_to_list_with_guava,
METHOD_0,

planetsAsStringArray,planetsAsArrayList,
IDENT_0,IDENT_1,







"The Sun","Mercury","Venus","Earth","Mars","Jupiter","Saturn","Uranus","Neptune",
STRING_0,STRING_1,STRING_2,STRING_3,STRING_4,STRING_5,STRING_6,STRING_7,STRING_8,

























