convert_iterator_to_list_guava,
METHOD_0,

iteratorToArray,levelup,ConvertIteratorToArrayList,convertedIterator,
IDENT_0,IDENT_1,IDENT_2,IDENT_3,


































