filter_map_by_value_entries_guava,filterEntries,
METHOD_0,METHOD_1,

Predicate,monthLenthFour,monthsWithLengthFour,Maps,MONTHS,
IDENT_0,IDENT_1,IDENT_2,IDENT_3,IDENT_4,


































