calculate_elapsed_time_in_java,
METHOD_0,

startTime,estimatedTime,levelup,MeasureElapsedTime,
IDENT_0,IDENT_1,IDENT_2,IDENT_3,







"time: ",
STRING_0,

























