ordered_permutations,orderedPermutations,
METHOD_0,METHOD_1,

vals,orderPerm,Collections2,levelup,guava,Collections2Example,
IDENT_0,IDENT_1,IDENT_2,IDENT_3,IDENT_4,IDENT_5,


































