file_is_symbolic_link_nio,readAttributes,isSymbolicLink,
METHOD_0,METHOD_1,METHOD_2,

attribute,BasicFileAttributes,attr,Files,isSymbolicLink,
IDENT_0,IDENT_1,IDENT_2,IDENT_3,IDENT_4,


































