unmarshall_json_to_java_array_with_jackson,ObjectMapper,readValue,
METHOD_0,METHOD_1,METHOD_2,

ObjectMapper,objectMapper,levelup,JsontoJavaObject,Plane,planes,ARRAY_AS_JSON,
IDENT_0,IDENT_1,IDENT_2,IDENT_3,IDENT_4,IDENT_5,IDENT_6,


































