split_string_using_string_split_java8,flatMap,
METHOD_0,METHOD_1,

splitString,Stream,levelup,SplitStrings,CONSTANT_STRING,w,Collectors,
IDENT_0,IDENT_1,IDENT_2,IDENT_3,IDENT_4,IDENT_5,IDENT_6,







"[ ]+",
STRING_0,

























