split_string_colon_java8,flatMap,
METHOD_0,METHOD_1,

splitByColon,Stream,w,Collectors,levelup,SplitStringByColon,
IDENT_0,IDENT_1,IDENT_2,IDENT_3,IDENT_4,IDENT_5,







"This:is:a:sentence:by:colon",":",
STRING_0,STRING_1,

























