longstream_iterate,iterate,limit,boxed,
METHOD_0,METHOD_1,METHOD_2,METHOD_3,

numbers,LongStream,Collectors,
IDENT_0,IDENT_1,IDENT_2,


































