testCount,insertDEDataDefinition,counDEtDataDefinitions,
METHOD_0,METHOD_1,METHOD_2,

DEDataEngineTestUtil,_adminUser,_group,_deDataDefinitionService,total,
IDENT_0,IDENT_1,IDENT_2,IDENT_3,IDENT_4,


































