testEmptySerialization,LogEntry,writeValueAsString,readValue,
METHOD_0,METHOD_1,METHOD_2,METHOD_3,

logsniffer,LogEntry,entryStr,check,
IDENT_0,IDENT_1,IDENT_2,IDENT_3,







"JSON: {}",
STRING_0,

























