testCollision,wrap,compareBytesUnsigned,
METHOD_0,METHOD_1,METHOD_2,

hashA,hsh,hashB,comparision,liveramp,BytesUtils,
IDENT_0,IDENT_1,IDENT_2,IDENT_3,IDENT_4,IDENT_5,

40,22,112,105,99,107,108,101,115,46,49,57,53,64,103,109,97,111,113,117,116,
INT_0,INT_1,INT_2,INT_3,INT_4,INT_5,INT_6,INT_7,INT_8,INT_9,INT_10,INT_11,INT_12,INT_13,INT_14,INT_15,INT_16,INT_17,INT_18,INT_19,INT_20,































