testGetOrCreateFromCache,getOrCreate,
METHOD_0,METHOD_1,

aeonbits,owner,CacheConfigTest,MyConfig,ConfigCache,second,
IDENT_0,IDENT_1,IDENT_2,IDENT_3,IDENT_4,IDENT_5,


































