foldLeft_A$Object$Function2_2,foldLeft,
METHOD_0,METHOD_1,

m3,scalaflavor4j,Seq,seq,F2,
IDENT_0,IDENT_1,IDENT_2,IDENT_3,IDENT_4,


































