basic2,getComp,getIterator,poll,pop,
METHOD_0,METHOD_1,METHOD_2,METHOD_3,METHOD_4,

kylin,gtrecord,SortedIteratorMerger,merger,pq,mr,SortedColumnDFSFileReader,ReaderBuffer,minEntry,
IDENT_0,IDENT_1,IDENT_2,IDENT_3,IDENT_4,IDENT_5,IDENT_6,IDENT_7,IDENT_8,


































