testConstructor,ClinicalDocumentOperations,
METHOD_0,METHOD_1,

openhealthtools,mdht,uml,cda,ClinicalDocumentOperations,cdo,
IDENT_0,IDENT_1,IDENT_2,IDENT_3,IDENT_4,IDENT_5,


































