testInWildcard,converteerVoorwaardeRegel,
METHOD_0,METHOD_1,

voorwaardeRegel,expressieVerwacht,expressie,converteerNaarExpressieService,
IDENT_0,IDENT_1,IDENT_2,IDENT_3,







"08.11.60 OGA1 \"1024/*\" ENVGL \"1025/*\" ENVGL \"1026/*\" ENVGL \"1027/*\" ENVGL \"1028/*\" ENVGL \"1034/*\" ENVGL \"1035/*\" ENVGL ","\"2521/*\"","NIET(Persoon.Adres.Postcode AIN% {\"1024*\", \"1025*\", \"1026*\", \"1027*\", \"1028*\", \"1034*\", \"1035*\", \"2521*\"})",
STRING_0,STRING_1,STRING_2,

























