ignoreTest,getMapper,selectWhere,
METHOD_0,METHOD_1,METHOD_2,

meara,mybatis,UserMapper,userDao,sqlSession,users,
IDENT_0,IDENT_1,IDENT_2,IDENT_3,IDENT_4,IDENT_5,


































