testKeyFileDoesNotExists,getDbProperties,check,
METHOD_0,METHOD_1,METHOD_2,

DbProperties,checker,
IDENT_0,IDENT_1,







"db.cloud.encryption.type","file",
STRING_0,STRING_1,

























