getAangifteAdreshoudingNOkTest,getAangifteAdreshouding,
METHOD_0,METHOD_1,

resultNat,lo3StamtabelService,
IDENT_0,IDENT_1,







"X",
STRING_0,

























