equalsItself,ID3v2TextFrameData,EncodedText,
METHOD_0,METHOD_1,METHOD_2,

mpatric,mp3agic,ID3v2TextFrameData,frameData,TEXT_ENCODING_ISO_8859_1,ID3v2TextFrameDataTest,TEST_TEXT,
IDENT_0,IDENT_1,IDENT_2,IDENT_3,IDENT_4,IDENT_5,IDENT_6,


































