equalIfDescriptionIsNullOnBoth,ID3v2UrlFrameData,
METHOD_0,METHOD_1,

mpatric,mp3agic,ID3v2UrlFrameData,frameData1,ID3v2UrlFrameDataTest,TEST_URL,frameData2,
IDENT_0,IDENT_1,IDENT_2,IDENT_3,IDENT_4,IDENT_5,IDENT_6,


































