testFindTopKHeap4of3,topK,
METHOD_0,METHOD_1,

graphalgo,TopKConsumerTest,Item,topItems,similarity,TopKConsumer,ITEM2,ITEM1,ITEM4,ITEM3,topItem,
IDENT_0,IDENT_1,IDENT_2,IDENT_3,IDENT_4,IDENT_5,IDENT_6,IDENT_7,IDENT_8,IDENT_9,IDENT_10,


































