testCompressedBuffer,
METHOD_0,

actualBytes,captured,expectedBytes,
IDENT_0,IDENT_1,IDENT_2,

66,90,104,57,49,65,89,38,83,118,77,27,63,96,48,52,62,46,28,112,95,32,19,103,54,
INT_0,INT_1,INT_2,INT_3,INT_4,INT_5,INT_6,INT_7,INT_8,INT_9,INT_10,INT_11,INT_12,INT_13,INT_14,INT_15,INT_16,INT_17,INT_18,INT_19,INT_20,INT_21,INT_22,INT_23,INT_24,































