shouldReturnPrimitiveLong,updateReturnsPrimitiveLong,
METHOD_0,METHOD_1,

rows,submitted,dml_return_types,
IDENT_0,IDENT_1,IDENT_2,







"shouldReturnPrimitiveLong",
STRING_0,

























