tesStringOneStringArg,FormattedMessage,getFormattedMessage,
METHOD_0,METHOD_1,METHOD_2,

testMsg,FormattedMessage,messageText,
IDENT_0,IDENT_1,IDENT_2,







"Test message %1s","Apache","Test message Apache",
STRING_0,STRING_1,STRING_2,

























