testServiceRegistred,getLocalService,
METHOD_0,METHOD_1,

automation,BatchManager,bm,Framework,
IDENT_0,IDENT_1,IDENT_2,IDENT_3,


































