testComparable,sort,
METHOD_0,METHOD_1,

nysenate,openleg,Version,versions,Z,B,ORIGINAL,D,sorted,
IDENT_0,IDENT_1,IDENT_2,IDENT_3,IDENT_4,IDENT_5,IDENT_6,IDENT_7,IDENT_8,


































