testJSONFormatNonStringValue,ObjectMapMessage,getFormattedMessage,
METHOD_0,METHOD_1,METHOD_2,

ObjectMapMessage,formats,
IDENT_0,IDENT_1,







"key","JSON","{\"key\":\"1\"}",
STRING_0,STRING_1,STRING_2,

























