testStartsWithName003,LdapName,
METHOD_0,METHOD_1,

naming,LdapName,ln,
IDENT_0,IDENT_1,IDENT_2,







"t=test,cn=test","t=test",
STRING_0,STRING_1,

























