testGetRuntimeMXBean,getRuntimeMXBean,
METHOD_0,METHOD_1,

RuntimeMXBean,runtimeMxBean,ManagementFactory,
IDENT_0,IDENT_1,IDENT_2,







"runtimeMxBean = ","runtimeMxBean.getName() = ",
STRING_0,STRING_1,

























