testNegateHandlingFalse,shouldNegateState,
METHOD_0,METHOD_1,

negateProperty,negateState,openhab,smartmeter,conformity,negate,NegateHandler,obis,MeterValue,
IDENT_0,IDENT_1,IDENT_2,IDENT_3,IDENT_4,IDENT_5,IDENT_6,IDENT_7,IDENT_8,







"1-0_1-8-0:5:1","0","65922",
STRING_0,STRING_1,STRING_2,

























