testRemoveBoolean,testBooleanRemove,
METHOD_0,METHOD_1,

inputArray1,outputArray,openl,RulesUtilsTest,
IDENT_0,IDENT_1,IDENT_2,IDENT_3,


































