excludeWithoutCondition,getContextualReference,
METHOD_0,METHOD_1,

deltaspike,exclude,NoBean,noBean,BeanProvider,
IDENT_0,IDENT_1,IDENT_2,IDENT_3,IDENT_4,


































