shrinksOfNonEmptyList,shrinksOfOneItem,assumeThat,sameInstance,
METHOD_0,METHOD_1,METHOD_2,METHOD_3,

shrinks,pholser,quickcheck,
IDENT_0,IDENT_1,IDENT_2,


































