countWithExceptionReturnsNegativeOne,thenThrow,getComponentUnderTest,
METHOD_0,METHOD_1,METHOD_2,

HttpUriRequest,mocker,
IDENT_0,IDENT_1,


































