testPersoSimConstructor_UnknownArgument,PersoSim,
METHOD_0,METHOD_1,

persoSim,persosim,simulator,
IDENT_0,IDENT_1,IDENT_2,







"unknownCommand",
STRING_0,

























