testPublishUIPlugin,PublishUIPlugin,
METHOD_0,METHOD_1,

reporting,designer,extensions,PublishUIPlugin,
IDENT_0,IDENT_1,IDENT_2,IDENT_3,


































