testConcatByteArraysByteArrays_ThirdElementIsNull,concatByteArrays,
METHOD_0,METHOD_1,

array1,array2,array3,persosim,simulator,
IDENT_0,IDENT_1,IDENT_2,IDENT_3,IDENT_4,


































