member_equals_trueForEqualObjects,Member,
METHOD_0,METHOD_1,

JsonObject,Member,member,Json,TRUE,
IDENT_0,IDENT_1,IDENT_2,IDENT_3,IDENT_4,


































