shouldSwitchFromDraftToAccepted,canChangeTo,
METHOD_0,METHOD_1,

canChange,qcadoo,mes,advancedGenealogy,states,constants,TrackingRecordState,DRAFT,ACCEPTED,
IDENT_0,IDENT_1,IDENT_2,IDENT_3,IDENT_4,IDENT_5,IDENT_6,IDENT_7,IDENT_8,


































