extractingBodyShouldSucceedWhenRequestSucceed,success,extract,
METHOD_0,METHOD_1,METHOD_2,

expectedBody,retrofit2,Call,
IDENT_0,IDENT_1,IDENT_2,







"success",
STRING_0,

























