testTrailerOnly,TrailerInputStream,
METHOD_0,METHOD_1,

cryptonode,jncryptor,TrailerInputStream,tis,IOUtils,
IDENT_0,IDENT_1,IDENT_2,IDENT_3,IDENT_4,


































