decorate_none,None,decorate,
METHOD_0,METHOD_1,METHOD_2,

scheduler,export,DecorationStrategy,rpsl,RpslObject,decorated,
IDENT_0,IDENT_1,IDENT_2,IDENT_3,IDENT_4,IDENT_5,


































