dirWithSpaces,forPackage,testVfsDir,
METHOD_0,METHOD_1,METHOD_2,

urls,reflections,ClasspathHelper,
IDENT_0,IDENT_1,IDENT_2,







"dir+with spaces",
STRING_0,

























