custodianTest,getCustodian,
METHOD_0,METHOD_1,

marc,everest,rmim,uv,cdar2,pocd_mt000040uv,Custodian,custodian,clinicalDocument,
IDENT_0,IDENT_1,IDENT_2,IDENT_3,IDENT_4,IDENT_5,IDENT_6,IDENT_7,IDENT_8,


































