testLegitimateSingletonArray,Struct,setFieldValue,
METHOD_0,METHOD_1,METHOD_2,

Struct,scijava,ConversionUtilsTest,ArrayWrapper,arrayWrapper,struct,
IDENT_0,IDENT_1,IDENT_2,IDENT_3,IDENT_4,IDENT_5,




private,
MOD_0,

"arrayWrapper",
STRING_0,

























