Environment,PastryIdFactory,buildId,
METHOD_0,METHOD_1,METHOD_2,

testString,rice,environment,Environment,envA,p2p,commonapi,IdFactory,idfA,pastry,Id,envB,idfB,
IDENT_0,IDENT_1,IDENT_2,IDENT_3,IDENT_4,IDENT_5,IDENT_6,IDENT_7,IDENT_8,IDENT_9,IDENT_10,IDENT_11,IDENT_12,







"siouefiuhghd rghdriguh","ID: ",
STRING_0,STRING_1,

























