testShouldBeAbleToEnterText,findElement,sendKeys,
METHOD_0,METHOD_1,METHOD_2,

WebElement,inputField,selendroid,demo,SelendroidIntegrationTest,By,
IDENT_0,IDENT_1,IDENT_2,IDENT_3,IDENT_4,IDENT_5,







"my_text_field","Selendroid",
STRING_0,STRING_1,

























