assertOutboundHanldersAreCalledOnce,fireEvent,ExceptionToCatch,
METHOD_0,METHOD_1,METHOD_2,

CalledExceptionHandler,OUTBOUND_HANDLER_TIMES_CALLED,bm,seam,
IDENT_0,IDENT_1,IDENT_2,IDENT_3,


































