testOpen,skipTest,readProductNodes,
METHOD_0,METHOD_1,METHOD_2,

filePath,esa,snap,engine_utilities,Product,product,
IDENT_0,IDENT_1,IDENT_2,IDENT_3,IDENT_4,IDENT_5,







" not found",
STRING_0,

























