testAssess_weightWins,assess,
METHOD_0,METHOD_1,

values1,values2,weights,balancer,EquipartitionHostBalancer,
IDENT_0,IDENT_1,IDENT_2,IDENT_3,IDENT_4,










0.2,0.1,0.29,
FLOAT_0,FLOAT_1,FLOAT_2,






















