testFindTutorByNameAndEmail,findTutorByNameAndEmail,
METHOD_0,METHOD_1,

mybatis3,Tutor,tutor,tutorService,
IDENT_0,IDENT_1,IDENT_2,IDENT_3,







"Paul","paul@gmail.com",
STRING_0,STRING_1,

























