findTagById,
METHOD_0,

tagId,packtpub,techbuzz,Tag,tag,tagService,
IDENT_0,IDENT_1,IDENT_2,IDENT_3,IDENT_4,IDENT_5,







"----------------findTagById -----------------",
STRING_0,

























