testCreateTutor,Tutor,setEmail,createTutor,
METHOD_0,METHOD_1,METHOD_2,METHOD_3,

mybatis3,Tutor,tutor,tutorService,
IDENT_0,IDENT_1,IDENT_2,IDENT_3,







"siva","siva@gmail.com",
STRING_0,STRING_1,

























