updateTag,Tag,setLabel,setDescription,findTagById,
METHOD_0,METHOD_1,METHOD_2,METHOD_3,METHOD_4,

tagId,packtpub,techbuzz,Tag,tag,tagService,
IDENT_0,IDENT_1,IDENT_2,IDENT_3,IDENT_4,IDENT_5,







"----------------updateTag -----------------","Sivalabs:","sivalabs:","SivaLabs Blog:",
STRING_0,STRING_1,STRING_2,STRING_3,

























