testFindStudentWithAddressById,findStudentWithAddressById,
METHOD_0,METHOD_1,

mybatis3,Student,student,StudentServiceTest,studentService,
IDENT_0,IDENT_1,IDENT_2,IDENT_3,IDENT_4,


































