testNegativePort,getAttributes,buildPlugin,PluginBuilder,setConfiguration,NullConfiguration,setConfigurationNode,
METHOD_0,METHOD_1,METHOD_2,METHOD_3,METHOD_4,METHOD_5,METHOD_6,

HostAndPort,
IDENT_0,







"port","-1",
STRING_0,STRING_1,

























