Should_beEqualForTheSamePath,
METHOD_0,

smart_tools,smartactors,ipath,IPath,path1,path2,
IDENT_0,IDENT_1,IDENT_2,IDENT_3,IDENT_4,IDENT_5,







"foo/bar",
STRING_0,

























