testMergeSingle,mergeAdjacentDiskRanges,DiskRange,DataSize,
METHOD_0,METHOD_1,METHOD_2,METHOD_3,

orc,DiskRange,diskRanges,OrcDataSourceUtils,airlift,units,Unit,BYTE,
IDENT_0,IDENT_1,IDENT_2,IDENT_3,IDENT_4,IDENT_5,IDENT_6,IDENT_7,


































