handlesQuotesInCommentsInScripts,parseBodyFragment,
METHOD_0,METHOD_1,

Jsoup,
IDENT_0,







"<script>\n"," <!--\n"," document.write(\'</scr\' + \'ipt>\');\n"," // -->\n","</script>",
STRING_0,STRING_1,STRING_2,STRING_3,STRING_4,

























