testNullEvent,MapLookup,lookup,asString,
METHOD_0,METHOD_1,METHOD_2,METHOD_3,

lookup,MapLookup,LogEvent,MapMessage,mapMessage,MapFormat,JAVA_UNQUOTED,MapMessageLookup,LOOKUP,
IDENT_0,IDENT_1,IDENT_2,IDENT_3,IDENT_4,IDENT_5,IDENT_6,IDENT_7,IDENT_8,







"A","B","*","Error while getting property [{}].",
STRING_0,STRING_1,STRING_2,STRING_3,

























