test4,breadth_first_search,
METHOD_0,METHOD_1,

java_programs,nodef,BREADTH_FIRST_SEARCH,resultStr,
IDENT_0,IDENT_1,IDENT_2,IDENT_3,







"F","Path found!","Path not found!",
STRING_0,STRING_1,STRING_2,

























