testLiteral,jsonObject,objectNode,
METHOD_0,METHOD_1,METHOD_2,

Matcher,JsonNode,sut,IsJsonObject,IsJsonObjectTest,NF,
IDENT_0,IDENT_1,IDENT_2,IDENT_3,IDENT_4,IDENT_5,


































