findsSliceOfPersons,findByAgeGreaterThan,
METHOD_0,METHOD_1,

Slice,PageRequest,Direction,DESC,
IDENT_0,IDENT_1,IDENT_2,IDENT_3,

40,
INT_0,




"firstname",
STRING_0,

























