testIdentityEquals,fromUTF8,
METHOD_0,METHOD_1,

netty4,zmtp,ZMTPMessage,ZMTPMessageTest,ALLOC,
IDENT_0,IDENT_1,IDENT_2,IDENT_3,IDENT_4,







"hello","world",
STRING_0,STRING_1,

























