shortCircuitingOperation,limit,forEach,anyMatch,
METHOD_0,METHOD_1,METHOD_2,METHOD_3,

Stream,integerOnePresent,integer,
IDENT_0,IDENT_1,IDENT_2,


































