testEqualsContract,CompositeStyle,
METHOD_0,METHOD_1,

subtlelib,style,CompositeStyle,composite1,style1type1,composite2,
IDENT_0,IDENT_1,IDENT_2,IDENT_3,IDENT_4,IDENT_5,


































