decodeExtended,SWFDecoder,DefineText2,
METHOD_0,METHOD_1,METHOD_2,

extended,flagstone,coder,SWFDecoder,decoder,
IDENT_0,IDENT_1,IDENT_2,IDENT_3,IDENT_4,


































