should_get_timesheet_comments_for_date,findById,TimesheetCommentId,
METHOD_0,METHOD_1,METHOD_2,

rrm,ehour,TimesheetComment,comment,timesheetCommentDao,JANUARY,
IDENT_0,IDENT_1,IDENT_2,IDENT_3,IDENT_4,IDENT_5,

2007,1900,
INT_0,INT_1,































