testUpDownClick,CycleClick,
METHOD_0,METHOD_1,

world,bentobox,flags,clicklisteners,CycleClick,udc,
IDENT_0,IDENT_1,IDENT_2,IDENT_3,IDENT_4,IDENT_5,







"LOCK",
STRING_0,

























