test_validIntegerAndLongFormattedCode,BirthDay,
METHOD_0,METHOD_1,

terasoluna,gfw,codelist,BirthDay,month,day,ConstraintViolation,FORMATTED,
IDENT_0,IDENT_1,IDENT_2,IDENT_3,IDENT_4,IDENT_5,IDENT_6,IDENT_7,


































