test_InMemoryLexicon,MemoryLexicon,
METHOD_0,METHOD_1,

terrier,realtime,memory,MemoryLexicon,lexicon,
IDENT_0,IDENT_1,IDENT_2,IDENT_3,IDENT_4,


































