booksWithSameTitlesShouldBeEqual,Book,
METHOD_0,METHOD_1,

practicalunittesting,chp06,Book,book,BookTest,TITLE,otherBook,
IDENT_0,IDENT_1,IDENT_2,IDENT_3,IDENT_4,IDENT_5,IDENT_6,


































