testAttributeFailRepeatedArgs,ScopeLog,
METHOD_0,METHOD_1,

Logger,fLogger,tracecompass,TraceCompassLogUtils,ScopeLog,Level,WARNING,
IDENT_0,IDENT_1,IDENT_2,IDENT_3,IDENT_4,IDENT_5,IDENT_6,







"badger",
STRING_0,

























