shouldMergeDataWithDifferentFiles,toJSON,mergeJSONCoverageStrings,
METHOD_0,METHOD_1,METHOD_2,

data1,data2,merged,jsonMerger,
IDENT_0,IDENT_1,IDENT_2,IDENT_3,







"{\"/test1.js\":{\"lineData\":[null,0,1]}}","{\"/test2.js\":{\"lineData\":[null,0,1]}}","{\"/test1.js\":{\"lineData\":[null,0,1]},\"/test2.js\":{\"lineData\":[null,0,1]}}",
STRING_0,STRING_1,STRING_2,

























