testAdd,del,getNumActive,
METHOD_0,METHOD_1,METHOD_2,

clients,jedis,Jedis,li3huo,JedisTest,redisPool,
IDENT_0,IDENT_1,IDENT_2,IDENT_3,IDENT_4,IDENT_5,







"testAdd() del {} = {}, response = {}","testAdd() response = {}, redisPool.getNumActive() = {}","testAdd() after close, redisPool.getNumActive() = {}",
STRING_0,STRING_1,STRING_2,

























