testUtilConstructor,getDeclaredConstructors,setAccessible,
METHOD_0,METHOD_1,METHOD_2,

Constructor,tap4j,Patterns,
IDENT_0,IDENT_1,IDENT_2,


































