testIncMin,inc,
METHOD_0,METHOD_1,

minMask,maxMask,maxHcAddr,ethz,globis,phtree,bits,TestIncrementor,
IDENT_0,IDENT_1,IDENT_2,IDENT_3,IDENT_4,IDENT_5,IDENT_6,IDENT_7,

11,14,
INT_0,INT_1,































