testLiterToDm3,getQuantity,
METHOD_0,METHOD_1,

measure,Quantity,quantity,Volume,oneLiter,tech,units,indriya,Quantities,systems,uom,ucum,LITER,oneDm3,LITER_DM3,
IDENT_0,IDENT_1,IDENT_2,IDENT_3,IDENT_4,IDENT_5,IDENT_6,IDENT_7,IDENT_8,IDENT_9,IDENT_10,IDENT_11,IDENT_12,IDENT_13,IDENT_14,


































