testAMethodTakingAClassParameter,methodWithClassParam,
METHOD_0,METHOD_1,

rxjava,codegen,extra,AnotherInterface,another,
IDENT_0,IDENT_1,IDENT_2,IDENT_3,IDENT_4,


































