whenFindingTheMinimalElementWithoutSorting_thenFound,natural,
METHOD_0,METHOD_1,

toSort,Ordering,
IDENT_0,IDENT_1,

11,14,
INT_0,INT_1,































