whenReadAfterOffsetUsingByteSource_thenRead,asByteSource,slice,
METHOD_0,METHOD_1,METHOD_2,

expectedValue,ByteSource,Files,
IDENT_0,IDENT_1,IDENT_2,







"lo world","src/test/resources/test1.in",
STRING_0,STRING_1,

























