whenReadUsingCharSource_thenRead,asCharSource,
METHOD_0,METHOD_1,

expectedValue,mysite,guava,CharSource,Files,Charsets,
IDENT_0,IDENT_1,IDENT_2,IDENT_3,IDENT_4,IDENT_5,







"Hello world","test.txt",
STRING_0,STRING_1,

























