whenReadUsingByteSource_thenRead,asByteSource,
METHOD_0,METHOD_1,

expectedValue,mysite,guava,ByteSource,Files,
IDENT_0,IDENT_1,IDENT_2,IDENT_3,IDENT_4,







"Hello world","test.txt",
STRING_0,STRING_1,

























