testaTimeZoneSP,DFConfigTeste,getTimeZone,
METHOD_0,METHOD_1,METHOD_2,

fincatto,documentofiscal,DFConfig,DFConfigTest,TimeZone,
IDENT_0,IDENT_1,IDENT_2,IDENT_3,IDENT_4,







"America/Sao_Paulo",
STRING_0,

























