testFindByPage,findByPage,PageInfo,toJSONString,
METHOD_0,METHOD_1,METHOD_2,METHOD_3,

pagehelper,Page,xiaolyuh,persons,personService,PageInfo,pageInfo,fastjson,JSON,
IDENT_0,IDENT_1,IDENT_2,IDENT_3,IDENT_4,IDENT_5,IDENT_6,IDENT_7,IDENT_8,


































