updateNameAndDept,
METHOD_0,

dept,no,studentDBService,
IDENT_0,IDENT_1,IDENT_2,







"{\"zh\":\"丽丽\",\"en\":\"Lily\"}","{\"zh\":\"语文\",\"en\":\"Chinese\"}","9921103",
STRING_0,STRING_1,STRING_2,

























