testCycleD,parseResource,expectScope,getClassLoader,
METHOD_0,METHOD_1,METHOD_2,METHOD_3,

aether,DependencyNode,prefix,
IDENT_0,IDENT_1,IDENT_2,







"cycle-d.txt","compile","Could not find classpath resource ",
STRING_0,STRING_1,STRING_2,

























