findOne_usesDAO,findOne,
METHOD_0,METHOD_1,

userRepository,zipcloud,cloudstreetmarket,CommunityServiceImplTest,USER_A_NAME,userA,communityServiceImpl,
IDENT_0,IDENT_1,IDENT_2,IDENT_3,IDENT_4,IDENT_5,IDENT_6,


































