parseStringCommandSkip,parseStringCommand,isSkip,
METHOD_0,METHOD_1,METHOD_2,

alexcojocaru,mojo,ElasticsearchCommand,esCommand,step,skip,
IDENT_0,IDENT_1,IDENT_2,IDENT_3,IDENT_4,IDENT_5,







" # comment",
STRING_0,

























