toByteArrayFromStringNegBufSz,copy,
METHOD_0,METHOD_1,

probe,IOUtil,bufferSize,
IDENT_0,IDENT_1,IDENT_2,







"A string ⍅ï",
STRING_0,

























