testCommandByPartsIsValid,Command,
METHOD_0,METHOD_1,

gorillalogic,monkeytalk,Command,cmd,CommandValidator,CommandStatus,OK,
IDENT_0,IDENT_1,IDENT_2,IDENT_3,IDENT_4,IDENT_5,IDENT_6,







"Button","OK","Click",
STRING_0,STRING_1,STRING_2,

























