shouldInvokeLoadOnlyOnceForTheSameKey,createSlowCountingDecorator,getRunnableForKey,awaitTermination,
METHOD_0,METHOD_1,METHOD_2,METHOD_3,

AtomicInteger,ro,isdc,wro,JSMin,EOF,
IDENT_0,IDENT_1,IDENT_2,IDENT_3,IDENT_4,IDENT_5,







"key",' ','\n','\r',
STRING_0,STRING_1,STRING_2,STRING_3,

























