testHasLocalPortForwardingStarted,startLocalPF,hasLocalPFStarted,isLocalPortForwardingStartedForPort,
METHOD_0,METHOD_1,METHOD_2,METHOD_3,





































