setAttributeForTheSecondTime,setAttribute,
METHOD_0,METHOD_1,

mina,AttributeContainerTest,ATTRIBUTE_KEY,oldValue,AttributeKey,
IDENT_0,IDENT_1,IDENT_2,IDENT_3,IDENT_4,

123,456,
INT_0,INT_1,































