testWriteSimpleVersionedFlowsResult,VersionedFlowsResult,toFrame,
METHOD_0,METHOD_1,METHOD_2,

toolkit,VersionedFlowsResult,ResultType,SIMPLE,flows,printStream,resultOut,outputStream,charset,StandardCharsets,processors,beats,frame,BeatsFrame,encoder,
IDENT_0,IDENT_1,IDENT_2,IDENT_3,IDENT_4,IDENT_5,IDENT_6,IDENT_7,IDENT_8,IDENT_9,IDENT_10,IDENT_11,IDENT_12,IDENT_13,IDENT_14,







"# Name Id Description \n","- ------ ------------------------------------ -------------- \n","1 Flow 1 ea752054-22c6-4fc0-b851-967d9a3837cb This is flow 1 \n","2 Flow 2 ddf5f289-7502-46df-9798-4b0457c1816b (empty) \n",
STRING_0,STRING_1,STRING_2,STRING_3,

























