testEscapeAliasFilenameKeepHyphens,escapeFilename,
METHOD_0,METHOD_1,

toolkit,tls,TlsHelper,filename,
IDENT_0,IDENT_1,IDENT_2,IDENT_3,







"my-silly-filename.pem","[^\\w\\.\\-\\=]+","_",
STRING_0,STRING_1,STRING_2,

























