testToCharacterArrayNull,toCharacterArray,toCharArray,Character,
METHOD_0,METHOD_1,METHOD_2,METHOD_3,

Character,access,JPAEntityParser,characters,chars,
IDENT_0,IDENT_1,IDENT_2,IDENT_3,IDENT_4,


































