entityTypeCast,UriInfoImpl,setEntityTypeCast,getEntityTypeCast,
METHOD_0,METHOD_1,METHOD_2,METHOD_3,

edm,EdmEntityType,entityType,UriInfo,uriInfo,
IDENT_0,IDENT_1,IDENT_2,IDENT_3,IDENT_4,


































