testWithGroup,ChgrpBuilder,withGroup,getGroup,
METHOD_0,METHOD_1,METHOD_2,METHOD_3,

oozie,fluentjob,ChgrpBuilder,Chgrp,chgrp,
IDENT_0,IDENT_1,IDENT_2,IDENT_3,IDENT_4,







"root",
STRING_0,

























