testForkAddedAsParentWhenItAlreadyHasAChild,ExplicitNode,addParent,getChildren,
METHOD_0,METHOD_1,METHOD_2,METHOD_3,

oozie,fluentjob,dag,Fork,NodeBase,child1,child2,
IDENT_0,IDENT_1,IDENT_2,IDENT_3,IDENT_4,IDENT_5,IDENT_6,







"instance","child1","child2",
STRING_0,STRING_1,STRING_2,

























