testBasic,svnInfoToInteger,parseInt,
METHOD_0,METHOD_1,METHOD_2,

svninfo,openjpa,svn,SVNUtils,fullRevisionPattern,Matcher,revisionPattern,
IDENT_0,IDENT_1,IDENT_2,IDENT_3,IDENT_4,IDENT_5,IDENT_6,

12345678,
INT_0,




":",
STRING_0,

























