generateLargerWindowThanListTest,generate,lastIndexOf,
METHOD_0,METHOD_1,METHOD_2,

window,separator,ngrams,opennlp,ngram,NGramGenerator,outGrams,gram,
IDENT_0,IDENT_1,IDENT_2,IDENT_3,IDENT_4,IDENT_5,IDENT_6,IDENT_7,







"One","two","-",
STRING_0,STRING_1,STRING_2,

























