onMockFactoryProvided,SmartWroModelFactory,setFactoryList,inject,
METHOD_0,METHOD_1,METHOD_2,METHOD_3,

ro,isdc,wro,WroModelFactory,mockFactory,extensions,injector,callback,
IDENT_0,IDENT_1,IDENT_2,IDENT_3,IDENT_4,IDENT_5,IDENT_6,IDENT_7,


































