should_return_this,isLessThan,assertLessThan,
METHOD_0,METHOD_1,METHOD_2,

fest,assertions,BigDecimalAssert,returned,
IDENT_0,IDENT_1,IDENT_2,IDENT_3,


































