testFuncPtgSelection,parseFormula,confirmTokenClasses,
METHOD_0,METHOD_1,METHOD_2,

ss,formula,ptg,Ptg,ptgs,hssf,TestFormulaParser,FuncVarPtg,AreaPtg,IntPtg,FuncPtg,
IDENT_0,IDENT_1,IDENT_2,IDENT_3,IDENT_4,IDENT_5,IDENT_6,IDENT_7,IDENT_8,IDENT_9,IDENT_10,







"countif(A1:A2, 1)","Identified bug 44675","sin(1)",
STRING_0,STRING_1,STRING_2,

























