testDrawString,drawString,getChildren,
METHOD_0,METHOD_1,METHOD_2,

graphics,hssf,usermodel,HSSFTextbox,escherGroupA,
IDENT_0,IDENT_1,IDENT_2,IDENT_3,IDENT_4,







"This is a test",
STRING_0,

























