testSetColor,setColor,getColor,
METHOD_0,METHOD_1,METHOD_2,

graphics,Color,red,g2D,
IDENT_0,IDENT_1,IDENT_2,IDENT_3,







"getColor():",
STRING_0,

























