testGetConnectionByParameters,getConnection,
METHOD_0,METHOD_1,

Connection,dataSourceMock,delegatingDataSource,username,password,
IDENT_0,IDENT_1,IDENT_2,IDENT_3,IDENT_4,







"jeroen","password",
STRING_0,STRING_1,

























