testCloneSheetIntValid,createWorkbook,createSheet,cloneSheet,getNumberOfSheets,
METHOD_0,METHOD_1,METHOD_2,METHOD_3,METHOD_4,

ss,usermodel,Workbook,wb,_testDataProvider,
IDENT_0,IDENT_1,IDENT_2,IDENT_3,IDENT_4,







"Sheet01","ShouldFail",
STRING_0,STRING_1,

























