testCreateFillsMessageFromMessageParam,
METHOD_0,

JMSException,qpid,JmsExceptionSupport,ERROR_MESSAGE,CAUSE_MESSAGE,
IDENT_0,IDENT_1,IDENT_2,IDENT_3,IDENT_4,


































