testJmsConnectionIdFromJmsConnectionId,JmsConnectionId,
METHOD_0,METHOD_1,

qpid,JmsConnectionId,id1,firstId,id2,
IDENT_0,IDENT_1,IDENT_2,IDENT_3,IDENT_4,


































