testJmsConsumerIdFromJmsSessionId,JmsConsumerId,
METHOD_0,METHOD_1,

qpid,JmsConsumerId,id1,firstId,id2,
IDENT_0,IDENT_1,IDENT_2,IDENT_3,IDENT_4,


































