testDefaultToComplete,NoOpAsyncResult,isComplete,
METHOD_0,METHOD_1,METHOD_2,

qpid,NoOpAsyncResult,ProviderFuture,COMPLETING,
IDENT_0,IDENT_1,IDENT_2,IDENT_3,


































