testGetBooleanPropertyNull,getBooleanProperty,parseBoolean,
METHOD_0,METHOD_1,METHOD_2,

defaultValue,returnAvlue,ranger,PropertiesUtil,
IDENT_0,IDENT_1,IDENT_2,IDENT_3,


































