testGetLabelIsNUll,getLabel,isIdle,
METHOD_0,METHOD_1,METHOD_2,

enumName,enumValue,xaEnumUtil,checkValue,mDispatcherThread,
IDENT_0,IDENT_1,IDENT_2,IDENT_3,IDENT_4,







"CommonEnums.ActiveStatus",
STRING_0,

























