testStringInjectDefault,getTang,newInjector,getStringList,
METHOD_0,METHOD_1,METHOD_2,METHOD_3,

Tang,Factory,reef,tang,StringClass,wake,RemoteEvent,
IDENT_0,IDENT_1,IDENT_2,IDENT_3,IDENT_4,IDENT_5,IDENT_6,







"bye","hello","hi",
STRING_0,STRING_1,STRING_2,

























