should_return_this,endsWith,assertEndsWith,
METHOD_0,METHOD_1,METHOD_2,

fest,assertions,StringAssert,returned,arrays,sequence,
IDENT_0,IDENT_1,IDENT_2,IDENT_3,IDENT_4,IDENT_5,







"yo",
STRING_0,

























