should_return_this,isEqualToIgnoringCase,assertEqualsIgnoringCase,
METHOD_0,METHOD_1,METHOD_2,

fest,assertions,StringAssert,returned,strings,
IDENT_0,IDENT_1,IDENT_2,IDENT_3,IDENT_4,







"yoda",
STRING_0,

























