testCurrentCIDNotExists,createConsumerIdList,createMessageQueueList,AllocateMessageQueueConsistentHash,allocate,printMessageQueue,
METHOD_0,METHOD_1,METHOD_2,METHOD_3,METHOD_4,METHOD_5,

currentCID,consumerIdList,rocketmq,MessageQueue,messageQueueList,rebalance,messageQueue,
IDENT_0,IDENT_1,IDENT_2,IDENT_3,IDENT_4,IDENT_5,IDENT_6,







"testCurrentCIDNotExists",".......................................start",".......................................end",
STRING_0,STRING_1,STRING_2,

























