testRenameKeysWithConflicts,emptySet,renamePrefixKeys,mergeMaps,
METHOD_0,METHOD_1,METHOD_2,METHOD_3,

sentry,thrift,FullUpdateModifier,replacement,oldKey,updatedKey,newKey,
IDENT_0,IDENT_1,IDENT_2,IDENT_3,IDENT_4,IDENT_5,IDENT_6,







"foo.bar","baz.bar","foo.","baz.","^","(.*)","$1","Rename {} to {}","skipping key {} - already present",
STRING_0,STRING_1,STRING_2,STRING_3,STRING_4,STRING_5,STRING_6,STRING_7,STRING_8,

























