configuredMultipleCalls,createProvider,getCache,createCache,
METHOD_0,METHOD_1,METHOD_2,METHOD_3,

LruCacheProvider,CacheProvider,Cache,LruCache,
IDENT_0,IDENT_1,IDENT_2,IDENT_3,







"100",
STRING_0,

























