testEmptyJsonMap,convertToObject,getOwnerId,
METHOD_0,METHOD_1,METHOD_2,

emptyMap,beanJsonConverter,inject,TypeLiteral,
IDENT_0,IDENT_1,IDENT_2,IDENT_3,







"{}",
STRING_0,

























