testGetBypassSpecCache_1,OAuth2Arguments,getBypassSpecCache,
METHOD_0,METHOD_1,METHOD_2,

gadgets,oauth2,OAuth2Arguments,requestMock,bypassSpecCache,
IDENT_0,IDENT_1,IDENT_2,IDENT_3,IDENT_4,


































