testGetExpiresAt_1,getExpiresAt,
METHOD_0,METHOD_1,

gadgets,oauth2,OAuth2TokenPersistenceTest,accessToken,expiresAt,
IDENT_0,IDENT_1,IDENT_2,IDENT_3,IDENT_4,


































