testEquals_2,
METHOD_0,

PROVIDER,gadgets,ProxyUriBase,objUri,Objects,noCache,refresh,gadget,rewriteMimeType,sanitizeContent,cajoleContent,extensionParams,
IDENT_0,IDENT_1,IDENT_2,IDENT_3,IDENT_4,IDENT_5,IDENT_6,IDENT_7,IDENT_8,IDENT_9,IDENT_10,IDENT_11,


































