testBasicCssParse,getUserData,
METHOD_0,METHOD_1,

css,styleSheet,cajaCssParser,gadgets,HtmlSerializer,HtmlSerialization,KEY,
IDENT_0,IDENT_1,IDENT_2,IDENT_3,IDENT_4,IDENT_5,IDENT_6,







".xyz { font : bold; } A { color : #7f7f7f }",
STRING_0,

























