should_not_return_any_duplicates_if_collection_is_empty,duplicatesFrom,newHashSet,
METHOD_0,METHOD_1,METHOD_2,

duplicates,fest,LinkedHashSet,unique,Sets,
IDENT_0,IDENT_1,IDENT_2,IDENT_3,IDENT_4,


































