testLongBlockId,OraOopOracleDataChunkExtent,getWhereClause,
METHOD_0,METHOD_1,METHOD_2,

sqoop,oracle,OraOopOracleDataChunkExtent,chunk,whereClause,
IDENT_0,IDENT_1,IDENT_2,IDENT_3,IDENT_4,

2147483648L,4294967295L,
INT_0,INT_1,































