IndexedGraph,
METHOD_0,

clerezza,rdf,Graph,stanbol,indexedgraph,triple1,triple2,triple3,triple4,triple5,Triple,iter,uriRef1,triple,
IDENT_0,IDENT_1,IDENT_2,IDENT_3,IDENT_4,IDENT_5,IDENT_6,IDENT_7,IDENT_8,IDENT_9,IDENT_10,IDENT_11,IDENT_12,IDENT_13,


































