testCreateWithExistingId,getYard,
METHOD_0,METHOD_1,

stanbol,entityhub,servicesapi,yard,Yard,Representation,
IDENT_0,IDENT_1,IDENT_2,IDENT_3,IDENT_4,IDENT_5,


































