testIRIerence,testRef,getReference,
METHOD_0,METHOD_1,METHOD_2,

refObject,stanbol,entityhub,servicesapi,Reference,
IDENT_0,IDENT_1,IDENT_2,IDENT_3,IDENT_4,







"http://www.test.org/uriTest",
STRING_0,

























