testPrincipalReturnsNullWhenNoSubject,setSubject,Subject,principal,getPrincipals,
METHOD_0,METHOD_1,METHOD_2,METHOD_3,METHOD_4,

rc,Principal,princs,
IDENT_0,IDENT_1,IDENT_2,


































