testSchemaSchemaProto,newV1,getProto,newBuilder,setQuoted,
METHOD_0,METHOD_1,METHOD_2,METHOD_3,METHOD_4,

tajo,schema2,SchemaFactory,TajoDataTypes,IdentifierProto,quoted,
IDENT_0,IDENT_1,IDENT_2,IDENT_3,IDENT_4,IDENT_5,


































