testDigitValueError,digitValue,
METHOD_0,METHOD_1,

tajo,datum,protobuf,TextUtils,
IDENT_0,IDENT_1,IDENT_2,IDENT_3,







'!','0','9','a','z','A','Z',"Expected \"0-9\" or \"a-z, A-Z\".",
STRING_0,STRING_1,STRING_2,STRING_3,STRING_4,STRING_5,STRING_6,STRING_7,

























