testLoadPredefinedRules,loadPredefinedRules,getRules,
METHOD_0,METHOD_1,METHOD_2,

tajo,SelfDiagnosisRuleEngine,ruleEngine,wrapperMap,
IDENT_0,IDENT_1,IDENT_2,IDENT_3,


































