shouldHandleInstant,ofEpochMilli,serializeDeserialize,writeValue,readValue,
METHOD_0,METHOD_1,METHOD_2,METHOD_3,METHOD_4,

Instant,shaded,ObjectMapper,inputStream,
IDENT_0,IDENT_1,IDENT_2,IDENT_3,


































