shouldCallAsConsumer,ScriptEngineLambda,Junk,getData,
METHOD_0,METHOD_1,METHOD_2,METHOD_3,

gremlin,ScriptEngineLambda,lambda,ScriptEngineLambdaTest,Junk,junk,
IDENT_0,IDENT_1,IDENT_2,IDENT_3,IDENT_4,IDENT_5,







"nashorn","a.setData('test')",
STRING_0,STRING_1,

























