shouldNotApplySecondIfFirstFails,andThen,
METHOD_0,METHOD_1,

gremlin,TriConsumer,after,re,
IDENT_0,IDENT_1,IDENT_2,IDENT_3,







"second","c","Should have throw an exception",
STRING_0,STRING_1,STRING_2,

























