shouldGenerateCorrectSqlForMathOperations9,divideBy,getSqlFrom,plus,literal,expectedSqlForMathOperations9,
METHOD_0,METHOD_1,METHOD_2,METHOD_3,METHOD_4,METHOD_5,

alfasoftware,morf,AliasedField,dDivByE,SqlUtils,testDialect,
IDENT_0,IDENT_1,IDENT_2,IDENT_3,IDENT_4,IDENT_5,







"c","d","e","f","a + b + (c / d) + e + 100 + f / 5",
STRING_0,STRING_1,STRING_2,STRING_3,STRING_4,

























