testGetPrefix,getURI,getPrefix,lastIndexOf,
METHOD_0,METHOD_1,METHOD_2,METHOD_3,

prefix,gremlin,sparql,Prefixes,tmp,
IDENT_0,IDENT_1,IDENT_2,IDENT_3,IDENT_4,







"#",
STRING_0,

























