testJoinElementsNull,
METHOD_0,

separator,catalina,CorsFilter,joinSeparator,isFirst,
IDENT_0,IDENT_1,IDENT_2,IDENT_3,IDENT_4,







",",
STRING_0,

























