testDateToString,ICalDate,reflectionToString,
METHOD_0,METHOD_1,METHOD_2,

fortuna,ical4j,unitedinternet,cosmo,calendar,ToStringBuilder,
IDENT_0,IDENT_1,IDENT_2,IDENT_3,IDENT_4,IDENT_5,







"20021010",";VALUE=DATE;X-OSAF-ANYTIME=TRUE:20021010",
STRING_0,STRING_1,

























