testListWebAppPathsFile,listWebAppPaths,getMount,
METHOD_0,METHOD_1,METHOD_2,

resourceRoot,
IDENT_0,







"/d1/d1-f1.txt","/mount",
STRING_0,STRING_1,

























