testBug51557Invalid,Bug51557Client,doRequest,isResponse400,getResponseLine,
METHOD_0,METHOD_1,METHOD_2,METHOD_3,METHOD_4,

coyote,http11,TestInternalInputBuffer,Bug51557Client,catalina,startup,SimpleHttpClient,FAIL_400,
IDENT_0,IDENT_1,IDENT_2,IDENT_3,IDENT_4,IDENT_5,IDENT_6,IDENT_7,







"X-Bug51557=Invalid","1234",
STRING_0,STRING_1,

























