testSubstreamStartEnd01,ELProcessor,defineBean,offer,
METHOD_0,METHOD_1,METHOD_2,METHOD_3,

ELProcessor,TestCollectionOperations,TesterBeanA,bean02,E,
IDENT_0,IDENT_1,IDENT_2,IDENT_3,IDENT_4,







"beans","beans.stream().substream(1,2).toList()",
STRING_0,STRING_1,

























