testTransactionShouldRollback,reset,sendToQueue,
METHOD_0,METHOD_1,METHOD_2,

messageCounter,senderBean,
IDENT_0,IDENT_1,







"Hello world",
STRING_0,

























