jarFromResource,
METHOD_0,

thisJar,ziplock,JarLocation,openejb,ivm,IntraVmCopyMonitor,threadMonitor,
IDENT_0,IDENT_1,IDENT_2,IDENT_3,IDENT_4,IDENT_5,IDENT_6,







"resources.txt",
STRING_0,

























