findAll,
METHOD_0,

openejb,DynamicEJBImplTest,users,jug,CommandManager,COMMANDS,
IDENT_0,IDENT_1,IDENT_2,IDENT_3,IDENT_4,IDENT_5,


































