getAll,getDynamicProperties,
METHOD_0,METHOD_1,

usergrid,chop,webapp,RunResultDaoTest,RunResult,ESSuiteTest,runResultDao,runResult,
IDENT_0,IDENT_1,IDENT_2,IDENT_3,IDENT_4,IDENT_5,IDENT_6,IDENT_7,







"\n===RunResultDaoTest.getAll===\n",
STRING_0,

























