testGetAvailablePorts_int_int,getAvailablePorts,getDynamicProperties,
METHOD_0,METHOD_1,METHOD_2,

usergrid,AvailablePortFinder,
IDENT_0,IDENT_1,

2000,
INT_0,































