writeReadStringWithLongKey,createMapManager,putString,
METHOD_0,METHOD_1,METHOD_2,

usergrid,MapManager,mm,mmf,scope,returned,mapSerialization,
IDENT_0,IDENT_1,IDENT_2,IDENT_3,IDENT_4,IDENT_5,IDENT_6,







"key1234567890123456789012345678901234567890123456789012345678901234567890","123456789012345678901234567890123456789012345678901234567890123456789012345678901234567890",
STRING_0,STRING_1,

























