orderByGrammar,getSortPredicates,
METHOD_0,METHOD_1,

usergrid,ParsedQuery,ParsedQueryBuilder,sortPredicateList,
IDENT_0,IDENT_1,IDENT_2,IDENT_3,







"select * where name = 'bob' order by name asc",
STRING_0,

























