testDelRepo,addRepo,getRepos,delRepo,
METHOD_0,METHOD_1,METHOD_2,METHOD_3,

zeppelin,dep,DependencyResolverTest,reposCnt,repos,
IDENT_0,IDENT_1,IDENT_2,IDENT_3,IDENT_4,







"securecentral","https://repo1.maven.org/maven2","badId",
STRING_0,STRING_1,STRING_2,

























