isValidunkownTicket,getTicket,
METHOD_0,METHOD_1,

ticket,ok,principal,zeppelin,TicketContainer,sessions,
IDENT_0,IDENT_1,IDENT_2,IDENT_3,IDENT_4,IDENT_5,







"someuser2","makeitinvalid","anonymous",
STRING_0,STRING_1,STRING_2,

























