testNoSystemPropertyDefined,getDefaultValue,
METHOD_0,METHOD_1,

jasig,cas,ConfigurationKey,ConfigurationKeys,SERVER_NAME,defaultValue,
IDENT_0,IDENT_1,IDENT_2,IDENT_3,IDENT_4,IDENT_5,


































