testGetLayoutLocale,getLayoutLocale,getLanguage,getCountry,
METHOD_0,METHOD_1,METHOD_2,METHOD_3,

layoutLocaleElement,
IDENT_0,


































