testEvaluate,ObjectToStringTextualConverter,getInternalFunction,
METHOD_0,METHOD_1,METHOD_2,

sandia,cognition,ObjectToStringTextualConverter,inputs,InputType,
IDENT_0,IDENT_1,IDENT_2,IDENT_3,IDENT_4,










2.3,
FLOAT_0,






















