test_native_frame2,StackTraceElement,StackFrame,getSimpleName,
METHOD_0,METHOD_1,METHOD_2,METHOD_3,

StackTraceElement,ste,gridkit,jvmtool,stacktrace,StackFrame,frame,facade,
IDENT_0,IDENT_1,IDENT_2,IDENT_3,IDENT_4,IDENT_5,IDENT_6,IDENT_7,







"MyClass","myMethod","myclass.cpp","(",")",
STRING_0,STRING_1,STRING_2,STRING_3,STRING_4,

























