createDatabase,drop,createDatabaseRequest,createDatabaseResponseDeserializer,
METHOD_0,METHOD_1,METHOD_2,METHOD_3,

arangoDB,BaseTest,TEST_DB,arangodb,ArangoDBException,
IDENT_0,IDENT_1,IDENT_2,IDENT_3,IDENT_4,


































