testBinary,ToBinary,eval,compile,
METHOD_0,METHOD_1,METHOD_2,METHOD_3,

araqne,logdb,ToBinary,binary,Row,isLhString,lh,isRhString,rh,cmp,Term,comp,operator,Eq,Neq,Gt,Lt,Ge,Le,Contain,Regexp,Pattern,pp,MULTILINE,In,IsNull,NotNull,
IDENT_0,IDENT_1,IDENT_2,IDENT_3,IDENT_4,IDENT_5,IDENT_6,IDENT_7,IDENT_8,IDENT_9,IDENT_10,IDENT_11,IDENT_12,IDENT_13,IDENT_14,IDENT_15,IDENT_16,IDENT_17,IDENT_18,IDENT_19,IDENT_20,IDENT_21,IDENT_22,IDENT_23,IDENT_24,IDENT_25,IDENT_26,







"0123456789",",( )*",",",
STRING_0,STRING_1,STRING_2,

























