testColorIsCached,RGB,
METHOD_0,METHOD_1,

graphics,Color,color1,archimatetool,editor,ColorFactory,color2,red,green,blue,
IDENT_0,IDENT_1,IDENT_2,IDENT_3,IDENT_4,IDENT_5,IDENT_6,IDENT_7,IDENT_8,IDENT_9,

11,22,33,
INT_0,INT_1,INT_2,































