testSetTextAlignment,setTextAlignment,getTextAlignment,
METHOD_0,METHOD_1,METHOD_2,

ITextAlignment,TEXT_ALIGNMENT_RIGHT,textAlignmentEClass,
IDENT_0,IDENT_1,IDENT_2,


































