canHandleDataAlreadyPresentSeparatedByNewline,waitUntil,
METHOD_0,METHOD_1,

ardulink,StreamReader,received,MILLISECONDS,
IDENT_0,IDENT_1,IDENT_2,IDENT_3,







"c","a\nb\nc\n",
STRING_0,STRING_1,

























