iteratorOnEmpty,
METHOD_0,

ardulink,ListMultiMap,sut,bytesRead,underBuffer,delimiter,interrupted,
IDENT_0,IDENT_1,IDENT_2,IDENT_3,IDENT_4,IDENT_5,IDENT_6,


































