testParseArgsWithConvertPositionalArg,addArgument,nargs,parseArgs,
METHOD_0,METHOD_1,METHOD_2,METHOD_3,

ap,argparse4j,inf,Namespace,attrs_,dest,
IDENT_0,IDENT_1,IDENT_2,IDENT_3,IDENT_4,IDENT_5,







"*","1 2 3",
STRING_0,STRING_1,

























