testRunWithDefaultNonList,
METHOD_0,

attrs,act,arg,attrs_,dest,
IDENT_0,IDENT_1,IDENT_2,IDENT_3,IDENT_4,







"dest","default","hello",
STRING_0,STRING_1,STRING_2,

























