testUncheckConverterWorj,toUnchecked,
METHOD_0,METHOD_1,

simpleflatmapper,ContextualConverter,UncheckedConverterHelper,UncheckedConverterImpl,I,O,
IDENT_0,IDENT_1,IDENT_2,IDENT_3,IDENT_4,IDENT_5,







"Ok!",
STRING_0,

























