testUncheckConverterFail,convertUncheck,toUnchecked,
METHOD_0,METHOD_1,METHOD_2,

simpleflatmapper,ContextualConverter,UncheckedConverterHelper,
IDENT_0,IDENT_1,IDENT_2,







"What!",
STRING_0,

























