ArraySizeGetter,getInt,
METHOD_0,METHOD_1,

simpleflatmapper,getter,ArraySizeGetter,csv,CsvRow,
IDENT_0,IDENT_1,IDENT_2,IDENT_3,IDENT_4,


































