testEqualsOnSameKey,
METHOD_0,

simpleflatmapper,asm,InstantiatorKey,DbObject,NullChecker,keySourceGetter,
IDENT_0,IDENT_1,IDENT_2,IDENT_3,IDENT_4,IDENT_5,


































