testCreateSet,getSet,unmodifiableSet,
METHOD_0,METHOD_1,METHOD_2,

simpleflatmapper,SetCollector,collectorHandler,
IDENT_0,IDENT_1,IDENT_2,







"3",
STRING_0,

























