testSetOpenListKONotSameSize,setOpened,setOpenList,getOpenList,getShapes,isOpened,
METHOD_0,METHOD_1,METHOD_2,METHOD_3,METHOD_4,METHOD_5,

open1,open2,sh,latexdraw,ClosableProp,Collectors,
IDENT_0,IDENT_1,IDENT_2,IDENT_3,IDENT_4,IDENT_5,


































