testCollect,isDefinedAt,sqrt,
METHOD_0,METHOD_1,METHOD_2,

ajjpj,afoundation,APartialFunctionNoThrow,squareRoot,ACollectionHelper,
IDENT_0,IDENT_1,IDENT_2,IDENT_3,IDENT_4,


































