testMirrorHorizontal,createPoint,getPosition,mirrorHorizontal,getGravityCentre,getX,getPtAt,
METHOD_0,METHOD_1,METHOD_2,METHOD_3,METHOD_4,METHOD_5,METHOD_6,

latexdraw,shape,Point,ShapeFactory,INST,
IDENT_0,IDENT_1,IDENT_2,IDENT_3,IDENT_4,


































