testToString,parseInterval,UUIDSet,fromString,combine,
METHOD_0,METHOD_1,METHOD_2,METHOD_3,METHOD_4,

cases,ss,otter,canal,mysql,packets,UUIDSet,Interval,intervals,uuidSet,SID,
IDENT_0,IDENT_1,IDENT_2,IDENT_3,IDENT_4,IDENT_5,IDENT_6,IDENT_7,IDENT_8,IDENT_9,IDENT_10,







"726757ad-4455-11e8-ae04-0242ac110002:1","726757ad-4455-11e8-ae04-0242ac110002:1-3","726757ad-4455-11e8-ae04-0242ac110002:1-3:4-6","726757ad-4455-11e8-ae04-0242ac110002:1-6","726757ad-4455-11e8-ae04-0242ac110002:1-3:5-7",":","parseUUIDSet failed due to wrong format: %s",
STRING_0,STRING_1,STRING_2,STRING_3,STRING_4,STRING_5,STRING_6,

























