only_header,readObject,cast,
METHOD_0,METHOD_1,METHOD_2,

csv,CsvParser,canGet,ClassNotFoundException,EOFException,OptionalDataException,eof,
IDENT_0,IDENT_1,IDENT_2,IDENT_3,IDENT_4,IDENT_5,IDENT_6,







"key","key,value\r\n",
STRING_0,STRING_1,

























