begin_field_eof,AstSimpleName,addFirst,toMemberName,
METHOD_0,METHOD_1,METHOD_2,METHOD_3,

dmdl,JavaName,jn,
IDENT_0,IDENT_1,IDENT_2,







"is",
STRING_0,

























