testEqualsPattern,endsWith,lastIndexOf,
METHOD_0,METHOD_1,METHOD_2,

bogusPatterns,bogusSources,bogusSource,bogusPattern,pathMatcher,
IDENT_0,IDENT_1,IDENT_2,IDENT_3,IDENT_4,







"/index.html","/favicon.ico","/xyz","*",
STRING_0,STRING_1,STRING_2,STRING_3,

























