escape_null_separator,readAllLines,toPath,findFirst,orElseThrow,AssertionError,
METHOD_0,METHOD_1,METHOD_2,METHOD_3,METHOD_4,METHOD_5,

Files,
IDENT_0,







"\\N\t",
STRING_0,

























