v_int,readInt,writeInt,
METHOD_0,METHOD_1,METHOD_2,

JsonFormat,JsonFormatTest,Data,w,intValue,written,
IDENT_0,IDENT_1,IDENT_2,IDENT_3,IDENT_4,IDENT_5,


































