createOutput,dump,deserialize,compile,parseInt,copyOfRange,
METHOD_0,METHOD_1,METHOD_2,METHOD_3,METHOD_4,METHOD_5,

directio,AbstractJsonStreamFormatTest,MockFormat,ModelOutput,charset,StandardCharsets,Pattern,Matcher,omatch,ostart,fmatch,fstart,sz,
IDENT_0,IDENT_1,IDENT_2,IDENT_3,IDENT_4,IDENT_5,IDENT_6,IDENT_7,IDENT_8,IDENT_9,IDENT_10,IDENT_11,IDENT_12,

256,
INT_0,




"dummy","\\{(.*?)\\}","\"(\\d+)\"\\s*:\\s*(\\d+),?",
STRING_0,STRING_1,STRING_2,

























