parseFileList_empty,canonicalize,parseFileList,AstSimpleName,addFirst,toMemberName,
METHOD_0,METHOD_1,METHOD_2,METHOD_3,METHOD_4,METHOD_5,

yaess,bootstrap,CommandLineUtil,dmdl,JavaName,jn,
IDENT_0,IDENT_1,IDENT_2,IDENT_3,IDENT_4,IDENT_5,







"is",
STRING_0,

























