less,not,Not,
METHOD_0,METHOD_1,METHOD_2,

exit,testdata,excel,Main,testdriver,ValuePredicate,predicate,
IDENT_0,IDENT_1,IDENT_2,IDENT_3,IDENT_4,IDENT_5,IDENT_6,







"predicate must not be null",
STRING_0,

























