testReplace,keySet,
METHOD_0,METHOD_1,

replaced,Pattern,aksw,cubeqa,Replacer,numbers,Matcher,
IDENT_0,IDENT_1,IDENT_2,IDENT_3,IDENT_4,IDENT_5,IDENT_6,







"Which 1.5 thousand agencies in the 3,7 million Maldives have proposed expenditure amounts of more than 1 billion Maldivian rufiyaa in 2015?","Which 1500 agencies in the 3700000 Maldives have proposed expenditure amounts of more than 1000000000 Maldivian rufiyaa in 2015?",',','.',
STRING_0,STRING_1,STRING_2,STRING_3,

























