notEmptyIsIncludedInSubchain,ProxyChain,subchains,getProxyChains,
METHOD_0,METHOD_1,METHOD_2,METHOD_3,

asquera,ProxyChain,proxyChains,
IDENT_0,IDENT_1,IDENT_2,







"123.134.123.213",
STRING_0,

























