testIsDebugDefault,setTopologyDebugSampleRate,nextLong,isDebug,sample,
METHOD_0,METHOD_1,METHOD_2,METHOD_3,METHOD_4,

jstorm,ConfigExtension,daemon,worker,JStormDebugger,tries,lottery,num,root_id,
IDENT_0,IDENT_1,IDENT_2,IDENT_3,IDENT_4,IDENT_5,IDENT_6,IDENT_7,IDENT_8,

50000,
INT_0,










--,
OP_0,



















