test2,CustBean,ExpressRunner,
METHOD_0,METHOD_1,METHOD_2,

ql,express,IExpressContext,expressContext,DefaultContext,ExpressRunner,
IDENT_0,IDENT_1,IDENT_2,IDENT_3,IDENT_4,IDENT_5,







"cust.setName(\"小强\");","return cust.getName();","cust",
STRING_0,STRING_1,STRING_2,

























