readData6,fileExist,readAllLine,setFileReader,readData,
METHOD_0,METHOD_1,METHOD_2,METHOD_3,METHOD_4,

filereader,bluetoothReader,att,aro,peripheral,pojo,BluetoothInfo,bluetoothInfo,sessionTable,
IDENT_0,IDENT_1,IDENT_2,IDENT_3,IDENT_4,IDENT_5,IDENT_6,IDENT_7,IDENT_8,







"1.413913535177E9 DISCONNECTED","this should generate \"Invalid Bluetooth trace entry:...\"","1.413913591806E9 CONNECTED",
STRING_0,STRING_1,STRING_2,

























