readData2,fileExist,readAllLine,delta,setFileReader,readData,
METHOD_0,METHOD_1,METHOD_2,METHOD_3,METHOD_4,METHOD_5,

filereader,sum,bluetoothReader,att,aro,peripheral,pojo,BluetoothInfo,bluetoothInfo,sessionTable,
IDENT_0,IDENT_1,IDENT_2,IDENT_3,IDENT_4,IDENT_5,IDENT_6,IDENT_7,IDENT_8,IDENT_9,







"1.413913535177E9 CONNECTED","1.413913591806E9 CONNECTED","1.413913610613E9 OFF","1.413913620683E9 DISCONNECTED","1.413913620883E9 CONNECTED","1.413913622533E9 CONNECTED",
STRING_0,STRING_1,STRING_2,STRING_3,STRING_4,STRING_5,

























