test_getLog,getShellReturn,getLog,
METHOD_0,METHOD_1,METHOD_2,

logcatResponse,ddmlib,IDevice,testResult,rootedAndroidCollectorImpl,
IDENT_0,IDENT_1,IDENT_2,IDENT_3,IDENT_4,







"loggy","last","echo ''Android version :'';getprop ro.build.version.release;logcat -d",
STRING_0,STRING_1,STRING_2,

























