testBuildGetIndexUrl,buildGetIndexUrl,getHost,getPort,getIndex,
METHOD_0,METHOD_1,METHOD_2,METHOD_3,METHOD_4,

aureliano,evtbridge,ESUrlHelper,IElasticSearchConfiguration,
IDENT_0,IDENT_1,IDENT_2,IDENT_3,







"http://localhost:9200/test","http://",":",
STRING_0,STRING_1,STRING_2,

























