builderInShouldSetReportFormat,ReportInfoBuilder,ReportInfo,
METHOD_0,METHOD_1,METHOD_2,

autentia,tnt,ReportInfo,ReportInfoBuilder,ReportFormat,PDF,category,
IDENT_0,IDENT_1,IDENT_2,IDENT_3,IDENT_4,IDENT_5,IDENT_6,


































