shouldGenerateBarcodeUrl,getQrBarcodeUrl,urlFragmentEscaper,escape,
METHOD_0,METHOD_1,METHOD_2,METHOD_3,

secret,xephi,authme,crypts,TwoFactor,escape,Escaper,urlEscaper,UrlEscapers,
IDENT_0,IDENT_1,IDENT_2,IDENT_3,IDENT_4,IDENT_5,IDENT_6,IDENT_7,IDENT_8,







"tester","192.168.0.4","3AK6Y4KWGRLJMEQW","https://www.google.com/chart?chs=130x130&chld=M%7C0&cht=qr","&chl=otpauth://totp/tester@192.168.0.4%3Fsecret%3D3AK6Y4KWGRLJMEQW","https://www.google.com/chart?chs=130x130&chld=M%%7C0&cht=qr&chl=","otpauth://totp/","%s@%s%%3Fsecret%%3D%s",
STRING_0,STRING_1,STRING_2,STRING_3,STRING_4,STRING_5,STRING_6,STRING_7,

























