testSymmetric3,GeoSpatialFeature,EuclideanDistance,distance,isEqual,abs,
METHOD_0,METHOD_1,METHOD_2,METHOD_3,METHOD_4,METHOD_5,

spimedb,spatial,GeoSpatialFeature,t1,t2,distance,EuclideanDistance,d1,d2,epsilon,
IDENT_0,IDENT_1,IDENT_2,IDENT_3,IDENT_4,IDENT_5,IDENT_6,IDENT_7,IDENT_8,IDENT_9,










43.653226,79.3831843,43.4642578,80.5204096,
FLOAT_0,FLOAT_1,FLOAT_2,FLOAT_3,






















