dbNameTest,openConnection,getDbName,
METHOD_0,METHOD_1,METHOD_2,

ru,qatools,school,twister,DatabaseProvider,DB_NAME,
IDENT_0,IDENT_1,IDENT_2,IDENT_3,IDENT_4,IDENT_5,







"db.name",
STRING_0,

























