asyncServiceInvocationShouldRunAsynchronouslyWithMethodCalll,ping,setResponse,
METHOD_0,METHOD_1,METHOD_2,

Future,ping,
IDENT_0,IDENT_1,


































