awaitUsingCallTo,Asynch,perform,await,untilCall,greaterThan,
METHOD_0,METHOD_1,METHOD_2,METHOD_3,METHOD_4,METHOD_5,

awaitility,fakeRepository,AwaitilityClassProxy,currentConditionValue,
IDENT_0,IDENT_1,IDENT_2,IDENT_3,


































