testStart,GTPuEntity,setAcceptor,isStarted,
METHOD_0,METHOD_1,METHOD_2,METHOD_3,

lte,gtp,GTPuEntity,acceptor,
IDENT_0,IDENT_1,IDENT_2,IDENT_3,







"localhost",
STRING_0,

























