testSkipExcluded,LengthCheckInputStream,consumeInputStream,skip,
METHOD_0,METHOD_1,METHOD_2,METHOD_3,

EXCLUDE_SKIPPED_BYTES,StreamUtils,hasBeenAccessed,
IDENT_0,IDENT_1,IDENT_2,

90,
INT_0,































