testSetTopic,setTopic,getTopic,getTopicARN,
METHOD_0,METHOD_1,METHOD_2,METHOD_3,

topicModel,
IDENT_0,







"not-test-topic","test-topic",
STRING_0,STRING_1,

























