equals_differentType_returnFalse,
METHOD_0,

s3,AmazonS3URI,isPathStyle,bucket,versionId,region,
IDENT_0,IDENT_1,IDENT_2,IDENT_3,IDENT_4,IDENT_5,


































