setGetDescription,CodeSample,setDescription,getDescription,
METHOD_0,METHOD_1,METHOD_2,METHOD_3,

codesamples,CodeSample,sample,
IDENT_0,IDENT_1,IDENT_2,







"ID","Service","Description",
STRING_0,STRING_1,STRING_2,

























