nullAttributeValue,Attribute,
METHOD_0,METHOD_1,

software,awssdk,dynamodb,Attribute,
IDENT_0,IDENT_1,IDENT_2,IDENT_3,







"null attribute value is fine",
STRING_0,

























