fromJSON_null,fromJson,SuppressWarnings,fromJsonString,fromMap,
METHOD_0,METHOD_1,METHOD_2,METHOD_3,METHOD_4,

software,awssdk,dynamodb,Item,VALUE_CONFORMER,JacksonUtils,
IDENT_0,IDENT_1,IDENT_2,IDENT_3,IDENT_4,IDENT_5,







"unchecked",
STRING_0,

























