toAttributeValue_emptyList,toAttributeValue,
METHOD_0,METHOD_1,

software,awssdk,dynamodb,AttributeValue,av,InternalUtils,
IDENT_0,IDENT_1,IDENT_2,IDENT_3,IDENT_4,IDENT_5,


































