tt0031561767,parseRfc1123Date,formatRfc1123Date,ofInstant,
METHOD_0,METHOD_1,METHOD_2,METHOD_3,

Instant,instant,software,awssdk,DateUtils,RFC_1123_DATE_TIME,ZonedDateTime,UTC,
IDENT_0,IDENT_1,IDENT_2,IDENT_3,IDENT_4,IDENT_5,IDENT_6,IDENT_7,







"Fri, 16 May 2014 23:56:46 GMT",
STRING_0,

























