generativeTest,Random,nextInt,nextBytes,randomMessage,allocate,slice,flip,
METHOD_0,METHOD_1,METHOD_2,METHOD_3,METHOD_4,METHOD_5,METHOD_6,METHOD_7,

SEED,software,eventstream,Random,rand,padding,baos,arraylen,arrayoffset,decoded,Prelude,
IDENT_0,IDENT_1,IDENT_2,IDENT_3,IDENT_4,IDENT_5,IDENT_6,IDENT_7,IDENT_8,IDENT_9,IDENT_10,

8912374098123423L,10000,128,1024,256,
INT_0,INT_1,INT_2,INT_3,INT_4,































