testEncryptionKey,getData,getEncryptionKey,setJob,requireNonNull,
METHOD_0,METHOD_1,METHOD_2,METHOD_3,METHOD_4,

mockJob,mockJobData,mockEncryptionKey,Objects,
IDENT_0,IDENT_1,IDENT_2,IDENT_3,







"The job is null","The job data is null",
STRING_0,STRING_1,

























