testLockItemDoesNotHaveSessionMonitor,getShortLeaseLock,hasSessionMonitor,isPresent,
METHOD_0,METHOD_1,METHOD_2,METHOD_3,

dynamodbv2,LockItem,sessionMonitor,
IDENT_0,IDENT_1,IDENT_2,


































