hasCallback_whenCallbackNotNull_returnTrue,SessionMonitor,hasCallback,
METHOD_0,METHOD_1,METHOD_2,

dynamodbv2,SessionMonitor,sut,callback,
IDENT_0,IDENT_1,IDENT_2,IDENT_3,


































