testGetExclusiveStartShardId,getExclusiveStartShardId,
METHOD_0,METHOD_1,

mockRequest,TEST_STRING,internalRequest,
IDENT_0,IDENT_1,IDENT_2,


































