testTextTable2,TextTable,addHeaders,addRow,print,collectOutput,flush,
METHOD_0,METHOD_1,METHOD_2,METHOD_3,METHOD_4,METHOD_5,METHOD_6,

row1,row2,row3,expectedOutput,activiti,karaf,TextTable,backingStream,
IDENT_0,IDENT_1,IDENT_2,IDENT_3,IDENT_4,IDENT_5,IDENT_6,IDENT_7,







"col1","column2","c3","myvalue2","myvalue3","myvalue111111111111111111111111111111x"," col1 column2 c3 \n","[myvalue1 ][myvalue2][myvalue3 ]\n","[myvalue111111111111111111111111111111x][myvalue2][myvalue3 ]\n","[myvalue1 ][myvalue2][myvalue33333333333333333333x]\n",
STRING_0,STRING_1,STRING_2,STRING_3,STRING_4,STRING_5,STRING_6,STRING_7,STRING_8,STRING_9,

























