testNextAndExtract_EmptyResultSet,nextAndExtract,extract,
METHOD_0,METHOD_1,METHOD_2,

resultSet,axonframework,JdbcUtils,columnType,
IDENT_0,IDENT_1,IDENT_2,IDENT_3,


































