testNextAndExtract_NullValue,getObject,nextAndExtract,extract,
METHOD_0,METHOD_1,METHOD_2,METHOD_3,

resultSet,axonframework,JdbcUtils,columnType,
IDENT_0,IDENT_1,IDENT_2,IDENT_3,


































