testListFilter,InstanceFilter,setOnlyOwner,instances,getOwner,iterable,lazyLoad,
METHOD_0,METHOD_1,METHOD_2,METHOD_3,METHOD_4,METHOD_5,METHOD_6,

aliyun,odps,InstanceFilter,Instance,iter,owner,
IDENT_0,IDENT_1,IDENT_2,IDENT_3,IDENT_4,IDENT_5,













--,
OP_0,



















