getValueStringByKeyMapNull,getValueStringByKey,
METHOD_0,METHOD_1,

keyName,deps,Tools,retVal,
IDENT_0,IDENT_1,IDENT_2,IDENT_3,


































