testGetCommandText,SQLTask,setQuery,getCommandText,
METHOD_0,METHOD_1,METHOD_2,METHOD_3,

aliyun,odps,SQLTask,
IDENT_0,IDENT_1,IDENT_2,







"select count(*) from src;",
STRING_0,

























