encryptSignatureUsingHmacSha256,encryptSignatureHmacSha256,SecretKeySpec,doFinal,
METHOD_0,METHOD_1,METHOD_2,METHOD_3,

testSig,SignatureHelperTest,UTF8,deviceKey,testEncryptedSig,SignatureHelper,expectedEncryptedSig,hmacSha256,SecretKeySpec,secretKey,encryptedSig,Mac,hMacSha256,sig,NoSuchAlgorithmException,InvalidKeyException,
IDENT_0,IDENT_1,IDENT_2,IDENT_3,IDENT_4,IDENT_5,IDENT_6,IDENT_7,IDENT_8,IDENT_9,IDENT_10,IDENT_11,IDENT_12,IDENT_13,IDENT_14,IDENT_15,

91,220,193,70,191,96,117,78,106,36,38,149,199,90,63,157,39,57,131,236,88,185,56,67,
INT_0,INT_1,INT_2,INT_3,INT_4,INT_5,INT_6,INT_7,INT_8,INT_9,INT_10,INT_11,INT_12,INT_13,INT_14,INT_15,INT_16,INT_17,INT_18,INT_19,INT_20,INT_21,INT_22,INT_23,




"what do ya want for nothing?","Jefe","HmacSHA256",
STRING_0,STRING_1,STRING_2,

























