getInstanceTest,unmarshall,
METHOD_0,METHOD_1,

aliyuncs,UnmarshallerContext,dbs,v20190306,DescribeBackupGatewayListResponseUnmarshaller,
IDENT_0,IDENT_1,IDENT_2,IDENT_3,IDENT_4,


































