setClientTypeTest,setClientType,getClientType,
METHOD_0,METHOD_1,METHOD_2,

aliyuncs,AuthUtils,clientType,
IDENT_0,IDENT_1,IDENT_2,







"default",
STRING_0,

























