getStatusReturnsStatus,HttpResponse,
METHOD_0,METHOD_1,

headerFields,errorReason,expectedStatus,HttpResponse,testStatus,
IDENT_0,IDENT_1,IDENT_2,IDENT_3,IDENT_4,


































