canListNetworkUsages,usages,listByRegion,
METHOD_0,METHOD_1,METHOD_2,

NetworkUsage,usages,networkManager,Region,US_EAST,
IDENT_0,IDENT_1,IDENT_2,IDENT_3,IDENT_4,


































