canGetEvent,
METHOD_0,

eventId,applicationinsights,EventsResults,eventsResult,ApplicationInsightsDataClientTests,applicationInsightsClient,appId,EventType,AVAILABILITY_RESULTS,
IDENT_0,IDENT_1,IDENT_2,IDENT_3,IDENT_4,IDENT_5,IDENT_6,IDENT_7,IDENT_8,







"e313e0a0-9c1f-11e8-9f6d-3b25765db004",
STRING_0,

























