canEscapePathWithSafeForPath,escape,utf16ToAscii,
METHOD_0,METHOD_1,METHOD_2,

implementation,PercentEscaper,escaper,UrlEscapers,PATH_ESCAPER,UrlEscaperTests,safeForPath,usePlusForSpace,HEX,safeChars,
IDENT_0,IDENT_1,IDENT_2,IDENT_3,IDENT_4,IDENT_5,IDENT_6,IDENT_7,IDENT_8,IDENT_9,







' ',"+",'a','z','A','Z','0','9',
STRING_0,STRING_1,STRING_2,STRING_3,STRING_4,STRING_5,STRING_6,STRING_7,

























