withSchemeWhenSchemeIsNull,UrlBuilder,withScheme,scheme,
METHOD_0,METHOD_1,METHOD_2,METHOD_3,

implementation,UrlBuilder,
IDENT_0,IDENT_1,







"http",
STRING_0,

























