withPathWhenBuilderPathIsNullAndPathIsEmptyString,UrlBuilder,withPath,
METHOD_0,METHOD_1,METHOD_2,

implementation,UrlBuilder,
IDENT_0,IDENT_1,


































