constructor,UrlTokenizer,current,
METHOD_0,METHOD_1,METHOD_2,

implementation,UrlTokenizer,tokenizer,currentToken,
IDENT_0,IDENT_1,IDENT_2,IDENT_3,







"http://www.bing.com",
STRING_0,

























