firstTest,randomResourceName,resourceGroups,define,withRegion,
METHOD_0,METHOD_1,METHOD_2,METHOD_3,METHOD_4,

v2017_03_30,ComputeTest,rgName,arm,SdkContext,ResourceGroup,resourceManager,Region,US_WEST,
IDENT_0,IDENT_1,IDENT_2,IDENT_3,IDENT_4,IDENT_5,IDENT_6,IDENT_7,IDENT_8,







"rg",
STRING_0,

























