canCheckContainsAllForObjectsInList,createStringListResult,containsAll,
METHOD_0,METHOD_1,METHOD_2,

windowsazure,ListResult,expectedStrings,contents,
IDENT_0,IDENT_1,IDENT_2,IDENT_3,


































