testGetSetName,JobInfo,JobType,getContent,
METHOD_0,METHOD_1,METHOD_2,METHOD_3,

expectedName,windowsazure,JobInfo,implementation,actualName,
IDENT_0,IDENT_1,IDENT_2,IDENT_3,IDENT_4,







"testGetSetName",
STRING_0,

























