searchEmptyIndexShouldReturnNullRevision,getRevision,
METHOD_0,METHOD_1,

b2international,revision,RevisionFixtures,RevisionData,MAIN,STORAGE_KEY1,branch,
IDENT_0,IDENT_1,IDENT_2,IDENT_3,IDENT_4,IDENT_5,IDENT_6,


































