testId,getSearchRequestParameters,
METHOD_0,METHOD_1,

b2international,snowowl,SearchRequestParameters,
IDENT_0,IDENT_1,IDENT_2,







"http://localhost?_id=1",
STRING_0,

























