testCache,createDefaults,hasCache,containsParameter,
METHOD_0,METHOD_1,METHOD_2,METHOD_3,

n52,IoParameters,CACHE,
IDENT_0,IDENT_1,IDENT_2,


































