selfAndNotOther,eval,mustNot,
METHOD_0,METHOD_1,METHOD_2,

b2international,Expression,snowowl,snomed,ecl,SnomedEclEvaluationRequestTest,ROOT_ID,OTHER_ID,Expressions,Void,
IDENT_0,IDENT_1,IDENT_2,IDENT_3,IDENT_4,IDENT_5,IDENT_6,IDENT_7,IDENT_8,IDENT_9,







" MINUS ",
STRING_0,

























