test_blogjava,checking,Expectations,allowing,bb,will,returnValue,say,hello,aa,blogjava,
METHOD_0,METHOD_1,METHOD_2,METHOD_3,METHOD_4,METHOD_5,METHOD_6,METHOD_7,METHOD_8,METHOD_9,METHOD_10,

jmock,csb,esb,sex,blogServiceBean,
IDENT_0,IDENT_1,IDENT_2,IDENT_3,IDENT_4,


































