givenDetachedUser_whenServiceLoadByEmail_thenCorrect,registerUser,findUserByEmail,getEmail,
METHOD_0,METHOD_1,METHOD_2,METHOD_3,

user2,userService,email,
IDENT_0,IDENT_1,IDENT_2,


































