responseMapTest,UnmarshallerContext,setResponseMap,getResponseMap,
METHOD_0,METHOD_1,METHOD_2,METHOD_3,

aliyuncs,UnmarshallerContext,unmarshallerContext,responseMap,
IDENT_0,IDENT_1,IDENT_2,IDENT_3,







"floatValueKey","100.5",
STRING_0,STRING_1,

























