testCustomerList,all,getURI,getTotal,ResourceIterator,
METHOD_0,METHOD_1,METHOD_2,METHOD_3,METHOD_4,

balancedpayments,Customer,customerz,resource_href,customers,href,ResourcePage,cls,items,
IDENT_0,IDENT_1,IDENT_2,IDENT_3,IDENT_4,IDENT_5,IDENT_6,IDENT_7,IDENT_8,


































