testDeleteBankAccount,BankAccount,unstore,
METHOD_0,METHOD_1,METHOD_2,

balancedpayments,BankAccount,bankAccount,routing_number,account_number,account_type,href,Debit,resource_href,
IDENT_0,IDENT_1,IDENT_2,IDENT_3,IDENT_4,IDENT_5,IDENT_6,IDENT_7,IDENT_8,







"Harry Fakester","121042882","112233a","checking",
STRING_0,STRING_1,STRING_2,STRING_3,

























