addCorrupt,IOFile,Add,isDir,children,toPath,
METHOD_0,METHOD_1,METHOD_2,METHOD_3,METHOD_4,METHOD_5,

basex,IOFile,AddDeleteTest,TEMP,BaseXException,ignored,ok,Files,Util,
IDENT_0,IDENT_1,IDENT_2,IDENT_3,IDENT_4,IDENT_5,IDENT_6,IDENT_7,IDENT_8,







"<x","Broken file was added to the database.",
STRING_0,STRING_1,




&=,
OP_0,



















