testSingleDelete,Cell,newTimestamp,isSuccess,
METHOD_0,METHOD_1,METHOD_2,METHOD_3,

basho,riak,timeseries,Cell,keyCells,fiveMinsAgo,ts,DeleteOperation,deleteOp,RiakFuture,Void,coreFuture,
IDENT_0,IDENT_1,IDENT_2,IDENT_3,IDENT_4,IDENT_5,IDENT_6,IDENT_7,IDENT_8,IDENT_9,IDENT_10,IDENT_11,







"hash2","user4",
STRING_0,STRING_1,

























