testBestPathSelectionTieBreakRouterId,mergeRoute,setOriginatorIp,getRoutes,
METHOD_0,METHOD_1,METHOD_2,METHOD_3,

_bestPathRib,_rb,BgpRoute,bestPath,Ip,_routes,
IDENT_0,IDENT_1,IDENT_2,IDENT_3,IDENT_4,IDENT_5,







"1.1.0.1",
STRING_0,

























