testGetMessageCountUpTo,getMessageCountUpTo,queueClient,verifyNoMoreInteractions,
METHOD_0,METHOD_1,METHOD_2,METHOD_3,

_server,_authQueueService,_apiKey,limit,
IDENT_0,IDENT_1,IDENT_2,IDENT_3,

123L,10000L,
INT_0,INT_1,




"queue-name",
STRING_0,

























