testConsumingTokenDecreasesNumTokens,addTokens,consume,getNumTokens,refill,
METHOD_0,METHOD_1,METHOD_2,METHOD_3,METHOD_4,

refillStrategy,bucket,
IDENT_0,IDENT_1,


































