shouldReturnIntegerValue,immutableEntry,
METHOD_0,METHOD_1,

percentage,Maps,devtools,worker,WorkerOptions,MultiResourceConverter,valueConverter,
IDENT_0,IDENT_1,IDENT_2,IDENT_3,IDENT_4,IDENT_5,IDENT_6,







'=',
STRING_0,

























