testExportSimple,KmlDocument,createKml,getExpectedExportSimple,
METHOD_0,METHOD_1,METHOD_2,METHOD_3,

esa,kmz,KmlDocument,kmlDocument,
IDENT_0,IDENT_1,IDENT_2,IDENT_3,







"Pluto","Dog of Mickey","<Document>","<name>Pluto</name>","<description>Dog of Mickey</description>","</Document>",
STRING_0,STRING_1,STRING_2,STRING_3,STRING_4,STRING_5,

























