testExport,KmlPlacemark,createKml,getExpected,
METHOD_0,METHOD_1,METHOD_2,METHOD_3,

esa,kmz,KmlPlacemark,kmlPlacemark,Point2D,
IDENT_0,IDENT_1,IDENT_2,IDENT_3,IDENT_4,







"Pin","<Placemark>","<name>Pin</name>","<Point>","<coordinates>12.5,60.9,0</coordinates>","</Point>","</Placemark>",
STRING_0,STRING_1,STRING_2,STRING_3,STRING_4,STRING_5,STRING_6,

12.5,60.9,
FLOAT_0,FLOAT_1,






















