testParseDataType,createReader,createMandatoryHeader,Header,getDataType,
METHOD_0,METHOD_1,METHOD_2,METHOD_3,METHOD_4,

dataType,BufferedReader,esa,dataio,envi,HeaderTest,Header,
IDENT_0,IDENT_1,IDENT_2,IDENT_3,IDENT_4,IDENT_5,IDENT_6,







"data type = ",
STRING_0,

























