testNull,isValidModelPixelScale,isValidData,
METHOD_0,METHOD_1,METHOD_2,

defaultValues,esa,dataio,geotiff,modelTransformation,
IDENT_0,IDENT_1,IDENT_2,IDENT_3,IDENT_4,


































