testConstruction,iteratorHasBins,
METHOD_0,METHOD_1,

esa,dataio,TestDefinition,testDefinitionList,binFiles,
IDENT_0,IDENT_1,IDENT_2,IDENT_3,IDENT_4,


































