testParseHtml,
METHOD_0,

Jsoup,tpl,cn,bc,FreeMarkerUtils,
IDENT_0,IDENT_1,IDENT_2,IDENT_3,IDENT_4,







"<html><head><title>First parse</title></head>","<body><id>1</id><></></body></html>",
STRING_0,STRING_1,

























