generics_paramater_type,eval,
METHOD_0,METHOD_1,

clas,bsh,TestUtil,
IDENT_0,IDENT_1,IDENT_2,







"checkList(List<Integer> list) {","list.get(0);","}","List<Integer> l = new ArrayList<>();","l.add(1);","checkList(l);",
STRING_0,STRING_1,STRING_2,STRING_3,STRING_4,STRING_5,

























