notEmpty_filledMap_isValid,notEmpty,
METHOD_0,METHOD_1,

nonEmptyMap,qualitycheck,Check,EMPTY_ARGUMENT_NAME,
IDENT_0,IDENT_1,IDENT_2,IDENT_3,







"key",
STRING_0,

























