testEnumerationOverride,def,construct,BlueprintSession,
METHOD_0,METHOD_1,METHOD_2,METHOD_3,

qualitytest,blueprint,BlueprintTest_enumeration,SimpleEnum,Blueprint,D,
IDENT_0,IDENT_1,IDENT_2,IDENT_3,IDENT_4,IDENT_5,


































