hashCodeOfAbsolutePathTest,
METHOD_0,

beijunyi,parallelgit,filesystem,GitPath,p1,gfs,p2,gitPath,
IDENT_0,IDENT_1,IDENT_2,IDENT_3,IDENT_4,IDENT_5,IDENT_6,IDENT_7,







"/a/b/c",
STRING_0,

























