absolutePathGetParentTest,getParent,initOffsets,getRootPath,arraycopy,GitPath,
METHOD_0,METHOD_1,METHOD_2,METHOD_3,METHOD_4,METHOD_5,

beijunyi,parallelgit,filesystem,GitPath,gfs,bParent,offsets,
IDENT_0,IDENT_1,IDENT_2,IDENT_3,IDENT_4,IDENT_5,IDENT_6,







"/a","/a/b",
STRING_0,STRING_1,

























