testEmptySqlQuery,
METHOD_0,

Stream,be,bendem,sqlstreams,Wrap,executeUpdate,
IDENT_0,IDENT_1,IDENT_2,IDENT_3,IDENT_4,IDENT_5,







"select * from test",
STRING_0,

























