testConstructEmptyDocument,ImmutableDocument,RootDocument,getElements,
METHOD_0,METHOD_1,METHOD_2,METHOD_3,

ImmutableDocument,myElements,
IDENT_0,IDENT_1,


































