testNoQueryString,generate,parseValue,
METHOD_0,METHOD_1,METHOD_2,

qsg,queryParmMap,queryString,
IDENT_0,IDENT_1,IDENT_2,







"?","Expected a non-empty key","&","=",
STRING_0,STRING_1,STRING_2,STRING_3,

























