happyCase,forName,Blob,MimeType,setAttachment,getAttachment,
METHOD_0,METHOD_1,METHOD_2,METHOD_3,METHOD_4,METHOD_5,

charset,Charset,isis,applib,Blob,newAttachment,activation,toDoItem,attachment,
IDENT_0,IDENT_1,IDENT_2,IDENT_3,IDENT_4,IDENT_5,IDENT_6,IDENT_7,IDENT_8,







"{\"foo\": \"bar\"}","UTF-8","myfile.json","application/json",
STRING_0,STRING_1,STRING_2,STRING_3,

























