testCreateByFile,classPath,
METHOD_0,METHOD_1,

ss,usermodel,Workbook,workbook,biezhi,excel,plus,ExcelUtil,BaseTest,
IDENT_0,IDENT_1,IDENT_2,IDENT_3,IDENT_4,IDENT_5,IDENT_6,IDENT_7,IDENT_8,







"/SampleData.xlsx","/abc.xlsx",
STRING_0,STRING_1,

























