testWriteClassName5,User1,setB,Parameters,setNeedWriteClassName,parsePBBytes,toPBBytes,getB,
METHOD_0,METHOD_1,METHOD_2,METHOD_3,METHOD_4,METHOD_5,METHOD_6,METHOD_7,

testcase,User1,jd,dd,glowworm,Parameters,PB,
IDENT_0,IDENT_1,IDENT_2,IDENT_3,IDENT_4,IDENT_5,IDENT_6,


































