testByte,executeBackAndForth,
METHOD_0,METHOD_1,

Byte,testcase,rule_id,item_id,warning_value,
IDENT_0,IDENT_1,IDENT_2,IDENT_3,IDENT_4,







"RuleItem{","rule_id='",'\'',", item_id='",", warning_value='",", description='",'}',
STRING_0,STRING_1,STRING_2,STRING_3,STRING_4,STRING_5,STRING_6,

























