testMaxIn,newHashMap,classResourceToLines,Eql,selectFirst,
METHOD_0,METHOD_1,METHOD_2,METHOD_3,METHOD_4,

Maps,n3r,eql,C,rows,parts,
IDENT_0,IDENT_1,IDENT_2,IDENT_3,IDENT_4,IDENT_5,







"order_no1.txt","list","mycat","testMaxIn",
STRING_0,STRING_1,STRING_2,STRING_3,

























