testIssue2,fromBio,intersection,isSameStrand,intersect,
METHOD_0,METHOD_1,METHOD_2,METHOD_3,METHOD_4,

biojava,nbio,genome,parsers,gff,Location,l1,l2,intersection,mStart,mEnd,
IDENT_0,IDENT_1,IDENT_2,IDENT_3,IDENT_4,IDENT_5,IDENT_6,IDENT_7,IDENT_8,IDENT_9,IDENT_10,

99,
INT_0,




'+',"Locations are on opposite strands.",
STRING_0,STRING_1,

























