testParseRegularExpressionInArrayStrict,JsonParser,pushArray,addRegularExpression,subElements,
METHOD_0,METHOD_1,METHOD_2,METHOD_3,METHOD_4,

JsonParser,DocumentBuilder,BuilderFactory,
IDENT_0,IDENT_1,IDENT_2,







"{ a : [{ $regex : '.*1', $options : '' }, ","{ $regex : '.*2' }, { $regex : '.*3' , $options : 'i'}] }",".*1",".*2",".*3","i",
STRING_0,STRING_1,STRING_2,STRING_3,STRING_4,STRING_5,

























