testGetSetInsCode,ResidueNumber,getInsCode,
METHOD_0,METHOD_1,METHOD_2,

biojava,nbio,structure,ResidueNumber,Character,resNum,
IDENT_0,IDENT_1,IDENT_2,IDENT_3,IDENT_4,IDENT_5,

42,
INT_0,




"A",' ',
STRING_0,STRING_1,

























