testRemark800ToPDB_0args,remark800toPDB,
METHOD_0,METHOD_1,

biojava,nbio,structure,SiteTest,newline,catSite,stringBuffer,
IDENT_0,IDENT_1,IDENT_2,IDENT_3,IDENT_4,IDENT_5,IDENT_6,







"REMARK 800 SITE_IDENTIFIER: CAT ","REMARK 800 EVIDENCE_CODE: UNKNOWN ","REMARK 800 SITE_DESCRIPTION: ACTIVE SITE ",
STRING_0,STRING_1,STRING_2,

























