testGetSetChainId,ResidueNumber,getChainName,
METHOD_0,METHOD_1,METHOD_2,

biojava,nbio,structure,ResidueNumber,chainName,
IDENT_0,IDENT_1,IDENT_2,IDENT_3,IDENT_4,

42,
INT_0,




"A",' ',
STRING_0,STRING_1,

























