correctlyParseNullString,CSVWriter,writeNext,
METHOD_0,METHOD_1,METHOD_2,

bytecode,opencsv,sw,CSVWriter,csvw,
IDENT_0,IDENT_1,IDENT_2,IDENT_3,IDENT_4,







',','\'',
STRING_0,STRING_1,

























