testParseTimestampInArray,pushArray,addMongoTimestamp,subElements,
METHOD_0,METHOD_1,METHOD_2,METHOD_3,

Json,DocumentBuilder,BuilderFactory,
IDENT_0,IDENT_1,IDENT_2,

4294967298L,
INT_0,




"{ a : [Timestamp(1000,2)] }",
STRING_0,

























