applyTest,
METHOD_0,

liqp,Template,rendered,
IDENT_0,IDENT_1,IDENT_2,







"{{ '' | remove:'a' }}","{{ nil | remove:'a' }}","{{ 'aabb' | remove:'ab' }}","ab","{{ 'ababab' | remove:'a' }}","bbb",
STRING_0,STRING_1,STRING_2,STRING_3,STRING_4,STRING_5,

























