applyTest,
METHOD_0,

liqp,Template,rendered,
IDENT_0,IDENT_1,IDENT_2,







"{% if 1.0 == 1 %}TRUE{% else %}FALSE{% endif %}","TRUE","{% if nil == nil %}TRUE{% else %}FALSE{% endif %}","{% if false == false %}TRUE{% else %}FALSE{% endif %}","{% if \"\" == \'\' %}TRUE{% else %}FALSE{% endif %}",
STRING_0,STRING_1,STRING_2,STRING_3,STRING_4,

























