applyTest,
METHOD_0,

liqp,Template,rendered,
IDENT_0,IDENT_1,IDENT_2,







"{% if 42 and 1234 %}TRUE{% else %}FALSE{% endif %}","TRUE","{% if 'x' and true %}TRUE{% else %}FALSE{% endif %}","{% if false and true %}TRUE{% else %}FALSE{% endif %}","FALSE","{% if false and '' %}TRUE{% else %}FALSE{% endif %}","{% if nil and true %}TRUE{% else %}FALSE{% endif %}","{% if nil and false %}TRUE{% else %}FALSE{% endif %}",
STRING_0,STRING_1,STRING_2,STRING_3,STRING_4,STRING_5,STRING_6,STRING_7,

























