testParseStr2,parseExpress,toMap,
METHOD_0,METHOD_1,METHOD_2,

blinkfox,zealot,ParseHelper,ParamWrapper,paramMap,
IDENT_0,IDENT_1,IDENT_2,IDENT_3,IDENT_4,







"sex == 1","sex",
STRING_0,STRING_1,

























