deleteMacro,forceDelete,
METHOD_0,METHOD_1,

scanner,blizzy,documentr,markdown,macro,GroovyMacroScannerTest,MACRO_NAME,macrosDir,FileUtils,
IDENT_0,IDENT_1,IDENT_2,IDENT_3,IDENT_4,IDENT_5,IDENT_6,IDENT_7,IDENT_8,







".groovy",
STRING_0,

























