testLineStringListOfPoint2D,lineString,
METHOD_0,METHOD_1,

jsonDoc,Json,geoDoc,GeoJson,Point2D,
IDENT_0,IDENT_1,IDENT_2,IDENT_3,IDENT_4,







"{ 'type': 'LineString', 'coordinates': [ "," [1,2], [3,4], [5,6] ] }",
STRING_0,STRING_1,

























