testPoint,point,
METHOD_0,METHOD_1,

jsonDoc,Json,geoDoc,GeoJson,Point2D,
IDENT_0,IDENT_1,IDENT_2,IDENT_3,IDENT_4,







"{ 'type': 'Point', 'coordinates': [5.1,6.2] }",
STRING_0,

5.1,6.2,
FLOAT_0,FLOAT_1,






















