testDaysBackIds,PubmedSearch2,searchIdsDaysBack,TextFileWriter,addLine,
METHOD_0,METHOD_1,METHOD_2,METHOD_3,METHOD_4,

articles,epfl,bbp,uima,pubmed,TextFileWriter,article,
IDENT_0,IDENT_1,IDENT_2,IDENT_3,IDENT_4,IDENT_5,IDENT_6,







"target/last_day.txt",
STRING_0,

























