testNeuron,PubmedSearch,
METHOD_0,METHOD_1,

nih,nlm,ncbi,www,soap,eutils,EFetchPubmedServiceStub,PubmedArticleType,articles,epfl,bbp,uima,pubmed,
IDENT_0,IDENT_1,IDENT_2,IDENT_3,IDENT_4,IDENT_5,IDENT_6,IDENT_7,IDENT_8,IDENT_9,IDENT_10,IDENT_11,IDENT_12,







"axon",
STRING_0,

























