testConsumerLargerThanProducer,FixedColumn,FixedColumnDeltaProducer,putInt,configure,hasContent,
METHOD_0,METHOD_1,METHOD_2,METHOD_3,METHOD_4,METHOD_5,

questdb,FixedColumn,col1,col2,file2,ha,producer,FixedColumnDeltaProducer,
IDENT_0,IDENT_1,IDENT_2,IDENT_3,IDENT_4,IDENT_5,IDENT_6,IDENT_7,

1500000,500000,
INT_0,INT_1,































