testPlusDouble,getFactory,JournalStructure,$str,$double,Rnd,entryWriter,putStr,nextString,putDouble,nextDouble,StringSink,RecordSourcePrinter,BootstrapEnv,ServerConfiguration,setLhs,DoubleRecordSourceColumn,getMetadata,getColumnIndex,setRhs,DoubleConstant,VirtualColumnRecordSource,compile,print,
METHOD_0,METHOD_1,METHOD_2,METHOD_3,METHOD_4,METHOD_5,METHOD_6,METHOD_7,METHOD_8,METHOD_9,METHOD_10,METHOD_11,METHOD_12,METHOD_13,METHOD_14,METHOD_15,METHOD_16,METHOD_17,METHOD_18,METHOD_19,METHOD_20,METHOD_21,METHOD_22,METHOD_23,

questdb,JournalWriter,w,std,Rnd,rnd,JournalEntryWriter,ew,StringSink,sink,ql,RecordSourcePrinter,BootstrapEnv,env,ops,plus,AddDoubleOperator,FACTORY,col,constant,virtual,VirtualColumnRecordSource,src,ObjList,VirtualColumn,timestamp,sym,bid,ask,bidSize,askSize,mode,
IDENT_0,IDENT_1,IDENT_2,IDENT_3,IDENT_4,IDENT_5,IDENT_6,IDENT_7,IDENT_8,IDENT_9,IDENT_10,IDENT_11,IDENT_12,IDENT_13,IDENT_14,IDENT_15,IDENT_16,IDENT_17,IDENT_18,IDENT_19,IDENT_20,IDENT_21,IDENT_22,IDENT_23,IDENT_24,IDENT_25,IDENT_26,IDENT_27,IDENT_28,IDENT_29,IDENT_30,IDENT_31,







"XUNYQXTGNJ\t6.359375000000\t18.859375000000\n","ccy","PVQFULMERT\t0.000005817310\t12.500005817310\n","plus","DEYYQEHBHF\t0.000000401164\t12.500000401164\n","QHGJBFQBBK\t103.908081054688\t116.408081054688\n","RFBVTMHGOO\t172.796875000000\t185.296875000000\n","ZGHWVDKFLO\t0.000102697388\t12.500102697388\n","ZULIGYVFZF\t-327.250000000000\t-314.750000000000\n","XBBZVRLPTY\t70.810325622559\t83.310325622559\n","Quote{","timestamp=",", sym='",'\'',", bid=",", ask=",", bidSize=",", askSize=",", mode='",", ex='",'}',
STRING_0,STRING_1,STRING_2,STRING_3,STRING_4,STRING_5,STRING_6,STRING_7,STRING_8,STRING_9,STRING_10,STRING_11,STRING_12,STRING_13,STRING_14,STRING_15,STRING_16,STRING_17,STRING_18,STRING_19,STRING_20,

12.5,
FLOAT_0,
















02,03,00,01,
OCT_0,OCT_1,OCT_2,OCT_3,




