testMiddleSource,RecordSourcePrinter,TopRecordSource,compile,LongConstant,print,getFactory,
METHOD_0,METHOD_1,METHOD_2,METHOD_3,METHOD_4,METHOD_5,METHOD_6,

questdb,ql,RecordSourcePrinter,sink,RecordSource,ops,constant,timestamp,sym,bid,ask,bidSize,askSize,mode,
IDENT_0,IDENT_1,IDENT_2,IDENT_3,IDENT_4,IDENT_5,IDENT_6,IDENT_7,IDENT_8,IDENT_9,IDENT_10,IDENT_11,IDENT_12,IDENT_13,

102,112,
INT_0,INT_1,




"quote","2013-09-04T10:00:00.000Z\tTLW.L\t0.003675992833\t0.000000006044\t233699709\t984001343\tFast trading\tLXE\n","2013-09-04T10:00:00.000Z\tGKN.L\t0.000001392326\t0.000000010696\t1921077830\t83098719\tFast trading\tLXE\n","2013-09-04T10:00:00.000Z\tHSBA.L\t125.000000000000\t113.359375000000\t347349195\t1619900957\tFast trading\tLXE\n","2013-09-04T10:00:00.000Z\tTLW.L\t0.000000539488\t1.938893854618\t1012023467\t596418088\tFast trading\tLXE\n","2013-09-04T10:00:00.000Z\tBP.L\t0.009742939146\t0.000000729716\t952785207\t94086655\tFast trading\tLXE\n","2013-09-04T10:00:00.000Z\tBT-A.L\t10.085297346115\t0.293467730284\t1376102367\t166757857\tFast trading\tLXE\n","2013-09-04T10:00:00.000Z\tABF.L\t488.272369384766\t342.142333984375\t1016986855\t1939793032\tFast trading\tLXE\n","2013-09-04T10:00:00.000Z\tABF.L\t0.025374564342\t0.009976797737\t1448235215\t107181743\tFast trading\tLXE\n","2013-09-04T10:00:00.000Z\tAGK.L\t335.908935546875\t492.000000000000\t1466344037\t79845289\tFast trading\tLXE\n","Quote{","timestamp=",", sym='",'\'',", bid=",", ask=",", bidSize=",", askSize=",", mode='",", ex='",'}',
STRING_0,STRING_1,STRING_2,STRING_3,STRING_4,STRING_5,STRING_6,STRING_7,STRING_8,STRING_9,STRING_10,STRING_11,STRING_12,STRING_13,STRING_14,STRING_15,STRING_16,STRING_17,STRING_18,STRING_19,STRING_20,

























