testMergingIterator,$new,ResultSetIterator,
METHOD_0,METHOD_1,METHOD_2,

listA,listB,questdb,MergingIterator,iter,
IDENT_0,IDENT_1,IDENT_2,IDENT_3,IDENT_4,

11,13,14,17,
INT_0,INT_1,INT_2,INT_3,































