createMeShouldSetUserAsMe,createMe,isMe,
METHOD_0,METHOD_1,METHOD_2,

usikkert,kouchat,misc,meFactory,
IDENT_0,IDENT_1,IDENT_2,IDENT_3,


































