loadStoredSettingsShouldNotSetOwnColorIfNotSet,loadStoredSettings,getOwnColor,
METHOD_0,METHOD_1,METHOD_2,

settingsLoader,settings,ownColor,
IDENT_0,IDENT_1,IDENT_2,


































