testExpectError2,parseDouble,getPow10,
METHOD_0,METHOD_1,METHOD_2,

off,blynk,NumberUtil,NO_RESULT,numSign,number,startOffset,dval,numberLength,expSign,exponent,
IDENT_0,IDENT_1,IDENT_2,IDENT_3,IDENT_4,IDENT_5,IDENT_6,IDENT_7,IDENT_8,IDENT_9,IDENT_10,

300,
INT_0,




'+','-','0','9','.','e','E',
STRING_0,STRING_1,STRING_2,STRING_3,STRING_4,STRING_5,STRING_6,

10.0,1.0E-300,
FLOAT_0,FLOAT_1,

--,*=,
OP_0,OP_1,



















