shouldParseArguments,parseArguments,getRows,
METHOD_0,METHOD_1,METHOD_2,

parseArguments,uut,
IDENT_0,IDENT_1,







"kind:default id:10",
STRING_0,

























