shouldConvertToResource,toBinary,binaryToResource,
METHOD_0,METHOD_1,METHOD_2,

bmsantos,cola,RESOURCE_SEPARATOR,binaryFormat,ColaUtils,
IDENT_0,IDENT_1,IDENT_2,IDENT_3,IDENT_4,







"com","github","bmsantos","MyClass",".",
STRING_0,STRING_1,STRING_2,STRING_3,STRING_4,

























