emptyMapHasSizeZero,MultiMap,mapToInt,sum,
METHOD_0,METHOD_1,METHOD_2,METHOD_3,

joynr,MultiMap,multiMap,
IDENT_0,IDENT_1,IDENT_2,


































