testAnyShallow,regexRemove,stringifyRaw,stringify,
METHOD_0,METHOD_1,METHOD_2,METHOD_3,

raw,issue,
IDENT_0,IDENT_1,







"*",",\"userId\":\"[a-zA-Z0-9-_]+\"",",\"user\":\\{.*?\\}",",\"entityType\":\"User\"",
STRING_0,STRING_1,STRING_2,STRING_3,

























