testSetValuesSuccess,Triple,setValues,getValues,
METHOD_0,METHOD_1,METHOD_2,METHOD_3,

goodoldai,jeff,explanation,three,
IDENT_0,IDENT_1,IDENT_2,IDENT_3,

400,
INT_0,




"Male","Female",
STRING_0,STRING_1,

























