testGetGroups,getPeopleInterface,getGroups,getNsid,
METHOD_0,METHOD_1,METHOD_2,METHOD_3,

flickr4java,flickr,people,PeopleInterface,iface,groups,GroupList,Group,testProperties,
IDENT_0,IDENT_1,IDENT_2,IDENT_3,IDENT_4,IDENT_5,IDENT_6,IDENT_7,IDENT_8,







"24573443@N04",
STRING_0,

























