testGetAllContentFromInputStream,getAllContentFrom,
METHOD_0,METHOD_1,

inputStream,IOUtil,
IDENT_0,IDENT_1,







"theContent\nVeryGreatContent",
STRING_0,

























