select_should_return_true_if_flow_node_is_startable,isStartable,mustSelect,
METHOD_0,METHOD_1,METHOD_2,

flowNode,definition,SFlowNodeDefinition,flowNodeNames,
IDENT_0,IDENT_1,IDENT_2,IDENT_3,


































