getValueShouldBeNull,SAXMLObjectDataInstanceImpl,
METHOD_0,METHOD_1,

archive,SAXMLObjectDataInstanceImpl,saxmlObjectDataInstanceImpl,
IDENT_0,IDENT_1,IDENT_2,


































