setBlobValue,createNewInstance,blobValue,done,getBlobValue,
METHOD_0,METHOD_1,METHOD_2,METHOD_3,METHOD_4,

queriablelogger,SQueriableLogParameter,
IDENT_0,IDENT_1,







"returnValue","String","blobValue",
STRING_0,STRING_1,STRING_2,

























