testPostBody,InetSocketAddress,createContext,MyHandler,setExecutor,post,stop,
METHOD_0,METHOD_1,METHOD_2,METHOD_3,METHOD_4,METHOD_5,METHOD_6,

httpserver,HttpServer,boon,HTTPTest,HTTP,
IDENT_0,IDENT_1,IDENT_2,IDENT_3,IDENT_4,

9290,
INT_0,




"/test","http://localhost:9290/test","hi mom",
STRING_0,STRING_1,STRING_2,

























