sliceStartNeg,
METHOD_0,

list2,boon,Handler,responseHandler,
IDENT_0,IDENT_1,IDENT_2,IDENT_3,







"apple","oranges","pears","grapes","kiwi",
STRING_0,STRING_1,STRING_2,STRING_3,STRING_4,

























