testWithJSONStringArray,JsonSimpleSerializerImpl,JsonParserFactory,
METHOD_0,METHOD_1,METHOD_2,

cats,sRick,boon,serializers,gatos,
IDENT_0,IDENT_1,IDENT_2,IDENT_3,IDENT_4,







"Felix","Tom",
STRING_0,STRING_1,

























