testBetweenSalaryAndFirstNameEQ_SECOND_TERM_FOUND,$q,sortedQuery,between,
METHOD_0,METHOD_1,METHOD_2,METHOD_3,

boon,Employee,queryableList,ObjectFilter,
IDENT_0,IDENT_1,IDENT_2,IDENT_3,







"firstName","salary","firstA",
STRING_0,STRING_1,STRING_2,

























