testGetGroupNoGroup,WCollapsibleToggle,getGroup,
METHOD_0,METHOD_1,METHOD_2,

bordertech,wcomponents,WCollapsibleToggle,toggle,
IDENT_0,IDENT_1,IDENT_2,IDENT_3,


































