testGetIconClasses,getIconClasses,
METHOD_0,METHOD_1,

icon,bordertech,wcomponents,HtmlIconUtil,
IDENT_0,IDENT_1,IDENT_2,IDENT_3,







"fa-some-icon","wc-icon fa-some-icon",
STRING_0,STRING_1,

























