addOneFilterToEffect,addFilter,getNumberFilters,
METHOD_0,METHOD_1,METHOD_2,

bogdan,imagefilters,effect,Filter,
IDENT_0,IDENT_1,IDENT_2,IDENT_3,


































