testSetBegunBy,getBegunBy,setBegunBy,
METHOD_0,METHOD_1,METHOD_2,

temporal,Period,instant1,begunby,DefaultInstant,begunBy,
IDENT_0,IDENT_1,IDENT_2,IDENT_3,IDENT_4,IDENT_5,


































