testSetBeginning,getBeginning,setBeginning,
METHOD_0,METHOD_1,METHOD_2,

ordinalEra1,temporal,DefaultOrdinalEra,begin,
IDENT_0,IDENT_1,IDENT_2,IDENT_3,


































