emptyRS,executeQuery,step,throwex,
METHOD_0,METHOD_1,METHOD_2,METHOD_3,

stat,open,lastCol,maxRows,statusCode,pointer,SQLITE_DONE,SQLITE_ROW,SQLITE_BUSY,
IDENT_0,IDENT_1,IDENT_2,IDENT_3,IDENT_4,IDENT_5,IDENT_6,IDENT_7,IDENT_8,







"select null limit 0;",
STRING_0,

























