destroy,Function,xFunc,executeQuery,
METHOD_0,METHOD_1,METHOD_2,METHOD_3,

sqlite,Function,SQLException,UDFTest,stat,
IDENT_0,IDENT_1,IDENT_2,IDENT_3,IDENT_4,







"f1","select f1();",
STRING_0,STRING_1,

























