getCommandToExecute,getIndexOfCommandParameter,subList,
METHOD_0,METHOD_1,METHOD_2,

retryCommandSpy,originalArgs,indexOfCommandParameter,commandToExecute,
IDENT_0,IDENT_1,IDENT_2,IDENT_3,







"retry","-d","tmp","-c","ls","-al",
STRING_0,STRING_1,STRING_2,STRING_3,STRING_4,STRING_5,

























