channelNameValidatorTest,validChannelName,
METHOD_0,METHOD_1,

words,LinkedHashMap,ok,allbegray,slack,SlackFieldValidationUtils,
IDENT_0,IDENT_1,IDENT_2,IDENT_3,IDENT_4,IDENT_5,







"abcA","_","a0-G","deleted-channel","everyone","090","project_nicehop","_test","error : ",
STRING_0,STRING_1,STRING_2,STRING_3,STRING_4,STRING_5,STRING_6,STRING_7,STRING_8,

























