isBlankWithPresentNode,findFirst,isBlank,
METHOD_0,METHOD_1,METHOD_2,

braintreegateway,NodeWrapper,SimpleNodeWrapper,
IDENT_0,IDENT_1,IDENT_2,







"<toplevel><foo>test</foo></toplevel>","true","nil",
STRING_0,STRING_1,STRING_2,

























