testIterator,FastList,StubStatement,
METHOD_0,METHOD_1,METHOD_2,

zaxxer,hikari,FastList,Statement,mocks,StubStatement,iter,elementData,
IDENT_0,IDENT_1,IDENT_2,IDENT_3,IDENT_4,IDENT_5,IDENT_6,IDENT_7,


































