level2Miss,previousClearBit,IndexOutOfBoundsException,
METHOD_0,METHOD_1,METHOD_2,

zaxxer,sparsebits,SparseBitSet,SHIFT3,SHIFT2,bits,aSize,w,w3,MASK3,w2,MASK2,w1,SHIFT1,w4,LENGTH4,word,a2,a3,bitIdx,LENGTH4_SIZE,LENGTH3_SIZE,LENGTH2_SIZE,
IDENT_0,IDENT_1,IDENT_2,IDENT_3,IDENT_4,IDENT_5,IDENT_6,IDENT_7,IDENT_8,IDENT_9,IDENT_10,IDENT_11,IDENT_12,IDENT_13,IDENT_14,IDENT_15,IDENT_16,IDENT_17,IDENT_18,IDENT_19,IDENT_20,IDENT_21,IDENT_22,







"i=",
STRING_0,




%,--,
OP_0,OP_1,



















