testDefaultViaImpl,ConfigurationObjectFactory,getOption,
METHOD_0,METHOD_1,METHOD_2,

skife,ConfigurationObjectFactory,Config2,invocationCount,
IDENT_0,IDENT_1,IDENT_2,IDENT_3,







"default",
STRING_0,

























