testAddJsonBuildersOnObject,buildObject,getJson,JsonParser,
METHOD_0,METHOD_1,METHOD_2,METHOD_3,

jglue,fluentjson,JsonBuilder,aList,JsonBuilderFactory,JsonObject,jsonArray,JsonElement,R,
IDENT_0,IDENT_1,IDENT_2,IDENT_3,IDENT_4,IDENT_5,IDENT_6,IDENT_7,IDENT_8,







"hello","c","world","val","{\"val\":[{\"b\"}, {\"0hello\",\"c\"}, {\"0world\"}, {\"b\"}, {\"0hello\",\"c\"}, {\"0world\"}]}",
STRING_0,STRING_1,STRING_2,STRING_3,STRING_4,

























