testGetAllStores,getAllStores,getNickName,
METHOD_0,METHOD_1,METHOD_2,

integrallis,modernjee,bookstore,Store,allStores,storeDao,BookStoreORMTests,nickName,
IDENT_0,IDENT_1,IDENT_2,IDENT_3,IDENT_4,IDENT_5,IDENT_6,IDENT_7,







"Store: ",
STRING_0,

























