testGetRecentItemsNoSubscriptions,getRecentItems,
METHOD_0,METHOD_1,

buddycloud,channelserver,CloseableIterator,pubsub,NodeItem,items,TEST_SERVER1_USER1_JID,
IDENT_0,IDENT_1,IDENT_2,IDENT_3,IDENT_4,IDENT_5,IDENT_6,


































