testHelloMessage,HelloWorld,helloMessage,
METHOD_0,METHOD_1,METHOD_2,

builddoctor,HelloWorld,helloWorld,
IDENT_0,IDENT_1,IDENT_2,







"Well hi there",
STRING_0,

























