bareSliceExpression,Slice,compile,
METHOD_0,METHOD_1,METHOD_2,

burt,jmespath,Expression,
IDENT_0,IDENT_1,IDENT_2,







"[0:1:2]",
STRING_0,

























