bareSelection,Selection,Property,compile,
METHOD_0,METHOD_1,METHOD_2,METHOD_3,

burt,jmespath,Expression,
IDENT_0,IDENT_1,IDENT_2,







"[?bar]",
STRING_0,

























