bareMultiSelectHashExpression,Current,compile,
METHOD_0,METHOD_1,METHOD_2,

burt,jmespath,Expression,CreateObjectNode,
IDENT_0,IDENT_1,IDENT_2,IDENT_3,







"baz","{foo: 'bar', baz: @}",
STRING_0,STRING_1,

























