chainedMultiSelectHashExpression,Sequence,Property,Current,compile,
METHOD_0,METHOD_1,METHOD_2,METHOD_3,METHOD_4,

burt,jmespath,Expression,CreateObjectNode,
IDENT_0,IDENT_1,IDENT_2,IDENT_3,







"hello","world","baz","hello | world.{foo: 'bar', baz: @}",
STRING_0,STRING_1,STRING_2,STRING_3,

























