testLowOscillChanges,isActive,isInternalActive,isOscillating,
METHOD_0,METHOD_1,METHOD_2,METHOD_3,

dataTagCacheObject,oscUpdater,alarmCacheObject,oscillating,
IDENT_0,IDENT_1,IDENT_2,IDENT_3,







"ALARM ACTIVE: {} - INTERNAL ACTIVE: {} - OSCILLATION: {}",
STRING_0,




%,
OP_0,



















