getByNameFailure,getIdByName,
METHOD_0,METHOD_1,

retrievedId,processMapper,equipmentMapper,
IDENT_0,IDENT_1,IDENT_2,







"Test Process not there",
STRING_0,

























