testEqualsAfterFirstHashCode,ColoredPoint,setX,
METHOD_0,METHOD_1,METHOD_2,

vksi,c4j,acceptancetest,point,ColoredPoint,point1,Color,BLUE,point2,
IDENT_0,IDENT_1,IDENT_2,IDENT_3,IDENT_4,IDENT_5,IDENT_6,IDENT_7,IDENT_8,


































