testOldStoreCleanup,OldClass,getOldStoreSize,
METHOD_0,METHOD_1,METHOD_2,

vksi,c4j,systemtest,cleanup,OldStoreCleanupSystemTest,OldCache,oldCache,
IDENT_0,IDENT_1,IDENT_2,IDENT_3,IDENT_4,IDENT_5,IDENT_6,


































