manualExpire_now,eternal,expireAt,
METHOD_0,METHOD_1,METHOD_2,

cache2k,Cache,expiry,K,EntryProcessor,V,MutableCacheEntry,
IDENT_0,IDENT_1,IDENT_2,IDENT_3,IDENT_4,IDENT_5,IDENT_6,


































