setMode,AccessControlList,Mode,toShort,getMode,
METHOD_0,METHOD_1,METHOD_2,METHOD_3,METHOD_4,

AccessControlList,acl,mode,Bits,EXECUTE,WRITE,READ,mMode,
IDENT_0,IDENT_1,IDENT_2,IDENT_3,IDENT_4,IDENT_5,IDENT_6,IDENT_7,


































