testAnnotations,CacheNameOnEachMethodBlogManagerImpl,getMethods,isAnnotationPresent,
METHOD_0,METHOD_1,METHOD_2,METHOD_3,

foundRemoveAllAnnotation,CacheRemoveAll,
IDENT_0,IDENT_1,


































