equalIncreasingByteArray,TestCase,
METHOD_0,METHOD_1,

TestCase,mExpected,mArray,mLength,mStart,testCases,testCase,BufferUtils,
IDENT_0,IDENT_1,IDENT_2,IDENT_3,IDENT_4,IDENT_5,IDENT_6,IDENT_7,


































