should_validate_all_tags_found,
METHOD_0,

wanted,mamute,Tag,rails,ruby,tagsValidator,foundTags,splitedTags,
IDENT_0,IDENT_1,IDENT_2,IDENT_3,IDENT_4,IDENT_5,IDENT_6,IDENT_7,







"java","ruby","rails",
STRING_0,STRING_1,STRING_2,

























