shouldBeAbleToUnderstandFields,MappingConfig,getServer,getDeserializer,fromXml,
METHOD_0,METHOD_1,METHOD_2,METHOD_3,METHOD_4,

caelum,restfulie,Resources,restbucks,Order,
IDENT_0,IDENT_1,IDENT_2,IDENT_3,IDENT_4,







"<?xml version=\"1.0\" encoding=\"UTF-8\"?>"," </items>"," <created-at>2010-02-09T15:15:46Z</created-at>"," <updated-at>2010-02-09T15:15:46Z</updated-at>"," <item>"," <id>784</id>",
STRING_0,STRING_1,STRING_2,STRING_3,STRING_4,STRING_5,

























