shouldCallXStreamXmlSerialization,
METHOD_0,

expectedResult,
IDENT_0,







"<message><message>Just another {0} in {1}</message><category>success</category></message>","success","message.cat",
STRING_0,STRING_1,STRING_2,

























