shouldCallJsonSerialization,flush,
METHOD_0,METHOD_1,

expectedResult,
IDENT_0,







"{\"message\":{\"category\":\"success\",\"message\":\"Just another {0} in {1}\"}}","success","message.cat",
STRING_0,STRING_1,STRING_2,

























