shouldNotSerializeNullFieldsByDefault,Address,
METHOD_0,METHOD_1,

caelum,vraptor,GsonJSONSerializationTest,Address,expectedResult,
IDENT_0,IDENT_1,IDENT_2,IDENT_3,IDENT_4,







"Alameda street","{\"address\":{\"street\":\"Alameda street\"}}",
STRING_0,STRING_1,

























