updateUnknownLengthUpdates,MasterBlockInfo,updateLength,getLength,
METHOD_0,METHOD_1,METHOD_2,METHOD_3,

master,MasterBlockInfo,UNKNOWN_SIZE,KB,
IDENT_0,IDENT_1,IDENT_2,IDENT_3,


































