testWrapSingle,Publisher,generateUUID,getTimeReceived,wrap,
METHOD_0,METHOD_1,METHOD_2,METHOD_3,METHOD_4,

onebusaway,nyc,Publisher,buff,envelope,realtime,
IDENT_0,IDENT_1,IDENT_2,IDENT_3,IDENT_4,IDENT_5,

1234567,
INT_0,




"topic",
STRING_0,

























