testNoPaging,listAll,getPageData,keySet,
METHOD_0,METHOD_1,METHOD_2,METHOD_3,

candlepin,paging,Page,Owner,ownerCurator,ownerList,virtUuidToConsumerMap,
IDENT_0,IDENT_1,IDENT_2,IDENT_3,IDENT_4,IDENT_5,IDENT_6,


































