hasCert,createDummyCert,getCertificate,getCert,
METHOD_0,METHOD_1,METHOD_2,METHOD_3,

candlepin,CertificateInfo,cert,
IDENT_0,IDENT_1,IDENT_2,


































