updateTypeEntityOnDepB,waitForSync,createKey,getService,
METHOD_0,METHOD_1,METHOD_2,METHOD_3,

appengine,Key,KeyFactory,lookup,
IDENT_0,IDENT_1,IDENT_2,IDENT_3,







"UPDATE","type","DONE",
STRING_0,STRING_1,STRING_2,

























