testPutExpirationOnDepA,byDeltaMillis,namespacedKey,
METHOD_0,METHOD_1,METHOD_2,

appengine,memcache,Expiration,
IDENT_0,IDENT_1,IDENT_2,

4500,
INT_0,




"key44",
STRING_0,

























