testCD123,Snapshot,setTimestamp,ofy,
METHOD_0,METHOD_1,METHOD_2,METHOD_3,

capedwarf,testsuite,objectify,Snapshot,s1,ObjectifyService,
IDENT_0,IDENT_1,IDENT_2,IDENT_3,IDENT_4,IDENT_5,

500,
INT_0,




"timestamp >=","timestamp <",
STRING_0,STRING_1,

























