testSkipSkipsOverCorrectNumberOfBytes,skipFully,readBytes,
METHOD_0,METHOD_1,METHOD_2,

capedwarf,IOUtils,rc,JMSException,
IDENT_0,IDENT_1,IDENT_2,IDENT_3,


































