itShouldReturnDay,SimpleDateFormat,getDay,parseInt,
METHOD_0,METHOD_1,METHOD_2,METHOD_3,

dateInString,day,hydrograph,transformation,standardfunctions,DateFunctions,
IDENT_0,IDENT_1,IDENT_2,IDENT_3,IDENT_4,IDENT_5,







"1986-04-08","yyyy-MM-dd","dd",
STRING_0,STRING_1,STRING_2,

























