getCapacityBytes,getLocalAlluxioMaster,getMasterProcess,getMaster,
METHOD_0,METHOD_1,METHOD_2,METHOD_3,

master,BlockMaster,blockMaster,mLocalAlluxioClusterResource,
IDENT_0,IDENT_1,IDENT_2,IDENT_3,


































