testAddAll_subclass,B,A,
METHOD_0,METHOD_1,METHOD_2,

A,B,carrotsearch,hppc,KTypeArrayList,list2,list3,head,tail,
IDENT_0,IDENT_1,IDENT_2,IDENT_3,IDENT_4,IDENT_5,IDENT_6,IDENT_7,IDENT_8,


































