testMergeSortIsStable,XorShift128P,nextInt,mergesort,IndirectComparator,
METHOD_0,METHOD_1,METHOD_2,METHOD_3,METHOD_4,

carrotsearch,hppc,XorShift128P,rnd,sorting,IndirectSort,indexA,indexB,Replacement,interval,
IDENT_0,IDENT_1,IDENT_2,IDENT_3,IDENT_4,IDENT_5,IDENT_6,IDENT_7,IDENT_8,IDENT_9,

3735928559L,10000,256,240,
INT_0,INT_1,INT_2,INT_3,































