testSerde,TableSplit,toBytes,getClassLoader,
METHOD_0,METHOD_1,METHOD_2,METHOD_3,

TableSplit,splits,Bytes,Split,decoded,Splits,classLoader,
IDENT_0,IDENT_1,IDENT_2,IDENT_3,IDENT_4,IDENT_5,IDENT_6,







"0",
STRING_0,

























