nextNTerminal,nextN,nMax,
METHOD_0,METHOD_1,METHOD_2,

isomorphism,AbstractVFState,m1,t1,g1,UNMAPPED,
IDENT_0,IDENT_1,IDENT_2,IDENT_3,IDENT_4,IDENT_5,


































