testValenceT,Expr,getImplicitHydrogenCount,getOrder,bonds,
METHOD_0,METHOD_1,METHOD_2,METHOD_3,METHOD_4,

isomorphism,Expr,VALENCE,IAtom,a1,IBond,b1,b2,Order,DOUBLE,SINGLE,IAtomContainer,atomContainer,
IDENT_0,IDENT_1,IDENT_2,IDENT_3,IDENT_4,IDENT_5,IDENT_6,IDENT_7,IDENT_8,IDENT_9,IDENT_10,IDENT_11,IDENT_12,


































