testIsotopeF,Expr,getMassNumber,
METHOD_0,METHOD_1,METHOD_2,

isomorphism,Expr,ISOTOPE,IAtom,atom,IAtomContainer,atomContainer,
IDENT_0,IDENT_1,IDENT_2,IDENT_3,IDENT_4,IDENT_5,IDENT_6,

13,
INT_0,































