testGroupNull,Expr,getAtomicNumber,
METHOD_0,METHOD_1,METHOD_2,

isomorphism,Expr,PERIODIC_GROUP,Elements,Chlorine,IAtom,atom,IAtomContainer,atomContainer,
IDENT_0,IDENT_1,IDENT_2,IDENT_3,IDENT_4,IDENT_5,IDENT_6,IDENT_7,IDENT_8,


































