testRingSmallestNonRing,Expr,isInRing,
METHOD_0,METHOD_1,METHOD_2,

isomorphism,Expr,RING_SMALLEST,IAtom,atom,IAtomContainer,atomContainer,
IDENT_0,IDENT_1,IDENT_2,IDENT_3,IDENT_4,IDENT_5,IDENT_6,


































