nonAtomExpr,Expr,
METHOD_0,METHOD_1,

isomorphism,Expr,ALIPHATIC_ORDER,IAtom,atom,IAtomContainer,atomContainer,
IDENT_0,IDENT_1,IDENT_2,IDENT_3,IDENT_4,IDENT_5,IDENT_6,


































