testSetParameter_boolean,ParameterReact,setParameter,isSetParameter,
METHOD_0,METHOD_1,METHOD_2,METHOD_3,

reaction,IParameterReact,paramSet,TRUE,IS_SET_PARAMETER,
IDENT_0,IDENT_1,IDENT_2,IDENT_3,IDENT_4,


































