ExperienceFactory,withMultiplier,RangeExpression,
METHOD_0,METHOD_1,METHOD_2,

comphenix,xp,rewards,ResourceFactory,initial,same,newMultiplier,
IDENT_0,IDENT_1,IDENT_2,IDENT_3,IDENT_4,IDENT_5,IDENT_6,


































