k4Paths,AllCycles,completeGraphOfSize,paths,
METHOD_0,METHOD_1,METHOD_2,METHOD_3,

AllCycles,RegularPathGraphTest,
IDENT_0,IDENT_1,


































