TripletShortCycles,MinimumCycleBasis,paths,
METHOD_0,METHOD_1,METHOD_2,

TripletShortCycles,esssr,paths,
IDENT_0,IDENT_1,IDENT_2,


































