testIsolated_NonCyclic,RegularCyclicVertexSearch,cyclic,
METHOD_0,METHOD_1,METHOD_2,

ringsearch,CyclicVertexSearch,
IDENT_0,IDENT_1,


































