testNewAtomType_IElement,getBuilder,ofClass,
METHOD_0,METHOD_1,METHOD_2,

IChemObjectBuilder,AbstractChemObjectBuilderTest,rootObject,IAtomType,IElement,
IDENT_0,IDENT_1,IDENT_2,IDENT_3,IDENT_4,







"C",
STRING_0,

























