testSetImplicitHydrogenCount_Integer,newChemObject,setImplicitHydrogenCount,getImplicitHydrogenCount,
METHOD_0,METHOD_1,METHOD_2,METHOD_3,

IAtom,
IDENT_0,


































