testToString_AtomTypeName,newChemObject,setAtomTypeName,isotopes,isTheSame,
METHOD_0,METHOD_1,METHOD_2,METHOD_3,METHOD_4,

IAtomType,at,IIsotope,thisIsotope,isotope,
IDENT_0,IDENT_1,IDENT_2,IDENT_3,IDENT_4,







"N.sp2.3",
STRING_0,

























