testClone_Flags,newChemObject,setFlag,clone,getFlag,
METHOD_0,METHOD_1,METHOD_2,METHOD_3,METHOD_4,

IChemObject,chemObject1,CDKConstants,ISALIPHATIC,chemObject2,flags,mask,
IDENT_0,IDENT_1,IDENT_2,IDENT_3,IDENT_4,IDENT_5,IDENT_6,


































