testSetSpaceGroup_String,newChemObject,setSpaceGroup,getSpaceGroup,
METHOD_0,METHOD_1,METHOD_2,METHOD_3,

ICrystal,crystal,spacegroup,spaceGroup,
IDENT_0,IDENT_1,IDENT_2,IDENT_3,







"P 2_1 2_1 2_1",
STRING_0,

























