testGetReactionCount,newChemObject,addReaction,getBuilder,getReactionCount,
METHOD_0,METHOD_1,METHOD_2,METHOD_3,METHOD_4,

IReactionScheme,scheme,IReaction,reactionCount,
IDENT_0,IDENT_1,IDENT_2,IDENT_3,


































