getRankTest,Permutor,setRank,getRank,
METHOD_0,METHOD_1,METHOD_2,METHOD_3,

rank,Permutor,permutor,currentRank,
IDENT_0,IDENT_1,IDENT_2,IDENT_3,


































