testGetAllAtomContainers_IAtomContainerSet,getAllAtomContainers,
METHOD_0,METHOD_1,

IAtomContainer,manipulator,AtomContainerSetManipulator,som,cells,
IDENT_0,IDENT_1,IDENT_2,IDENT_3,IDENT_4,


































