testGetAllChemObjects_IReactionSet,getAllChemObjects,
METHOD_0,METHOD_1,

IChemObject,allObjects,manipulator,ReactionManipulator,reaction,cells,
IDENT_0,IDENT_1,IDENT_2,IDENT_3,IDENT_4,IDENT_5,


































