testInstance,DefaultChemObjectBuilder,
METHOD_0,METHOD_1,

CDKValencyChecker,checker,DefaultChemObjectBuilder,IChemObjectBuilder,LOCK,
IDENT_0,IDENT_1,IDENT_2,IDENT_3,IDENT_4,




synchronized,
MOD_0,




























