testGetStrokeMap,BufferedImage,getGraphics,AWTDrawVisitor,getStrokeMap,
METHOD_0,METHOD_1,METHOD_2,METHOD_3,METHOD_4,

Image,TYPE_INT_RGB,Graphics2D,g2d,visitor,AWTDrawVisitor,strokeMap,
IDENT_0,IDENT_1,IDENT_2,IDENT_3,IDENT_4,IDENT_5,IDENT_6,


































