testOperations,Queue,push,pop,
METHOD_0,METHOD_1,METHOD_2,METHOD_3,

ringsearch,Queue,apath,bpath,
IDENT_0,IDENT_1,IDENT_2,IDENT_3,







"Hello",
STRING_0,

























