testSet,FinalMappings,getSize,
METHOD_0,METHOD_1,METHOD_2,

mapping1,TreeMap,mapping2,mappings,smsd,FinalMappings,
IDENT_0,IDENT_1,IDENT_2,IDENT_3,IDENT_4,IDENT_5,


































