testGetElapsedTimeInHours,TimeManager,myMethod,getElapsedTimeInHours,
METHOD_0,METHOD_1,METHOD_2,METHOD_3,

smsd,TimeManager,currentTime,startTime,
IDENT_0,IDENT_1,IDENT_2,IDENT_3,

360,60,
INT_0,INT_1,







1.0E-4,
FLOAT_0,






















