testDiff,construct,DoubleDifference,abs,
METHOD_0,METHOD_1,METHOD_2,METHOD_3,

diff,IDifference,DoubleDifference,second,ERROR,
IDENT_0,IDENT_1,IDENT_2,IDENT_3,IDENT_4,







"Foo",
STRING_0,

3.0,
FLOAT_0,






















