testTwoNull,construct,Point2dDifference,addChild,childCount,
METHOD_0,METHOD_1,METHOD_2,METHOD_3,METHOD_4,

diff,IDifference,Point2dDifference,vecmath,Point2d,second,totalDiff,DoubleDifference,
IDENT_0,IDENT_1,IDENT_2,IDENT_3,IDENT_4,IDENT_5,IDENT_6,IDENT_7,







"Foo","x","y",
STRING_0,STRING_1,STRING_2,

























