testGetStepSize,GasteigerMarsiliPartialCharges,getStepSize,
METHOD_0,METHOD_1,METHOD_2,

charges,GasteigerMarsiliPartialCharges,peoe,STEP_SIZE,
IDENT_0,IDENT_1,IDENT_2,IDENT_3,


































