testAssignrPiMarsilliFactors_IAtomContainerSet,GasteigerPEPEPartialCharges,addAtom,Atom,addBond,addExplicitHydrogens,percieveAtomTypesAndConfigureAtoms,saturate,atoms,setCharge,addAtomContainer,assignrPiMarsilliFactors,getAtomContainerCount,getAtomContainer,getAtomCount,getAtom,getSymbol,getMaximumBondOrder,getCharge,
METHOD_0,METHOD_1,METHOD_2,METHOD_3,METHOD_4,METHOD_5,METHOD_6,METHOD_7,METHOD_8,METHOD_9,METHOD_10,METHOD_11,METHOD_12,METHOD_13,METHOD_14,METHOD_15,METHOD_16,METHOD_17,METHOD_18,

charges,GasteigerPEPEPartialCharges,peoe,IAtomContainer,molecule,IBond,Order,SINGLE,manipulator,AtomContainerManipulator,lpcheck,IAtom,IAtomContainerSet,gasteigerFactors,setAc,STEP_SIZE,AtomSymbol,factors,
IDENT_0,IDENT_1,IDENT_2,IDENT_3,IDENT_4,IDENT_5,IDENT_6,IDENT_7,IDENT_8,IDENT_9,IDENT_10,IDENT_11,IDENT_12,IDENT_13,IDENT_14,IDENT_15,IDENT_16,IDENT_17,







"C","F","O","N","P","Cl","Br","I",
STRING_0,STRING_1,STRING_2,STRING_3,STRING_4,STRING_5,STRING_6,STRING_7,

5.98,7.93,1.94,11.2,13.24,9.68,7.91,14.76,6.85,8.95,9.73,2.67,4.54,11.86,7.32,10.73,11.16,6.81,9.6,13.32,2.72,7.73,8.16,1.81,6.6,10.32,3.72,7.14,13.86,5.68,6.51,11.02,4.52,5.2,4.48,4.95,8.81,3.86,
FLOAT_0,FLOAT_1,FLOAT_2,FLOAT_3,FLOAT_4,FLOAT_5,FLOAT_6,FLOAT_7,FLOAT_8,FLOAT_9,FLOAT_10,FLOAT_11,FLOAT_12,FLOAT_13,FLOAT_14,FLOAT_15,FLOAT_16,FLOAT_17,FLOAT_18,FLOAT_19,FLOAT_20,FLOAT_21,FLOAT_22,FLOAT_23,FLOAT_24,FLOAT_25,FLOAT_26,FLOAT_27,FLOAT_28,FLOAT_29,FLOAT_30,FLOAT_31,FLOAT_32,FLOAT_33,FLOAT_34,FLOAT_35,FLOAT_36,FLOAT_37,






















