testSeTolerance_double,IsotopePatternSimilarity,seTolerance,
METHOD_0,METHOD_1,METHOD_2,

formula,IsotopePatternSimilarity,tolerance_ppm,tolerance,
IDENT_0,IDENT_1,IDENT_2,IDENT_3,










0.001,
FLOAT_0,






















