changeBaseTest,PermutationGroup,enter,Permutation,changeBase,sort,
METHOD_0,METHOD_1,METHOD_2,METHOD_3,METHOD_4,METHOD_5,

PermutationGroup,cells,Comparator,SortedSet,cellA,cellB,
IDENT_0,IDENT_1,IDENT_2,IDENT_3,IDENT_4,IDENT_5,


































