totalHCount,getAtomExpr,Expr,
METHOD_0,METHOD_1,METHOD_2,

isomorphism,Expr,smarts,SmartsExprReadTest,TOTAL_H_COUNT,Expr$Type,
IDENT_0,IDENT_1,IDENT_2,IDENT_3,IDENT_4,IDENT_5,







"[H2]",
STRING_0,

























