testPairMapAddHeaders,sorted,prepend,pairMap,toUpperCase,flatMap,identity,LongStreamEx,
METHOD_0,METHOD_1,METHOD_2,METHOD_3,METHOD_4,METHOD_5,METHOD_6,METHOD_7,

one,streamex,StreamEx,Stream,Function,LongFunction,
IDENT_0,IDENT_1,IDENT_2,IDENT_3,IDENT_4,IDENT_5,







"aaa","abc","baz","argh","=== "," ===","=== B ===",
STRING_0,STRING_1,STRING_2,STRING_3,STRING_4,STRING_5,STRING_6,

























