getSystem,
METHOD_0,

systemResolver,cereebro,DefaultSystemServiceTest,NAME,snitchRegistry,
IDENT_0,IDENT_1,IDENT_2,IDENT_3,IDENT_4,


































