meets,ETCriteria,equalsTo,UnsupportedOperationException,
METHOD_0,METHOD_1,METHOD_2,METHOD_3,

cetsoft,imcache,ETCriteria,expectedValue,cacheIndex,actualResult,
IDENT_0,IDENT_1,IDENT_2,IDENT_3,IDENT_4,IDENT_5,


































