anyList,getClient,
METHOD_0,METHOD_1,

object1,object2,object3,list1,list2,actualObjects,diffFilter,
IDENT_0,IDENT_1,IDENT_2,IDENT_3,IDENT_4,IDENT_5,IDENT_6,


































