equalsToEmptyResult,equalsTo,dbsize,RedisCacheException,
METHOD_0,METHOD_1,METHOD_2,METHOD_3,

cetsoft,imcache,ConnectionException,
IDENT_0,IDENT_1,IDENT_2,


































