nextBytes,retrieve,deserialize,SimpleValueWrapper,
METHOD_0,METHOD_1,METHOD_2,METHOD_3,

pointer,pointerMap,bufferStore,actualObject,
IDENT_0,IDENT_1,IDENT_2,IDENT_3,


































