testArrayNewMultiDimentionInScript,scan,getIssues,getBugs,getBugList,
METHOD_0,METHOD_1,METHOD_2,METHOD_3,METHOD_4,

scriptSrc,cflint,CFLintResult,lintresult,cfBugs,
IDENT_0,IDENT_1,IDENT_2,IDENT_3,IDENT_4,







"<cfscript>\r\n","var a = 23;\r\n","var b = arrayNew(3);\r\n","</cfscript>",
STRING_0,STRING_1,STRING_2,STRING_3,

























