testInclude1,BugInfoBuilder,setFunction,setMessageCode,createFilter,include,
METHOD_0,METHOD_1,METHOD_2,METHOD_3,METHOD_4,METHOD_5,

cflint,BugInfo,bugInfo,CFLintFilter,codes,
IDENT_0,IDENT_1,IDENT_2,IDENT_3,IDENT_4,







"testf","PARSE_ERROR","[{\"code\":\"OTH_ERROR\"}]",
STRING_0,STRING_1,STRING_2,

























