test__,prepare,addToField,setBasicHP,startGame,addNextPicks,proceedOneRound,getHP,
METHOD_0,METHOD_1,METHOD_2,METHOD_3,METHOD_4,METHOD_5,METHOD_6,METHOD_7,

cfvbaibai,cardfantasy,func,SkillTestContext,CardInfo,hp,
IDENT_0,IDENT_1,IDENT_2,IDENT_3,IDENT_4,IDENT_5,







"+10","+",
STRING_0,STRING_1,

























