isAmong_notPresent_returnsFalse,isAmong,isNullOrEqual,
METHOD_0,METHOD_1,METHOD_2,

needle,haystack,chargetime,ocpp,utilities,ModelUtil,hayStack,straw,
IDENT_0,IDENT_1,IDENT_2,IDENT_3,IDENT_4,IDENT_5,IDENT_6,IDENT_7,







"not present","something","some other thing",
STRING_0,STRING_1,STRING_2,

























