isRunningNegative,createUnstarted,stop,isRunning,elapsed,greaterThan,ofNanos,
METHOD_0,METHOD_1,METHOD_2,METHOD_3,METHOD_4,METHOD_5,METHOD_6,

chargetime,ocpp,utilities,Stopwatch,stopwatch,Duration,
IDENT_0,IDENT_1,IDENT_2,IDENT_3,IDENT_4,IDENT_5,


































