validate_locationAndRetrieveDateIsSet_returnsTrue,setLocation,setRetrieveDate,
METHOD_0,METHOD_1,METHOD_2,

aLocation,aRetrieveDate,
IDENT_0,IDENT_1,


































