setListVersion_isNonZero_isCorrect,setListVersion,getListVersion,
METHOD_0,METHOD_1,METHOD_2,

confirmation,listVersion,
IDENT_0,IDENT_1,


































