validate_listVersionNotSet_isNotValid,setLocalAuthorizationList,aList,setUpdateType,
METHOD_0,METHOD_1,METHOD_2,METHOD_3,

UpdateType,Full,
IDENT_0,IDENT_1,


































