setFormat_valueFormat_formatIsSet,setFormat,getFormat,
METHOD_0,METHOD_1,METHOD_2,

chargetime,ocpp,ValueFormat,valueFormat,Raw,sampledValue,
IDENT_0,IDENT_1,IDENT_2,IDENT_3,IDENT_4,IDENT_5,


































