testSetLocale,setLocale,getLocale,
METHOD_0,METHOD_1,METHOD_2,

opencyc,NLFormat,NLFormatTest,cyc,CHINA,locale,
IDENT_0,IDENT_1,IDENT_2,IDENT_3,IDENT_4,IDENT_5,







"setLocale",
STRING_0,

























