testIsFounderFalse,isFounder,
METHOD_0,METHOD_1,

charite,compbio,pedigree,father,Sex,MALE,Disease,AFFECTED,mother,
IDENT_0,IDENT_1,IDENT_2,IDENT_3,IDENT_4,IDENT_5,IDENT_6,IDENT_7,IDENT_8,







"father",
STRING_0,

























