testNumericNonShiftKeys,findElement,sendKeys,getAttribute,
METHOD_0,METHOD_1,METHOD_2,METHOD_3,

pages,javascriptPage,WebElement,By,numericLineCharsNonShifted,commandProcessor,attributeLocator,
IDENT_0,IDENT_1,IDENT_2,IDENT_3,IDENT_4,IDENT_5,IDENT_6,







"keyReporter","`1234567890-=[]\\;,.\'/42","getAttribute",
STRING_0,STRING_1,STRING_2,

























