testShouldReapDefaultsTrue,shouldReap,
METHOD_0,METHOD_1,

tmpFs,reap,
IDENT_0,IDENT_1,







"Reaping of files disabled - ","ignoring testShouldReapDefaultsTrue","webdriver.reap_profile","true",
STRING_0,STRING_1,STRING_2,STRING_3,

























