testProtectSuccess,PermissiveStubDriver,protect,findElement,
METHOD_0,METHOD_1,METHOD_2,METHOD_3,

WebDriver,ThreadGuardTest,protect,ThreadGuard,By,by,
IDENT_0,IDENT_1,IDENT_2,IDENT_3,IDENT_4,IDENT_5,


































