testConcretizeWithCleanup,createFormula,prettyPrint,concretize,
METHOD_0,METHOD_1,METHOD_2,METHOD_3,

anjlab,sat3,ICompactTripletsStructure,s1,Helper,Value,AllNegative,tiers,
IDENT_0,IDENT_1,IDENT_2,IDENT_3,IDENT_4,IDENT_5,IDENT_6,IDENT_7,


































