testBlankStringNoJs,DefaultRemoteCommand,
METHOD_0,METHOD_1,

DefaultRemoteCommand,drc,RemoteCommand,parsed,
IDENT_0,IDENT_1,IDENT_2,IDENT_3,


































