testCounting,counting,summingLong,applyAsLong,
METHOD_0,METHOD_1,METHOD_2,METHOD_3,

annimon,Stream,Collectors,ToLongFunction,
IDENT_0,IDENT_1,IDENT_2,IDENT_3,


































