testSetEnPassantTarget,setEnPassantTarget,getEnPassantTarget,
METHOD_0,METHOD_1,METHOD_2,

classUnderTest,eubos,TrackedMoveTest,targetSq,enPassantTarget,
IDENT_0,IDENT_1,IDENT_2,IDENT_3,IDENT_4,


































