testCompareLess,naturalOrder,compareInt,
METHOD_0,METHOD_1,METHOD_2,

annimon,Objects,Functions,Comparator,o1,o2,
IDENT_0,IDENT_1,IDENT_2,IDENT_3,IDENT_4,IDENT_5,


































