testIsValidIdCard,isValidIdCard,utf8Slice,toStringUtf8,
METHOD_0,METHOD_1,METHOD_2,METHOD_3,

shanruifeng,functions,udfs,scalar,ChinaIdCardFunctions,airlift,slice,Slices,Slice,card,
IDENT_0,IDENT_1,IDENT_2,IDENT_3,IDENT_4,IDENT_5,IDENT_6,IDENT_7,IDENT_8,IDENT_9,







"110101198901084517",
STRING_0,

























