testComm,comm,materialize,checkEquals,
METHOD_0,METHOD_1,METHOD_2,METHOD_3,

crunch,PCollection,Tuple3,comm,set1,set2,
IDENT_0,IDENT_1,IDENT_2,IDENT_3,IDENT_4,IDENT_5,







"c","d","e",
STRING_0,STRING_1,STRING_2,

























