testRollbackAfterNoPutTake,getTransaction,begin,rollback,stop,createFileChannel,take,getProvider,removeEvent,
METHOD_0,METHOD_1,METHOD_2,METHOD_3,METHOD_4,METHOD_5,METHOD_6,METHOD_7,METHOD_8,

flume,Transaction,
IDENT_0,IDENT_1,


































