testDateFormatMinutes,escapeString,getTimeInMillis,getCounter,
METHOD_0,METHOD_1,METHOD_2,METHOD_3,

escapedString,flume,formatter,BucketPath,MINUTE,cal2,MILLISECOND,expectedString,
IDENT_0,IDENT_1,IDENT_2,IDENT_3,IDENT_4,IDENT_5,IDENT_6,IDENT_7,

2012,23,13,45,
INT_0,INT_1,INT_2,INT_3,




"%s","Escaped String: ","Expected String: ",
STRING_0,STRING_1,STRING_2,

























