testIfPresent,ifPresent,LongConsumer,
METHOD_0,METHOD_1,METHOD_2,

annimon,OptionalLong,currentValue,wrongOrder,
IDENT_0,IDENT_1,IDENT_2,IDENT_3,


































