testFilterNot,filterNot,remainder,IsEmptyMatcher,
METHOD_0,METHOD_1,METHOD_2,METHOD_3,

annimon,Functions,OptionalIntMatcher,
IDENT_0,IDENT_1,IDENT_2,


































