applyNull,getGroup,getFileStatus,
METHOD_0,METHOD_1,METHOD_2,

fileStatus,PathData,PASS,FAIL,
IDENT_0,IDENT_1,IDENT_2,IDENT_3,


































