testIsNotDirectory,addArgument,initialise,FindOptions,isDirectory,PathData,getChildren,isPass,
METHOD_0,METHOD_1,METHOD_2,METHOD_3,METHOD_4,METHOD_5,METHOD_6,METHOD_7,

mockFstat,PathData,Expression,FAIL,
IDENT_0,IDENT_1,IDENT_2,IDENT_3,







"d","/one/two/test",
STRING_0,STRING_1,

























