testConvertMessageSimple,convertMessage,
METHOD_0,METHOD_1,

expectedMessage,getMailMessageSpy,currentChar,
IDENT_0,IDENT_1,IDENT_2,







"message",'\n',"<br>",
STRING_0,STRING_1,STRING_2,

























