notExistingSession,Session,
METHOD_0,METHOD_1,

clouway,oauth2,Session,sessionIsPresented,sessions,
IDENT_0,IDENT_1,IDENT_2,IDENT_3,IDENT_4,







"session123",
STRING_0,

























