wasExpired,aNewToken,expiresAt,DateTime,newTime,
METHOD_0,METHOD_1,METHOD_2,METHOD_3,METHOD_4,

clouway,oauth2,BearerToken,BearerTokenBuilder,calendar,HOUR_OF_DAY,hour,MINUTE,minute,SECOND,seconds,
IDENT_0,IDENT_1,IDENT_2,IDENT_3,IDENT_4,IDENT_5,IDENT_6,IDENT_7,IDENT_8,IDENT_9,IDENT_10,


































