testMedianBandwidth,ContinuousVariable,ColtDataSet,setDouble,KernelGaussian,getBandwidth,
METHOD_0,METHOD_1,METHOD_2,METHOD_3,METHOD_4,METHOD_5,

cmu,tetrad,X,DataSet,KernelGaussian,sigma,
IDENT_0,IDENT_1,IDENT_2,IDENT_3,IDENT_4,IDENT_5,







"X",
STRING_0,

























