testSortedWithComparator,sorted,descendingAbsoluteOrder,toLongArray,
METHOD_0,METHOD_1,METHOD_2,METHOD_3,

annimon,IntStream,Functions,Operators,
IDENT_0,IDENT_1,IDENT_2,IDENT_3,

19,
INT_0,































