test_isHttps_true,RdapClientConfig,isHttps,getUrl,
METHOD_0,METHOD_1,METHOD_2,METHOD_3,

restfulwhois,rdap,RdapClientConfig,https,URLUtil,ProtocolType,HTTPS,
IDENT_0,IDENT_1,IDENT_2,IDENT_3,IDENT_4,IDENT_5,IDENT_6,







"https://example.com",
STRING_0,

























