test_validateUTCString_emptydate_false,validateUTCString,isBlank,
METHOD_0,METHOD_1,METHOD_2,

dateString,utcDateString,restfulwhois,rdap,DateUtil,FORMAT_UTC,
IDENT_0,IDENT_1,IDENT_2,IDENT_3,IDENT_4,IDENT_5,


































