testQueryNotExistEntity,buildQueryParam,TestQueryParam,
METHOD_0,METHOD_1,METHOD_2,

restfulwhois,rdap,entityQueryDao,QueryParamHelper,
IDENT_0,IDENT_1,IDENT_2,IDENT_3,







"non-exist-entity-handle",
STRING_0,

























