readHeartbeatMessage,heartbeat,
METHOD_0,METHOD_1,

cocaine,Messages,pack,msgpack,MessageTemplate,
IDENT_0,IDENT_1,IDENT_2,IDENT_3,IDENT_4,


































