readTerminateMessage,terminate,
METHOD_0,METHOD_1,

cocaine,Messages,TerminateMessage,Reason,NORMAL,pack,msgpack,MessageTemplate,
IDENT_0,IDENT_1,IDENT_2,IDENT_3,IDENT_4,IDENT_5,IDENT_6,IDENT_7,







"PANIC!",
STRING_0,

























