itReturnsUniqueListsFromCriteriaQueries,createCriteria,getListFromCriteria,
METHOD_0,METHOD_1,METHOD_2,

critera,
IDENT_0,







"woo",
STRING_0,

























