quoteReplacements,unescape,
METHOD_0,METHOD_1,

escaped,unescaped,Entities,
IDENT_0,IDENT_1,IDENT_2,







"&#92; &#36;","\\ $",
STRING_0,STRING_1,

























