shouldAllowEmptyBufferToCreateCompositeBuffer,wrappedBuffer,capacity,
METHOD_0,METHOD_1,METHOD_2,

ChannelBuffer,EMPTY_BUFFER,LITTLE_ENDIAN,
IDENT_0,IDENT_1,IDENT_2,


































