testUnmodifiableBuffer,unmodifiableBuffer,unwrap,ReadOnlyChannelBuffer,
METHOD_0,METHOD_1,METHOD_2,METHOD_3,

ChannelBuffer,ReadOnlyChannelBuffer,
IDENT_0,IDENT_1,


































