testResolveClass01,ImportHandler,resolveClass,findClass,
METHOD_0,METHOD_1,METHOD_2,METHOD_3,

ImportHandler,clazzes,packages,className,
IDENT_0,IDENT_1,IDENT_2,IDENT_3,







"String",'.',
STRING_0,STRING_1,

























