testCoerceToType06,getExpressionFactory,coerceToType,
METHOD_0,METHOD_1,METHOD_2,

ELManager,Character,websocket,Byte,Float,Short,Util,sm,
IDENT_0,IDENT_1,IDENT_2,IDENT_3,IDENT_4,IDENT_5,IDENT_6,IDENT_7,







"util.invalidType",
STRING_0,

























