testImport01,ELProcessor,createValueExpression,bracket,
METHOD_0,METHOD_1,METHOD_2,METHOD_3,

ELProcessor,ValueExpression,ve,expectedType,
IDENT_0,IDENT_1,IDENT_2,IDENT_3,







"Integer.MAX_VALUE",
STRING_0,

























