testBug48827,getTomcatInstance,addWebapp,getUrl,getPort,getConnector,getLocalPort,
METHOD_0,METHOD_1,METHOD_2,METHOD_3,METHOD_4,METHOD_5,METHOD_6,

catalina,startup,Tomcat,appDir,ioe,
IDENT_0,IDENT_1,IDENT_2,IDENT_3,IDENT_4,







"test/webapp","/test","http://localhost:","/test/bug48nnn/bug48827.jspx",
STRING_0,STRING_1,STRING_2,STRING_3,

























