hasNext_strategyReturnsEmptyOptional_returnsFalse,goToNextNode,getInnerIterator,
METHOD_0,METHOD_1,METHOD_2,

treeIterator,
IDENT_0,


































