testSortListMoveNone,sort,
METHOD_0,METHOD_1,

vfs2,FileObject,actualList,FileObjectSortTestCase,SortedArray,expectedSortedList,UserAuthenticationData,type1,
IDENT_0,IDENT_1,IDENT_2,IDENT_3,IDENT_4,IDENT_5,IDENT_6,IDENT_7,


































