timestampShouldGetCurrentTimeAsSeconds,timestamp,
METHOD_0,METHOD_1,

currentSeconds,toTest,codegist,crest,oauth,DefaultVariantProvider,SECONDS,
IDENT_0,IDENT_1,IDENT_2,IDENT_3,IDENT_4,IDENT_5,IDENT_6,


































