shouldDeserializeNullToNull,deserialize,
METHOD_0,METHOD_1,

codegist,crest,TypeDeserializer,Deserializer,toTest,
IDENT_0,IDENT_1,IDENT_2,IDENT_3,IDENT_4,


































