testUniqueIdValues,getEm,
METHOD_0,METHOD_1,

Short,retrievedIdValues,bitwalker,useragentutils,OperatingSystem,operatingSystem,
IDENT_0,IDENT_1,IDENT_2,IDENT_3,IDENT_4,IDENT_5,


































