shouldBoard_whenStartGame,getBoardSize,Bomberman,
METHOD_0,METHOD_1,METHOD_2,

settings,codenjoy,dojo,bomberman,Bomberman,board,
IDENT_0,IDENT_1,IDENT_2,IDENT_3,IDENT_4,IDENT_5,


































