shouldBoardSizeSpecify_whenGameStart,Minesweeper,
METHOD_0,METHOD_1,

board,codenjoy,dojo,minesweeper,SapperTheHeroTest,MINES_COUNT,CHARGE_COUNT,NO_MINES,
IDENT_0,IDENT_1,IDENT_2,IDENT_3,IDENT_4,IDENT_5,IDENT_6,IDENT_7,


































