shouldKillOneHeroAnother_caseGoOnBullet,getPlayer,getHero,recharge,getJoystick,up,tick,asrtFl1,left,dice,act,down,verifyNoMoreInteractions,newGame,isGameOver,
METHOD_0,METHOD_1,METHOD_2,METHOD_3,METHOD_4,METHOD_5,METHOD_6,METHOD_7,METHOD_8,METHOD_9,METHOD_10,METHOD_11,METHOD_12,METHOD_13,METHOD_14,

codenjoy,dojo,spacerace,Hero,game3,game1,game2,listener3,Events,DESTROY_ENEMY,listener2,LOOSE,listener1,
IDENT_0,IDENT_1,IDENT_2,IDENT_3,IDENT_4,IDENT_5,IDENT_6,IDENT_7,IDENT_8,IDENT_9,IDENT_10,IDENT_11,IDENT_12,







"☼ ☼\n","☼☺☻ ☼\n","☼ ☻☼\n","☼ ☻ ☼\n","☼☺ ☼\n","☼ + ☼\n","☼☻☻ ☼\n",
STRING_0,STRING_1,STRING_2,STRING_3,STRING_4,STRING_5,STRING_6,

























