shouldGetReadableNameByEmail,register,getNameById,
METHOD_0,METHOD_1,METHOD_2,

codenjoy,dojo,RegistrationTest,
IDENT_0,IDENT_1,IDENT_2,







"user","email","pass","data","SELECT readable_name FROM users WHERE id = ?;","readable_name",
STRING_0,STRING_1,STRING_2,STRING_3,STRING_4,STRING_5,

























