writesInputStreamToOutputStream,writeTo,arraycopy,
METHOD_0,METHOD_1,METHOD_2,

testContent,inputStreamEntityProvider,newBuf,
IDENT_0,IDENT_1,IDENT_2,


































