writesFileToOutputStream,createFile,writeTo,arraycopy,
METHOD_0,METHOD_1,METHOD_2,METHOD_3,

everrest,FileCollector,Files,testContent,fileEntityProvider,newBuf,
IDENT_0,IDENT_1,IDENT_2,IDENT_3,IDENT_4,IDENT_5,


































