testGetChildrenList_leaf,getChildrenList,getChildren,
METHOD_0,METHOD_1,METHOD_2,

abego,treelayout,StringTreeNode,children,n1,
IDENT_0,IDENT_1,IDENT_2,IDENT_3,IDENT_4,


































