runnerIsExist2,addRunnerId,isRunnerExist,
METHOD_0,METHOD_1,METHOD_2,

presenter,che,ide,RunnerManagerPresenterTest,PROCESS_ID,runnersId,runnerId,
IDENT_0,IDENT_1,IDENT_2,IDENT_3,IDENT_4,IDENT_5,IDENT_6,


































