shouldReturnRamBySizeRam,detect,
METHOD_0,METHOD_1,

che,ide,tabs,panel,RAM,EnumSet,MB_100,MB_8000,inputMemory,DEFAULT,
IDENT_0,IDENT_1,IDENT_2,IDENT_3,IDENT_4,IDENT_5,IDENT_6,IDENT_7,IDENT_8,IDENT_9,


































