testMetacardAttributes,MetacardImpl,setAttribute,AttributeImpl,getEffectiveDate,
METHOD_0,METHOD_1,METHOD_2,METHOD_3,METHOD_4,

Metacard,metacard,EFFECTIVE,
IDENT_0,IDENT_1,IDENT_2,


































