testProcessResource,processPostResource,itemPolicy,
METHOD_0,METHOD_1,METHOD_2,

PolicyResponse,policyResponse,ResourceResponse,metacard,
IDENT_0,IDENT_1,IDENT_2,IDENT_3,


































