testAddEmailsMultiple2,addEmail,addEmails,getEmails,singleton,
METHOD_0,METHOD_1,METHOD_2,METHOD_3,METHOD_4,

SubscriptionsPersistentStoreImplTest,IDSTRING,EMAIL1,EMAIL3,EMAIL4,emailAddress,
IDENT_0,IDENT_1,IDENT_2,IDENT_3,IDENT_4,IDENT_5,


































