convertJsonStringToApiKey,convertJsonResultToApiKey,
METHOD_0,METHOD_1,

expectedKey,jsonResult,dahanne,gallery3,ItemUtils,apiKey,
IDENT_0,IDENT_1,IDENT_2,IDENT_3,IDENT_4,IDENT_5,







"e3450cdda082e6a2bddf5114a2bcc14d","\"e3450cdda082e6a2bddf5114a2bcc14d\n\"","\"",
STRING_0,STRING_1,STRING_2,

























