testGuestCantViewUnsharedWorkspace,emptyMap,asAdmin,workspacesApi,stringify,post,asGuest,
METHOD_0,METHOD_1,METHOD_2,METHOD_3,METHOD_4,METHOD_5,METHOD_6,

workspace,jayway,restassured,itests,TestCatalogSearchUi,
IDENT_0,IDENT_1,IDENT_2,IDENT_3,IDENT_4,

201,404,
INT_0,INT_1,




"Origin","id",
STRING_0,STRING_1,

























