testIsFileWhenADir,ExportMigrationEntryImpl,getParent,isFile,
METHOD_0,METHOD_1,METHOD_2,METHOD_3,

migration,ExportMigrationEntryImpl,dirEntry,absoluteFilePath,
IDENT_0,IDENT_1,IDENT_2,IDENT_3,


































