testCharStarInLexer,Grammar,getRule,toStringTree,isNil,
METHOD_0,METHOD_1,METHOD_2,METHOD_3,METHOD_4,

tool,Grammar,expecting,children,Tree,
IDENT_0,IDENT_1,IDENT_2,IDENT_3,IDENT_4,







"lexer grammar P;\n","B : 'b'*;","(rule B ARG RET scope (BLOCK (ALT (* (BLOCK (ALT 'b' <end-of-alt>) <end-of-block>)) <end-of-alt>) <end-of-block>) <end-of-rule>)","B","(",' ',")",
STRING_0,STRING_1,STRING_2,STRING_3,STRING_4,STRING_5,STRING_6,

























