getUrls_expectZero,getUrls,
METHOD_0,METHOD_1,

cognifide,aet,communication,wrappers,MetadataRunDecorator,Url,urlsResult,testRunIndexWrapper,urls,
IDENT_0,IDENT_1,IDENT_2,IDENT_3,IDENT_4,IDENT_5,IDENT_6,IDENT_7,IDENT_8,


































