shouldConstructScopeWithNullProperties,ContainerScope,getProperties,
METHOD_0,METHOD_1,METHOD_2,

oracle,bedrock,ContainerScope,scope,DummyApp,
IDENT_0,IDENT_1,IDENT_2,IDENT_3,IDENT_4,


































