stability2,openIndex,newCursor,verifyPositions,
METHOD_0,METHOD_1,METHOD_2,METHOD_3,

cojen,tupl,View,ix,Cursor,cursors,Transaction,BOGUS,mViews,
IDENT_0,IDENT_1,IDENT_2,IDENT_3,IDENT_4,IDENT_5,IDENT_6,IDENT_7,IDENT_8,

10000,
INT_0,










--,
OP_0,



















