largePageRecycle,openIndex,fill,fastAssertArrayEquals,newTransaction,exit,inRange,
METHOD_0,METHOD_1,METHOD_2,METHOD_3,METHOD_4,METHOD_5,METHOD_6,

cojen,tupl,Index,ix,mDb,Transaction,BOGUS,txn,mSource,
IDENT_0,IDENT_1,IDENT_2,IDENT_3,IDENT_4,IDENT_5,IDENT_6,IDENT_7,IDENT_8,

4000000,85,1000000,
INT_0,INT_1,INT_2,




"hello","key-","value-","world","akey-","avalue-",
STRING_0,STRING_1,STRING_2,STRING_3,STRING_4,STRING_5,

























