containsItself,DiscreteInterval,getMin,getMax,
METHOD_0,METHOD_1,METHOD_2,METHOD_3,

fishwife,jrugged,interval,DiscreteInterval,i1,
IDENT_0,IDENT_1,IDENT_2,IDENT_3,IDENT_4,


































