testIndelLineChrom1,VCFLine,get_chromosome,
METHOD_0,METHOD_1,METHOD_2,

VCFLine,indelLine1,chromosome,
IDENT_0,IDENT_1,IDENT_2,


































