createUserExistingLongNameFails,UserDTO,getAdminName,createUser,getUser,
METHOD_0,METHOD_1,METHOD_2,METHOD_3,METHOD_4,

kune,UserDTO,country,timezone,SubscriptionMode,manual,userService,
IDENT_0,IDENT_1,IDENT_2,IDENT_3,IDENT_4,IDENT_5,IDENT_6,







"123456","example1234@example.com","blue",
STRING_0,STRING_1,STRING_2,

























