shouldLogInfoMessage,capture,
METHOD_0,METHOD_1,

innerLogger,confluent,StructuredLoggerImplTest,LOG_MSG,captor,schemaAndValue,
IDENT_0,IDENT_1,IDENT_2,IDENT_3,IDENT_4,IDENT_5,


































