shouldLogError,verifyErrorMessage,capture,
METHOD_0,METHOD_1,METHOD_2,

processingLogger,msgFactory,SchemaAndValue,innerLogger,msgCaptor,
IDENT_0,IDENT_1,IDENT_2,IDENT_3,IDENT_4,


































