testGetInitMessageId,AsyncMsgRecord,getMessageId,
METHOD_0,METHOD_1,METHOD_2,

asyncmsgs,AsyncMsgRecord,SoapEdgeContext,MESSAGE_ID,
IDENT_0,IDENT_1,IDENT_2,IDENT_3,







"testGetInitMessageId",
STRING_0,

























