createBeginOutboundMessage,BeginOutboundMessageEvent,
METHOD_0,METHOD_1,

Event,eventFactory,initiator,
IDENT_0,IDENT_1,IDENT_2,


































