testMergeWhereAdditionMergesTwoExistingIntervals,elementAt,
METHOD_0,METHOD_1,

misc,IntervalSet,expecting,
IDENT_0,IDENT_1,IDENT_2,

42,43,65534,11,41,
INT_0,INT_1,INT_2,INT_3,INT_4,




"0..65534",
STRING_0,

























