testBuildCS,CS,CSHelper,buildCS,setCode,
METHOD_0,METHOD_1,METHOD_2,METHOD_3,METHOD_4,

hl7,v3,CS,patientcorrelation,parsers,PRPAIN201309UV,CSHelper,csCode,
IDENT_0,IDENT_1,IDENT_2,IDENT_3,IDENT_4,IDENT_5,IDENT_6,IDENT_7,







"CS",
STRING_0,

























