createTELExplicit,TELExplicit,HL7DataTransformHelper,
METHOD_0,METHOD_1,METHOD_2,

hl7,v3,TELExplicit,te,subdisc,HL7DataTransformHelper,
IDENT_0,IDENT_1,IDENT_2,IDENT_3,IDENT_4,IDENT_5,







"210-340-6780",
STRING_0,

























