TSExplicitFactory,HL7DataTransformHelper,TSExplicit,
METHOD_0,METHOD_1,METHOD_2,

subdisc,HL7DataTransformHelper,hl7,v3,TSExplicit,ts,
IDENT_0,IDENT_1,IDENT_2,IDENT_3,IDENT_4,IDENT_5,







"CONNECT",
STRING_0,

























