getZeroPatients,getPatients,Patients,
METHOD_0,METHOD_1,METHOD_2,

mpilib,MiniMpi,mpi,Patients,patientlist,patients,
IDENT_0,IDENT_1,IDENT_2,IDENT_3,IDENT_4,IDENT_5,







"getZeroPatients","testMPI.xml",
STRING_0,STRING_1,

























