testRingBuffer,intValue,
METHOD_0,METHOD_1,

csstudio,apputil,ringbuffer,RingBuffer,archive,QueueDemo,RUNTIME,number,secs,
IDENT_0,IDENT_1,IDENT_2,IDENT_3,IDENT_4,IDENT_5,IDENT_6,IDENT_7,IDENT_8,




synchronized,
MOD_0,

"RingBuffer : %12d values in %.2f sec = %12.1f vals/sec\n",
STRING_0,

1000.0,
FLOAT_0,






















