testDemoDataIterator,forStrings,
METHOD_0,METHOD_1,

csstudio,archive,ValueIterator,iter,cstudio,DemoDataIterator,points,
IDENT_0,IDENT_1,IDENT_2,IDENT_3,IDENT_4,IDENT_5,IDENT_6,







"DemoDataIterator","Demo",
STRING_0,STRING_1,

























