testIntMax2,getCapacity,isPowerOf2,
METHOD_0,METHOD_1,METHOD_2,

capacity,conversantmedia,Capacity,MAX_POWER2,
IDENT_0,IDENT_1,IDENT_2,IDENT_3,







"Capacity is not a power of 2.",
STRING_0,




<<=,
OP_0,



















