testTypeToArray,MPMCBlockingQueue,offer,
METHOD_0,METHOD_1,METHOD_2,

cap,BlockingQueue,dbq,conversantmedia,E,
IDENT_0,IDENT_1,IDENT_2,IDENT_3,IDENT_4,


































