basicTripAsPath,EgressPathLeg,TransitPathLeg,TransferPathLeg,asTransitLeg,AccessPathLeg,
METHOD_0,METHOD_1,METHOD_2,METHOD_3,METHOD_4,METHOD_5,

conveyal,r5,otp2,PathLeg,TestTripSchedule,leg6,_shared,StopArrivalsTestData,STOP_5,T1153,T1200,leg5,STOP_4,T1140,TRIP_3,leg4,STOP_3,T1100,T1123,TRIP_2,leg3,STOP_2,T1035,T1038,leg2,STOP_1,T1000,TRIP_1,AccessPathLeg,leg1,T0953,T0958,
IDENT_0,IDENT_1,IDENT_2,IDENT_3,IDENT_4,IDENT_5,IDENT_6,IDENT_7,IDENT_8,IDENT_9,IDENT_10,IDENT_11,IDENT_12,IDENT_13,IDENT_14,IDENT_15,IDENT_16,IDENT_17,IDENT_18,IDENT_19,IDENT_20,IDENT_21,IDENT_22,IDENT_23,IDENT_24,IDENT_25,IDENT_26,IDENT_27,IDENT_28,IDENT_29,IDENT_30,IDENT_31,

600,
INT_0,































