testCardinality,execParser,getFirstLineOfException,
METHOD_0,METHOD_1,METHOD_2,

grammar,expecting,stderrDuringParse,lines,prefix,
IDENT_0,IDENT_1,IDENT_2,IDENT_3,IDENT_4,







"grammar T;\n","options {output=AST;}\n","tokens {BLOCK;}\n","a : ID ID INT INT INT -> (ID INT)+;\n","ID : \'a\'..\'z\'+ ;\n","TParser","WS : (\' \'|\'\\n\') {$channel=HIDDEN;} ;\n","TLexer","a b 3 4 5","Exception in thread \"main\" ",
STRING_0,STRING_1,STRING_2,STRING_3,STRING_4,STRING_5,STRING_6,STRING_7,STRING_8,STRING_9,

























