shouldBeEmptyByDefault,SearchQuery,injectParams,JsonObject,
METHOD_0,METHOD_1,METHOD_2,METHOD_3,

SearchQuery,JsonObject,
IDENT_0,IDENT_1,


































