shouldInjectFields,SearchQuery,injectParams,expiry,cas,mutationToken,
METHOD_0,METHOD_1,METHOD_2,METHOD_3,METHOD_4,METHOD_5,

SearchQuery,JsonObject,JsonArray,SerializableDocument,
IDENT_0,IDENT_1,IDENT_2,IDENT_3,







"baz","fields",
STRING_0,STRING_1,

























