shouldIgnoreInclusiveEndWithNullEnd,dateRange,SearchQuery,export,
METHOD_0,METHOD_1,METHOD_2,METHOD_3,

queries,DateRangeQuery,fts,SearchQuery,JsonObject,bucket,
IDENT_0,IDENT_1,IDENT_2,IDENT_3,IDENT_4,IDENT_5,







"query","start","INSERT INTO ",
STRING_0,STRING_1,STRING_2,

























