shouldDecodeLegacyStringWithoutQuotes,copiedBuffer,
METHOD_0,METHOD_1,

deps,ByteBuf,Unpooled,CharsetUtil,JsonStringDocument,decoded,ResponseStatus,SUCCESS,
IDENT_0,IDENT_1,IDENT_2,IDENT_3,IDENT_4,IDENT_5,IDENT_6,IDENT_7,







"id",
STRING_0,

























