testCreateURL,asWgs84Position,createURL,formatDoubleAsString,getLongitude,getLatitude,
METHOD_0,METHOD_1,METHOD_2,METHOD_3,METHOD_4,METHOD_5,

slash,navigation,Wgs84Position,positions,mapName,nmn,NmnUrlFormat,preferences,startIndex,endIndex,longitude,latitude,
IDENT_0,IDENT_1,IDENT_2,IDENT_3,IDENT_4,IDENT_5,IDENT_6,IDENT_7,IDENT_8,IDENT_9,IDENT_10,IDENT_11,







"http://www.motoplaner.de/#53.574977,10.025711;1,53.576620,10.200260;1,53.591710,10.357350;1,53.647810,10.456960;1","navigon","navigonUrlMapName","://route/?","&","target=coordinate//",
STRING_0,STRING_1,STRING_2,STRING_3,STRING_4,STRING_5,

10.02571156,53.57497745,10.20026067,53.57662034,10.35735078,53.59171021,10.45696089,53.64781001,
FLOAT_0,FLOAT_1,FLOAT_2,FLOAT_3,FLOAT_4,FLOAT_5,FLOAT_6,FLOAT_7,






















