updateNotMatchTypeTest,andorUpdateData,
METHOD_0,METHOD_1,

normaltblTableName,cause,
IDENT_0,IDENT_1,







"ob","UPDATE "," SET id=? WHERE pk=?","NIHAO",
STRING_0,STRING_1,STRING_2,STRING_3,

























