testSetTag_Long,DataItem,setTag,getTag,
METHOD_0,METHOD_1,METHOD_2,METHOD_3,

nstant,cbor,DataItem,MajorType,UNSIGNED_INTEGER,tag,
IDENT_0,IDENT_1,IDENT_2,IDENT_3,IDENT_4,IDENT_5,


































