testGetTag,DataItem,setTag,Tag,getTag,
METHOD_0,METHOD_1,METHOD_2,METHOD_3,METHOD_4,

nstant,cbor,DataItem,MajorType,UNSIGNED_INTEGER,
IDENT_0,IDENT_1,IDENT_2,IDENT_3,IDENT_4,


































