testHttpCode,getResponse,CrawlDatum,
METHOD_0,METHOD_1,METHOD_2,

cn,hfut,dmic,webcollector,Page,requester,
IDENT_0,IDENT_1,IDENT_2,IDENT_3,IDENT_4,IDENT_5,







"http://www.hfut.edu.cn/ch/",
STRING_0,

























