test5,MapObject,singletonMap,
METHOD_0,METHOD_1,METHOD_2,

creactiviti,piper,MapObject,mo,
IDENT_0,IDENT_1,IDENT_2,IDENT_3,







"number","5",
STRING_0,STRING_1,

























