testSpecial,
METHOD_0,

crosswire,jsword,passage,Passage,ich5l,PassageParentTst,keyf,v11n,ich5u,versification,Versification,passageReference,
IDENT_0,IDENT_1,IDENT_2,IDENT_3,IDENT_4,IDENT_5,IDENT_6,IDENT_7,IDENT_8,IDENT_9,IDENT_10,IDENT_11,







"1ch 5","1Ch 5",
STRING_0,STRING_1,

























