testIsNotParameterizedType,isParameterizedType,
METHOD_0,METHOD_1,

isParameterizedType,dataTypeUtils,typeName,
IDENT_0,IDENT_1,IDENT_2,







"datatype.Collection<String","<",">",
STRING_0,STRING_1,STRING_2,

























