testGetBlockSize,JceAesBlockCipher,getBlockSize,
METHOD_0,METHOD_1,METHOD_2,

cryptomator,siv,JceAesBlockCipher,cipher,
IDENT_0,IDENT_1,IDENT_2,IDENT_3,


































