should_count_by_like,createSimple,Simple,countLike,executeCountQuery,
METHOD_0,METHOD_1,METHOD_2,METHOD_3,METHOD_4,

ctp,cdi,Simple,Simple_,E,metamodel,SingularAttribute,
IDENT_0,IDENT_1,IDENT_2,IDENT_3,IDENT_4,IDENT_5,IDENT_6,







"testFindAll1","testFindAll2",
STRING_0,STRING_1,

























