IntegerAttribute,setAttributeValue,getAttributeValue,getAttributeData,
METHOD_0,METHOD_1,METHOD_2,METHOD_3,

tinyradius,attribute,IntegerAttribute,intAttr,bigValue,bigValueSt,ip,
IDENT_0,IDENT_1,IDENT_2,IDENT_3,IDENT_4,IDENT_5,IDENT_6,

27,4294967295L,
INT_0,INT_1,




"ip attribute: expected 4 bytes attribute data",".",
STRING_0,STRING_1,

























