testAddItemBeforeNoItem,getCreateItems,
METHOD_0,METHOD_1,

ctrip,apollo,ItemChangeSets,changeSets,createItems,
IDENT_0,IDENT_1,IDENT_2,IDENT_3,IDENT_4,







"a=b\nb=c",
STRING_0,

























