testMapWithSomeValueNull,Embed,Pojo5,setMap,showBytes,deserialize,getMap,
METHOD_0,METHOD_1,METHOD_2,METHOD_3,METHOD_4,METHOD_5,METHOD_6,

ctrip,soa,caravan,protobuf,Embed,Pojo5,bout,JacksonProtobuf2Serializer,got,
IDENT_0,IDENT_1,IDENT_2,IDENT_3,IDENT_4,IDENT_5,IDENT_6,IDENT_7,IDENT_8,


































