testMerge,ShardedIntArrayResultMerger,recordPartial,addPartial,merge,sort,
METHOD_0,METHOD_1,METHOD_2,METHOD_3,METHOD_4,METHOD_5,

ctrip,ShardedIntArrayResultMerger,SQLException,comparator,
IDENT_0,IDENT_1,IDENT_2,IDENT_3,







"3",
STRING_0,

























