testCreateCluster,createCluster,
METHOD_0,METHOD_1,

ctrip,xpipe,console,ClusterTbl,newCluster,clusterDao,clusterTbl,
IDENT_0,IDENT_1,IDENT_2,IDENT_3,IDENT_4,IDENT_5,IDENT_6,


































