channelInactive,EmbeddedChannel,finish,isActive,
METHOD_0,METHOD_1,METHOD_2,METHOD_3,

embedded,EmbeddedChannel,active,
IDENT_0,IDENT_1,IDENT_2,


































