testArrayParser,ArrayParser,readToString,getPayload,
METHOD_0,METHOD_1,METHOD_2,METHOD_3,

resultSet,ctrip,xpipe,protocal,ArrayParser,ByteBuf,byteBuf,ByteBufUtils,receiver,objects,
IDENT_0,IDENT_1,IDENT_2,IDENT_3,IDENT_4,IDENT_5,IDENT_6,IDENT_7,IDENT_8,IDENT_9,







"hello","world","jajaja","[result] \r\n{}","{}",
STRING_0,STRING_1,STRING_2,STRING_3,STRING_4,

























