shouldDecryptBlock,RandomAccess,Key,shuffle,decrypt64,arraycopy,
METHOD_0,METHOD_1,METHOD_2,METHOD_3,METHOD_4,METHOD_5,

cad,tpsparse,bin,decrypt,KeyTest,ENCRYPTED_HEADER,Key,ok,DECRYPTED_HEADER,baseOfs,tmp,
IDENT_0,IDENT_1,IDENT_2,IDENT_3,IDENT_4,IDENT_5,IDENT_6,IDENT_7,IDENT_8,IDENT_9,IDENT_10,


































