testInsertData,createPartition,genSimpleData,insertData,getNumRecords,
METHOD_0,METHOD_1,METHOD_2,METHOD_3,METHOD_4,

cubedb,offheap,OffHeapPartition,DataRow,curPos,
IDENT_0,IDENT_1,IDENT_2,IDENT_3,IDENT_4,







"f1","c",
STRING_0,STRING_1,

























