testNullGetNetworkView,SetCurrentNetworkViewEvent,getNetworkView,
METHOD_0,METHOD_1,METHOD_2,

cytoscape,CyApplicationManager,SetCurrentNetworkViewEvent,
IDENT_0,IDENT_1,IDENT_2,


































