testSetMaxWeightCutoff,setMaxWeightCutoff,
METHOD_0,METHOD_1,

ew,maxWeightCutoff,maxWeight,
IDENT_0,IDENT_1,IDENT_2,










0.4,
FLOAT_0,






















