testGetWithPrimaryKey,getRow,getPrimaryKey,
METHOD_0,METHOD_1,METHOD_2,

cytoscape,CyRow,CyColumn,primaryKey,
IDENT_0,IDENT_1,IDENT_2,IDENT_3,

107L,
INT_0,































