testNumTasks,SimpleTask,TaskIterator,getNumTasks,
METHOD_0,METHOD_1,METHOD_2,METHOD_3,

cytoscape,work,Task,initialTask,initialTask2,TaskIterator,iter,numTasks,
IDENT_0,IDENT_1,IDENT_2,IDENT_3,IDENT_4,IDENT_5,IDENT_6,IDENT_7,


































