s3SingletonTest,getS3Client,getenv,
METHOD_0,METHOD_1,METHOD_2,

s3,AmazonS3,firstInstance,d2si,ooso,AmazonS3Provider,secondInstance,smr_stage,FakeAmazonS3Holder,S3_CLIENT,AmazonS3Holder,
IDENT_0,IDENT_1,IDENT_2,IDENT_3,IDENT_4,IDENT_5,IDENT_6,IDENT_7,IDENT_8,IDENT_9,IDENT_10,







"SMR_STAGE","DEV",
STRING_0,STRING_1,

























