parallel_should_assemble_parallel_of_5,parallel,TestOperation,prepare,
METHOD_0,METHOD_1,METHOD_2,METHOD_3,

mostlyoriginal,OperationFlow,ParallelOperation,o1,o2,o3,o4,o5,
IDENT_0,IDENT_1,IDENT_2,IDENT_3,IDENT_4,IDENT_5,IDENT_6,IDENT_7,


































