newWatchService,getFileSystem,
METHOD_0,METHOD_1,

pathToTest,Paths,jsr203,TestFileSystem,clusterUri,WatchService,
IDENT_0,IDENT_1,IDENT_2,IDENT_3,IDENT_4,IDENT_5,


































