testLexerUnicodeSMPLiteralSerializedToSet,LexerGrammar,createATN,getDecoded,getTokenNames,getMaxTokenType,getTokenName,
METHOD_0,METHOD_1,METHOD_2,METHOD_3,METHOD_4,METHOD_5,METHOD_6,

tool,LexerGrammar,lg,expecting,atn,ATN,ATNSerializer,numTokens,tokenNames,
IDENT_0,IDENT_1,IDENT_2,IDENT_3,IDENT_4,IDENT_5,IDENT_6,IDENT_7,IDENT_8,







"2:RULE_STOP 0\n","max type 1\n","0:TOKEN_START -1\n","1:RULE_START 0\n","4:BASIC 0\n","mode 0:0\n","0->1 EPSILON 0,0,0\n","1->3 EPSILON 0,0,0\n","3->4 SET 0,0,0\n","0:0\n",
STRING_0,STRING_1,STRING_2,STRING_3,STRING_4,STRING_5,STRING_6,STRING_7,STRING_8,STRING_9,

























