executeTest,basicTest,perform,andExpect,isOk,containsString,andDo,print,
METHOD_0,METHOD_1,METHOD_2,METHOD_3,METHOD_4,METHOD_5,METHOD_6,METHOD_7,

mockMvc,
IDENT_0,







"/nmap-exe?code={code}","scanme.nmap.org","nmap scanme.nmap.org","mockMvc couldn't be initiated","/nmap","Port Scan",
STRING_0,STRING_1,STRING_2,STRING_3,STRING_4,STRING_5,

























