testHeadersPropogatedCorrectlyToImportedGrammars,mkdir,writeFile,antlrOnString,
METHOD_0,METHOD_1,METHOD_2,METHOD_3,

slave,BaseRuntimeTest,tmpdir,master,ErrorQueue,equeue,expecting,
IDENT_0,IDENT_1,IDENT_2,IDENT_3,IDENT_4,IDENT_5,IDENT_6,







"parser grammar S;\n","a : B {System.out.print(\"S.a\");} ;\n","S.g4","grammar M;\n","import S;\n","@header{package mypackage;}\n","B : 'b' ;","Java","M.g4",
STRING_0,STRING_1,STRING_2,STRING_3,STRING_4,STRING_5,STRING_6,STRING_7,STRING_8,

























