testEqualsSelf,TimePeriodValue,Day,getUuid,
METHOD_0,METHOD_1,METHOD_2,METHOD_3,

TimePeriodValue,tpv,mysql,fabric,Server,
IDENT_0,IDENT_1,IDENT_2,IDENT_3,IDENT_4,










55.75,
FLOAT_0,






















