testEquals2,TimeSeries,getUuid,
METHOD_0,METHOD_1,METHOD_2,

TimeSeries,s1,Day,s2,mysql,fabric,Server,
IDENT_0,IDENT_1,IDENT_2,IDENT_3,IDENT_4,IDENT_5,IDENT_6,







"Series",
STRING_0,

























