testAddValue,Year,intValue,getIndex,UnknownKeyException,
METHOD_0,METHOD_1,METHOD_2,METHOD_3,METHOD_4,

seriesA,Comparable,
IDENT_0,IDENT_1,

1999,
INT_0,




"Key not found: ",
STRING_0,

























