testSimpleAnd,getTarget,getTestName,
METHOD_0,METHOD_1,METHOD_2,

misc,IntervalSet,s2,expecting,
IDENT_0,IDENT_1,IDENT_2,IDENT_3,

13,
INT_0,




"{13..15}",":",
STRING_0,STRING_1,

























