testSubtractFromSetWithEOF,subtract,getTarget,getTestName,
METHOD_0,METHOD_1,METHOD_2,METHOD_3,

misc,IntervalSet,Token,EOF,s2,expecting,
IDENT_0,IDENT_1,IDENT_2,IDENT_3,IDENT_4,IDENT_5,







"{<EOF>, 10..11, 16..20}",":",
STRING_0,STRING_1,

























