testComplement2,complement,getTarget,getTestName,
METHOD_0,METHOD_1,METHOD_2,METHOD_3,

misc,IntervalSet,s2,expecting,
IDENT_0,IDENT_1,IDENT_2,IDENT_3,

101,102,
INT_0,INT_1,




"102",":",
STRING_0,STRING_1,

























