testMergeWhereAdditionMergesThreeExistingIntervals,IntervalSet,getTarget,getTestName,
METHOD_0,METHOD_1,METHOD_2,METHOD_3,

misc,IntervalSet,expecting,
IDENT_0,IDENT_1,IDENT_2,







"{0..7}",":",
STRING_0,STRING_1,

























