test_addTags,getTagWithId,addTags,getTags,
METHOD_0,METHOD_1,METHOD_2,METHOD_3,

data4all,Tag,tags,LinkedHashMap,Tags,testNode,
IDENT_0,IDENT_1,IDENT_2,IDENT_3,IDENT_4,IDENT_5,

11,
INT_0,




"motorway","fence","restaurant",
STRING_0,STRING_1,STRING_2,

























