test_hasTagKey,getTagWithId,addTags,hasTagKey,getTagValueWithKey,
METHOD_0,METHOD_1,METHOD_2,METHOD_3,METHOD_4,

data4all,Tag,tags,LinkedHashMap,Tags,testNode,
IDENT_0,IDENT_1,IDENT_2,IDENT_3,IDENT_4,IDENT_5,







"motorway",
STRING_0,

























