test_getFirstNode,addNode,getFirstNode,
METHOD_0,METHOD_1,METHOD_2,

PolyElement,testNode1,testNode2,
IDENT_0,IDENT_1,IDENT_2,


































