hasEnoughNodes_AREA_true,setInterpretationType,hasEnoughNodes,minNodes,
METHOD_0,METHOD_1,METHOD_2,METHOD_3,

touchview,InterpretationType,AREA,polygon,point1,point2,point3,interpreter,
IDENT_0,IDENT_1,IDENT_2,IDENT_3,IDENT_4,IDENT_5,IDENT_6,IDENT_7,


































