testTypeCommand,execLexer,
METHOD_0,METHOD_1,

grammar,expecting,grammarFileName,grammarStr,lexerName,
IDENT_0,IDENT_1,IDENT_2,IDENT_3,IDENT_4,







"lexer grammar L;\n","I : \'0\'..\'9\'+ {System.out.println(\"I\");} ;\n","HASH : '#' -> type(HASH) ;","L.g4","L","34#","I\n","[@0,0:1=\'34\',<1>,1:0]\n","[@2,3:2=\'<EOF>\',<-1>,1:3]\n",
STRING_0,STRING_1,STRING_2,STRING_3,STRING_4,STRING_5,STRING_6,STRING_7,STRING_8,

























