testParserLexerCombo,addEdge,sort,
METHOD_0,METHOD_1,METHOD_2,

misc,Graph,expecting,retvals,
IDENT_0,IDENT_1,IDENT_2,IDENT_3,







"JavaLexer.tokens","JavaLexer.g4","JavaParser.g4","Def.g4","Ref.g4","[JavaLexer.g4, JavaLexer.tokens, JavaParser.g4, Def.g4, Ref.g4]","Rule{name=",", args=",", retvals=","}",
STRING_0,STRING_1,STRING_2,STRING_3,STRING_4,STRING_5,STRING_6,STRING_7,STRING_8,STRING_9,

























