testGetTextBeforeBufferStart,createStream,consume,mark,Interval,
METHOD_0,METHOD_1,METHOD_2,METHOD_3,METHOD_4,

CharStream,tool,TestUnbufferedCharStream,m1,misc,
IDENT_0,IDENT_1,IDENT_2,IDENT_3,IDENT_4,







"xyz",
STRING_0,

























