initGraph,newTask,then,travelInWorld,thenDo,ActionFunction,eval,removeGraph,world,
METHOD_0,METHOD_1,METHOD_2,METHOD_3,METHOD_4,METHOD_5,METHOD_6,METHOD_7,METHOD_8,

greycat,Tasks,CoreActions,greycatTest,TaskContext,_world,
IDENT_0,IDENT_1,IDENT_2,IDENT_3,IDENT_4,IDENT_5,







"10",
STRING_0,

























