dataHash_3Test,
METHOD_0,

greycat,utility,HashHelper,CoreConstants,BEGINNING_OF_TIME,hash2,END_OF_TIME,
IDENT_0,IDENT_1,IDENT_2,IDENT_3,IDENT_4,IDENT_5,IDENT_6,


































