testArray_flip,array_flip,
METHOD_0,METHOD_1,

datumbox,utilities,PHPMethods,V,K,flipped,
IDENT_0,IDENT_1,IDENT_2,IDENT_3,IDENT_4,IDENT_5,

11,
INT_0,




"array_flip","3",
STRING_0,STRING_1,

























