testPreg_replace_3args_1,preg_replace,compile,
METHOD_0,METHOD_1,METHOD_2,

replacement,datumbox,utilities,PHPMethods,Pattern,
IDENT_0,IDENT_1,IDENT_2,IDENT_3,IDENT_4,







"preg_replace","\\s+","a a",
STRING_0,STRING_1,STRING_2,

























