testTest,DataTable2D,put2d,getPvalue,
METHOD_0,METHOD_1,METHOD_2,METHOD_3,

datumbox,dataobjects,DataTable2D,dataTable,aLevel,statistics,nonparametrics,relatedsamples,CochranQ,pvalue,rejectH0,
IDENT_0,IDENT_1,IDENT_2,IDENT_3,IDENT_4,IDENT_5,IDENT_6,IDENT_7,IDENT_8,IDENT_9,IDENT_10,

11,13,14,17,
INT_0,INT_1,INT_2,INT_3,







0.05,
FLOAT_0,






















