testTestSum,testSum,sqrt,checkCriticalValue,
METHOD_0,METHOD_1,METHOD_2,METHOD_3,

xsum,H0sum,std,is_twoTailed,aLevel,datumbox,statistics,parametrics,onesample,NormalOneSample,z,H0mean,rejectH0,
IDENT_0,IDENT_1,IDENT_2,IDENT_3,IDENT_4,IDENT_5,IDENT_6,IDENT_7,IDENT_8,IDENT_9,IDENT_10,IDENT_11,IDENT_12,







"testSum","All the parameters must be positive.",
STRING_0,STRING_1,

65.3,0.65,0.02,0.05,
FLOAT_0,FLOAT_1,FLOAT_2,FLOAT_3,






















