testTest,FlatDataList,calculateScore,checkCriticalValue,
METHOD_0,METHOD_1,METHOD_2,METHOD_3,

datumbox,dataobjects,FlatDataList,errorList,is_twoTailed,aLevel,statistics,parametrics,onesample,DurbinWatson,DW,rejectH0,
IDENT_0,IDENT_1,IDENT_2,IDENT_3,IDENT_4,IDENT_5,IDENT_6,IDENT_7,IDENT_8,IDENT_9,IDENT_10,IDENT_11,







"The provided collection can't be empty.",
STRING_0,

2.7755575615629E-15,2.0816681711722E-15,2.2204460492503E-16,1.9984014443253E-15,3.3306690738755E-16,4.9960036108132E-16,4.4408920985006E-16,2.4424906541753E-15,1.2212453270877E-15,1.3322676295502E-15,1.6653345369377E-15,1.8318679906315E-15,2.3314683517128E-15,8.8817841970013E-16,2.2204460492503E-15,3.1641356201817E-15,6.6613381477509E-16,2.7755575615629E-16,5.5511151231258E-16,1.193489751472E-15,1.1657341758564E-15,6.1062266354384E-16,1.1102230246252E-15,9.4368957093138E-16,1.8873791418628E-15,2.9976021664879E-15,1.4710455076283E-15,2.1649348980191E-15,7.2164496600635E-16,1.498801083244E-15,1.1379786002408E-15,1.5473733405713E-15,9.9920072216264E-16,1.7763568394003E-15,7.7715611723761E-16,1.6653345369377E-16,3.5249581031849E-15,1.5300261058115E-15,3.885780586188E-16,5.5511151231258E-17,1.3877787807814E-15,2.6645352591004E-15,4.1633363423443E-15,1.6930901125534E-15,1.5404344466674E-15,8.3266726846887E-16,4.2743586448069E-15,0.05,
FLOAT_0,FLOAT_1,FLOAT_2,FLOAT_3,FLOAT_4,FLOAT_5,FLOAT_6,FLOAT_7,FLOAT_8,FLOAT_9,FLOAT_10,FLOAT_11,FLOAT_12,FLOAT_13,FLOAT_14,FLOAT_15,FLOAT_16,FLOAT_17,FLOAT_18,FLOAT_19,FLOAT_20,FLOAT_21,FLOAT_22,FLOAT_23,FLOAT_24,FLOAT_25,FLOAT_26,FLOAT_27,FLOAT_28,FLOAT_29,FLOAT_30,FLOAT_31,FLOAT_32,FLOAT_33,FLOAT_34,FLOAT_35,FLOAT_36,FLOAT_37,FLOAT_38,FLOAT_39,FLOAT_40,FLOAT_41,FLOAT_42,FLOAT_43,FLOAT_44,FLOAT_45,FLOAT_46,FLOAT_47,






















