shouldSetPropertyValueString,aPerson,withName,
METHOD_0,METHOD_1,METHOD_2,

fluentinterface,built,
IDENT_0,IDENT_1,







"John Smith",
STRING_0,

























