testTreeWithOneItemIsNotEmpty,isPresent,
METHOD_0,METHOD_1,

rtree,RTree,Geometry,RTreeTest,head,
IDENT_0,IDENT_1,IDENT_2,IDENT_3,IDENT_4,


































