testSearchWithCircleFindsAll,point,circle,toBlocking,single,
METHOD_0,METHOD_1,METHOD_2,METHOD_3,METHOD_4,

rtree,RTree,Point,Geometries,
IDENT_0,IDENT_1,IDENT_2,IDENT_3,










1.5,
FLOAT_0,






















