testEquality,circle,
METHOD_0,METHOD_1,

rtree,Circle,circle1,Geometries,circle2,CircleDouble,radius,
IDENT_0,IDENT_1,IDENT_2,IDENT_3,IDENT_4,IDENT_5,IDENT_6,


































