testGeometry,rectangle,SuppressWarnings,asClass,isPresent,
METHOD_0,METHOD_1,METHOD_2,METHOD_3,METHOD_4,

rtree,Rectangle,Geometries,guavamini,EntryDefault,ObjectsHelper,Objects,
IDENT_0,IDENT_1,IDENT_2,IDENT_3,IDENT_4,IDENT_5,IDENT_6,







"rawtypes",
STRING_0,

























