testCollectWithEmpties,just,blockingGet,
METHOD_0,METHOD_1,METHOD_2,

reactivex,Flowable,rx2,Bytes,functions,Function,Single,
IDENT_0,IDENT_1,IDENT_2,IDENT_3,IDENT_4,IDENT_5,IDENT_6,


































