testExpansionWithParametersNoCollections,Parameter,
METHOD_0,METHOD_1,

rx,Parameter,SqlInfo,guavamini,
IDENT_0,IDENT_1,IDENT_2,IDENT_3,







"? hello ?",
STRING_0,

























