testAtomicInteger,AtomicInteger,setAtomic,NotPresentException,
METHOD_0,METHOD_1,METHOD_2,METHOD_3,

AtomicInteger,rx,Actions,present,
IDENT_0,IDENT_1,IDENT_2,IDENT_3,


































