testConcurrent,integer,AtomicBoolean,Runnable,offer,poll,round,NotPresentException,
METHOD_0,METHOD_1,METHOD_2,METHOD_3,METHOD_4,METHOD_5,METHOD_6,METHOD_7,

rx,operators,FileBasedSPSCQueue,buffertofile,DataSerializers,AtomicBoolean,failed,t1,t2,present,
IDENT_0,IDENT_1,IDENT_2,IDENT_3,IDENT_4,IDENT_5,IDENT_6,IDENT_7,IDENT_8,IDENT_9,

1024,10000000,
INT_0,INT_1,




"target/pq2","failed for i = "," per second",
STRING_0,STRING_1,STRING_2,

1000.0,
FLOAT_0,






















