testEmptyResultSet,just,toBlocking,single,onNext,onCompleted,
METHOD_0,METHOD_1,METHOD_2,METHOD_3,METHOD_4,METHOD_5,

rx,Observable,OnSubscribe,Subscriber,subscriber,
IDENT_0,IDENT_1,IDENT_2,IDENT_3,IDENT_4,







"select name from person where name >?","ZZTOP",
STRING_0,STRING_1,

























