testNoTraffic,SimpleCallStateMachine,getTransitions,unmodifiableList,
METHOD_0,METHOD_1,METHOD_2,METHOD_3,

pkts,SimpleCallStateMachine,fsm,callTransitions,
IDENT_0,IDENT_1,IDENT_2,IDENT_3,







"abcd-123",
STRING_0,

























