joinStringsShouldReturnEmptyStringWithEmptyInput,joinStrings,
METHOD_0,METHOD_1,

communitybridge,utility,StringUtilities,main,CBMetrics,Graph,
IDENT_0,IDENT_1,IDENT_2,IDENT_3,IDENT_4,IDENT_5,


































