testUnwrap,unwrap,SQLException,
METHOD_0,METHOD_1,METHOD_2,

actualDataSource,iface,DataSource,
IDENT_0,IDENT_1,IDENT_2,







"abcddddd","Interface argument must not be null","DataSource of type [","] can only be unwrapped as [javax.sql.DataSource], not as [",
STRING_0,STRING_1,STRING_2,STRING_3,

























