testGetConnection,getConnection,determineTargetDataSource,buildCatalog,
METHOD_0,METHOD_1,METHOD_2,METHOD_3,

Connection,actualDataSource,DataSource,ds,
IDENT_0,IDENT_1,IDENT_2,IDENT_3,


































