testCreateJpqlQuery,createJpqlQuery,getJpql,
METHOD_0,METHOD_1,METHOD_2,

jpql,dayatang,JpqlQuery,
IDENT_0,IDENT_1,IDENT_2,







"select o from Dictionary o",
STRING_0,

























