testCreateCriteriaQuery,createCriteriaQuery,getEntityClass,
METHOD_0,METHOD_1,METHOD_2,

dayatang,CriteriaQuery,Dictionary,entityClass,
IDENT_0,IDENT_1,IDENT_2,IDENT_3,


































