testGetValue,Property,
METHOD_0,METHOD_1,

gradoop,PropertyValue,propertyValue,Property,literal,
IDENT_0,IDENT_1,IDENT_2,IDENT_3,IDENT_4,







"key",
STRING_0,

























