testSetShort,PropertyValue,setShort,getShort,
METHOD_0,METHOD_1,METHOD_2,METHOD_3,

gradoop,PropertyValue,SHORT_VAL_e,Short,
IDENT_0,IDENT_1,IDENT_2,IDENT_3,


































