testArrayOfTemplates,ST,getDefault,
METHOD_0,METHOD_1,METHOD_2,

stringtemplate,ST,st,
IDENT_0,IDENT_1,IDENT_2,







"<foo>!","hi","mom","himom!",
STRING_0,STRING_1,STRING_2,STRING_3,

























