testSetSet,PropertyValue,setSet,getSet,
METHOD_0,METHOD_1,METHOD_2,METHOD_3,

gradoop,PropertyValue,SET_VAL_f,
IDENT_0,IDENT_1,IDENT_2,


































