getGraphTransactions,GraphTransaction,newHashSet,
METHOD_0,METHOD_1,METHOD_2,

gradoop,layouts,transactional,tuples,GraphTransaction,tx0,gve,GVELayoutTest,g0,Sets,v0,e0,
IDENT_0,IDENT_1,IDENT_2,IDENT_3,IDENT_4,IDENT_5,IDENT_6,IDENT_7,IDENT_8,IDENT_9,IDENT_10,IDENT_11,


































