testParentOfRootIsNull,getParent,lastIndexOf,LoggerName,
METHOD_0,METHOD_1,METHOD_2,METHOD_3,

dmg,logback,LoggerName,ROOT,_name,
IDENT_0,IDENT_1,IDENT_2,IDENT_3,IDENT_4,







'.','$',
STRING_0,STRING_1,

























