testDifferentValueSameType,parseChecksum,not,negate,
METHOD_0,METHOD_1,METHOD_2,METHOD_3,

Checksum,c1,c2,Predicate,
IDENT_0,IDENT_1,IDENT_2,IDENT_3,







"1:00675af7","1:00675af8",
STRING_0,STRING_1,

























