shouldPrintCharArrayIncludeNonTrailingWS,print,toCharArray,
METHOD_0,METHOD_1,METHOD_2,

destination,inner,
IDENT_0,IDENT_1,







"H W","spacemanager={",", ","}",
STRING_0,STRING_1,STRING_2,STRING_3,

























