testCreateSessionReply,createSession,
METHOD_0,METHOD_1,

nfs,NFSv41Session,session1,nfsClient,session2,_session,
IDENT_0,IDENT_1,IDENT_2,IDENT_3,IDENT_4,IDENT_5,


































