testAllDenyRead,toACE,addACE,toMode,calculateBits,
METHOD_0,METHOD_1,METHOD_2,METHOD_3,METHOD_4,

rwx,nfs,xdr,nfsace4,acl,deny,Acls,EVERYONE,ACE4_ACCESS_DENIED_ACE_TYPE,ACE4_READ_DATA,acl2,OWNER,BIT_MASK_OWNER_OFFSET,GROUP,BIT_MASK_GROUP_OFFSET,BIT_MASK_OTHER_OFFSET,
IDENT_0,IDENT_1,IDENT_2,IDENT_3,IDENT_4,IDENT_5,IDENT_6,IDENT_7,IDENT_8,IDENT_9,IDENT_10,IDENT_11,IDENT_12,IDENT_13,IDENT_14,IDENT_15,

493,201,
INT_0,INT_1,































