testRemoveValid,lock,validAt,millis,getObject,unlock,notifyRemove,
METHOD_0,METHOD_1,METHOD_2,METHOD_3,METHOD_4,METHOD_5,METHOD_6,

_cache,K,V,valid,_accessLock,CacheElement,_storage,_timeSource,Cache,_log,_eventListener,
IDENT_0,IDENT_1,IDENT_2,IDENT_3,IDENT_4,IDENT_5,IDENT_6,IDENT_7,IDENT_8,IDENT_9,IDENT_10,







"key1","value1","Removing entry: active = [{}] key = [{}], value = [{}]",
STRING_0,STRING_1,STRING_2,

























