matchDateTimeTestClosedEndedIntervalNoCombined,Attributes,createDateTimeRangeQuery,
METHOD_0,METHOD_1,METHOD_2,

dcm4che3,Attributes,testAttrs,tmString,daString,dcm4chee,archive,Study,studies,locationPks,
IDENT_0,IDENT_1,IDENT_2,IDENT_3,IDENT_4,IDENT_5,IDENT_6,IDENT_7,IDENT_8,IDENT_9,







"121210-121212","20151007-20151009",
STRING_0,STRING_1,

























