testAddGroup,RouteGroup,GET,addRouteGroup,findRoutes,
METHOD_0,METHOD_1,METHOD_2,METHOD_3,METHOD_4,

ro,pippo,RouteGroup,DefaultRouterTest,emptyHandler,router,RouteMatch,HttpConstants,
IDENT_0,IDENT_1,IDENT_2,IDENT_3,IDENT_4,IDENT_5,IDENT_6,IDENT_7,







"/users","{id}","/users/1",
STRING_0,STRING_1,STRING_2,

























