testNestedTemplateInGroupFile,writeFile,STGroupFile,show,
METHOD_0,METHOD_1,METHOD_2,METHOD_3,

templates,stringtemplate,misc,Misc,newline,tmpdir,STGroup,alreadyLoaded,
IDENT_0,IDENT_1,IDENT_2,IDENT_3,IDENT_4,IDENT_5,IDENT_6,IDENT_7,







"t(a) ::= \"<a:{x | <x:{y | <y>}>}>\"","t.stg","t(a) ::= <<","<a:{x | <x:{y | <y>}>}>",">>",
STRING_0,STRING_1,STRING_2,STRING_3,STRING_4,

























