testEarlyEvalOfDefaultArgs,STGroupString,getInstanceOf,getDefault,
METHOD_0,METHOD_1,METHOD_2,METHOD_3,

templates,stringtemplate,STGroup,ST,expecting,
IDENT_0,IDENT_1,IDENT_2,IDENT_3,IDENT_4,







"s(x,y={<(x)>}) ::= \"<x><y>\"\n","s","x","aa",
STRING_0,STRING_1,STRING_2,STRING_3,

























