testManhattanAlongDim0,getRandom,setSeed,rand,getExecutioner,ManhattanDistance,shape,
METHOD_0,METHOD_1,METHOD_2,METHOD_3,METHOD_4,METHOD_5,METHOD_6,

expOut,ops,reduce3,lombok,expShape,sameDiff,
IDENT_0,IDENT_1,IDENT_2,IDENT_3,IDENT_4,IDENT_5,

12345,
INT_0,































