testShapeUpdating,var,mmul,tanh,externalErrors,linspace,reshape,setArray,updateVariable,execAndEndResult,execBackwards,emptyMap,getFunction,summary,getGradient,getArr,shape,
METHOD_0,METHOD_1,METHOD_2,METHOD_3,METHOD_4,METHOD_5,METHOD_6,METHOD_7,METHOD_8,METHOD_9,METHOD_10,METHOD_11,METHOD_12,METHOD_13,METHOD_14,METHOD_15,METHOD_16,

autodiff,samediff,SameDiff,sd,SDVariable,DataType,FLOAT,w,z,ops,layers,ExternalErrorsFunction,fn,inA,wA,bA,grad,inGrad,sameDiff,
IDENT_0,IDENT_1,IDENT_2,IDENT_3,IDENT_4,IDENT_5,IDENT_6,IDENT_7,IDENT_8,IDENT_9,IDENT_10,IDENT_11,IDENT_12,IDENT_13,IDENT_14,IDENT_15,IDENT_16,IDENT_17,IDENT_18,







"in","W","tanh","--------------- sd.execAndEndResult() ---------------","--------------- sd.execBackwards() #1 ---------------","--------------- sd.execBackwards() #2 ---------------","grad",
STRING_0,STRING_1,STRING_2,STRING_3,STRING_4,STRING_5,STRING_6,

























