testDefaultArgumentInParensToEvalEarly,writeFile,STGroupFile,getInstanceOf,Counter,getDefault,
METHOD_0,METHOD_1,METHOD_2,METHOD_3,METHOD_4,METHOD_5,

Counter,stringtemplate,templates,newline,tmpdir,STGroup,ST,expecting,
IDENT_0,IDENT_1,IDENT_2,IDENT_3,IDENT_4,IDENT_5,IDENT_6,IDENT_7,







"A(x) ::= \"<B()>\"","B(y={<(x)>}) ::= \"<y> <x> <x> <y>\"","group.stg","/group.stg","A","x","0 1 2 0",
STRING_0,STRING_1,STRING_2,STRING_3,STRING_4,STRING_5,STRING_6,

























