testAssignOffset,ones,slice,assign,scalar,dataType,checkShapeValues,logCreationIfNecessary,
METHOD_0,METHOD_1,METHOD_2,METHOD_3,METHOD_4,METHOD_5,METHOD_6,METHOD_7,

shape,
IDENT_0,


































