testAddMatrix,ones,addi,dup,valueArrayOf,getFailureMessage,ordering,
METHOD_0,METHOD_1,METHOD_2,METHOD_3,METHOD_4,METHOD_5,METHOD_6,

five,twos,
IDENT_0,IDENT_1,







"Failed with backend "," and ordering ",
STRING_0,STRING_1,

























