testAddMatrix,ones,addi,valueArrayOf,scalar,checkShapeValues,logCreationIfNecessary,
METHOD_0,METHOD_1,METHOD_2,METHOD_3,METHOD_4,METHOD_5,METHOD_6,

five,twos,shape,
IDENT_0,IDENT_1,IDENT_2,


































