testEmptyGroupImportGroupFileSameDir,getRandomDir,writeFile,STGroupFile,getInstanceOf,getDefault,
METHOD_0,METHOD_1,METHOD_2,METHOD_3,METHOD_4,METHOD_5,

dir,groupFile,stringtemplate,STGroup,group1,ST,st,
IDENT_0,IDENT_1,IDENT_2,IDENT_3,IDENT_4,IDENT_5,IDENT_6,







"import \"group2.stg\"\n","group1.stg","c() ::= \"g2 c\"\n","group2.stg","/group1.stg","c","g2 c",
STRING_0,STRING_1,STRING_2,STRING_3,STRING_4,STRING_5,STRING_6,

























