testIndexFor,indexesFor,point,
METHOD_0,METHOD_1,METHOD_2,

shape,INDArrayIndex,indexes,NDArrayIndex,
IDENT_0,IDENT_1,IDENT_2,IDENT_3,


































