testIndexPointIntervalAll,zeros,point,all,interval,ones,
METHOD_0,METHOD_1,METHOD_2,METHOD_3,METHOD_4,METHOD_5,

zeros,INDArrayIndex,NDArrayIndex,z,f1,f2,buff,sz,objects,
IDENT_0,IDENT_1,IDENT_2,IDENT_3,IDENT_4,IDENT_5,IDENT_6,IDENT_7,IDENT_8,







"[[[0,00,0,00,0,00]\n"," [0,00,0,00,0,00]]\n"," [[0,00,1,00,1,00]\n"," [0,00,1,00,1,00]]\n"," [[0,00,0,00,0,00]\n"," [0,00,0,00,0,00]]]","[[[0.00,0.00,0.00]\n"," [0.00,0.00,0.00]]\n"," [[0.00,1.00,1.00]\n"," [[0.00,0.00,0.00]\n","["," , ",
STRING_0,STRING_1,STRING_2,STRING_3,STRING_4,STRING_5,STRING_6,STRING_7,STRING_8,STRING_9,STRING_10,STRING_11,

























