testNoneInplaceOp3,assign,addInputs,callInplace,getExecutioner,getOutputArgument,
METHOD_0,METHOD_1,METHOD_2,METHOD_3,METHOD_4,METHOD_5,

lombok,arrayX,arrayY,ops,CustomOp,DynamicCustomOp,
IDENT_0,IDENT_1,IDENT_2,IDENT_3,IDENT_4,IDENT_5,







"add",
STRING_0,

4.0,6.0,
FLOAT_0,FLOAT_1,






















