testCaSTransform2,getExecutioner,CompareAndSet,lessThan,LessThan,
METHOD_0,METHOD_1,METHOD_2,METHOD_3,METHOD_4,

comp,ops,transforms,comparison,conditions,Conditions,Number,
IDENT_0,IDENT_1,IDENT_2,IDENT_3,IDENT_4,IDENT_5,IDENT_6,










3.0,
FLOAT_0,






















