testIFWithIndentOnMultipleLines,ST,getDefault,
METHOD_0,METHOD_1,METHOD_2,

stringtemplate,ST,newline,expecting,
IDENT_0,IDENT_1,IDENT_2,IDENT_3,







"begin"," <if(x)>"," foo"," <else>"," bar"," <endif>","end",
STRING_0,STRING_1,STRING_2,STRING_3,STRING_4,STRING_5,STRING_6,

























