testBasicOps_2,addi,asInt,synchronizeHostData,
METHOD_0,METHOD_1,METHOD_2,METHOD_3,

lombok,arrayX,DataType,INT,arrayY,vector,jcublas,BaseCudaDataBuffer,allocator,
IDENT_0,IDENT_1,IDENT_2,IDENT_3,IDENT_4,IDENT_5,IDENT_6,IDENT_7,IDENT_8,


































