testCrossBackendEquality1,getRandom,setSeed,getExecutioner,GaussianDistribution,createUninitialized,asDouble,synchronizeHostData,
METHOD_0,METHOD_1,METHOD_2,METHOD_3,METHOD_4,METHOD_5,METHOD_6,METHOD_7,

shape,mean,standardDeviation,rng,jcublas,BaseCudaDataBuffer,allocator,
IDENT_0,IDENT_1,IDENT_2,IDENT_3,IDENT_4,IDENT_5,IDENT_6,

12345,
INT_0,




"arr: {}",
STRING_0,

0.832718168582558,1.3312306172061867,0.27101354040045766,1.0368130323476494,0.6257379511224601,0.30653534119847814,0.28250229228899343,0.5464191486048424,0.5182898732953277,1.463107608378911,0.5634855878214299,1.4979616922031507,
FLOAT_0,FLOAT_1,FLOAT_2,FLOAT_3,FLOAT_4,FLOAT_5,FLOAT_6,FLOAT_7,FLOAT_8,FLOAT_9,FLOAT_10,FLOAT_11,






















