testBuff,createShapeInformation,asNioInt,isVector,rank,shapeOf,
METHOD_0,METHOD_1,METHOD_2,METHOD_3,METHOD_4,METHOD_5,

shape,stride,IntBuffer,buff,Shape,rank,shapeInfo,
IDENT_0,IDENT_1,IDENT_2,IDENT_3,IDENT_4,IDENT_5,IDENT_6,







'c',
STRING_0,

























