testIndirectProp,ST,getDefault,
METHOD_0,METHOD_1,METHOD_2,

stringtemplate,ST,st,TestCoreBasics,
IDENT_0,IDENT_1,IDENT_2,IDENT_3,







"<u.(propname)>: <u.name>","u","parrt","propname","id","1: parrt",
STRING_0,STRING_1,STRING_2,STRING_3,STRING_4,STRING_5,

























