testExecSubArray,all,interval,getExecutioner,ScalarAdd,getFailureMessage,ordering,
METHOD_0,METHOD_1,METHOD_2,METHOD_3,METHOD_4,METHOD_5,METHOD_6,

nd,sub,NDArrayIndex,ops,scalar,
IDENT_0,IDENT_1,IDENT_2,IDENT_3,IDENT_4,







"Failed with backend "," and ordering ",
STRING_0,STRING_1,

























