testLongTadOffsets1,getExecutioner,getTADManager,getTADOnlyShapeInfo,getSecond,
METHOD_0,METHOD_1,METHOD_2,METHOD_3,METHOD_4,

huge,primitives,Pair,DataBuffer,tad,
IDENT_0,IDENT_1,IDENT_2,IDENT_3,IDENT_4,

230000000,
INT_0,































