testShapeOrder,getOrder,
METHOD_0,METHOD_1,

shape,stride,Shape,sd,dim,cContiguous,isFortran,elementStride,
IDENT_0,IDENT_1,IDENT_2,IDENT_3,IDENT_4,IDENT_5,IDENT_6,IDENT_7,







'a','f','c',
STRING_0,STRING_1,STRING_2,




--,*=,
OP_0,OP_1,



















