testSerialization_1,deserialize,fromByteArray,
METHOD_0,METHOD_1,METHOD_2,

lombok,v0,primitives,Atomic,baos,SerializationUtils,bais,
IDENT_0,IDENT_1,IDENT_2,IDENT_3,IDENT_4,IDENT_5,IDENT_6,

1327541,
INT_0,































