testCrash_119_expand_dim,importGraph,ClassPathResource,getInputStream,associateArrayWithVariable,getVariable,asFlatFile,getUrl,isJarURL,extractActualUrl,ZipFile,getFile,getEntry,FileInputStream,
METHOD_0,METHOD_1,METHOD_2,METHOD_3,METHOD_4,METHOD_5,METHOD_6,METHOD_7,METHOD_8,METHOD_9,METHOD_10,METHOD_11,METHOD_12,METHOD_13,

lombok,tg,imports,graphmapper,tf,TFGraphMapper,input0,zip,ZipFile,zipFile,ZipEntry,resourceName,srcFile,
IDENT_0,IDENT_1,IDENT_2,IDENT_3,IDENT_4,IDENT_5,IDENT_6,IDENT_7,IDENT_8,IDENT_9,IDENT_10,IDENT_11,IDENT_12,







"tf_graphs/examples/expand_dim/frozen_model.pb","input_0","../../../libnd4j/tests_cpu/resources/expand_dim.fb",
STRING_0,STRING_1,STRING_2,

0.0975336,0.76124972,0.24693797,0.13813169,0.33144656,0.08299957,0.67197708,0.8065938,0.98274191,0.63566073,0.21592326,0.54902743,
FLOAT_0,FLOAT_1,FLOAT_2,FLOAT_3,FLOAT_4,FLOAT_5,FLOAT_6,FLOAT_7,FLOAT_8,FLOAT_9,FLOAT_10,FLOAT_11,






















