testAssignNumber,linspace,reshape,interval,assign,shape,
METHOD_0,METHOD_1,METHOD_2,METHOD_3,METHOD_4,METHOD_5,

nRows,nCols,subset1,NDArrayIndex,subset2,assertion,Shape,javaShapeInformation,
IDENT_0,IDENT_1,IDENT_2,IDENT_3,IDENT_4,IDENT_5,IDENT_6,IDENT_7,







'c',
STRING_0,

11.0,12.0,13.0,14.0,15.0,16.0,17.0,18.0,19.0,20.0,21.0,22.0,23.0,24.0,25.0,26.0,27.0,28.0,29.0,30.0,31.0,32.0,33.0,34.0,35.0,36.0,37.0,38.0,39.0,40.0,41.0,42.0,43.0,44.0,45.0,46.0,47.0,48.0,49.0,50.0,51.0,52.0,53.0,54.0,55.0,56.0,57.0,58.0,59.0,60.0,61.0,62.0,63.0,64.0,65.0,66.0,67.0,68.0,69.0,70.0,71.0,72.0,73.0,74.0,75.0,76.0,77.0,78.0,79.0,80.0,81.0,82.0,83.0,84.0,85.0,86.0,87.0,88.0,89.0,90.0,91.0,92.0,93.0,94.0,95.0,96.0,97.0,98.0,99.0,100.0,101.0,102.0,103.0,104.0,105.0,106.0,107.0,108.0,109.0,110.0,121.0,122.0,123.0,124.0,125.0,126.0,127.0,128.0,129.0,130.0,141.0,142.0,143.0,144.0,145.0,146.0,147.0,148.0,149.0,150.0,161.0,162.0,163.0,164.0,165.0,166.0,167.0,168.0,169.0,170.0,171.0,172.0,173.0,174.0,175.0,176.0,177.0,178.0,179.0,180.0,181.0,182.0,183.0,184.0,185.0,186.0,187.0,188.0,189.0,190.0,191.0,192.0,193.0,194.0,195.0,196.0,197.0,198.0,199.0,200.0,
FLOAT_0,FLOAT_1,FLOAT_2,FLOAT_3,FLOAT_4,FLOAT_5,FLOAT_6,FLOAT_7,FLOAT_8,FLOAT_9,FLOAT_10,FLOAT_11,FLOAT_12,FLOAT_13,FLOAT_14,FLOAT_15,FLOAT_16,FLOAT_17,FLOAT_18,FLOAT_19,FLOAT_20,FLOAT_21,FLOAT_22,FLOAT_23,FLOAT_24,FLOAT_25,FLOAT_26,FLOAT_27,FLOAT_28,FLOAT_29,FLOAT_30,FLOAT_31,FLOAT_32,FLOAT_33,FLOAT_34,FLOAT_35,FLOAT_36,FLOAT_37,FLOAT_38,FLOAT_39,FLOAT_40,FLOAT_41,FLOAT_42,FLOAT_43,FLOAT_44,FLOAT_45,FLOAT_46,FLOAT_47,FLOAT_48,FLOAT_49,FLOAT_50,FLOAT_51,FLOAT_52,FLOAT_53,FLOAT_54,FLOAT_55,FLOAT_56,FLOAT_57,FLOAT_58,FLOAT_59,FLOAT_60,FLOAT_61,FLOAT_62,FLOAT_63,FLOAT_64,FLOAT_65,FLOAT_66,FLOAT_67,FLOAT_68,FLOAT_69,FLOAT_70,FLOAT_71,FLOAT_72,FLOAT_73,FLOAT_74,FLOAT_75,FLOAT_76,FLOAT_77,FLOAT_78,FLOAT_79,FLOAT_80,FLOAT_81,FLOAT_82,FLOAT_83,FLOAT_84,FLOAT_85,FLOAT_86,FLOAT_87,FLOAT_88,FLOAT_89,FLOAT_90,FLOAT_91,FLOAT_92,FLOAT_93,FLOAT_94,FLOAT_95,FLOAT_96,FLOAT_97,FLOAT_98,FLOAT_99,FLOAT_100,FLOAT_101,FLOAT_102,FLOAT_103,FLOAT_104,FLOAT_105,FLOAT_106,FLOAT_107,FLOAT_108,FLOAT_109,FLOAT_110,FLOAT_111,FLOAT_112,FLOAT_113,FLOAT_114,FLOAT_115,FLOAT_116,FLOAT_117,FLOAT_118,FLOAT_119,FLOAT_120,FLOAT_121,FLOAT_122,FLOAT_123,FLOAT_124,FLOAT_125,FLOAT_126,FLOAT_127,FLOAT_128,FLOAT_129,FLOAT_130,FLOAT_131,FLOAT_132,FLOAT_133,FLOAT_134,FLOAT_135,FLOAT_136,FLOAT_137,FLOAT_138,FLOAT_139,FLOAT_140,FLOAT_141,FLOAT_142,FLOAT_143,FLOAT_144,FLOAT_145,FLOAT_146,FLOAT_147,FLOAT_148,FLOAT_149,FLOAT_150,FLOAT_151,FLOAT_152,FLOAT_153,FLOAT_154,FLOAT_155,FLOAT_156,FLOAT_157,FLOAT_158,FLOAT_159,






















