testVectorScalar_2,trueVector,trueScalar,addi,
METHOD_0,METHOD_1,METHOD_2,METHOD_3,

lombok,vector,scalar,Number,
IDENT_0,IDENT_1,IDENT_2,IDENT_3,










2.0F,
FLOAT_0,






















