testPutSimple,linspace,reshape,valueArrayOf,combine,slices,putSlice,toLongArray,
METHOD_0,METHOD_1,METHOD_2,METHOD_3,METHOD_4,METHOD_5,METHOD_6,METHOD_7,

indexes,vals,slices,arrays,ArrayUtil,sliceShape,
IDENT_0,IDENT_1,IDENT_2,IDENT_3,IDENT_4,IDENT_5,







'c',
STRING_0,

























