testAllWithNewAxisInMiddle,linspace,reshape,point,newAxis,all,NDArrayIndexAll,
METHOD_0,METHOD_1,METHOD_2,METHOD_3,METHOD_4,METHOD_5,METHOD_6,

assertion2,get2,NDArrayIndex,
IDENT_0,IDENT_1,IDENT_2,

24,11,
INT_0,INT_1,































