testIgnoreIndent,STGroupString,getInstanceOf,getDefault,
METHOD_0,METHOD_1,METHOD_2,METHOD_3,

stringtemplate,STGroup,ST,st,
IDENT_0,IDENT_1,IDENT_2,IDENT_3,

99,
INT_0,




"t(x) ::= <%\n","\tfoo\n","\t<x>\n","%>\n","t","x","foo99",
STRING_0,STRING_1,STRING_2,STRING_3,STRING_4,STRING_5,STRING_6,

























