testMean,prod,linspace,reshape,sum,
METHOD_0,METHOD_1,METHOD_2,METHOD_3,METHOD_4,

shape,ArrayUtil,sum,assertionData,avgExpected,
IDENT_0,IDENT_1,IDENT_2,IDENT_3,IDENT_4,







'c',
STRING_0,

28.0,32.0,36.0,40.0,92.0,96.0,100.0,104.0,
FLOAT_0,FLOAT_1,FLOAT_2,FLOAT_3,FLOAT_4,FLOAT_5,FLOAT_6,FLOAT_7,






















