TestSeparatorEmittedForEmptyIteratorValue,ST,AutoIndentWriter,getSimpleName,
METHOD_0,METHOD_1,METHOD_2,METHOD_3,

stringtemplate,ST,st,sw,expecting,scope,outputStartChar,outputStopChar,
IDENT_0,IDENT_1,IDENT_2,IDENT_3,IDENT_4,IDENT_5,IDENT_6,IDENT_7,







"<values:{v|<if(v)>x<endif>}; separator=\" \">","values","x x","{","self=",", start=",", stop=",'}',
STRING_0,STRING_1,STRING_2,STRING_3,STRING_4,STRING_5,STRING_6,STRING_7,

























