deserializeRawJson_HaveCommaInsideNumbers_ExpectCorrectDeserialization,deserializeRawJson,getAsJsonArray,getSizeMultiDimensionalArray,isArrayWithSingleRow,buildArray,
METHOD_0,METHOD_1,METHOD_2,METHOD_3,METHOD_4,METHOD_5,

serializedRawArray,expectedArray,indArray,serde,GsonDeserializationUtils,cleanedRawArray,JsonArray,jsonArray,JSON_PARSER,dimensions,
IDENT_0,IDENT_1,IDENT_2,IDENT_3,IDENT_4,IDENT_5,IDENT_6,IDENT_7,IDENT_8,IDENT_9,

1100,13,15591,7000,17,
INT_0,INT_1,INT_2,INT_3,INT_4,




"[[1.00, 1100.00, 3.00],\n","[13.00, 5.00, 15591.00],\n","[7000.00, 17.00, 9.00]]",
STRING_0,STRING_1,STRING_2,

























