rebaseWithoutChanges,branch,rebase,
METHOD_0,METHOD_1,METHOD_2,

branch,mk,rebased,KernelNodeState,branchHead,
IDENT_0,IDENT_1,IDENT_2,IDENT_3,IDENT_4,


































