testNotEmpty,MoveTracker,addMove,
METHOD_0,METHOD_1,METHOD_2,

MoveTracker,mt,
IDENT_0,IDENT_1,







"/a/b/c","/d/e/f",
STRING_0,STRING_1,

























