testGetGreetingCorrectActionCompose,composeEmail,getGreeting,thisIsVoidFunction,
METHOD_0,METHOD_1,METHOD_2,METHOD_3,

mockEditor,reply,emailController,
IDENT_0,IDENT_1,IDENT_2,







"test email","compose","hola mundo",
STRING_0,STRING_1,STRING_2,

























