testSuper,getRandomDir,writeFile,STRawGroupDir,importTemplates,getInstanceOf,getDefault,
METHOD_0,METHOD_1,METHOD_2,METHOD_3,METHOD_4,METHOD_5,METHOD_6,

dir1,dir2,stringtemplate,STGroup,group1,group2,ST,st,
IDENT_0,IDENT_1,IDENT_2,IDENT_3,IDENT_4,IDENT_5,IDENT_6,IDENT_7,







"dir1 a","dir1 b","a.st","b.st","[<super.a()>]","[dir1 a]",
STRING_0,STRING_1,STRING_2,STRING_3,STRING_4,STRING_5,

























