testSetSorting,DeliveryPipelineView,setSorting,getSorting,
METHOD_0,METHOD_1,METHOD_2,METHOD_3,

se,diabol,DeliveryPipelineView,sorting,
IDENT_0,IDENT_1,IDENT_2,IDENT_3,







"se.diabol.jenkins.pipeline.sort.NameComparator",
STRING_0,

























