testGetIndexFromColumnName,getIndexFromColumnName,
METHOD_0,METHOD_1,

metaDataSource,key1,val1,key2,val2,ExtensibleMetaDataMapping,metaDataMapping,extensibleMappings,columnName,
IDENT_0,IDENT_1,IDENT_2,IDENT_3,IDENT_4,IDENT_5,IDENT_6,IDENT_7,IDENT_8,







"key1","10003","key2","10004",
STRING_0,STRING_1,STRING_2,STRING_3,

























