testListAllTicket,instanceForListAll,TicketAdminInp,
METHOD_0,METHOD_1,METHOD_2,

ticket,packinstr,TicketAdminInp,pi,TICKET_ADMIN_INP_API_NBR,BLANK,
IDENT_0,IDENT_1,IDENT_2,IDENT_3,IDENT_4,IDENT_5,







"list-all",
STRING_0,

























