testNestedIFOnMultipleLines,ST,getDefault,
METHOD_0,METHOD_1,METHOD_2,

stringtemplate,ST,expecting,newline,
IDENT_0,IDENT_1,IDENT_2,IDENT_3,







"begin\n","foo\n","<if(y)>\n","<else>\n","bar\n","<endif>\n","x","begin","end",
STRING_0,STRING_1,STRING_2,STRING_3,STRING_4,STRING_5,STRING_6,STRING_7,STRING_8,

























