testGetUserActivityForEmptyProjectst,getUserActivityForProjects,
METHOD_0,METHOD_1,

lavagna,EventsCount,activity,eventRepository,oneYearAgo,
IDENT_0,IDENT_1,IDENT_2,IDENT_3,IDENT_4,


































