testUserNameUniquenessConstraint,createUser,
METHOD_0,METHOD_1,

lavagna,Helper,userRepository,UserRepositoryTest,TEST_USER_NAME,UserRepository,ur,userName,
IDENT_0,IDENT_1,IDENT_2,IDENT_3,IDENT_4,IDENT_5,IDENT_6,IDENT_7,


































