trimLabelsMonths3,trimLabels,calculateGreatestChangingField,DateTrimmer,getCompactForm,greatestRedundancePrecision,
METHOD_0,METHOD_1,METHOD_2,METHOD_3,METHOD_4,METHOD_5,

diirt,graphene,TimeScales,labels,greatestChangingPrecision,rtn,DateTrimmer,firstDate,NO_PRECISION,prevLabel,nextLabel,redundancePrecision,trimmedLabel,
IDENT_0,IDENT_1,IDENT_2,IDENT_3,IDENT_4,IDENT_5,IDENT_6,IDENT_7,IDENT_8,IDENT_9,IDENT_10,IDENT_11,IDENT_12,







"2014/09/01 00:00:23.000000000","2015/01/01 00:00:23","2014/11/01 00:00:23.000000000","2015/01/01 00:00:23.000000000","2015/02/01 00:00:23.000000000","2014/09/01 00:00:23","10/01 00:00:23","11/01 00:00:23","12/01 00:00:23","02/01 00:00:23",
STRING_0,STRING_1,STRING_2,STRING_3,STRING_4,STRING_5,STRING_6,STRING_7,STRING_8,STRING_9,

























