new2,JDBCServiceProvider,createServices,
METHOD_0,METHOD_1,METHOD_2,

diirt,JDBCServiceProvider,Service,
IDENT_0,IDENT_1,IDENT_2,







"DOES_NOT_EXISTS",
STRING_0,

























