parseFunctionWithScalarOrArrayArguments2,parseFunctionWithScalarOrArrayArguments,
METHOD_0,METHOD_1,

diirt,datasource,FunctionParser,errorMessage,
IDENT_0,IDENT_1,IDENT_2,IDENT_3,







"foo(\"test\")","error","(\\w+)",
STRING_0,STRING_1,STRING_2,

























