longString3,JCAChannelHandler,isLongString,
METHOD_0,METHOD_1,METHOD_2,

diirt,JCAChannelHandler,dataSource,longString,
IDENT_0,IDENT_1,IDENT_2,IDENT_3,







"test.NAME",
STRING_0,

























