checkStatusNotRunning,checkStatus,
METHOD_0,METHOD_1,

testee,ConnectException,
IDENT_0,IDENT_1,

28311,
INT_0,




"localhost","status","ok","Running [port ","Running on control port "," but responded with: \"","\"","Stopped","Unknown state: ",
STRING_0,STRING_1,STRING_2,STRING_3,STRING_4,STRING_5,STRING_6,STRING_7,STRING_8,

























