bootstrapTiny,bootstrap,getConfiguration,
METHOD_0,METHOD_1,METHOD_2,

metricssampler,Bootstrapper,DefaultBootstrapper,
IDENT_0,IDENT_1,IDENT_2,

28123,
INT_0,




"src/test/resources/config.tiny.xml","localhost",
STRING_0,STRING_1,

























