testKick,kick,KickOperation,handle,currentThread,interrupt,
METHOD_0,METHOD_1,METHOD_2,METHOD_3,METHOD_4,METHOD_5,

kicked,dinstone,beanstalkc,KickOperation,bound,InterruptedException,
IDENT_0,IDENT_1,IDENT_2,IDENT_3,IDENT_4,IDENT_5,


































