testSection427LinkNoHref,getRoot,getEntries,getLinks,getHref,getAttributeValue,IRI,
METHOD_0,METHOD_1,METHOD_2,METHOD_3,METHOD_4,METHOD_5,METHOD_6,

abdera,i18n,iri,IRI,stax,FeedValidatorTest,baseURI,Feed,Link,link,href,
IDENT_0,IDENT_1,IDENT_2,IDENT_3,IDENT_4,IDENT_5,IDENT_6,IDENT_7,IDENT_8,IDENT_9,IDENT_10,







"4.2.7.1/link-no-href.xml","href",
STRING_0,STRING_1,

























