testSection4211MissingId,getRoot,getEntries,getSource,
METHOD_0,METHOD_1,METHOD_2,METHOD_3,

abdera,i18n,iri,IRI,stax,FeedValidatorTest,baseURI,Feed,Source,
IDENT_0,IDENT_1,IDENT_2,IDENT_3,IDENT_4,IDENT_5,IDENT_6,IDENT_7,IDENT_8,







"4.2.11/missing-id.xml",
STRING_0,

























