testSection4211SourceEntry,getRoot,getEntries,getSource,getAttributeValue,IRI,
METHOD_0,METHOD_1,METHOD_2,METHOD_3,METHOD_4,METHOD_5,

abdera,i18n,iri,IRI,stax,FeedValidatorTest,baseURI,Feed,Source,
IDENT_0,IDENT_1,IDENT_2,IDENT_3,IDENT_4,IDENT_5,IDENT_6,IDENT_7,IDENT_8,







"4.2.11/source-entry.xml","source",
STRING_0,STRING_1,

























