testReplace3,getSimpleName,
METHOD_0,METHOD_1,

top,topRef,baseString,
IDENT_0,IDENT_1,IDENT_2,







"i","[%s] %s","<unknown>",
STRING_0,STRING_1,STRING_2,

























