testToStringOnClass,round,milliToStringShort,
METHOD_0,METHOD_1,METHOD_2,

dkpro,lab,Util,_count,_limit,perc,timeSoFar,_last,_start,estTotal,timeLeft,ProgressMeter,_preLast,
IDENT_0,IDENT_1,IDENT_2,IDENT_3,IDENT_4,IDENT_5,IDENT_6,IDENT_7,IDENT_8,IDENT_9,IDENT_10,IDENT_11,IDENT_12,







" of "," (","% ETA "," RUN "," AVG "," LAST ",")",
STRING_0,STRING_1,STRING_2,STRING_3,STRING_4,STRING_5,STRING_6,

























