instanceInitializationBySetTest,Feature,Instance,getFeatures,
METHOD_0,METHOD_1,METHOD_2,METHOD_3,

dkpro,features,Feature,f1,FeatureType,STRING,f2,Instance,
IDENT_0,IDENT_1,IDENT_2,IDENT_3,IDENT_4,IDENT_5,IDENT_6,IDENT_7,







"feature1","value1","feature2","outcome",
STRING_0,STRING_1,STRING_2,STRING_3,

























