testSetType,SimpleTypeImpl,setType,
METHOD_0,METHOD_1,METHOD_2,

bpelunit,toolsupport,variable,
IDENT_0,IDENT_1,IDENT_2,







"string",
STRING_0,

























