testGetClassMappings,getClassMappings,
METHOD_0,METHOD_1,

dozermapper,ClassMappingMetadata,mapMetadata,classMappings,
IDENT_0,IDENT_1,IDENT_2,IDENT_3,


































