testTrimStrings_ClassMapLevel,setOne,getOnePrime,
METHOD_0,METHOD_1,METHOD_2,

dozermapper,TestObject,src,TestObjectPrime,dest,onePrime,
IDENT_0,IDENT_1,IDENT_2,IDENT_3,IDENT_4,IDENT_5,







" shouldNotBeNeedingTrimmed ",
STRING_0,

























