testNullList,NamesArray,setNames,getNames,
METHOD_0,METHOD_1,METHOD_2,METHOD_3,

dozermapper,NamesArray,namesArray,NamesList,namesSet,names,
IDENT_0,IDENT_1,IDENT_2,IDENT_3,IDENT_4,IDENT_5,







"two","null-list",
STRING_0,STRING_1,

























