testHasNextAfterClear,Combination,clear,
METHOD_0,METHOD_1,METHOD_2,

subItems,items,combinationsExpected,combinatorial,Combination,indexes,
IDENT_0,IDENT_1,IDENT_2,IDENT_3,IDENT_4,IDENT_5,







"hasNext() after clear(): ",", ",
STRING_0,STRING_1,

























