testKeyBuildingFromRowFamily,family,Key,
METHOD_0,METHOD_1,METHOD_2,

Key,keyBuilt,keyExpected,builderFunction,
IDENT_0,IDENT_1,IDENT_2,IDENT_3,


































