testTextToFloat,testConvert,FieldConvertToTypeIfPossible,getColumn,
METHOD_0,METHOD_1,METHOD_2,METHOD_3,

dremio,dac,JobDataFragment,proto,FLOAT,REPLACE_WITH_NULL,nameToColumns,
IDENT_0,IDENT_1,IDENT_2,IDENT_3,IDENT_4,IDENT_5,IDENT_6,







"convert_to_float(c, 1, 1, 0) as foo","c","cp.\"json/numbers.json\"",
STRING_0,STRING_1,STRING_2,

























