textKeyBuildingFromRowTimestamp,timestamp,Key,setTimestamp,setTimestampIsSet,
METHOD_0,METHOD_1,METHOD_2,METHOD_3,METHOD_4,

Key,keyBuilt,keyExpected,
IDENT_0,IDENT_1,IDENT_2,

3L,
INT_0,































