testRemoveModel04,getModelRegistry,removeModel,getModels,
METHOD_0,METHOD_1,METHOD_2,METHOD_3,

dresdenocl,IModelRegistry,modelRegistry,modelbus,ModelBusPlugin,IModel,
IDENT_0,IDENT_1,IDENT_2,IDENT_3,IDENT_4,IDENT_5,


































