t00_task_creation,IBatchTask,beforeTask,onTask,afterTask,getTaskName,getTaskIdName,
METHOD_0,METHOD_1,METHOD_2,METHOD_3,METHOD_4,METHOD_5,METHOD_6,

droidefense,IBatchTask,
IDENT_0,IDENT_1,


































