testThrift,newRange,toThrift,Range,TMutation,wrap,toByteBuffers,
METHOD_0,METHOD_1,METHOD_2,METHOD_3,METHOD_4,METHOD_5,METHOD_6,

Range,dataImpl,thrift,TRange,tr,r2,ByteBufferUtil,entries,
IDENT_0,IDENT_1,IDENT_2,IDENT_3,IDENT_4,IDENT_5,IDENT_6,IDENT_7,







"nuts","soup",
STRING_0,STRING_1,

























