testDiscriminateP2,Line,
METHOD_0,METHOD_1,

drugis,addis,plot,Line,unexpected,Line2D,jgraph,hierarchical,JGraphCoordinateAssignment,WeightedCellSorter,weightedValue,nudge,
IDENT_0,IDENT_1,IDENT_2,IDENT_3,IDENT_4,IDENT_5,IDENT_6,IDENT_7,IDENT_8,IDENT_9,IDENT_10,IDENT_11,

30,45,40,
INT_0,INT_1,INT_2,































