testSanity,natural,UnsupportedOperationException,
METHOD_0,METHOD_1,METHOD_2,

iterators,OrderedMergeIterator,iter,Ordering,
IDENT_0,IDENT_1,IDENT_2,IDENT_3,







"Do not use iterator(), it cannot be closed.",
STRING_0,

























