testUnmodifiableList,Authorizations,getAuthorizationsBB,wrap,getAuthorizationsArray,
METHOD_0,METHOD_1,METHOD_2,METHOD_3,METHOD_4,

Authorizations,
IDENT_0,







'a',
STRING_0,

























