testSimpleOptimize,SelectorDimFilter,AndDimFilter,OrDimFilter,optimize,
METHOD_0,METHOD_1,METHOD_2,METHOD_3,METHOD_4,

SelectorDimFilter,selectorDimFilter,DimFilter,
IDENT_0,IDENT_1,IDENT_2,







"abc","d",
STRING_0,STRING_1,

























