testRangeIntList,fromTo,getInt,checkElementIndex,
METHOD_0,METHOD_1,METHOD_2,METHOD_3,

unimi,dsi,fastutil,ints,IntList,segment,IntListUtils,Preconditions,
IDENT_0,IDENT_1,IDENT_2,IDENT_3,IDENT_4,IDENT_5,IDENT_6,IDENT_7,

120,
INT_0,































