testAddSkipIntervalFromLatestAndSort,sortAndAddSkipIntervalFromLatest,Period,Interval,getInstanceUTC,
METHOD_0,METHOD_1,METHOD_2,METHOD_3,METHOD_4,

Interval,expectedIntervals,Intervals,fullSkipIntervals,coordinator,NewestSegmentFirstIterator,DateTimes,interval,chrono,ISOChronology,
IDENT_0,IDENT_1,IDENT_2,IDENT_3,IDENT_4,IDENT_5,IDENT_6,IDENT_7,IDENT_8,IDENT_9,

72,
INT_0,




"2018-12-24/2018-12-25","2018-12-29/2019-01-01","2019-01-01","2018-12-30/2018-12-31",
STRING_0,STRING_1,STRING_2,STRING_3,

























