testFilterGetOperatorsAfterConstructorReturnsEmptyList,Filter,getOperators,
METHOD_0,METHOD_1,METHOD_2,

dspace,SearchConfigurationRest,Filter,operators,
IDENT_0,IDENT_1,IDENT_2,IDENT_3,


































