testGetAddress,parseArgs,getAddress,
METHOD_0,METHOD_1,METHOD_2,

opts,ServerOptsTest,
IDENT_0,IDENT_1,







"-a","1.2.3.4","0.0.0.0",
STRING_0,STRING_1,STRING_2,

























