testStringAndlog,
METHOD_0,

attribute,score,sentence,
IDENT_0,IDENT_1,IDENT_2,







"\t","ReNounFact (",", ",") ",", score=",", pattern=",", sentence=",
STRING_0,STRING_1,STRING_2,STRING_3,STRING_4,STRING_5,STRING_6,

























