testOtherDataSource,getOtherJdbcTemplate,queryForObject,
METHOD_0,METHOD_1,METHOD_2,

springsource,open,otherJdbcTemplate,
IDENT_0,IDENT_1,IDENT_2,







"delete from T_AUDITS","select count(*) from T_AUDITS","INSERT into T_AUDITS (id,operation,name,audit_date) values (?,?,?,?)","INSERT",
STRING_0,STRING_1,STRING_2,STRING_3,

























