same_colour_circle_same_objects,getCircle,Circle,
METHOD_0,METHOD_1,METHOD_2,

structural,flyweight,Circle,c1,ShapeFactory,RED,c2,circle,CIRCLE_MAP,color,
IDENT_0,IDENT_1,IDENT_2,IDENT_3,IDENT_4,IDENT_5,IDENT_6,IDENT_7,IDENT_8,IDENT_9,







"Creating circle of color : ",
STRING_0,

























