testConstructorNoArg,runTask,TestTask,TestAbstractKernelRunnable,getHead,
METHOD_0,METHOD_1,METHOD_2,METHOD_3,METHOD_4,

sgs,TestScalableHashSet,txnScheduler,taskOwner,
IDENT_0,IDENT_1,IDENT_2,IDENT_3,


































