testCommitPreparedModified,setUp,setObject,prepare,
METHOD_0,METHOD_1,METHOD_2,METHOD_3,

sgs,TestDataStoreImpl,txn,isPrepared,readOnly,commitActions,contextQueue,isCommitted,
IDENT_0,IDENT_1,IDENT_2,IDENT_3,IDENT_4,IDENT_5,IDENT_6,IDENT_7,


































