testJoinOtherThread,DummyTransactionParticipant,
METHOD_0,METHOD_1,

AtomicReference,sgs,TransactionParticipant,participant,thread,txn,
IDENT_0,IDENT_1,IDENT_2,IDENT_3,IDENT_4,IDENT_5,


































