testGetServer_Future,TabletLocationState,getServer,
METHOD_0,METHOD_1,METHOD_2,

tls,master,keyExtent,last,TabletLocationStateTest,walogs,
IDENT_0,IDENT_1,IDENT_2,IDENT_3,IDENT_4,IDENT_5,


































