testStackWrapping,eval,isNull,getCause,ThrowException,
METHOD_0,METHOD_1,METHOD_2,METHOD_3,METHOD_4,

dynjs,ThrowException,cause,JSObject,jsCause,Types,UNDEFINED,
IDENT_0,IDENT_1,IDENT_2,IDENT_3,IDENT_4,IDENT_5,IDENT_6,







"var a = 42; a(); ","should have thrown","cause",
STRING_0,STRING_1,STRING_2,

























