testNumberToStringWithNonTenRadix,eval,isEqualTo,getRuntime,InputStreamSourceProvider,
METHOD_0,METHOD_1,METHOD_2,METHOD_3,METHOD_4,

dynjs,
IDENT_0,







"Number(255).toString(16)","ff",
STRING_0,STRING_1,

























