testCreateMockString,addMockedMethod,createMock,
METHOD_0,METHOD_1,METHOD_2,

AssertionError,
IDENT_0,







"size","toString","myName","Unexpected call",
STRING_0,STRING_1,STRING_2,STRING_3,

























