testClass,createMock,getControl,getRuntimeException,getAssertionError,
METHOD_0,METHOD_1,METHOD_2,METHOD_3,METHOD_4,

mocks,AssertionError,
IDENT_0,IDENT_1,


































