getFilePath1,toJavaSrcFilePath,
METHOD_0,METHOD_1,

stringClass,localResult,separatorChar,filePath,ebayopensource,turmeric,codegen,CodeGenUtil,srcDir,
IDENT_0,IDENT_1,IDENT_2,IDENT_3,IDENT_4,IDENT_5,IDENT_6,IDENT_7,IDENT_8,







'.',".java",
STRING_0,STRING_1,

























