testQuery00,setAllowFullTableScan,getEntities,
METHOD_0,METHOD_1,METHOD_2,

raptorContext,ebay,cms,IQueryResult,queryService,
IDENT_0,IDENT_1,IDENT_2,IDENT_3,IDENT_4,







"Environment[@_oid=\"4fbb314fc681caf13e283a78\"]",
STRING_0,

























