testMultipleUnion03,getEntities,
METHOD_0,METHOD_1,

ebay,cms,IQueryResult,queryService,stratusContext,
IDENT_0,IDENT_1,IDENT_2,IDENT_3,IDENT_4,







"Compute[@fqdns=\"slc4-0003.ebay.com\"]{*}.","( <VPool>parentCluster[@_oid=\"CLguf6sdle\"] ","|| activeManifestRef[@_oid=\"B-N-D-1.20111108154904.0-unknown\"] ","|| activeManifestCur[@_oid=\"Black-Pearl-1.20111103221326.0-unknown\"])",
STRING_0,STRING_1,STRING_2,STRING_3,

























