testMultiLevelSet4,getEntities,
METHOD_0,METHOD_1,

ebay,cms,IQueryResult,queryService,raptorContext,
IDENT_0,IDENT_1,IDENT_2,IDENT_3,IDENT_4,







"Environment.( ","applications{*}."," ( services[@name=~\"srp-app.*\"]{*}.runsOn[@name=~\"compute.*\"] "," || "," updateStrategies{*} ) ","&&"," cos[@_oid=\"4fbb314fc681caf13e283a77-valid\"] ",")",
STRING_0,STRING_1,STRING_2,STRING_3,STRING_4,STRING_5,STRING_6,STRING_7,

























