testToString,createMap,
METHOD_0,METHOD_1,

ebeaninternal,ModifyAwareMap,beanType,queryKey,
IDENT_0,IDENT_1,IDENT_2,IDENT_3,







"beanType:"," queryKey:"," sql:",
STRING_0,STRING_1,STRING_2,

























