testConvertToMillis,convertToMillis,convertFromMillis,
METHOD_0,METHOD_1,METHOD_2,

LocalDate,millis,parseDate,baseType,systemTimeMillis,
IDENT_0,IDENT_1,IDENT_2,IDENT_3,IDENT_4,

2014,
INT_0,































