formatAndParse,formatValue,
METHOD_0,METHOD_1,

Paths,ebeaninternal,ScalarTypePathTest,TEMP_PATH,asString,converted,baseType,
IDENT_0,IDENT_1,IDENT_2,IDENT_3,IDENT_4,IDENT_5,IDENT_6,


































