digestToHex,digest,
METHOD_0,METHOD_1,

hash1,ebeaninternal,Md5,hash2,MessageDigest,md,StandardCharsets,
IDENT_0,IDENT_1,IDENT_2,IDENT_3,IDENT_4,IDENT_5,IDENT_6,







"some random content we wish to hash","MD5","MD5 hashing failed",
STRING_0,STRING_1,STRING_2,

























