getDetails,TSDetail,clear,
METHOD_0,METHOD_1,METHOD_2,

basic,TSMaster,master2,ebean,Ebean,master0,master1,OptimisticLockException,details,
IDENT_0,IDENT_1,IDENT_2,IDENT_3,IDENT_4,IDENT_5,IDENT_6,IDENT_7,IDENT_8,







"Optimistic lock exception wrongly thrown: ",
STRING_0,

























