noCurrentTransaction,SomeTransactionalWithNotSupported,doStuff,currentTransaction,
METHOD_0,METHOD_1,METHOD_2,METHOD_3,

outerTxn,TestTransactionalNotSupports,ebean,Ebean,
IDENT_0,IDENT_1,IDENT_2,IDENT_3,







"outer ...{}",
STRING_0,

























