testInsert,MyEntity,saveOrUpdate,loadAll,getHibernateTemplate,
METHOD_0,METHOD_1,METHOD_2,METHOD_3,METHOD_4,

excilys,ebi,spring,dbunit,MyEntity,myEntity,myEntityDao,
IDENT_0,IDENT_1,IDENT_2,IDENT_3,IDENT_4,IDENT_5,IDENT_6,







"id2000","name2000",
STRING_0,STRING_1,

























