testEmptyCompositePath,parseComposite,getComponents,
METHOD_0,METHOD_1,METHOD_2,

apollo,URISupport,CompositeData,
IDENT_0,IDENT_1,IDENT_2,







"broker:()/localhost?persistent=false",
STRING_0,

























