testGet_Fragment,GetTask,getDataString,
METHOD_0,METHOD_1,METHOD_2,

aether,connector,GetTask,transporter,dataFile,dataBytes,UnsupportedEncodingException,
IDENT_0,IDENT_1,IDENT_2,IDENT_3,IDENT_4,IDENT_5,IDENT_6,







"file.txt#ignored","UTF-8",
STRING_0,STRING_1,

























