testDate,BufferedPrimitiveDiskArray,
METHOD_0,METHOD_1,

objectNumber,birt,olap,BufferedPrimitiveDiskArray,
IDENT_0,IDENT_1,IDENT_2,IDENT_3,

4101,500,1900100000,
INT_0,INT_1,INT_2,































