testCanCompleteWhenSomePageIsNotCompleted,isCompleted,addPage,canComplete,
METHOD_0,METHOD_1,METHOD_2,METHOD_3,

page1,page2,wizard,che,ide,WizardPage,wizardPages,
IDENT_0,IDENT_1,IDENT_2,IDENT_3,IDENT_4,IDENT_5,IDENT_6,


































