forLoop,classUnderTest,
METHOD_0,METHOD_1,

bag,sorted,ImmutableSortedBag,each,SortedBags,immutable,
IDENT_0,IDENT_1,IDENT_2,IDENT_3,IDENT_4,IDENT_5,


































