distinct,FlatCollectIterable,newListWith,
METHOD_0,METHOD_1,METHOD_2,

lazy,FlatCollectIterable,iterable,FastList,Interval,oneTo,
IDENT_0,IDENT_1,IDENT_2,IDENT_3,IDENT_4,IDENT_5,


































