injectInto,newWith,
METHOD_0,METHOD_1,

MutableList,objects,AddFunction,INTEGER,K,multimap,
IDENT_0,IDENT_1,IDENT_2,IDENT_3,IDENT_4,IDENT_5,


































