asReversed,
METHOD_0,

primitive,MutableIntList,IntLists,intInterval,element1,element2,element3,
IDENT_0,IDENT_1,IDENT_2,IDENT_3,IDENT_4,IDENT_5,IDENT_6,


































