valuesView,newSet,classUnderTest,expectedValues,putPair,
METHOD_0,METHOD_1,METHOD_2,METHOD_3,METHOD_4,

MutableSet,actualValues,UnifiedSet,eachValue,expectedValues,Pair,keyValuePair,
IDENT_0,IDENT_1,IDENT_2,IDENT_3,IDENT_4,IDENT_5,IDENT_6,


































