batchIterable_forEachEntry_emptySet,IntegerSum,newMap,forEach,EntrySumProcedure,
METHOD_0,METHOD_1,METHOD_2,METHOD_3,METHOD_4,

Sum,sum,parallel,BatchIterable,UnifiedMap,UnifiedMapTest,
IDENT_0,IDENT_1,IDENT_2,IDENT_3,IDENT_4,IDENT_5,


































