batchForEach,IntegerSum,newSet,SumProcedure,
METHOD_0,METHOD_1,METHOD_2,METHOD_3,

Sum,sum,parallel,BatchIterable,integerBatchIterable,
IDENT_0,IDENT_1,IDENT_2,IDENT_3,IDENT_4,


































