BooleanArrayList,classUnderTest,
METHOD_0,METHOD_1,

primitive,BooleanArrayList,SortedBags,immutable,
IDENT_0,IDENT_1,IDENT_2,IDENT_3,


































