isDigit,
METHOD_0,

utility,StringIterate,primitive,CharPredicates,CharPredicateTest,CharLists,CharPredicate,IS_DIGIT,
IDENT_0,IDENT_1,IDENT_2,IDENT_3,IDENT_4,IDENT_5,IDENT_6,IDENT_7,







"1a2a3",'0','1','2','3','A','B','C','.','a','b','c',
STRING_0,STRING_1,STRING_2,STRING_3,STRING_4,STRING_5,STRING_6,STRING_7,STRING_8,STRING_9,STRING_10,STRING_11,

























