selectMapOnValue,newWithKeysValues,withKeysValues,
METHOD_0,METHOD_1,METHOD_2,

MutableMap,UnifiedMap,resultMap,utility,MapIterate,K,V,
IDENT_0,IDENT_1,IDENT_2,IDENT_3,IDENT_4,IDENT_5,IDENT_6,







"3",
STRING_0,

























