test_isFocusControl,isFocusControl,checkWidget,GetWindow,GetParent,
METHOD_0,METHOD_1,METHOD_2,METHOD_3,METHOD_4,

SwtTestUtil,isGTK,objIOleInPlaceObject,phwnd,focusHwnd,ole,win32,OS,
IDENT_0,IDENT_1,IDENT_2,IDENT_3,IDENT_4,IDENT_5,IDENT_6,IDENT_7,


































