testWithoutWildcard,addMatch,Role,getMatch,
METHOD_0,METHOD_1,METHOD_2,METHOD_3,

securityRepository,Role,roles,hashSet,connectors,
IDENT_0,IDENT_1,IDENT_2,IDENT_3,IDENT_4,







"queues.1.*","test1","test2","queues.2.aq",
STRING_0,STRING_1,STRING_2,STRING_3,

























