test_setX,Point,setX,getLineNumber,getEndLineNumber,
METHOD_0,METHOD_1,METHOD_2,METHOD_3,METHOD_4,

gef,planar,Point,ITextRegionWithLineInformation,region1,region2,
IDENT_0,IDENT_1,IDENT_2,IDENT_3,IDENT_4,IDENT_5,

4711,678,
INT_0,INT_1,































