no_triangle,triangulate,Polygon,Point,getCause,
METHOD_0,METHOD_1,METHOD_2,METHOD_3,METHOD_4,

gef,planar,cause,dot,language,terminals,ID,
IDENT_0,IDENT_1,IDENT_2,IDENT_3,IDENT_4,IDENT_5,IDENT_6,


































