testCrossings2,createFromObject,crossings,getSize,interpolate,
METHOD_0,METHOD_1,METHOD_2,METHOD_3,METHOD_4,

january,Dataset,yAxis,DatasetFactory,xAxis,DatasetUtils,indices,yValue,xi,Maths,
IDENT_0,IDENT_1,IDENT_2,IDENT_3,IDENT_4,IDENT_5,IDENT_6,IDENT_7,IDENT_8,IDENT_9,







"Number of values of yAxis must as least be equal to the number of values of xAxis",
STRING_0,

0.8,1.2,1.6,0.4,0.9,1.1,3.0,4.0,5.0,6.0,1.5,3.5,5.5,
FLOAT_0,FLOAT_1,FLOAT_2,FLOAT_3,FLOAT_4,FLOAT_5,FLOAT_6,FLOAT_7,FLOAT_8,FLOAT_9,FLOAT_10,FLOAT_11,FLOAT_12,






















