testFromStringByte,LongObjectId,MutableLongObjectId,copyTo,fromString,fromHexString,
METHOD_0,METHOD_1,METHOD_2,METHOD_3,METHOD_4,METHOD_5,

lfs,AnyLongObjectId,MutableLongObjectId,
IDENT_0,IDENT_1,IDENT_2,

2L,3L,4L,64,
INT_0,INT_1,INT_2,INT_3,































