testAddNonExistingSingleFile,Git,addFilepattern,getEntryCount,
METHOD_0,METHOD_1,METHOD_2,METHOD_3,

Git,git,dircache,DirCache,entryCnt,
IDENT_0,IDENT_1,IDENT_2,IDENT_3,IDENT_4,







"a.txt",
STRING_0,

























