testDeleteEmptyTagNames,Git,setMessage,tagDelete,setTags,
METHOD_0,METHOD_1,METHOD_2,METHOD_3,METHOD_4,

Git,git,deleted,
IDENT_0,IDENT_1,IDENT_2,







"initial commit",
STRING_0,

























