testIndexingLargeObject,SimilarityIndex,
METHOD_0,METHOD_1,

diff,SimilarityIndex,si,
IDENT_0,IDENT_1,IDENT_2,







"A\n","B\n",
STRING_0,STRING_1,

























