testFilter_NONE,setRevFilter,markStart,parseEntry,
METHOD_0,METHOD_1,METHOD_2,METHOD_3,

revwalk,RevCommit,rw,RevFilter,NONE,treewalk,CanonicalTreeParser,nextPtr,raw,currPtr,prevPtr,
IDENT_0,IDENT_1,IDENT_2,IDENT_3,IDENT_4,IDENT_5,IDENT_6,IDENT_7,IDENT_8,IDENT_9,IDENT_10,


































