testGetValidHumanishName,URIish,getHumanishName,getHost,endsWith,
METHOD_0,METHOD_1,METHOD_2,METHOD_3,METHOD_4,

humanishName,URIishTest,GIT_SCHEME,scheme,LOCAL_FILE,separatorChar,DOT_GIT,DOT_GIT_EXT,
IDENT_0,IDENT_1,IDENT_2,IDENT_3,IDENT_4,IDENT_5,IDENT_6,IDENT_7,







"abc","file","[\\","/]","/+",
STRING_0,STRING_1,STRING_2,STRING_3,STRING_4,

























