testNonRecursiveFiltering,createTree,getMatchingPaths,
METHOD_0,METHOD_1,METHOD_2,

ObjectId,treeId,paths,suffixFilter,
IDENT_0,IDENT_1,IDENT_2,IDENT_3,







"a.sth","a.txt",".txt",
STRING_0,STRING_1,STRING_2,

























