testRelativize_doc,toOSPathString,relativizeNativePath,relativize,
METHOD_0,METHOD_1,METHOD_2,METHOD_3,

FileUtils,FS,DETECTED,
IDENT_0,IDENT_1,IDENT_2,







"c:\\Users\\jdoe\\eclipse\\git\\project","c:\\Users\\jdoe\\eclipse\\git\\another_project\\pom.xml","..\\another_project\\pom.xml",
STRING_0,STRING_1,STRING_2,

























