testSplit5,Topic,
METHOD_0,METHOD_1,

kapua,gateway,Topic,topic,
IDENT_0,IDENT_1,IDENT_2,IDENT_3,







"//","(^/+|/$)+","\\/+",
STRING_0,STRING_1,STRING_2,

























