testParseDate,parseDate,
METHOD_0,METHOD_1,

listOfFalseStrings,sizeOfFalseStrings,listOfPermittedStrings,sizeOfPermittedStrings,kapua,KapuaDateUtils,Instant,FORMATTER,
IDENT_0,IDENT_1,IDENT_2,IDENT_3,IDENT_4,IDENT_5,IDENT_6,IDENT_7,







"2017/12/12T11:22:10.999Z","2017:12:12T:12:12:12.000Z","2017_12_12T_12_12_12_000Z","2017;12;12T11;11;11;000Z","2017-12-12T12-12-12-000Z","2017:12:12T12/12/12/000Z","2017.12.12T12.12.12.000Z","2017/12/12T12:12:12:000X","No exception expected for Null","Exception expected for: ",
STRING_0,STRING_1,STRING_2,STRING_3,STRING_4,STRING_5,STRING_6,STRING_7,STRING_8,STRING_9,

























