testUnmarshal,unmarshal,StringReader,
METHOD_0,METHOD_1,METHOD_2,

listOfStrings,sizeOfList,StringReader,sr,kapua,XmlUtil,
IDENT_0,IDENT_1,IDENT_2,IDENT_3,IDENT_4,IDENT_5,







"string","Exception expected for: ",
STRING_0,STRING_1,

























