asIterator,DocumentSymbol,setChildren,spliterator,
METHOD_0,METHOD_1,METHOD_2,METHOD_3,

lsp4j,DocumentSymbol,depth0,depth1_0,depth1_1,depth1_2,depth2_0_0,depth2_0_1,depth2_1_0,depth2_1_1,depth2_2_0,depth2_2_1,DocumentSymbols,Iterable,iterable,Stream,StreamSupport,symbol,
IDENT_0,IDENT_1,IDENT_2,IDENT_3,IDENT_4,IDENT_5,IDENT_6,IDENT_7,IDENT_8,IDENT_9,IDENT_10,IDENT_11,IDENT_12,IDENT_13,IDENT_14,IDENT_15,IDENT_16,IDENT_17,







"root","A1","B1","C1","A11","B11","B12","C11","C12","root, A1",
STRING_0,STRING_1,STRING_2,STRING_3,STRING_4,STRING_5,STRING_6,STRING_7,STRING_8,STRING_9,

























