testSetUploadSizeLimit,setUploadSizeLimit,getUploadSizeLimit,
METHOD_0,METHOD_1,METHOD_2,

dialog,sizeLimit,
IDENT_0,IDENT_1,

1234,
INT_0,































