testGetHandlerWithDifferentId,registerHandler,getHandler,
METHOD_0,METHOD_1,METHOD_2,

handlerStore,testHandler,fileupload,FileUploadHandler,handlers,
IDENT_0,IDENT_1,IDENT_2,IDENT_3,IDENT_4,







"testId","anotherId",
STRING_0,STRING_1,

























