testGetHeaderWordWrap,setHeaderWordWrap,getHeaderWordWrap,checkWidget,
METHOD_0,METHOD_1,METHOD_2,METHOD_3,

headerWordWrap,
IDENT_0,


































