testIsTree_RemoveColumn,GridColumn,createGridItems,dispose,isTree,checkWidget,isTreeColumn,
METHOD_0,METHOD_1,METHOD_2,METHOD_3,METHOD_4,METHOD_5,METHOD_6,

nebula,GridColumn,column1,SWT,NONE,GridTestUtil,
IDENT_0,IDENT_1,IDENT_2,IDENT_3,IDENT_4,IDENT_5,


































