testGetHeight,GridItem,setItemHeight,getHeight,checkWidget,getItemData,getItemHeight,
METHOD_0,METHOD_1,METHOD_2,METHOD_3,METHOD_4,METHOD_5,METHOD_6,

nebula,GridItem,SWT,NONE,customHeight,
IDENT_0,IDENT_1,IDENT_2,IDENT_3,IDENT_4,

30,
INT_0,































