testSetCheckable_marksItemCached,Grid,GridItem,setCheckable,isCached,isVirtual,
METHOD_0,METHOD_1,METHOD_2,METHOD_3,METHOD_4,METHOD_5,

nebula,SWT,VIRTUAL,GridItem,NONE,cached,
IDENT_0,IDENT_1,IDENT_2,IDENT_3,IDENT_4,IDENT_5,


































