testGetRootItemCount,createGridItems,getRootItemCount,checkWidget,
METHOD_0,METHOD_1,METHOD_2,METHOD_3,

nebula,GridTestUtil,rootItems,
IDENT_0,IDENT_1,IDENT_2,


































