testString2String,createMessage,setStringProperty,getStringProperty,JMSException,
METHOD_0,METHOD_1,METHOD_2,METHOD_3,METHOD_4,

senderSession,JMSException,prop,
IDENT_0,IDENT_1,IDENT_2,







"pi","3.14159","Not string",
STRING_0,STRING_1,STRING_2,

























