testGetRealPathInServletContainer,getRealPath,
METHOD_0,METHOD_1,

containerRealPath,realPath,wrapper,servletContext,
IDENT_0,IDENT_1,IDENT_2,IDENT_3,







"/path","containerContextPath",
STRING_0,STRING_1,

























