add_string_enablesChaining,
METHOD_0,

cheatsheets,CheatSheetCollectionElement,childCollections,newElement,
IDENT_0,IDENT_1,IDENT_2,IDENT_3,


































