equals_trueForSameInstance,JsonNumber,
METHOD_0,METHOD_1,

JsonNumber,number,e4,RAPEventObjectSupplier,Subscriber,requestor,topic,
IDENT_0,IDENT_1,IDENT_2,IDENT_3,IDENT_4,IDENT_5,IDENT_6,







"23",
STRING_0,

























