equals_falseForSubclass,JsonObject,
METHOD_0,METHOD_1,

JsonObject,jsonObject,e4,RAPEventObjectSupplier,Subscriber,requestor,topic,
IDENT_0,IDENT_1,IDENT_2,IDENT_3,IDENT_4,IDENT_5,IDENT_6,


































