testGetPackageName_withoutPackage,getPackageName,lastIndexOf,
METHOD_0,METHOD_1,METHOD_2,

packageName,lifecycle,LifeCycleAdapterUtil,className,
IDENT_0,IDENT_1,IDENT_2,IDENT_3,







"Button",'.',
STRING_0,STRING_1,

























