testNextRequestId_returnsIncrementedValue,nextRequestId,
METHOD_0,METHOD_1,

requestId,lifecycle,RequestCounter,
IDENT_0,IDENT_1,IDENT_2,


































