testSerialize,JsonObject,SetOperation,serializeAndDeserialize,toJson,JsonArray,
METHOD_0,METHOD_1,METHOD_2,METHOD_3,METHOD_4,METHOD_5,

JsonObject,head,deserialized,JsonArray,operationsArray,HEAD,OPERATIONS,
IDENT_0,IDENT_1,IDENT_2,IDENT_3,IDENT_4,IDENT_5,IDENT_6,

23,42,
INT_0,INT_1,




"w3",
STRING_0,

























