testRead_skipsComments,createReader,getFiles,AdaptableList,
METHOD_0,METHOD_1,METHOD_2,METHOD_3,

ClientFilesReader,ClientFilesReader_Test,files,
IDENT_0,IDENT_1,IDENT_2,







"#foo\nbar\n#baz",
STRING_0,

























