testWriteScriptTag,writeScriptTag,getWriter,getContent,
METHOD_0,METHOD_1,METHOD_2,METHOD_3,

startupPage,tag,viewer,
IDENT_0,IDENT_1,IDENT_2,







"lib.js","<script type=\"text/javascript\" src=\"lib.js\" charset=\"UTF-8\"></script>",
STRING_0,STRING_1,

























