testIdIsSerializable,serializeAndDeserialize,
METHOD_0,METHOD_1,

UISessionImpl,deserializedUiSession,uiSession,
IDENT_0,IDENT_1,IDENT_2,


































