testOverrideAtributeWithNull,setAttribute,getAttribute,notNull,
METHOD_0,METHOD_1,METHOD_2,METHOD_3,

attributeName,uiSession,ParamCheck,
IDENT_0,IDENT_1,IDENT_2,


































