testSortedMapComparator,Key,TreeMap,ColFamilyQualifierComparator,Stats,
METHOD_0,METHOD_1,METHOD_2,METHOD_3,METHOD_4,

Key,k1,k2,k3,mit,ll,graphulo,SortedMap,UtilTest,K,skvi,Enum,Watch,enableTrace,stats,totalStats,timer,
IDENT_0,IDENT_1,IDENT_2,IDENT_3,IDENT_4,IDENT_5,IDENT_6,IDENT_7,IDENT_8,IDENT_9,IDENT_10,IDENT_11,IDENT_12,IDENT_13,IDENT_14,IDENT_15,IDENT_16,







"row1","colF1","colQ1","row2","row3",
STRING_0,STRING_1,STRING_2,STRING_3,STRING_4,

























