testInt,randomInt,writeInt,readInt,isTraceEnabled,
METHOD_0,METHOD_1,METHOD_2,METHOD_3,METHOD_4,

RandomUtil,wrapper,ActiveMQRALogger,StreamMessage,
IDENT_0,IDENT_1,IDENT_2,IDENT_3,







"readInt()",
STRING_0,

























