testName,SimpleString,getNamedQueue,
METHOD_0,METHOD_1,METHOD_2,

SimpleString,QueueImpl,
IDENT_0,IDENT_1,







"oobblle","--name","Please provide the destination name:",
STRING_0,STRING_1,STRING_2,

























