testNewInstanceWithExistingClassName,
METHOD_0,

ClassUtil,classLoader,ClassUtil_Test,PublicClass,
IDENT_0,IDENT_1,IDENT_2,IDENT_3,


































