testToJson_Widget_null,toJson,isDisposed,
METHOD_0,METHOD_1,METHOD_2,

JsonValue,JsonMapping,Widget,widget,NULL,lifecycle,WidgetUtil,
IDENT_0,IDENT_1,IDENT_2,IDENT_3,IDENT_4,IDENT_5,IDENT_6,







"Widget is disposed",
STRING_0,

























