testSetSelectable_returnsCell,TestCell,setSelectable,getThis,
METHOD_0,METHOD_1,METHOD_2,METHOD_3,

Cell,cell,actualCell,isSelectable,selectable,
IDENT_0,IDENT_1,IDENT_2,IDENT_3,IDENT_4,


































