testToJson,Position,toJson,getPresentation,addPart,JsonArray,
METHOD_0,METHOD_1,METHOD_2,METHOD_3,METHOD_4,METHOD_5,

Position,JsonArray,presentations,IPresentablePart,partList,part,site,
IDENT_0,IDENT_1,IDENT_2,IDENT_3,IDENT_4,IDENT_5,IDENT_6,

42,
INT_0,







3.14F,
FLOAT_0,






















