testSetScaleMode,ImageCell,setScaleMode,getScaleMode,
METHOD_0,METHOD_1,METHOD_2,METHOD_3,

ImageCell,cell,ScaleMode,FILL,scaleMode,
IDENT_0,IDENT_1,IDENT_2,IDENT_3,IDENT_4,


































