testRegisterDataKeys,registerDataKeys,getDataKeys,unmodifiableSet,emptySet,
METHOD_0,METHOD_1,METHOD_2,METHOD_3,METHOD_4,

WidgetUtil,dataKeys,lifecycle,WidgetDataUtil,
IDENT_0,IDENT_1,IDENT_2,IDENT_3,







"c",
STRING_0,

























