testGetName,DateType,
METHOD_0,METHOD_1,

acesinc,DateType,AlphaType,TYPE_NAME,
IDENT_0,IDENT_1,IDENT_2,IDENT_3,







"getName","date",
STRING_0,STRING_1,

























