testHashCodeWithLocale,FontData,setLocale,
METHOD_0,METHOD_1,METHOD_2,

graphics,FontData,localeDe,SWT,NORMAL,localeEn,prime,requestor,topic,
IDENT_0,IDENT_1,IDENT_2,IDENT_3,IDENT_4,IDENT_5,IDENT_6,IDENT_7,IDENT_8,

31,
INT_0,




"de","en",
STRING_0,STRING_1,

























