testGetStringFromDouble,randomByte,ActiveMQMapMessage,setDouble,
METHOD_0,METHOD_1,METHOD_2,METHOD_3,

RandomUtil,ActiveMQMapMessage,itemName,
IDENT_0,IDENT_1,IDENT_2,


































