testSetObjectFromBoolean,randomBoolean,ActiveMQMapMessage,setObject,getObject,
METHOD_0,METHOD_1,METHOD_2,METHOD_3,METHOD_4,

RandomUtil,ActiveMQMapMessage,itemName,
IDENT_0,IDENT_1,IDENT_2,


































