testHashCodeWithEqualAttribute,LineAttributes,
METHOD_0,METHOD_1,

graphics,LineAttributes,attributes1,SWT,CAP_FLAT,JOIN_BEVEL,attributes2,prime,requestor,topic,
IDENT_0,IDENT_1,IDENT_2,IDENT_3,IDENT_4,IDENT_5,IDENT_6,IDENT_7,IDENT_8,IDENT_9,

31,
INT_0,































