testGetEventMask_ignoresCustomEvents,getEventMask,containsEvent,
METHOD_0,METHOD_1,METHOD_2,

eventMask,EventLCAUtil,
IDENT_0,IDENT_1,


































