testNothingRenderedIfNotActivated,getProtocolMessage,getOperationCount,getOperations,
METHOD_0,METHOD_1,METHOD_2,METHOD_3,

TestMessage,Fixture,
IDENT_0,IDENT_1,


































