testNotClearPackedOnSetLocation,pack,setLocation,getAdapter,isPacked,
METHOD_0,METHOD_1,METHOD_2,METHOD_3,METHOD_4,

IControlAdapter,controlAdapter,packed,
IDENT_0,IDENT_1,IDENT_2,


































