testSetData_forActiveKeys_acceptsNull,Control,setData,getData,
METHOD_0,METHOD_1,METHOD_2,METHOD_3,

Control,SWT,NONE,RWT,ACTIVE_KEYS,dataTable,
IDENT_0,IDENT_1,IDENT_2,IDENT_3,IDENT_4,IDENT_5,


































