testMoveBelow,Label,moveBelow,getChildren,
METHOD_0,METHOD_1,METHOD_2,METHOD_3,

Control,child1,SWT,NONE,child2,childCollections,
IDENT_0,IDENT_1,IDENT_2,IDENT_3,IDENT_4,IDENT_5,


































