testHooksKnownEventType,hook,hooks,
METHOD_0,METHOD_1,METHOD_2,

eventTable,EventTable_Test,EVENT_1,Listener,hooks,eventType,
IDENT_0,IDENT_1,IDENT_2,IDENT_3,IDENT_4,IDENT_5,


































