testSerialize,serializeAndDeserialize,getItems,
METHOD_0,METHOD_1,METHOD_2,

ItemHolder_Test,TestItem,itemHolder,ItemHolder,deserializedItemHolder,items,
IDENT_0,IDENT_1,IDENT_2,IDENT_3,IDENT_4,IDENT_5,


































