testIsSerializable,setText,serializeAndDeserialize,checkWidget,
METHOD_0,METHOD_1,METHOD_2,METHOD_3,

groupText,Group,deserializedGroup,
IDENT_0,IDENT_1,IDENT_2,







"text",
STRING_0,

























