testGetCustomItemHeight,setData,getData,
METHOD_0,METHOD_1,METHOD_2,

itemHeight,RWT,CUSTOM_ITEM_HEIGHT,returnedItemHeight,dataTable,
IDENT_0,IDENT_1,IDENT_2,IDENT_3,IDENT_4,

123,
INT_0,































