testDefaultButtonDisposed,Button,setDefaultButton,dispose,getDefaultButton,checkWidget,isDisposed,
METHOD_0,METHOD_1,METHOD_2,METHOD_3,METHOD_4,METHOD_5,METHOD_6,

Button,defaultButton,SWT,PUSH,
IDENT_0,IDENT_1,IDENT_2,IDENT_3,


































