testGetItemCount,createItems,getItemCount,checkWidget,getItemData,getChildren,
METHOD_0,METHOD_1,METHOD_2,METHOD_3,METHOD_4,METHOD_5,

folder,hasChildren,
IDENT_0,IDENT_1,


































