testBadge_isNotSetForCheck,ToolItem,setData,getData,
METHOD_0,METHOD_1,METHOD_2,METHOD_3,

toolItem,toolbar,SWT,CHECK,RWT,BADGE,dataTable,
IDENT_0,IDENT_1,IDENT_2,IDENT_3,IDENT_4,IDENT_5,IDENT_6,







"11",
STRING_0,

























