testGetAdapter_succeedsForDisposedWidget,dispose,getAdapter,
METHOD_0,METHOD_1,METHOD_2,

widget,lifecycle,RemoteAdapter,DateTime,dateTime,IDateTimeAdapter,
IDENT_0,IDENT_1,IDENT_2,IDENT_3,IDENT_4,IDENT_5,


































