testGetPropertyIRI2,createLiteral,getPropertyIRI,mapToIRI,
METHOD_0,METHOD_1,METHOD_2,METHOD_3,

rdf4j,Literal,lit1,ModelsTest,VF,model1,foo,bar,IRI,iri,Models,predicate,
IDENT_0,IDENT_1,IDENT_2,IDENT_3,IDENT_4,IDENT_5,IDENT_6,IDENT_7,IDENT_8,IDENT_9,IDENT_10,IDENT_11,


































