testSimpleComposite,parseComposite,getComponents,
METHOD_0,METHOD_1,METHOD_2,

URISupport,CompositeData,
IDENT_0,IDENT_1,







"test:part1",
STRING_0,

























