testGetAllItems_noItems,removeTreeItems,getSWTWidget,getAllItems,getAllItemsRecursive,getItems,
METHOD_0,METHOD_1,METHOD_2,METHOD_3,METHOD_4,METHOD_5,

reddeer,TreeItem,items,LinkedList,
IDENT_0,IDENT_1,IDENT_2,IDENT_3,


































