findDirtyEditor,DefaultEditor,getTitle,PushButton,click,isDirty,
METHOD_0,METHOD_1,METHOD_2,METHOD_3,METHOD_4,METHOD_5,

reddeer,editor,DefaultEditor,title,button,
IDENT_0,IDENT_1,IDENT_2,IDENT_3,IDENT_4,







"Make Dirty",
STRING_0,

























