testGetReference,createPooledConnectionFactory,getReference,
METHOD_0,METHOD_1,METHOD_2,

PooledConnectionFactory,naming,Reference,
IDENT_0,IDENT_1,IDENT_2,


































