serializationTest,DateTimeType,isEqual,
METHOD_0,METHOD_1,METHOD_2,

smarthome,DateTimeType,dt,bosesoundtouch,ContentItem,sourceAccount,presetable,itemName,
IDENT_0,IDENT_1,IDENT_2,IDENT_3,IDENT_4,IDENT_5,IDENT_6,IDENT_7,


































