testConvertionOnSameUnit,toUnit,getUnit,
METHOD_0,METHOD_1,METHOD_2,

smarthome,QuantityType,dt2,dt3,
IDENT_0,IDENT_1,IDENT_2,IDENT_3,







"2 m","m",
STRING_0,STRING_1,

























