isAdvanced_shouldSetAdvanced,isAdvanced,
METHOD_0,METHOD_1,

smarthome,thing,ChannelGroupType,channelGroupType,advanced,
IDENT_0,IDENT_1,IDENT_2,IDENT_3,IDENT_4,


































