testOperator_greaterThanNullNumber,operator_greaterThan,numberToBigDecimal,
METHOD_0,METHOD_1,METHOD_2,

Number,resutl,smarthome,NumberExtensions,leftValue,left,rightValue,right,
IDENT_0,IDENT_1,IDENT_2,IDENT_3,IDENT_4,IDENT_5,IDENT_6,IDENT_7,

123,
INT_0,































