conversionString,toDmxValue,doubleValue,coerceToRange,
METHOD_0,METHOD_1,METHOD_2,METHOD_3,

smarthome,dmx,Util,PercentType,intValue,multiverse,DmxChannel,MIN_VALUE,
IDENT_0,IDENT_1,IDENT_2,IDENT_3,IDENT_4,IDENT_5,IDENT_6,IDENT_7,







"100",
STRING_0,

100.0,
FLOAT_0,






















