testCreateV8ArrayBuffer,V8ArrayBuffer,executeScript,
METHOD_0,METHOD_1,METHOD_2,

v8,V8ArrayBuffer,V8Value,
IDENT_0,IDENT_1,IDENT_2,







"buffer","var ints = new Int8Array(buffer); ints",
STRING_0,STRING_1,

























