testUndefinedObjectProperty,getArray,isUndefined,executeBooleanFunction,
METHOD_0,METHOD_1,METHOD_2,METHOD_3,

v8,V8Array,v8Object,mirror,Mirror,IS_UNDEFINED,
IDENT_0,IDENT_1,IDENT_2,IDENT_3,IDENT_4,IDENT_5,







"array",
STRING_0,

























