testGetNullInArray,executeArrayScript,getObject,UnsupportedOperationException,
METHOD_0,METHOD_1,METHOD_2,METHOD_3,

v8,V8Array,
IDENT_0,IDENT_1,







"x = [null]; x;",
STRING_0,

























