testExecuteJSFunction_VarArgs,executeVoidScript,executeJSFunction,
METHOD_0,METHOD_1,METHOD_2,

v8,
IDENT_0,







"function add() {return arguments.length;}","add",
STRING_0,STRING_1,

























