testCommit,comment,aCheck,beginCheck,cCheck,deleteOrdCheck,eCheck,flushCheck,insertCheck,migrateCheck,optimizeCheck,prepareCheck,rCheck,sCheck,tCheck,uCheck,killCheck,helpCheck,lCheck,
METHOD_0,METHOD_1,METHOD_2,METHOD_3,METHOD_4,METHOD_5,METHOD_6,METHOD_7,METHOD_8,METHOD_9,METHOD_10,METHOD_11,METHOD_12,METHOD_13,METHOD_14,METHOD_15,METHOD_16,METHOD_17,METHOD_18,

actiontech,dble,ServerParse,rt,OTHER,MYSQL_CMD_COMMENT,ParseUtil,MYSQL_COMMENT,
IDENT_0,IDENT_1,IDENT_2,IDENT_3,IDENT_4,IDENT_5,IDENT_6,IDENT_7,







"COMMIT 'nihao'",' ','\t','\r','\n','/','*','!','#','A','a','B','b','C','c','D','d','E','e','F','f','I','i','M','m','O','o','P','p','R','r','S','s','T','t','U','u','K','k','H','h','L','l',
STRING_0,STRING_1,STRING_2,STRING_3,STRING_4,STRING_5,STRING_6,STRING_7,STRING_8,STRING_9,STRING_10,STRING_11,STRING_12,STRING_13,STRING_14,STRING_15,STRING_16,STRING_17,STRING_18,STRING_19,STRING_20,STRING_21,STRING_22,STRING_23,STRING_24,STRING_25,STRING_26,STRING_27,STRING_28,STRING_29,STRING_30,STRING_31,STRING_32,STRING_33,STRING_34,STRING_35,STRING_36,STRING_37,STRING_38,STRING_39,STRING_40,STRING_41,STRING_42,

























