testObjectReferenceCountReleased,V8Object,getObjectReferenceCount,checkReleased,
METHOD_0,METHOD_1,METHOD_2,METHOD_3,

v8,V8Object,objectReferenceCount,references,
IDENT_0,IDENT_1,IDENT_2,IDENT_3,


































