testObjectReferenceZero,getObjectReferenceCount,checkReleased,
METHOD_0,METHOD_1,METHOD_2,

objectReferenceCount,v8,references,
IDENT_0,IDENT_1,IDENT_2,


































