testSimpleArrayFunction,executeVoidScript,executeArrayFunction,executeIntegerFunction,
METHOD_0,METHOD_1,METHOD_2,METHOD_3,

v8,V8Array,v8Object,mirror,ArrayMirror,LENGTH,
IDENT_0,IDENT_1,IDENT_2,IDENT_3,IDENT_4,IDENT_5,







"function foo() {return [1,2,3];}",
STRING_0,

























