testContainsKeyFromScript,executeVoidScript,UnsupportedOperationException,
METHOD_0,METHOD_1,METHOD_2,

v8,
IDENT_0,







"bar = 3",
STRING_0,

























