testGetInt,executeVoidScript,getInteger,UnsupportedOperationException,
METHOD_0,METHOD_1,METHOD_2,METHOD_3,

v8,
IDENT_0,







"x = 7","x",
STRING_0,STRING_1,

























