testArrayBuffer,executeScript,
METHOD_0,METHOD_1,

v8,V8Value,
IDENT_0,IDENT_1,







"var buf = new ArrayBuffer(100); buf;",
STRING_0,

























