testIsReleasedFalse,MemoryManager,isReleased,
METHOD_0,METHOD_1,METHOD_2,

v8,MemoryManager,memoryManager,
IDENT_0,IDENT_1,IDENT_2,


































