testPropertyMapEntrySetWithNulls,
METHOD_0,

v8,V8PropertyMap,
IDENT_0,IDENT_1,







"one","two","three",
STRING_0,STRING_1,STRING_2,

























