testHasPercentage,Percentage,
METHOD_0,METHOD_1,

tabris,passepartout,Percentage,percentage,
IDENT_0,IDENT_1,IDENT_2,IDENT_3,

23,
INT_0,































