testCannotFindWidget,findWidget,getCurrent,getShells,
METHOD_0,METHOD_1,METHOD_2,METHOD_3,

Widget,itemHeightService,Display,display,Shell,shells,widget,widgetID,
IDENT_0,IDENT_1,IDENT_2,IDENT_3,IDENT_4,IDENT_5,IDENT_6,IDENT_7,


































