testGetRootRenderer,PageFlow,getRootRenderer,
METHOD_0,METHOD_1,METHOD_2,

tabris,RemotePage,rootPage,PageFlow,renderers,
IDENT_0,IDENT_1,IDENT_2,IDENT_3,IDENT_4,


































