testGetPageParent,RemoteUI,getPageParent,
METHOD_0,METHOD_1,METHOD_2,

tabris,RemoteUI,remoteUI,Composite,pageParent,
IDENT_0,IDENT_1,IDENT_2,IDENT_3,IDENT_4,


































