testHasTitle,ActionConfiguration,setTitle,getTitle,
METHOD_0,METHOD_1,METHOD_2,METHOD_3,

tabris,ActionConfiguration,TestAction,title,
IDENT_0,IDENT_1,IDENT_2,IDENT_3,


































