testSetsTitle,ClientDialog,setTitle,getTitle,
METHOD_0,METHOD_1,METHOD_2,METHOD_3,

tabris,ClientDialog,dialog,title,
IDENT_0,IDENT_1,IDENT_2,IDENT_3,


































