findsTabs,activate,tabItem,
METHOD_0,METHOD_1,METHOD_2,

bot,swtbot,finder,SWTBotTabItem,tabItem,SWTUtils,widget,
IDENT_0,IDENT_1,IDENT_2,IDENT_3,IDENT_4,IDENT_5,IDENT_6,







"SWT Controls","Sash","Button",
STRING_0,STRING_1,STRING_2,

























