testScan,FileSet,scan,keySet,
METHOD_0,METHOD_1,METHOD_2,METHOD_3,

tycho,p2,publisher,rootfiles,FileSet,txtFileset,FileToPathMap,
IDENT_0,IDENT_1,IDENT_2,IDENT_3,IDENT_4,IDENT_5,IDENT_6,







"resources/rootfiles","**/*.txt",
STRING_0,STRING_1,

























