testDirectoryShape,parseManifest,isDirectoryShape,
METHOD_0,METHOD_1,METHOD_2,

tycho,osgitools,OsgiManifest,manifest,
IDENT_0,IDENT_1,IDENT_2,IDENT_3,







"dirShape.mf",
STRING_0,

























