testGetDouble,setDouble,getDouble,requireNonNull,doubleValue,
METHOD_0,METHOD_1,METHOD_2,METHOD_3,METHOD_4,

numDoubles,Buffer,Objects,Number,number,
IDENT_0,IDENT_1,IDENT_2,IDENT_3,IDENT_4,


































