testModelFileDownloadContent,perform,andExpect,isOk,isExpired,
METHOD_0,METHOD_1,METHOD_2,METHOD_3,METHOD_4,

repositoryServer,testModel,prettyName,userCreator,vorto,StorageItem,
IDENT_0,IDENT_1,IDENT_2,IDENT_3,IDENT_4,IDENT_5,







"/api/v1/models/","/file",
STRING_0,STRING_1,

























