testGroup,StringConcatenation,newLine,toPda,on,getList,
METHOD_0,METHOD_1,METHOD_2,METHOD_3,METHOD_4,METHOD_5,

xtend2,StringConcatenation,_builder_1,Joiner,
IDENT_0,IDENT_1,IDENT_2,IDENT_3,







"Rule: {Rule} \'a\' \'b\' \'c\';","Rule:","\t","start -> {Rule}","\'a\' -> \'b\'","\'b\' -> \'c\'","\'c\' -> stop","{Rule} -> \'a\'",
STRING_0,STRING_1,STRING_2,STRING_3,STRING_4,STRING_5,STRING_6,STRING_7,

























