testFindTypeByName_int_twice,getTypeProvider,findTypeByName,
METHOD_0,METHOD_1,METHOD_2,

typeName,JvmType,firstType,secondType,
IDENT_0,IDENT_1,IDENT_2,IDENT_3,







"int",
STRING_0,

























