testMemberCount_05_02,getTypeProvider,findTypeByName,
METHOD_0,METHOD_1,METHOD_2,

typeName,NestedTypes,Outer,JvmGenericType,
IDENT_0,IDENT_1,IDENT_2,IDENT_3,







'$','.',
STRING_0,STRING_1,

























