testAnnotations_01_02,getTypeProvider,findTypeByName,
METHOD_0,METHOD_1,METHOD_2,

typeName,testSetups,TestAnnotation,Annotated,JvmAnnotationTarget,
IDENT_0,IDENT_1,IDENT_2,IDENT_3,IDENT_4,







'$','.',
STRING_0,STRING_1,

























