toHex,
METHOD_0,

hexData,be,fedict,eid,applet,Controller,bouncycastle,encoders,Hex,stringBuffer,
IDENT_0,IDENT_1,IDENT_2,IDENT_3,IDENT_4,IDENT_5,IDENT_6,IDENT_7,IDENT_8,IDENT_9,







"hello world",
STRING_0,

























