testAdder3,Adder3,Start,addDetailMessage,
METHOD_0,METHOD_1,METHOD_2,METHOD_3,

inputStream,be,fedict,eid,applet,javacc,adder3,Adder3,adder,JavaCCTest,
IDENT_0,IDENT_1,IDENT_2,IDENT_3,IDENT_4,IDENT_5,IDENT_6,IDENT_7,IDENT_8,IDENT_9,







"2 + 3\n","result: ",
STRING_0,STRING_1,

























