serverIdTest,aBasicServer,getConfiguration,getServerId,getU,shutdown,theSameBasicServer,
METHOD_0,METHOD_1,METHOD_2,METHOD_3,METHOD_4,METHOD_5,METHOD_6,

u1,u2,teknek,nibiru,Server,TestUtil,testFolder,
IDENT_0,IDENT_1,IDENT_2,IDENT_3,IDENT_4,IDENT_5,IDENT_6,

9006,
INT_0,































