testAdd_int_int,IntList,getI,boundsCheck,
METHOD_0,METHOD_1,METHOD_2,METHOD_3,

jsat,IntList,sizes,
IDENT_0,IDENT_1,IDENT_2,







"clear",
STRING_0,




--,
OP_0,



















