showVersions,printVersion,main,getVersions,unmodifiableMap,lazyVersion,
METHOD_0,METHOD_1,METHOD_2,METHOD_3,METHOD_4,METHOD_5,

jwbf,JWBF,
IDENT_0,IDENT_1,


































