testInitWithBuilder_and_rechable_check_off,MediaWikiBot,newURL,
METHOD_0,METHOD_1,METHOD_2,

testee,jwbf,mediawiki,bots,JWBF,MalformedURLException,
IDENT_0,IDENT_1,IDENT_2,IDENT_3,IDENT_4,IDENT_5,







"http://localhost/","\"",
STRING_0,STRING_1,

























