testRepeatedLocalVarsNames,done,thenCompose,await,getBlockedTask,fromValue,completeFutures,
METHOD_0,METHOD_1,METHOD_2,METHOD_3,METHOD_4,METHOD_5,METHOD_6,

ea,async,Task,
IDENT_0,IDENT_1,IDENT_2,







"a1","a2",
STRING_0,STRING_1,

























