testGetDiagramContainer,getElement,getDiagramContainer,
METHOD_0,METHOD_1,METHOD_2,

gmf,notation,Diagram,diagram,uml2,uml,diagramManager,
IDENT_0,IDENT_1,IDENT_2,IDENT_3,IDENT_4,IDENT_5,IDENT_6,


































