testHex,Hex,encodeHexStr,decodeHex,toCharArray,toDigit,
METHOD_0,METHOD_1,METHOD_2,METHOD_3,METHOD_4,METHOD_5,

emailtohl,building,encryption,Hex,h,srcStr,encodeStr,decodeStr,
IDENT_0,IDENT_1,IDENT_2,IDENT_3,IDENT_4,IDENT_5,IDENT_6,IDENT_7,







"Odd number of characters.",
STRING_0,

























