testValidate,Employee,setEmail,
METHOD_0,METHOD_1,METHOD_2,

emailtohl,building,site,u,ConstraintViolation,violations,Validator,
IDENT_0,IDENT_1,IDENT_2,IDENT_3,IDENT_4,IDENT_5,IDENT_6,


































