testFindAll,findAll,
METHOD_0,METHOD_1,

emailtohl,building,site,Customer,ls,customerRepository,customRepository,
IDENT_0,IDENT_1,IDENT_2,IDENT_3,IDENT_4,IDENT_5,IDENT_6,


































