shouldCacheURIS,isNullOrEmpty,
METHOD_0,METHOD_1,

calclab,emite,XmppURI,uri1,uri2,Strings,atIndex,barIndex,
IDENT_0,IDENT_1,IDENT_2,IDENT_3,IDENT_4,IDENT_5,IDENT_6,IDENT_7,







"xmpp:test@example/res",'@','/',
STRING_0,STRING_1,STRING_2,

























