checkUriEqualsNoResourceWithoutResource,equalsNoResource,
METHOD_0,METHOD_1,

calclab,emite,XmppURI,uri2,Objects,
IDENT_0,IDENT_1,IDENT_2,IDENT_3,IDENT_4,







"localhost",
STRING_0,

























