shouldSetType,Presence,setType,
METHOD_0,METHOD_1,METHOD_2,

calclab,emite,stanzas,Presence,presence,IQ,
IDENT_0,IDENT_1,IDENT_2,IDENT_3,IDENT_4,IDENT_5,


































