testCountSearch,countApplicationConfigs,hasText,countAllApplicationConfigs,
METHOD_0,METHOD_1,METHOD_2,METHOD_3,

applicationConfigDao,
IDENT_0,







"%",
STRING_0,

























