testJndiServerName,addAndStartEngine,doLookup,
METHOD_0,METHOD_1,METHOD_2,

naming,InitialContext,
IDENT_0,IDENT_1,







"serverName","localhost",
STRING_0,STRING_1,

























