testIsSingleItem,isItemEndpoint,hasProperty,
METHOD_0,METHOD_1,METHOD_2,

endpointResource,RDF,API,ItemEndpoint,
IDENT_0,IDENT_1,IDENT_2,IDENT_3,


































