allAscii,percentEncode,decodeAll,
METHOD_0,METHOD_1,METHOD_2,

encoded,urllib,PercentDecoder,CodepointMatcher,ALL,
IDENT_0,IDENT_1,IDENT_2,IDENT_3,IDENT_4,

128,
INT_0,































