retainOrderIfSupportedByMap,AutoValue_Queries_ImmutableKeyValue,nullToEmpty,
METHOD_0,METHOD_1,METHOD_2,

urllib,Queries,Strings,
IDENT_0,IDENT_1,IDENT_2,


































