testGetColo,Cluster,singleton,Interface,Location,singletonMap,getColo,
METHOD_0,METHOD_1,METHOD_2,METHOD_3,METHOD_4,METHOD_5,METHOD_6,

ivory,Cluster,colo,
IDENT_0,IDENT_1,IDENT_2,







"Cluster1","Colo","type","endpoint","version","path","P1","V1",
STRING_0,STRING_1,STRING_2,STRING_3,STRING_4,STRING_5,STRING_6,STRING_7,

























