testToTerm_1,toTerm,
METHOD_0,METHOD_1,

erlide,CompilerOption,BooleanOption,option,CompilerOptions,WARN_EXPORT_ALL,ericsson,otp,erlang,OtpErlangObject,label,
IDENT_0,IDENT_1,IDENT_2,IDENT_3,IDENT_4,IDENT_5,IDENT_6,IDENT_7,IDENT_8,IDENT_9,IDENT_10,







"warn_export_all",
STRING_0,

























