test_8,CompilerOptions,setBooleanOption,export,getArity,
METHOD_0,METHOD_1,METHOD_2,METHOD_3,METHOD_4,

erlide,CompilerOptions,prefs,WARN_EXPORT_ALL,CompilerOptionsTest,DEF_VALUES,fSource,
IDENT_0,IDENT_1,IDENT_2,IDENT_3,IDENT_4,IDENT_5,IDENT_6,







"[",
STRING_0,

























