testGetValidator,getValidator,buildDefaultValidatorFactory,
METHOD_0,METHOD_1,METHOD_2,

erudika,para,ValidationUtils,Validation,
IDENT_0,IDENT_1,IDENT_2,IDENT_3,


































