testCreate,App,setAppid,getDao,getAppid,
METHOD_0,METHOD_1,METHOD_2,METHOD_3,METHOD_4,

erudika,para,App,CoreUtils,
IDENT_0,IDENT_1,IDENT_2,IDENT_3,







"notRoot",
STRING_0,

























