testJoinSingleElement,LinkedHashSet,
METHOD_0,METHOD_1,

separator,erudika,para,CORSFilter,joinSeparator,isFirst,
IDENT_0,IDENT_1,IDENT_2,IDENT_3,IDENT_4,IDENT_5,







",","world",
STRING_0,STRING_1,

























