testJoinElementsNull,
METHOD_0,

separator,erudika,para,CORSFilter,joinSeparator,isFirst,
IDENT_0,IDENT_1,IDENT_2,IDENT_3,IDENT_4,IDENT_5,







",",
STRING_0,

























