testCommandIsExecutedCorrectly,parseCommandLine,isError,
METHOD_0,METHOD_1,METHOD_2,

espirit,moddev,Command,Cli,
IDENT_0,IDENT_1,IDENT_2,IDENT_3,







"help",
STRING_0,

























