test19,getParser,SerpentToAssemblyCompiler,visit,decode2,getRLPData,
METHOD_0,METHOD_1,METHOD_2,METHOD_3,METHOD_4,METHOD_5,

ethereum,serpent,SerpentParser,ParserUtils,SerpentLexer,ParseTree,RLPList,paramsList,RLP,encoded,blockHashes,RLPItem,rlpData,parsed,
IDENT_0,IDENT_1,IDENT_2,IDENT_3,IDENT_4,IDENT_5,IDENT_6,IDENT_7,IDENT_8,IDENT_9,IDENT_10,IDENT_11,IDENT_12,IDENT_13,







"if 10 > 2 + 5: \n"," a=2\n","else: \n"," c=123\n"," d=0xFFAA","5 2 ADD 10 GT NOT REF_1 JUMPI 2 0 MSTORE REF_0 JUMP LABEL_1 123 32 MSTORE 65450 64 MSTORE LABEL_0","\\s+",
STRING_0,STRING_1,STRING_2,STRING_3,STRING_4,STRING_5,STRING_6,

























