test45,compile,getParser,SerpentToAssemblyCompiler,visit,
METHOD_0,METHOD_1,METHOD_2,METHOD_3,METHOD_4,

asmResult,ethereum,serpent,SerpentCompiler,SerpentParser,ParserUtils,SerpentLexer,ParseTree,
IDENT_0,IDENT_1,IDENT_2,IDENT_3,IDENT_4,IDENT_5,IDENT_6,IDENT_7,







"c = 2\n","d = 3\n","a = [11, 22, 33]","0 63 MSTORE8 2 0 MSTORE 3 32 MSTORE MSIZE 32 ADD MSIZE DUP 32 ADD 11 SWAP MSTORE DUP 64 ADD 22 SWAP MSTORE DUP 96 ADD 33 SWAP MSTORE 128 SWAP MSTORE","\\s+",
STRING_0,STRING_1,STRING_2,STRING_3,STRING_4,

























