test51,compile,getParser,SerpentToAssemblyCompiler,visit,
METHOD_0,METHOD_1,METHOD_2,METHOD_3,METHOD_4,

asmResult,ethereum,serpent,SerpentCompiler,SerpentParser,ParserUtils,SerpentLexer,ParseTree,
IDENT_0,IDENT_1,IDENT_2,IDENT_3,IDENT_4,IDENT_5,IDENT_6,IDENT_7,







"create(100, 0, 32) \n","32 0 100 CREATE","\\s+",
STRING_0,STRING_1,STRING_2,

























