test6,encodeBigInteger,encodeByte,encodeElement,asUnsignedByteArray,
METHOD_0,METHOD_1,METHOD_2,METHOD_3,METHOD_4,

ethereum,RLP,ZERO,srcBigInteger,
IDENT_0,IDENT_1,IDENT_2,IDENT_3,

128,
INT_0,































