testSetGetHostGroups,BlueprintEntity,setHostGroups,getHostGroups,
METHOD_0,METHOD_1,METHOD_2,METHOD_3,

orm,BlueprintEntity,HostGroupEntity,hostGroups,
IDENT_0,IDENT_1,IDENT_2,IDENT_3,


































