given2DifferentValueTypesBuilder_whenNotEqual_thenCorrect,setAmount,setCurrency,
METHOD_0,METHOD_1,METHOD_2,

autovalue,AutoValueMoneyWithBuilder,m1,m2,MyPair,second,
IDENT_0,IDENT_1,IDENT_2,IDENT_3,IDENT_4,IDENT_5,

5000,
INT_0,




"USD","GBP",
STRING_0,STRING_1,

























