givenEmptyList_whenElementIsAdded_thenGetReturnsThatElement,CustomList,copyOf,
METHOD_0,METHOD_1,METHOD_2,

succeeded,E,temp,
IDENT_0,IDENT_1,IDENT_2,


































