givenListWithAnElement_whenContainsAll_thenTrueIsReturned,CustomList,containsAll,
METHOD_0,METHOD_1,METHOD_2,










"baeldung",
STRING_0,

























