testSetGetType,HostGroupConfigEntity,setType,
METHOD_0,METHOD_1,METHOD_2,

orm,HostGroupConfigEntity,TargetType,ALERT_SCRIPT,
IDENT_0,IDENT_1,IDENT_2,IDENT_3,







"testType",
STRING_0,

























