whenClearingHashSet_shouldClearHashSet,clear,
METHOD_0,METHOD_1,

clearHashSet,total,
IDENT_0,IDENT_1,







"String Added",
STRING_0,

























