copyOnWriteList,CopyOnWriteArrayList,
METHOD_0,METHOD_1,

originalList,Objects,
IDENT_0,IDENT_1,







"zero","one","two","three",
STRING_0,STRING_1,STRING_2,STRING_3,

























