testSetGetStatusDetail,LdapSyncEventEntity,setStatusDetail,getStatusDetail,
METHOD_0,METHOD_1,METHOD_2,METHOD_3,

orm,LdapSyncEventEntity,statusDetail,
IDENT_0,IDENT_1,IDENT_2,







"some detail",
STRING_0,

























