whenReadSmallFileJava7_thenCorrect,readAllLines,defaultCharset,
METHOD_0,METHOD_1,METHOD_2,

expected_value,Paths,Files,charset,Charset,E,
IDENT_0,IDENT_1,IDENT_2,IDENT_3,IDENT_4,IDENT_5,







"Hello world","src/test/resources/test_read.in",
STRING_0,STRING_1,

























