givenPlainJava_whenConvertingByteArrayIntoWriter_thenCorrect,
METHOD_0,

initialArray,Writer,targetWriter,imdbId,director,actors,
IDENT_0,IDENT_1,IDENT_2,IDENT_3,IDENT_4,IDENT_5,







"With Java","Movie [imdbId=",", director=",", actors=",
STRING_0,STRING_1,STRING_2,STRING_3,

























