whenChangedFinalReference_thenChanged,Cat,setWeight,getWeight,
METHOD_0,METHOD_1,METHOD_2,METHOD_3,

finalkeyword,Cat,cat,weight,
IDENT_0,IDENT_1,IDENT_2,IDENT_3,


































