shouldRunEnhancedForeachLoop,enhanced_for_each_loop,
METHOD_0,METHOD_1,

loops,intArr,num,
IDENT_0,IDENT_1,IDENT_2,







"Enhanced for-each loop: i - ",
STRING_0,

























