givenRegexWithLineTerminator_whenMatchesWithDotall_thenCorrect,compile,
METHOD_0,METHOD_1,

Pattern,DOTALL,Matcher,env,
IDENT_0,IDENT_1,IDENT_2,IDENT_3,







"(.*)","this is a text","line.separator"," continued on another line",
STRING_0,STRING_1,STRING_2,STRING_3,

























