givenRegex_whenMatchFailsWithLiteralFlag_thenCorrect,runTest,compile,
METHOD_0,METHOD_1,METHOD_2,

RegexUnitTest,Pattern,LITERAL,flags,
IDENT_0,IDENT_1,IDENT_2,IDENT_3,







"(.*)","text",
STRING_0,STRING_1,

























