whenCheckingIfCollectionContainsElementsByCustomMatch2_thenContains,newHashSet,
METHOD_0,METHOD_1,

theCollection,Sets,Predicate,guava,
IDENT_0,IDENT_1,IDENT_2,IDENT_3,







"bc","def",
STRING_0,STRING_1,

























