whenFilteringByAge_shouldFilterOnlyAdultUsers,getAge,toStringFunction,
METHOD_0,METHOD_1,METHOD_2,

guava,users,Predicate,byAge,FluentIterableUnitTest,ADULT_AGE,FluentIterable,Functions,
IDENT_0,IDENT_1,IDENT_2,IDENT_3,IDENT_4,IDENT_5,IDENT_6,IDENT_7,

45,2L,27,3L,4L,5L,65,
INT_0,INT_1,INT_2,INT_3,INT_4,INT_5,INT_6,




"John","Michael","Max","Bob","Bill",
STRING_0,STRING_1,STRING_2,STRING_3,STRING_4,

























