whenCustomDeserialize_thenCorrect,ObjectMapper,SimpleDateFormat,setDateFormat,readValue,
METHOD_0,METHOD_1,METHOD_2,METHOD_3,METHOD_4,

jsonInput,ObjectMapper,DateFormat,df,Movie,movie,expectedOutput,imdbId,director,actors,
IDENT_0,IDENT_1,IDENT_2,IDENT_3,IDENT_4,IDENT_5,IDENT_6,IDENT_7,IDENT_8,IDENT_9,







"{\"imdbId\":\"tt0472043\",\"director\":\"Mel Gibson\",\"actors\":[{\"imdbId\":\"nm2199632\",\"dateOfBirth\":\"1982-09-21T12:00:00+01:00\",\"filmography\":[\"Apocalypto\",\"Beatdown\",\"Wind Walkers\"]}]}","yyyy-MM-dd'T'HH:mm:ssXXX","Movie [imdbId=tt0472043, director=Mel Gibson, actors=[ActorJackson [imdbId=nm2199632, dateOfBirth=Tue Sep 21 11:00:00 GMT 1982, filmography=[Apocalypto, Beatdown, Wind Walkers]]]]","Movie [imdbId=",", director=",", actors=",
STRING_0,STRING_1,STRING_2,STRING_3,STRING_4,STRING_5,

























