whenQueryByValue_returnsKey,inverse,
METHOD_0,METHOD_1,

BiMap,capitalCountryBiMap,HashBiMap,countryCapitalName,E,
IDENT_0,IDENT_1,IDENT_2,IDENT_3,IDENT_4,







"New Delhi","India","Washingon, D.C.","USA","Moscow","Russia",
STRING_0,STRING_1,STRING_2,STRING_3,STRING_4,STRING_5,

























