test_Compare_Date_FirstDate_Smaller_SecondDate,GregorianCalendar,
METHOD_0,METHOD_1,

GregorianCalendar,firstDate,secondDate,java8,comparator,Employee,argEmployee,
IDENT_0,IDENT_1,IDENT_2,IDENT_3,IDENT_4,IDENT_5,IDENT_6,

2018,28,
INT_0,INT_1,































