givenString_whenUsingRecursion_thenCountChars,useRecursion,
METHOD_0,METHOD_1,

someString,searchedChar,
IDENT_0,IDENT_1,







"elephant",'e',
STRING_0,STRING_1,

























