givenString_transformedToStream_convertToList,
METHOD_0,

programming_languages,expectation,JoinerSplitter,Stream,elem,Collectors,
IDENT_0,IDENT_1,IDENT_2,IDENT_3,IDENT_4,IDENT_5,







"java,python,nodejs,ruby","java","python","nodejs","ruby",",",
STRING_0,STRING_1,STRING_2,STRING_3,STRING_4,STRING_5,

























