givenIntStream_whenMapToObj_thenReturnStringStream,codePoints,mapToObj,
METHOD_0,METHOD_1,METHOD_2,

strings,testString,Collectors,
IDENT_0,IDENT_1,IDENT_2,


































