givenApacheCommons_whenSplittingStrings_thenSplitted,
METHOD_0,

splitted,Stream,elem,Collectors,
IDENT_0,IDENT_1,IDENT_2,IDENT_3,







"john","peter","mary","john peter mary",",",
STRING_0,STRING_1,STRING_2,STRING_3,STRING_4,

























