ifSizeNotInRange_aboutMeValidationFails,setAboutMe,setAge,
METHOD_0,METHOD_1,METHOD_2,

ConstraintViolation,violations,total,
IDENT_0,IDENT_1,IDENT_2,







"MyName","Its all about me!!",
STRING_0,STRING_1,

























