givenPastDateOfBirth_thenValidationSuccess,createUser,setDateOfBirth,
METHOD_0,METHOD_1,METHOD_2,

LocalDate,ConstraintViolation,violations,
IDENT_0,IDENT_1,IDENT_2,

1980,
INT_0,































