givenArray_whenAddingElementAtSpecifiedPosition_thenCorrect,
METHOD_0,

oldArray,newArray,ArrayUtils,expectedArray,
IDENT_0,IDENT_1,IDENT_2,IDENT_3,


































