whenFilterListByAge_thenSizeShouldBe2,distinctByKey,getAge,
METHOD_0,METHOD_1,METHOD_2,

distinct,personListFiltered,personList,DistinctWithJavaFunction,Collectors,
IDENT_0,IDENT_1,IDENT_2,IDENT_3,IDENT_4,


































