bothTrueConjunctTest,setInput,calculate,print,getOutput,
METHOD_0,METHOD_1,METHOD_2,METHOD_3,METHOD_4,

ann,
IDENT_0,







"1, 1","Testing: "," Expected: "," Result: ",
STRING_0,STRING_1,STRING_2,STRING_3,

























