givenKeyValue_whenSingleton_thenCreateNonEmptyHashPMap,singleton,
METHOD_0,METHOD_1,

pcollections,HashPMap,pmap1,HashTreePMap,
IDENT_0,IDENT_1,IDENT_2,IDENT_3,







"key1","value1",
STRING_0,STRING_1,

























