givenMultipleKeysInRedis_thenGetAllKeys,getBucket,getKeys,
METHOD_0,METHOD_1,METHOD_2,

RedissonIntegrationTest,RKeys,
IDENT_0,IDENT_1,

2L,
INT_0,




"key1","key2","key3",
STRING_0,STRING_1,STRING_2,

























