testGetId,ComponentInfo,ComponentModule,
METHOD_0,METHOD_1,METHOD_2,

ComponentInfo,stack,ComponentModule,
IDENT_0,IDENT_1,IDENT_2,


































