givenQueryMethod_whenEmailIsAbsent_thenIgnoreEmail,findByName,
METHOD_0,METHOD_1,

customer,Customer,customers,
IDENT_0,IDENT_1,IDENT_2,







"D",
STRING_0,

























