givenUsersExist_whenFindingByPage_thenUsersAreFoundByPage,setAge,
METHOD_0,METHOD_1,

mongoTemplate,Pageable,pageableRequest,PageRequest,users,
IDENT_0,IDENT_1,IDENT_2,IDENT_3,IDENT_4,

45,33,35,
INT_0,INT_1,INT_2,




"Eric","Antony","Alice",
STRING_0,STRING_1,STRING_2,

























