whenUpdatingProduct_thenChangeAvailableOnRetrieval,Product,findOne,
METHOD_0,METHOD_1,METHOD_2,

spring,Product,product,productRepository,retrievedProduct,
IDENT_0,IDENT_1,IDENT_2,IDENT_3,IDENT_4,







"P0001","T-Shirt","Shirt",
STRING_0,STRING_1,STRING_2,

























