givenSession_checkIfDatabaseIsEmpty,
METHOD_0,

oneToMany,Cart,cart,login,
IDENT_0,IDENT_1,IDENT_2,IDENT_3,







"login = %s, query = %s",
STRING_0,

























