givenObservableWihNoEvents_whenSingleOrDefault_thenDefaultMessage,singleOrDefault,subscribe,
METHOD_0,METHOD_1,METHOD_2,

rx,Observable,MyPair,second,
IDENT_0,IDENT_1,IDENT_2,IDENT_3,







"Default",
STRING_0,

























