isABigFlower_withMockito_OK,isABigFlower,anyInt,Flower,getPetals,
METHOD_0,METHOD_1,METHOD_2,METHOD_3,METHOD_4,

flowerService,Flower,flower,flowerController,
IDENT_0,IDENT_1,IDENT_2,IDENT_3,







"violetta",
STRING_0,

























