givenPartialLastName_whenGettingListOfUsers_thenCorrect,givenAuth,
METHOD_0,METHOD_1,

restassured,URL_PREFIX,MyUser,E,
IDENT_0,IDENT_1,IDENT_2,IDENT_3,







"?lastName=do",
STRING_0,

























