givenNumbers_sumEquals_thenCorrect,reduce,
METHOD_0,METHOD_1,

sum,junit4vstestng,SummationServiceIntegrationTest,numbers,Stream,enumiteration,DaysOfWeekEnum,
IDENT_0,IDENT_1,IDENT_2,IDENT_3,IDENT_4,IDENT_5,IDENT_6,


































