givenUserService_whenAddNotNull_thenOK,addUser,notNull,
METHOD_0,METHOD_1,METHOD_2,

userService,undertow,idm,Account,account,
IDENT_0,IDENT_1,IDENT_2,IDENT_3,IDENT_4,


































