whenNonPublicField_thenReflectionTestUtilsSetField,Employee,setField,
METHOD_0,METHOD_1,METHOD_2,

reflectiontestutils,Employee,employee,ReflectionTestUtils,
IDENT_0,IDENT_1,IDENT_2,IDENT_3,







"id",
STRING_0,

























