testRemoveConfigTypes,createConfigurationWithParents_PropsOnly,removeConfigType,getProperties,
METHOD_0,METHOD_1,METHOD_2,METHOD_3,

topology,
IDENT_0,







"type1",
STRING_0,

























