parseURI_singleSegmentPointer,parseURI,SchemaLocation,
METHOD_0,METHOD_1,METHOD_2,

everit,SchemaLocation,SchemaLocationTest,URISyntaxException,
IDENT_0,IDENT_1,IDENT_2,IDENT_3,







"http://example.org#/key","http://example.org","key",
STRING_0,STRING_1,STRING_2,

























