arrayByAdditionalItems,requiresArray,
METHOD_0,METHOD_1,

everit,ArraySchema,SchemaLoader,ArraySchemaLoaderTest,
IDENT_0,IDENT_1,IDENT_2,IDENT_3,







"arrayByAdditionalItems",
STRING_0,

























