nullDoesNotImplementJSONString,implementsJSONString,subclassOfJSONString,
METHOD_0,METHOD_1,METHOD_2,

everit,JSONWriter,
IDENT_0,IDENT_1,


































