syntheticAllOf,sameJsonAs,JSONMatcher,
METHOD_0,METHOD_1,METHOD_2,

everit,SchemaLoader,SchemaLoaderTest,
IDENT_0,IDENT_1,IDENT_2,







"boolAndNot",
STRING_0,

























