testCase44,buildTestCase44,executeTest,
METHOD_0,METHOD_1,METHOD_2,

testcase,DefaultTestCase,symbolic,BranchCondition,branch_conditions,theTest,
IDENT_0,IDENT_1,IDENT_2,IDENT_3,IDENT_4,IDENT_5,


































