testConfirmNumber,
METHOD_0,

foo,Number,number,testcase,statements,className,methodName,
IDENT_0,IDENT_1,IDENT_2,IDENT_3,IDENT_4,IDENT_5,IDENT_6,







".",
STRING_0,

























