testParseFail,ConvertException,
METHOD_0,METHOD_1,

NumberFormatException,ewcms,
IDENT_0,IDENT_1,







"20.0","0",
STRING_0,STRING_1,

























