testSetParameterPosition,HqlQueryTemplate,createEntityManager,setParameter,getResultList,
METHOD_0,METHOD_1,METHOD_2,METHOD_3,METHOD_4,

hql,ewcms,HqlQueryTemplate,entityManagerFactory,
IDENT_0,IDENT_1,IDENT_2,IDENT_3,







"From Certificate o Where o.id =?1","72300125",
STRING_0,STRING_1,

























