convertToInteger,Column,isPresent,
METHOD_0,METHOD_1,METHOD_2,

airhacks,enhydrator,Column,
IDENT_0,IDENT_1,IDENT_2,







"42",
STRING_0,

























