available,wrap,ByteBufferInputStream,TestableByteBufferAccessor,
METHOD_0,METHOD_1,METHOD_2,METHOD_3,

testData,ByteBufferInputStreamTest,
IDENT_0,IDENT_1,







"test data",
STRING_0,

























