available_onEmptyStream,FastByteArrayInputStream,CachingFilterInputStream,getNewCache,available,
METHOD_0,METHOD_1,METHOD_2,METHOD_3,METHOD_4,

CachingFilterInputStream,cfis,bis,
IDENT_0,IDENT_1,IDENT_2,


































