utilEval1,executeQuery,getSize,
METHOD_0,METHOD_1,METHOD_2,

xmldb,ResourceSet,xquery,XQueryFunctionsTest,existEmbeddedServer,
IDENT_0,IDENT_1,IDENT_2,IDENT_3,IDENT_4,







"<a><b/></a>/util:eval('*')",
STRING_0,

























