localName,executeQuery,getContent,StringValue,getStringValue,
METHOD_0,METHOD_1,METHOD_2,METHOD_3,METHOD_4,

xmldb,ResourceSet,xquery,XQueryFunctionsTest,existEmbeddedServer,
IDENT_0,IDENT_1,IDENT_2,IDENT_3,IDENT_4,







"let $a := <a><b></b></a>","return fn:local-name($a)",
STRING_0,STRING_1,

























