attributeForNoResult,getTestCollection,getService,getSize,
METHOD_0,METHOD_1,METHOD_2,METHOD_3,

xmldb,modules,XPathQueryService,ResourceSet,
IDENT_0,IDENT_1,IDENT_2,IDENT_3,







"let $a := <a><b>-1</b><b>-2</b></a> ","return /a[./c]/@id/string()","XPathQueryService","1.0",
STRING_0,STRING_1,STRING_2,STRING_3,

























