testSynsetAddAllNull,Synset,setGloss,IndexWord,getSenses,SynsetList,
METHOD_0,METHOD_1,METHOD_2,METHOD_3,METHOD_4,METHOD_5,

extjwnl,Synset,POS,NOUN,tt,IndexWord,iws,synsets,
IDENT_0,IDENT_1,IDENT_2,IDENT_3,IDENT_4,IDENT_5,IDENT_6,IDENT_7,







"test gloss","car gloss","another car gloss",
STRING_0,STRING_1,STRING_2,

























