getRegistry,setupContextKubernetes,createGenerator,
METHOD_0,METHOD_1,METHOD_2,

fabric8,BaseGenerator,
IDENT_0,IDENT_1,







"fabric8.generator.registry","fabric8.io",
STRING_0,STRING_1,

























