existingSysPropShouldReturnValue,getProperties,getSystemPropertyOrEnvVar,
METHOD_0,METHOD_1,METHOD_2,

fabric8,kubernetes,systemPropertyName,
IDENT_0,IDENT_1,IDENT_2,







"something",
STRING_0,

























