testExistsNullUser,loadAuthFile,
METHOD_0,METHOD_1,

floragunn,searchguard,settings,Settings,
IDENT_0,IDENT_1,IDENT_2,IDENT_3,


































