libraryWithoutSonameHasNoSoname,mapReadOnly,getSoname,
METHOD_0,METHOD_1,METHOD_2,

elfFilePath,workspace,cxx,toolchain,elf,Elf,ElfFile,
IDENT_0,IDENT_1,IDENT_2,IDENT_3,IDENT_4,IDENT_5,IDENT_6,







"libfoo.so",
STRING_0,

























