fixPathCommonTest,fixPath,getNameCount,dropPathPart,
METHOD_0,METHOD_1,METHOD_2,METHOD_3,

inputPath,Paths,expecting,MorePaths,
IDENT_0,IDENT_1,IDENT_2,IDENT_3,







"subdir/subdir2/foo/bar/x.file",".",
STRING_0,STRING_1,

























