returnsAPathWhenAskedForPathOrGlob,getPathOrGlob,getGlob,
METHOD_0,METHOD_1,METHOD_2,

filesystem,RecursiveFileMatcher,Paths,
IDENT_0,IDENT_1,IDENT_2,







"path",
STRING_0,

























