mapOrderDoesNotChangeHash,Float,sha1,newHasher,hashJsonObject,onHash,
METHOD_0,METHOD_1,METHOD_2,METHOD_3,METHOD_4,METHOD_5,

map1,map2,Hasher,hasher1,Hashing,hasher2,JsonObjectHashing,HASH,secondHasher,
IDENT_0,IDENT_1,IDENT_2,IDENT_3,IDENT_4,IDENT_5,IDENT_6,IDENT_7,IDENT_8,

24,
INT_0,




"firstKey","secondKey",
STRING_0,STRING_1,

13.5,
FLOAT_0,






















