testOctothorpe,scan,toCharArray,Token,
METHOD_0,METHOD_1,METHOD_2,METHOD_3,

Lexer,Token,TokenKind,EOF,QueryEnvironment$Argument,integer,Objects,word,
IDENT_0,IDENT_1,IDENT_2,IDENT_3,IDENT_4,IDENT_5,IDENT_6,IDENT_7,







"//foo:bar#flavor",
STRING_0,

























