testIdJson,Identifier,setKnownType,processThroughJson,
METHOD_0,METHOD_1,METHOD_2,METHOD_3,

gedcomx,conclusion,Identifier,IdentifierType,Deprecated,
IDENT_0,IDENT_1,IDENT_2,IDENT_3,IDENT_4,


































