queryBrandByName,findUserInfoByName,findByUserName,
METHOD_0,METHOD_1,METHOD_2,

userName,micro,rent,pc,Tenant,guest,realmService,username,userDao,
IDENT_0,IDENT_1,IDENT_2,IDENT_3,IDENT_4,IDENT_5,IDENT_6,IDENT_7,IDENT_8,







"userName:",
STRING_0,

























