saveTenant,registerTenant,Tenant,setFlag,setMobile,setPassword,
METHOD_0,METHOD_1,METHOD_2,METHOD_3,METHOD_4,METHOD_5,

mobile,micro,rent,pc,Tenant,guest,tenantService,tenant,password,tenantDao,
IDENT_0,IDENT_1,IDENT_2,IDENT_3,IDENT_4,IDENT_5,IDENT_6,IDENT_7,IDENT_8,IDENT_9,







"159191804689","zheng","11",
STRING_0,STRING_1,STRING_2,

























