writeContentToStore,
METHOD_0,

book,twju,chapter_6,FileSessionStorageITest,CONTENT,Memento,memento,timeStamp,
IDENT_0,IDENT_1,IDENT_2,IDENT_3,IDENT_4,IDENT_5,IDENT_6,IDENT_7,







"FakeItem [timeStamp=",
STRING_0,

























