testPostfixFunction11,ExpressionBuilder,variables,cos,cbrt,setVariable,checkVariableName,
METHOD_0,METHOD_1,METHOD_2,METHOD_3,METHOD_4,METHOD_5,METHOD_6,

objecthunter,exp4j,Expression,
IDENT_0,IDENT_1,IDENT_2,







"cos(x) - (1/cbrt(x))","x",
STRING_0,STRING_1,

0.5,
FLOAT_0,






















