testPostfixVariables,ExpressionBuilder,variables,setVariable,checkVariableName,
METHOD_0,METHOD_1,METHOD_2,METHOD_3,METHOD_4,

pi,PI,objecthunter,exp4j,Expression,
IDENT_0,IDENT_1,IDENT_2,IDENT_3,IDENT_4,







"x * pi","x","pi",
STRING_0,STRING_1,STRING_2,

4.5334332,
FLOAT_0,






















