testValidateNumberPositive,ExpressionBuilder,
METHOD_0,METHOD_1,

objecthunter,exp4j,Expression,ValidationResult,valid,
IDENT_0,IDENT_1,IDENT_2,IDENT_3,IDENT_4,







"+1",
STRING_0,

























