testParseVersionWithEmptyStringAndEmptyString,parseVersion,isUnknownVersion,
METHOD_0,METHOD_1,METHOD_2,

Version,VersionUtil,UNKNOWN_VERSION,
IDENT_0,IDENT_1,IDENT_2,







"\"g2AT",
STRING_0,

























