testNullReturnedOnClosedParserOnNextValue,nextValue,nextToken,
METHOD_0,METHOD_1,METHOD_2,

JsonToken,FIELD_NAME,
IDENT_0,IDENT_1,


































