testParseTemplate2,parseTemplate,getProperties,getTimeout,
METHOD_0,METHOD_1,METHOD_2,METHOD_3,

parsed,jrds,Util,
IDENT_0,IDENT_1,IDENT_2,







"jrds.unittest","true","${jrds.unittest}","connectTimeout","socketTimeout","serverTimezone","UTC",
STRING_0,STRING_1,STRING_2,STRING_3,STRING_4,STRING_5,STRING_6,

























