testToResponse,WebApplicationException,toResponse,getResponse,
METHOD_0,METHOD_1,METHOD_2,METHOD_3,

WebApplicationException,testObj,
IDENT_0,IDENT_1,


































