testWindowIdAhead,getWindowId,getAheadWindowId,getNextWindowId,
METHOD_0,METHOD_1,METHOD_2,METHOD_3,

ahead,windowWidthMillis,window1,datatorrent,stram,WindowGenerator,window2,windowId,firstWindowMillis,
IDENT_0,IDENT_1,IDENT_2,IDENT_3,IDENT_4,IDENT_5,IDENT_6,IDENT_7,IDENT_8,

1431714014123L,678,500,123,
INT_0,INT_1,INT_2,INT_3,































