isValidConfiguration3,setManual,IsValidMethod,
METHOD_0,METHOD_1,METHOD_2,

ovgu,featureide,fm,FM_test_1,Selection,SELECTED,ConfigurationPropagator,
IDENT_0,IDENT_1,IDENT_2,IDENT_3,IDENT_4,IDENT_5,IDENT_6,







"C#","Python Ruby","Bash script ","C++",
STRING_0,STRING_1,STRING_2,STRING_3,

























