testReaderProblem1,readString,getObjective,
METHOD_0,METHOD_1,METHOD_2,

ovgu,featureide,fm,extended,objective,ObjectiveReaderResult,ObjectiveReader,features,
IDENT_0,IDENT_1,IDENT_2,IDENT_3,IDENT_4,IDENT_5,IDENT_6,IDENT_7,







"++1 Phone;",
STRING_0,

























