testOnlyOptional,loadXML,number,
METHOD_0,METHOD_1,METHOD_2,

ovgu,featureide,fm,IFeatureModel,
IDENT_0,IDENT_1,IDENT_2,IDENT_3,

250,
INT_0,




"\t<and mandatory=\"true\" name=\"S\">\t<feature mandatory=\"false\" name=\"A\"/></and>",
STRING_0,

























