testHidden,loadXML,number,
METHOD_0,METHOD_1,METHOD_2,

ovgu,featureide,fm,IFeatureModel,
IDENT_0,IDENT_1,IDENT_2,IDENT_3,

250,
INT_0,




"<and mandatory=\"true\" name=\"S\"><feature mandatory=\"false\" name=\"A\"/><feature hidden=\"true\" name=\"B\"/></and>",
STRING_0,

























