storageStorageDoubleClose,FastStorage,StringSerializer,checkExistence,
METHOD_0,METHOD_1,METHOD_2,METHOD_3,

ru,mipt,java2016,homework,task2,KeyValueStorage,g594,kozlov,task3,K,
IDENT_0,IDENT_1,IDENT_2,IDENT_3,IDENT_4,IDENT_5,IDENT_6,IDENT_7,IDENT_8,IDENT_9,







"no pain","no gain","smth went wrong",
STRING_0,STRING_1,STRING_2,

























