testAddUserToPaidGroup,addUserToPaidGroup,isPaid,
METHOD_0,METHOD_1,METHOD_2,

iluwatar,featuretoggle,UserGroup,paidGroup,
IDENT_0,IDENT_1,IDENT_2,IDENT_3,







"Paid User",
STRING_0,

























