testSetName,Order,
METHOD_0,METHOD_1,

iluwatar,intercepting,Order,OrderTest,EXPECTED_VALUE,
IDENT_0,IDENT_1,IDENT_2,IDENT_3,IDENT_4,


































