testFetch,Parent,fetch,
METHOD_0,METHOD_1,METHOD_2,

yawp,parents,Parent,retrievedParent,
IDENT_0,IDENT_1,IDENT_2,IDENT_3,







"xpto",
STRING_0,

























