testInOperator,Parent,yawp,where,
METHOD_0,METHOD_1,METHOD_2,METHOD_3,

yawp,parents,Parent,parent1,parent2,parent3,IdRef,inList,objects,
IDENT_0,IDENT_1,IDENT_2,IDENT_3,IDENT_4,IDENT_5,IDENT_6,IDENT_7,IDENT_8,







"xpto1","xpto2","xpto3","id","in",
STRING_0,STRING_1,STRING_2,STRING_3,STRING_4,

























