doubleMapping,getRow,addMapping,getColumnByIndex,
METHOD_0,METHOD_1,METHOD_2,METHOD_3,

airhacks,enhydrator,Row,cut,Datatype,DOUBLE,columnByIndex,
IDENT_0,IDENT_1,IDENT_2,IDENT_3,IDENT_4,IDENT_5,IDENT_6,


































