testFindByName,findBySuiteName,getSuiteName,
METHOD_0,METHOD_1,METHOD_2,

feuyeux,jaxrs2,atup,AtupTestSuite,suite,CreatTestSuite,SUITE_NAME,suiteName,
IDENT_0,IDENT_1,IDENT_2,IDENT_3,IDENT_4,IDENT_5,IDENT_6,IDENT_7,


































