testFindById,buildUser,findById,getUserId,getUserName,
METHOD_0,METHOD_1,METHOD_2,METHOD_3,METHOD_4,

feuyeux,jaxrs2,atup,AtupUser,fake,CreateUser,newUser,findUser,userName,
IDENT_0,IDENT_1,IDENT_2,IDENT_3,IDENT_4,IDENT_5,IDENT_6,IDENT_7,IDENT_8,


































