testEqualsDifferentClass,TestItem,getGenre,compareArtists,compareDates,
METHOD_0,METHOD_1,METHOD_2,METHOD_3,METHOD_4,

bff,javampd,MPDItem,MPDItemTest,album,MPDAlbum,
IDENT_0,IDENT_1,IDENT_2,IDENT_3,IDENT_4,IDENT_5,







"item",
STRING_0,

























