testGetPath,MPDArtwork,
METHOD_0,METHOD_1,

bff,javampd,art,MPDArtwork,artwork,
IDENT_0,IDENT_1,IDENT_2,IDENT_3,IDENT_4,







"path",
STRING_0,

























