testToString,MPDSong,getFile,
METHOD_0,METHOD_1,METHOD_2,

bff,javampd,MPDItem,song,
IDENT_0,IDENT_1,IDENT_2,IDENT_3,







"file1","song1",
STRING_0,STRING_1,

























