testGetApplicationName,ArgumentParser,getApplicationName,
METHOD_0,METHOD_1,METHOD_2,

testApplicationName,ArgumentParser,argParser,applicationName,
IDENT_0,IDENT_1,IDENT_2,IDENT_3,







"MY_TEST_APP",
STRING_0,

























