testGetPropertyInstance,getDefaultValue,
METHOD_0,METHOD_1,

ConfigurationValue,configurationValue,HERD_ENVIRONMENT,configurationHelper,defaultValue,
IDENT_0,IDENT_1,IDENT_2,IDENT_3,IDENT_4,


































