constructorSetsResourceTextTest,TextLiteralResource,resourceText,
METHOD_0,METHOD_1,METHOD_2,

hiveqlunit,TextLiteralResource,textLiteralResource,
IDENT_0,IDENT_1,IDENT_2,







"Foo Bar Resource",
STRING_0,

























