testAddProperty,getRole,getProperties,addProperty,
METHOD_0,METHOD_1,METHOD_2,METHOD_3,

useradmin,user1,Dictionary,Hashtable,userAdmin,Role,USER,mbean,
IDENT_0,IDENT_1,IDENT_2,IDENT_3,IDENT_4,IDENT_5,IDENT_6,IDENT_7,







"user1","key",
STRING_0,STRING_1,

























