endIsInclusiveButExcludesChildren,NodeFromJSON,fromSingleQuotedString,RangeMerge,applyTo,fromJsonString,
METHOD_0,METHOD_1,METHOD_2,METHOD_3,METHOD_4,METHOD_5,

firebase,snapshot,TestHelpers,RangeMerge,merge,
IDENT_0,IDENT_1,IDENT_2,IDENT_3,IDENT_4,







"{'bar': 'bar-value', 'foo': {'foo-child': 'foo-child-value'}, 'quu': ","'quu-value'}","{'baz': 'baz-value' }","{'bar': 'bar-value', 'baz': 'baz-value', 'foo': {'foo-child': ","'foo-child-value'}, 'quu': 'quu-value'}","'","\"",
STRING_0,STRING_1,STRING_2,STRING_3,STRING_4,STRING_5,STRING_6,

























