testRemoveGroup,removeRole,removeGroup,
METHOD_0,METHOD_1,METHOD_2,

userAdmin,isRemoved,mbean,
IDENT_0,IDENT_1,IDENT_2,







"group1","Group name cannot be null",
STRING_0,STRING_1,

























