testIsDate,isDate,
METHOD_0,METHOD_1,

firesoa,JavaDataTypeConvertor,dataTypeStr,
IDENT_0,IDENT_1,IDENT_2,







"java.util.Date",
STRING_0,

























