testAddCastor,sD,addCastor,castToString,castTo,
METHOD_0,METHOD_1,METHOD_2,METHOD_3,METHOD_4,

dt,strD,nutz,Times,castor,Castors,cas,Date2String,src,FailToCastObjectException,
IDENT_0,IDENT_1,IDENT_2,IDENT_3,IDENT_4,IDENT_5,IDENT_6,IDENT_7,IDENT_8,IDENT_9,


































