each_by_int_range,getMaxId,each,where,
METHOD_0,METHOD_1,METHOD_2,METHOD_3,

maxId,nutz,Pet,pets,Cnd,Each,pet,width,cursor,
IDENT_0,IDENT_1,IDENT_2,IDENT_3,IDENT_4,IDENT_5,IDENT_6,IDENT_7,IDENT_8,







"id","IN",
STRING_0,STRING_1,

























