testQueryForRecord,initPet,queryForRecord,
METHOD_0,METHOD_1,METHOD_2,

pojos,nutz,Pet,pet,vars,Record,re,sqlTemplate,
IDENT_0,IDENT_1,IDENT_2,IDENT_3,IDENT_4,IDENT_5,IDENT_6,IDENT_7,







"papa","SELECT name,age FROM $table WHERE id = @id","table","t_pet","id",
STRING_0,STRING_1,STRING_2,STRING_3,STRING_4,

























