testIssue292,eval,ShuntingYard,RPN,parseToRPN,calculate,
METHOD_0,METHOD_1,METHOD_2,METHOD_3,METHOD_4,METHOD_5,

nutz,Lang,El,arithmetic,ShuntingYard,sy,RPN,rc,Queue,rpn,
IDENT_0,IDENT_1,IDENT_2,IDENT_3,IDENT_4,IDENT_5,IDENT_6,IDENT_7,IDENT_8,IDENT_9,

123,
INT_0,




"a>b?a:b",
STRING_0,

























