testString,innerGet,
METHOD_0,METHOD_1,

nutz,Random,ListRandom,Lang,stack,cursor,
IDENT_0,IDENT_1,IDENT_2,IDENT_3,IDENT_4,IDENT_5,







"A","B","C",
STRING_0,STRING_1,STRING_2,

























