test_update_rollback,fetch,Atom,makeThrow,
METHOD_0,METHOD_1,METHOD_2,METHOD_3,

nutz,trans,Cat,cat,Trans,Lang,xb,
IDENT_0,IDENT_1,IDENT_2,IDENT_3,IDENT_4,IDENT_5,IDENT_6,







"xb","PPP","Quite!!!",
STRING_0,STRING_1,STRING_2,

























