largeLargeContent,LargeLargeContent,
METHOD_0,METHOD_1,

rocker,expectedHtml,IOUtils,charset,
IDENT_0,IDENT_1,IDENT_2,IDENT_3,







"hello","world","/rocker/LargeLargeContent.output","UTF-8","\r\n",
STRING_0,STRING_1,STRING_2,STRING_3,STRING_4,

























