compareTo_nullComparison,Page,
METHOD_0,METHOD_1,

pageNum,flax,biosolr,ontology,ols,terms,Page,number,
IDENT_0,IDENT_1,IDENT_2,IDENT_3,IDENT_4,IDENT_5,IDENT_6,IDENT_7,


































