test002,Lambda,testCatchingException,Test009Exception,
METHOD_0,METHOD_1,METHOD_2,METHOD_3,

robovm,rt,lambdas,test009,Lambda,lambda,I,
IDENT_0,IDENT_1,IDENT_2,IDENT_3,IDENT_4,IDENT_5,IDENT_6,


































