list_of_one_element_returns_element,nextInt,
METHOD_0,METHOD_1,

flextrade,jfixture,utility,RandomElementStrategy,
IDENT_0,IDENT_1,IDENT_2,IDENT_3,


































