should_show_jfiglet_success,showJfigletMessage,convertOneLine,
METHOD_0,METHOD_1,METHOD_2,

CommonUtil,LINE_BREAK,lalyos,jfiglet,FigletFont,throwable,
IDENT_0,IDENT_1,IDENT_2,IDENT_3,IDENT_4,IDENT_5,







"Hello World",
STRING_0,

























