testCloning,Quaterniond,clone,MatrixNd,
METHOD_0,METHOD_1,METHOD_2,METHOD_3,

flowpowered,imaginary,Quaterniond,quaternion,matrix,
IDENT_0,IDENT_1,IDENT_2,IDENT_3,IDENT_4,


































