testGetAllGroupDefinition,getAllGroupDefinitions,
METHOD_0,METHOD_1,

foxbpm,identity,GroupDefinition,groupDefinitions,identityService,
IDENT_0,IDENT_1,IDENT_2,IDENT_3,IDENT_4,


































