forever_qr_int,createQR,createPermanenceQR,getTicket,
METHOD_0,METHOD_1,METHOD_2,METHOD_3,

foxinmy,weixin4j,qr,QRResult,qrApi,QRParameter,ticket,
IDENT_0,IDENT_1,IDENT_2,IDENT_3,IDENT_4,IDENT_5,IDENT_6,


































