addUsers,addTagUsers,getUserIds,
METHOD_0,METHOD_1,METHOD_2,

foxinmy,weixin4j,qy,IdParameter,tagApi,userIds,
IDENT_0,IDENT_1,IDENT_2,IDENT_3,IDENT_4,IDENT_5,







"jinyu",
STRING_0,

























