testKey,BaseSynset,BaseLemma,setKey,
METHOD_0,METHOD_1,METHOD_2,METHOD_3,

llnl,ontology,wordnet,Synset,synset,PartsOfSpeech,NOUN,BaseLemma,lemma,
IDENT_0,IDENT_1,IDENT_2,IDENT_3,IDENT_4,IDENT_5,IDENT_6,IDENT_7,IDENT_8,







"cat","animal","n","key",
STRING_0,STRING_1,STRING_2,STRING_3,

























