testEqualsFirstNullSecondMatch,StringPair,
METHOD_0,METHOD_1,

llnl,ontology,StringPair,pair1,pair2,
IDENT_0,IDENT_1,IDENT_2,IDENT_3,IDENT_4,







"cat",
STRING_0,

























