testPutConflict,TroveIntSet,
METHOD_0,METHOD_1,

ucla,sspace,CharMap,primitive,IntSet,vals,
IDENT_0,IDENT_1,IDENT_2,IDENT_3,IDENT_4,IDENT_5,







'1',
STRING_0,

























