testPut,TroveIntSet,
METHOD_0,METHOD_1,

ucla,sspace,BiMap,HashBiMap,primitive,IntSet,vals,
IDENT_0,IDENT_1,IDENT_2,IDENT_3,IDENT_4,IDENT_5,IDENT_6,


































