testIteratorRemoveTwice,keySet,
METHOD_0,METHOD_1,

ucla,sspace,HashMultiMap,
IDENT_0,IDENT_1,IDENT_2,







"cat","0",
STRING_0,STRING_1,

























