toArraySubclass,SparseDoubleArray,
METHOD_0,METHOD_1,

ucla,sspace,SparseDoubleArray,Number,vector,Vector,n1,n2,
IDENT_0,IDENT_1,IDENT_2,IDENT_3,IDENT_4,IDENT_5,IDENT_6,IDENT_7,

1024,
INT_0,































