testIterator,SparseHashIntegerVector,
METHOD_0,METHOD_1,

ucla,sspace,vector,SparseHashIntegerVector,IntegerEntry,iter,
IDENT_0,IDENT_1,IDENT_2,IDENT_3,IDENT_4,IDENT_5,

30,
INT_0,































