testArrayReversal,createArray,reverse,
METHOD_0,METHOD_1,METHOD_2,

INT,generic,GenericArray,forward,GenericData,Array,backward,protobuf,multiplefiles,M,unknownFields,
IDENT_0,IDENT_1,IDENT_2,IDENT_3,IDENT_4,IDENT_5,IDENT_6,IDENT_7,IDENT_8,IDENT_9,IDENT_10,













--,
OP_0,



















