testGetFlagsEmpty,Individual,getFlags,getCustomFactsWithTag,
METHOD_0,METHOD_1,METHOD_2,METHOD_3,

gedcom4j,Individual,CustomFact,facts,individual,
IDENT_0,IDENT_1,IDENT_2,IDENT_3,IDENT_4,







"_FLGS",
STRING_0,

























