test_default_barrier,CronExpression,nextTimeAfter,plusYears,
METHOD_0,METHOD_1,METHOD_2,METHOD_3,

fc,cron,CronExpression,cronExpr,ZonedDateTime,after,zoneId,afterTime,
IDENT_0,IDENT_1,IDENT_2,IDENT_3,IDENT_4,IDENT_5,IDENT_6,IDENT_7,

2012,2016,29,
INT_0,INT_1,INT_2,




"* * * 29 2 *",
STRING_0,

























