compatibility,TestResult,JUnit4TestAdapter,runCount,
METHOD_0,METHOD_1,METHOD_2,METHOD_3,

TestResult,running,TestMethodTest,IgnoredTest,fRunTests,
IDENT_0,IDENT_1,IDENT_2,IDENT_3,IDENT_4,


































