testEchoBytes,Random,nextInt,allocate,nextBytes,flip,echoBytes,
METHOD_0,METHOD_1,METHOD_2,METHOD_3,METHOD_4,METHOD_5,METHOD_6,

Random,echoed,TestProtocolSpecific,
IDENT_0,IDENT_1,IDENT_2,

1024,
INT_0,































