filtersDestroyable,isDestroyed,
METHOD_0,METHOD_1,

fundynamic,d2tm,game,entitiesSet,Predicate,destroyed,
IDENT_0,IDENT_1,IDENT_2,IDENT_3,IDENT_4,IDENT_5,


































