testDouble,writeRead,AMQPDouble,doubleValue,
METHOD_0,METHOD_1,METHOD_2,METHOD_3,

fusesource,amqp,TestSupport,AMQPType,
IDENT_0,IDENT_1,IDENT_2,IDENT_3,










0.53,25.3,623.23,
FLOAT_0,FLOAT_1,FLOAT_2,






















