testIssue,cleanInsert,queryWith,
METHOD_0,METHOD_1,METHOD_2,

Paths,itr,agent,wrapped,
IDENT_0,IDENT_1,IDENT_2,IDENT_3,







"src/test/resources/data/setup","testExecuteQuery.ltsv","select product_id from product",
STRING_0,STRING_1,STRING_2,

























