testSetFirstElement,firstElement,ExistingListElement,
METHOD_0,METHOD_1,METHOD_2,

givenList,fxnn,ListElement,insertedElement,backingList,listIndex,
IDENT_0,IDENT_1,IDENT_2,IDENT_3,IDENT_4,IDENT_5,

42,
INT_0,































