testCWLSourceFileSortOrder,TreeSet,createAndAddFile,
METHOD_0,METHOD_1,METHOD_2,

SortedSet,dockstore,webservice,SourceFile,files,
IDENT_0,IDENT_1,IDENT_2,IDENT_3,IDENT_4,







"foo2.cwl","/foo2.cwl","foo.cwl","/foo.cwl","/Dockstore.cwl","tool.cwl","/tool.cwl","extra.js","/extra.js",
STRING_0,STRING_1,STRING_2,STRING_3,STRING_4,STRING_5,STRING_6,STRING_7,STRING_8,

























