isFile_valid,isFile,is3DSFile,
METHOD_0,METHOD_1,METHOD_2,

arakhne,afc,inputoutput,filefilter,D3DSFileFilter,
IDENT_0,IDENT_1,IDENT_2,IDENT_3,IDENT_4,


































