count_badQuery,send,BasicDBObject,requireNonNull,
METHOD_0,METHOD_1,METHOD_2,METHOD_3,

Objects,completeQuery,running,
IDENT_0,IDENT_1,IDENT_2,







"key","running","payload.",
STRING_0,STRING_1,STRING_2,

























