testISO8601DefaultLocale,parseISO8601,formatISO8601,print,
METHOD_0,METHOD_1,METHOD_2,METHOD_3,

DateTime,instant,multibit,mbm,DateUtils,ReadableInstant,utcIso8601,
IDENT_0,IDENT_1,IDENT_2,IDENT_3,IDENT_4,IDENT_5,IDENT_6,







"2000-01-01T12:00:00Z",
STRING_0,

























