getHandlerForUsesNamespace,parseSilent,getHandlerFor,
METHOD_0,METHOD_1,METHOD_2,

XmlUtil,gadgets,templates,tags,NSName,TagHandler,TagRegistry,registries,
IDENT_0,IDENT_1,IDENT_2,IDENT_3,IDENT_4,IDENT_5,IDENT_6,IDENT_7,







"<Tag xmlns='#nottest'/>",
STRING_0,

























