simpleASCII,unidecode,sevenBitPurity,codePointAt,
METHOD_0,METHOD_1,METHOD_2,METHOD_3,

decoded,gcardone,junidecode,Junidecode,codepoint,hi,low,
IDENT_0,IDENT_1,IDENT_2,IDENT_3,IDENT_4,IDENT_5,IDENT_6,







"Answer is 42","Answer is 42\n",
STRING_0,STRING_1,

























