testNominal,Type1MetricHelper,getWidth,getLabelAsName,
METHOD_0,METHOD_1,METHOD_2,METHOD_3,

length1,length2,last,widths,font,padaf,preflight,Type1MetricHelper,ValidationConstants,FONT_DICTIONARY_VALUE_ENCODING_WIN,label,cid,Type1GlyphDescription,glyph,labelToMetric,
IDENT_0,IDENT_1,IDENT_2,IDENT_3,IDENT_4,IDENT_5,IDENT_6,IDENT_7,IDENT_8,IDENT_9,IDENT_10,IDENT_11,IDENT_12,IDENT_13,IDENT_14,

926,12270,32,160,278,191,556,611,222,833,500,722,
INT_0,INT_1,INT_2,INT_3,INT_4,INT_5,INT_6,INT_7,INT_8,INT_9,INT_10,INT_11,




"subset_type1_valid.font",
STRING_0,

























