shouldSetAndGetAuthScores,OperationChainLimiter,setAuthScores,getAuthScores,
METHOD_0,METHOD_1,METHOD_2,METHOD_3,

hook,OperationChainLimiter,authScores,scorer,
IDENT_0,IDENT_1,IDENT_2,IDENT_3,







"auth1","auth2","auth3",
STRING_0,STRING_1,STRING_2,

























