shouldConvertStringToFreqMap,ToFreqMap,FreqMap,
METHOD_0,METHOD_1,METHOD_2,

ToFreqMap,FreqMap,
IDENT_0,IDENT_1,







"value1",
STRING_0,

























