shouldAddEntriesToCache,initialise,putInCache,getFromCache,
METHOD_0,METHOD_1,METHOD_2,METHOD_3,

serviceProps,JcsCacheServiceTest,TEST_REGION,K,
IDENT_0,IDENT_1,IDENT_2,IDENT_3,


































