shouldRetrieveSchema,readEntity,toStream,ElementFilterPredicate,
METHOD_0,METHOD_1,METHOD_2,METHOD_3,

RestApiV1IT,commonutil,Streams,Iterable,FilterStreamSupplier,
IDENT_0,IDENT_1,IDENT_2,IDENT_3,IDENT_4,







"http://localhost:8080/rest/v1","graph/schema",
STRING_0,STRING_1,

























