shouldNotGetDisabledGraphForAuthUserWhenNoIdsProvided,
METHOD_0,

graphStorage,disabledByDefaultAccess,Graph,allGraphs,authUser,
IDENT_0,IDENT_1,IDENT_2,IDENT_3,IDENT_4,


































