shouldBuildRandomTimeBasedTimestamp,getTimestamp,
METHOD_0,METHOD_1,

HBasePropertyNames,COLUMN_QUALIFIER,PROP_1,timestamps,serialisation,
IDENT_0,IDENT_1,IDENT_2,IDENT_3,IDENT_4,


































