removeReturnsTheRemovedItemStartingWithTwoItems,
METHOD_0,

removes,mask,gemserk,componentsengine,CachingFastMap,prev,freeEntries,V,
IDENT_0,IDENT_1,IDENT_2,IDENT_3,IDENT_4,IDENT_5,IDENT_6,IDENT_7,







"hola","hello","chau","goodbye",
STRING_0,STRING_1,STRING_2,STRING_3,




--,
OP_0,



















