testListOrganisms,getOrganisms,
METHOD_0,METHOD_1,

taskMonitor,genemania,Organism,organisms,indexToUniqueObjectTable,
IDENT_0,IDENT_1,IDENT_2,IDENT_3,IDENT_4,


































