testTikaMetadata,getMetadata,blockingGet,keySet,
METHOD_0,METHOD_1,METHOD_2,METHOD_3,

ins,manipulator,
IDENT_0,IDENT_1,







"/pictures/12382975864_09e6e069e7_o.jpg","=",
STRING_0,STRING_1,

























