testMooTranslateCanCreateCurriedTranslate,translate,
METHOD_0,METHOD_1,

codiform,moo,curry,Translate,translatorFactory,destinationClass,
IDENT_0,IDENT_1,IDENT_2,IDENT_3,IDENT_4,IDENT_5,


































