kmlColorTest,toHexString,toKmlColor,Color,UnsupportedOperationException,
METHOD_0,METHOD_1,METHOD_2,METHOD_3,METHOD_4,

h,color1,color2,geotoolkit,kml,KmlUtilities,
IDENT_0,IDENT_1,IDENT_2,IDENT_3,IDENT_4,IDENT_5,







"0","Not supported yet.",
STRING_0,STRING_1,

























