testGetOneFeatures,JTSEnvelope2D,LazySearchCollection,keySet,
METHOD_0,METHOD_1,METHOD_2,METHOD_3,

geotoolkit,JTSEnvelope2D,env,crs,quadtree,LazySearchCollection,dr,
IDENT_0,IDENT_1,IDENT_2,IDENT_3,IDENT_4,IDENT_5,IDENT_6,

597867,598068,4918863,4919031,
INT_0,INT_1,INT_2,INT_3,































