getDatesRespresentation,SimpleDateFormat,setTimeZone,getTimeZone,PeriodUtilities,TreeSet,comparator,getPeriodDescription,subSet,FieldPosition,tailSet,
METHOD_0,METHOD_1,METHOD_2,METHOD_3,METHOD_4,METHOD_5,METHOD_6,METHOD_7,METHOD_8,METHOD_9,METHOD_10,

DateFormat,df,TimeZone,geotoolkit,temporal,PeriodUtilities,SortedSet,dates,previousDate,previousGap,gap,nbDataInGap,firstDate,dateFormat,
IDENT_0,IDENT_1,IDENT_2,IDENT_3,IDENT_4,IDENT_5,IDENT_6,IDENT_7,IDENT_8,IDENT_9,IDENT_10,IDENT_11,IDENT_12,IDENT_13,







"GMT+0","2009-10-31T00:00:00Z","2004-02-04T00:00:00Z","2005-11-23T00:00:00Z","2004-03-17T00:00:00Z","2005-03-02T00:00:00Z","2010-10-31T00:00:00Z","Dates should be sorted naturaly without any custom comparator.",',',
STRING_0,STRING_1,STRING_2,STRING_3,STRING_4,STRING_5,STRING_6,STRING_7,STRING_8,

























