testRemove,ErdoIdArray,removeLast,at,IndexOutOfBoundsException,
METHOD_0,METHOD_1,METHOD_2,METHOD_3,METHOD_4,

geophile,erdo,ErdoIdArray,arrays,LongArray,ARRAY_CAPACITY,IndexOutOfBoundsException,
IDENT_0,IDENT_1,IDENT_2,IDENT_3,IDENT_4,IDENT_5,IDENT_6,







"arrays.size: %s, position: %s",
STRING_0,




--,%,
OP_0,OP_1,



















