testEqualsWithSameTimeDifferentResolution,BigTime,
METHOD_0,METHOD_1,

ga,earthsci,temporal,BigTime,t1,NANOSECOND_RESOLUTION,t2,MICROSECOND_RESOLUTION,
IDENT_0,IDENT_1,IDENT_2,IDENT_3,IDENT_4,IDENT_5,IDENT_6,IDENT_7,


































