objectEqualsTrueKeyEquals,AutoValue_ArtifactServiceStager_StagedFile,
METHOD_0,METHOD_1,

local,StructuralKey,coders,VarIntCoder,construction,stagingName,
IDENT_0,IDENT_1,IDENT_2,IDENT_3,IDENT_4,IDENT_5,

1234,
INT_0,































