testComputeLatLonFromStringWithBlank,computeLatLonFromString,
METHOD_0,METHOD_1,

ga,worldwind,Util,coordString,
IDENT_0,IDENT_1,IDENT_2,IDENT_3,


































