testCapitalizeFirstLetterWithBlank,capitalizeFirstLetter,isBlank,toUpperCase,
METHOD_0,METHOD_1,METHOD_2,METHOD_3,

ga,worldwind,Util,
IDENT_0,IDENT_1,IDENT_2,


































