testGetCapabilities,getShortServer,getCapabilities,getServerUrl,RequestByID,getLayerList,
METHOD_0,METHOD_1,METHOD_2,METHOD_3,METHOD_4,METHOD_5,

geosdi,geoplatform,ServerDTO,serverDTO,gpWMSClient,serverUrlGeoSDI,gpServerDelegate,serverUrl,
IDENT_0,IDENT_1,IDENT_2,IDENT_3,IDENT_4,IDENT_5,IDENT_6,IDENT_7,







"^^^^^^^^^^^^^^^^^^^^^^^^^ SERVER___DTO ^^^^^^^^^^^^^^^^^^\n{}","\n*** NUMBER OF LAYERS FOR DPC {} ***",
STRING_0,STRING_1,

























