testCreateContextFromArchive,Archive,createContext,getTasks,
METHOD_0,METHOD_1,METHOD_2,METHOD_3,

geoserver,importer,Archive,arch,ImportContext,tasks,
IDENT_0,IDENT_1,IDENT_2,IDENT_3,IDENT_4,IDENT_5,







"shape/archsites_epsg_prj.zip",
STRING_0,

























