testNaN,setUp,newFormTester,submit,
METHOD_0,METHOD_1,METHOD_2,METHOD_3,

theValue,NaN,wicket,tester,FormTester,ft,formTester,
IDENT_0,IDENT_1,IDENT_2,IDENT_3,IDENT_4,IDENT_5,IDENT_6,







"form",
STRING_0,

























