testWFS11Delete,WFSException,WFS11,getLocator,
METHOD_0,METHOD_1,METHOD_2,METHOD_3,

geoserver,wfs,WFSException,tmpEx,Delete,deleteElementType1,locator,
IDENT_0,IDENT_1,IDENT_2,IDENT_3,IDENT_4,IDENT_5,IDENT_6,


































