scriptWithParamsConstructor,Jiffle,isCompiled,
METHOD_0,METHOD_1,METHOD_2,

imageParams,Jiffle,ImageRole,DEST,jiffle,geosolutions,jaiext,
IDENT_0,IDENT_1,IDENT_2,IDENT_3,IDENT_4,IDENT_5,IDENT_6,







" Jiffle(script, imageParams)","dest = 42;","dest",
STRING_0,STRING_1,STRING_2,

























