sameHash,ImageLayout2,
METHOD_0,METHOD_1,

geosolutions,jaiext,utilities,ImageLayout2,il1,il2,prime,
IDENT_0,IDENT_1,IDENT_2,IDENT_3,IDENT_4,IDENT_5,IDENT_6,

31,
INT_0,































