clear,createPointFeatures,
METHOD_0,METHOD_1,

ListFeatureCollectionTest,WORLD,featureCollection,env,
IDENT_0,IDENT_1,IDENT_2,IDENT_3,

42,
INT_0,































