setType_validType_descriptorIsSetToNull,setType,getDescriptor,
METHOD_0,METHOD_1,METHOD_2,

FakeTypes,ANYSIMPLETYPE_TYPE,descriptor,
IDENT_0,IDENT_1,IDENT_2,


































