testNameUsage,createGeographicCRS,getAuthorityCode,
METHOD_0,METHOD_1,METHOD_2,

referencing,NoSuchAuthorityCodeException,
IDENT_0,IDENT_1,







"WGS84",
STRING_0,

























