calendarUtils_getStartOfDay_calendarAsStartOfDayReturned,clone,getStartOfDay,
METHOD_0,METHOD_1,METHOD_2,

testInput,MARCH,HOUR_OF_DAY,MINUTE,SECOND,MILLISECOND,dk,i2m,converge,CalendarUtils,
IDENT_0,IDENT_1,IDENT_2,IDENT_3,IDENT_4,IDENT_5,IDENT_6,IDENT_7,IDENT_8,IDENT_9,

2014,
INT_0,































