shouldGetEmptyValuesListForInvalidColumnName,getColumnValues,
METHOD_0,METHOD_1,

columnValues,columnIndex,rows,Collectors,
IDENT_0,IDENT_1,IDENT_2,IDENT_3,







"col3",
STRING_0,

























