testUpdateRole,getRoleByName,setDescription,flush,getDescription,
METHOD_0,METHOD_1,METHOD_2,METHOD_3,METHOD_4,

gisgraphy,Role,role,roleDao,
IDENT_0,IDENT_1,IDENT_2,IDENT_3,







"ROLE_USER","test descr",
STRING_0,STRING_1,

























