testGetRole,getRoleByName,getHibernateTemplate,
METHOD_0,METHOD_1,METHOD_2,

gisgraphy,Role,role,roleDao,USER_ROLE,roles,rolename,
IDENT_0,IDENT_1,IDENT_2,IDENT_3,IDENT_4,IDENT_5,IDENT_6,







"from Role where name=?",
STRING_0,

























