testSettingSameValueASecondTimeIsIgnored,Parameters,getValueCount,getValues,
METHOD_0,METHOD_1,METHOD_2,METHOD_3,

gistlabs,mechanize,Parameters,Parameter,
IDENT_0,IDENT_1,IDENT_2,IDENT_3,







"key",
STRING_0,

























