testExceptions4,taintedString,getTaint,toCharArray,
METHOD_0,METHOD_1,METHOD_2,METHOD_3,

imei,columbia,psl,phosphor,DroidBenchIntTagITCase,Tainter,
IDENT_0,IDENT_1,IDENT_2,IDENT_3,IDENT_4,IDENT_5,







"abcd",
STRING_0,

























