shouldReturnTrueSameMinorVersion,checkServerVersion,parseInt,
METHOD_0,METHOD_1,METHOD_2,

gnat008,perworldinventory,VERSION_1_9,versionNum,parts,major,minor,patch,NumberFormatException,
IDENT_0,IDENT_1,IDENT_2,IDENT_3,IDENT_4,IDENT_5,IDENT_6,IDENT_7,IDENT_8,







".","\\.",
STRING_0,STRING_1,

























