OutputStreamDataOutput,writeString,flush,InputStreamDataInput,readString,
METHOD_0,METHOD_1,METHOD_2,METHOD_3,METHOD_4,

baos,fastcatsearch,ir,DataOutput,bais,DataInput,TaskKey,
IDENT_0,IDENT_1,IDENT_2,IDENT_3,IDENT_4,IDENT_5,IDENT_6,







"abcdefghijk1234567.1111 ( ",
STRING_0,

























