BytesDataOutput,writeInt,bytesRef,readInt,readByte,
METHOD_0,METHOD_1,METHOD_2,METHOD_3,METHOD_4,

fastcatsearch,ir,BytesDataOutput,BytesRef,bytesRef,IOUtil,BytesBuffer,
IDENT_0,IDENT_1,IDENT_2,IDENT_3,IDENT_4,IDENT_5,IDENT_6,

24,
INT_0,































