injectIntoWith,newArrayWith,
METHOD_0,METHOD_1,

MutableList,objects,fixed,ArrayAdapter,injectedValued,charParameter,
IDENT_0,IDENT_1,IDENT_2,IDENT_3,IDENT_4,IDENT_5,


































