forEach,newSet,classUnderTest,on,
METHOD_0,METHOD_1,METHOD_2,METHOD_3,

MutableSet,UnifiedSet,ImmutableSet,procedure,CollectionAddProcedure,newCollection,
IDENT_0,IDENT_1,IDENT_2,IDENT_3,IDENT_4,IDENT_5,


































