detectIfNone,IterableAdapter,getIntegerList,detect,
METHOD_0,METHOD_1,METHOD_2,METHOD_3,

Iterable,iterable,utility,IterableIterateTest,predicate,Predicate,Iterate,ifNone,
IDENT_0,IDENT_1,IDENT_2,IDENT_3,IDENT_4,IDENT_5,IDENT_6,IDENT_7,


































