testBuildQuery_empty,buildQuery,
METHOD_0,METHOD_1,

expectedQuery,ads,admanager,QueryBuilder,queryBuilder,
IDENT_0,IDENT_1,IDENT_2,IDENT_3,IDENT_4,


































