testSessionCreate,getSession,getRequest,
METHOD_0,METHOD_1,METHOD_2,

HttpSession,appengine,tck,misc,AbstractHttpSessionTestBase,HttpServletRequest,RequestFilter,
IDENT_0,IDENT_1,IDENT_2,IDENT_3,IDENT_4,IDENT_5,IDENT_6,







"session = ",
STRING_0,

























