testSmoke,getDatastoreService,
METHOD_0,METHOD_1,

appengine,DatastoreService,ds,DatastoreServiceFactory,Key,tck,modules,LibHelper,
IDENT_0,IDENT_1,IDENT_2,IDENT_3,IDENT_4,IDENT_5,IDENT_6,IDENT_7,







"NsTest",
STRING_0,

























