testRollbackWhenModifyingEntity,beginTransaction,rollback,
METHOD_0,METHOD_1,METHOD_2,

appengine,Key,Transaction,entity2,entity3,tck,modules,LibHelper,ds,
IDENT_0,IDENT_1,IDENT_2,IDENT_3,IDENT_4,IDENT_5,IDENT_6,IDENT_7,IDENT_8,







"original","modified",
STRING_0,STRING_1,

























