testName,toId,
METHOD_0,METHOD_1,

strId,State,OK,bigtop,bigpetstore,NumericalIdUtils,strId2,CO,id2,
IDENT_0,IDENT_1,IDENT_2,IDENT_3,IDENT_4,IDENT_5,IDENT_6,IDENT_7,IDENT_8,







"_","jay vyas",
STRING_0,STRING_1,

























