testGetAccountCount,AccountSelector,getAccountCount,getItemCount,
METHOD_0,METHOD_1,METHOD_2,METHOD_3,

login,AccountSelector,selector,loginService,combo,
IDENT_0,IDENT_1,IDENT_2,IDENT_3,IDENT_4,


































