testSetAppEngine_null,GcpProject,setAppEngine,getAppEngine,
METHOD_0,METHOD_1,METHOD_2,METHOD_3,

projectselector,GcpProject,gcpProject,appEngine,
IDENT_0,IDENT_1,IDENT_2,IDENT_3,







"id",
STRING_0,

























