testRelativizePath_nullPathNullBasePathReturnsNull,relativizePath,
METHOD_0,METHOD_1,

IPath,PathUtil,basePath,
IDENT_0,IDENT_1,IDENT_2,


































