testError_withCode,verifyStatus,getSeverity,getPlugin,
METHOD_0,METHOD_1,METHOD_2,METHOD_3,

IStatus,StatusUtil,ERROR,severity,
IDENT_0,IDENT_1,IDENT_2,IDENT_3,

356,
INT_0,




"test error msg","com.google.cloud.tools.eclipse.util",
STRING_0,STRING_1,

























