testToFromUrlSafe,toUrlSafe,fromUrlSafe,copyFrom,base64Url,
METHOD_0,METHOD_1,METHOD_2,METHOD_3,METHOD_4,

urlSafe,cursor1,Cursor,BaseEncoding,
IDENT_0,IDENT_1,IDENT_2,IDENT_3,







"Unexpected decoding exception",
STRING_0,

























