getCollection,
METHOD_0,

firestore,CollectionReference,collectionReference,documentReference,
IDENT_0,IDENT_1,IDENT_2,IDENT_3,







"subcoll",
STRING_0,

























