testDeleteZone,deleteZone,getService,
METHOD_0,METHOD_1,METHOD_2,

dnsRpcMock,dns,DnsImplTest,ZONE_INFO,RecordSet,infoBuilder,recordSet,
IDENT_0,IDENT_1,IDENT_2,IDENT_3,IDENT_4,IDENT_5,IDENT_6,


































