testNotifySuccess,createStrictMock,success,notify,completed,
METHOD_0,METHOD_1,METHOD_2,METHOD_3,METHOD_4,

BatchResult,Callback,dns,DnsException,callback,
IDENT_0,IDENT_1,IDENT_2,IDENT_3,IDENT_4,







"The batch has been completed.",
STRING_0,

























