testGetAllUsers,getAllUsers,Gson,fromJson,executeRequest,
METHOD_0,METHOD_1,METHOD_2,METHOD_3,METHOD_4,

appengine,sparkdemo,users,UserControllerTest,
IDENT_0,IDENT_1,IDENT_2,IDENT_3,







"GET","/api/users",
STRING_0,STRING_1,

























