compilePolicy_byfile,compile,fileManager,forSourceLines,flush,named,isEqualTo,
METHOD_0,METHOD_1,METHOD_2,METHOD_3,METHOD_4,METHOD_5,METHOD_6,

javac,main,Main,exitCode,outputStream,OK,
IDENT_0,IDENT_1,IDENT_2,IDENT_3,IDENT_4,IDENT_5,







"-XDcompilePolicy=byfile","Test.java","class Test {}",
STRING_0,STRING_1,STRING_2,

























