shouldCallNativeMethodsWithoutFailures,SomeComposite,initWidget,runNativeMethod,
METHOD_0,METHOD_1,METHOD_2,METHOD_3,

SomeComposite,gwt,Composite,Widget,
IDENT_0,IDENT_1,IDENT_2,IDENT_3,




private,native,
MOD_0,MOD_1,




























