readMissingContinuationBytesThrowsEofException,Buffer,writeByte,readUtf8CodePoint,exhausted,
METHOD_0,METHOD_1,METHOD_2,METHOD_3,METHOD_4,

okio,Buffer,EOFException,closed,Segment,SIZE,
IDENT_0,IDENT_1,IDENT_2,IDENT_3,IDENT_4,IDENT_5,

223,
INT_0,




"closed",
STRING_0,

























