test_withHour_noChange,withHour,
METHOD_0,METHOD_1,

LocalDateTime,TEST_2007_07_15_12_30_40_987654321,dateTime,hour,
IDENT_0,IDENT_1,IDENT_2,IDENT_3,


































