test_plusSeconds_noChange_oneDay_same,plusSeconds,toLocalTime,
METHOD_0,METHOD_1,METHOD_2,

LocalDateTime,TEST_2007_07_15_12_30_40_987654321,
IDENT_0,IDENT_1,

24,60,
INT_0,INT_1,































