test_plusYears_int_noChange,plusYears,toIntExact,addExact,
METHOD_0,METHOD_1,METHOD_2,METHOD_3,

LocalDateTime,TEST_2007_07_15_12_30_40_987654321,yearsToAdd,Period,years,months,days,
IDENT_0,IDENT_1,IDENT_2,IDENT_3,IDENT_4,IDENT_5,IDENT_6,


































