test_getTime,toLocalTime,
METHOD_0,METHOD_1,

LocalTime,h,ns,LocalDateTime,dt,LocalDate,dateTime,
IDENT_0,IDENT_1,IDENT_2,IDENT_3,IDENT_4,IDENT_5,IDENT_6,

2011,30,
INT_0,INT_1,































