factory_ofSecondOfDay_singletons,ofSecondOfDay,checkValidValue,LocalTime,
METHOD_0,METHOD_1,METHOD_2,METHOD_3,

LocalTime,test1,test2,HOUR_OF_DAY,hour,minute,HOURS,MINUTE_OF_HOUR,
IDENT_0,IDENT_1,IDENT_2,IDENT_3,IDENT_4,IDENT_5,IDENT_6,IDENT_7,

24,60L,
INT_0,INT_1,































