test_withDayOfYear_noChange,withDayOfYear,getDayOfYear,ofYearDay,
METHOD_0,METHOD_1,METHOD_2,METHOD_3,

OffsetDateTime,TEST_2008_6_30_11_30_59_000000500,dayOfYear,LocalDate,year,
IDENT_0,IDENT_1,IDENT_2,IDENT_3,IDENT_4,

31,29,30,
INT_0,INT_1,INT_2,































