testGetInstance,DownloadManager,
METHOD_0,METHOD_1,

bixly,pastevid,download,DownloadManager,
IDENT_0,IDENT_1,IDENT_2,IDENT_3,







"getInstance",
STRING_0,

























