test_appendOffset_format,appendOffset,toFormatter,ofHoursMinutesSeconds,
METHOD_0,METHOD_1,METHOD_2,METHOD_3,

DateTimeFormatter,ZoneOffset,h,icu,dev,NumberFormatTestData,
IDENT_0,IDENT_1,IDENT_2,IDENT_3,IDENT_4,IDENT_5,







"Z",
STRING_0,

























