isOAuth2Auth_basicAuth,setCredential,isOAuth2Auth,isOAuth2RefreshToken,
METHOD_0,METHOD_1,METHOD_2,METHOD_3,

registryAuthenticator,jib,credentials,Credential,credential,
IDENT_0,IDENT_1,IDENT_2,IDENT_3,IDENT_4,







"password",
STRING_0,

























