testListPageSize,all,getData,
METHOD_0,METHOD_1,METHOD_2,

objectMap,shippo,CustomsDeclarationCollection,CustomsDeclaration,
IDENT_0,IDENT_1,IDENT_2,IDENT_3,







"results","page",
STRING_0,STRING_1,

























