shouldGiveSpecifiedFieldsInformationOfVideo,toJson,getDetails,
METHOD_0,METHOD_1,METHOD_2,

expectedDetails,fieldJsonMapper,iluwatar,partialresponse,Video,actualFieldsDetails,videos,
IDENT_0,IDENT_1,IDENT_2,IDENT_3,IDENT_4,IDENT_5,IDENT_6,







"id","title","length","{\"id\": 1,\"title\": \"Avatar\",\"length\": 178}",
STRING_0,STRING_1,STRING_2,STRING_3,

























