testMappingError,setDecimal,IntsRef,getOrDefault,toInt,setInt,
METHOD_0,METHOD_1,METHOD_2,METHOD_3,METHOD_4,METHOD_5,

maxweight,storageInt,toStorageMap,reverse,
IDENT_0,IDENT_1,IDENT_2,IDENT_3,







"Cannot find value "," (",") in map to store it",
STRING_0,STRING_1,STRING_2,

























