testMonacoMotorcycle,OneRun,runAlgo,
METHOD_0,METHOD_1,METHOD_2,

routing,TestAlgoCollector,OneRun,testCollector,GraphHopperIT,DIR,
IDENT_0,IDENT_1,IDENT_2,IDENT_3,IDENT_4,IDENT_5,

2703,119,3749,170,3175,169,2423,141,2253,120,
INT_0,INT_1,INT_2,INT_3,INT_4,INT_5,INT_6,INT_7,INT_8,INT_9,




"/monaco.osm.gz","target/monaco-mc-gh","motorcycle","fastest","OSM File header:",
STRING_0,STRING_1,STRING_2,STRING_3,STRING_4,

43.730729,7.42135,43.727697,7.419199,43.727687,7.418737,43.74958,7.436566,43.728677,7.41016,43.739213,7.4277,43.733802,7.413433,43.739662,7.424355,43.730949,7.412338,43.739643,7.424542,43.727592,7.419333,43.727712,
FLOAT_0,FLOAT_1,FLOAT_2,FLOAT_3,FLOAT_4,FLOAT_5,FLOAT_6,FLOAT_7,FLOAT_8,FLOAT_9,FLOAT_10,FLOAT_11,FLOAT_12,FLOAT_13,FLOAT_14,FLOAT_15,FLOAT_16,FLOAT_17,FLOAT_18,FLOAT_19,FLOAT_20,FLOAT_21,FLOAT_22,






















