testListFilesEmpty,createLog,getMethodName,listFiles,getFullyQualifiedPath,
METHOD_0,METHOD_1,METHOD_2,METHOD_3,METHOD_4,

namespace,files,filePath,
IDENT_0,IDENT_1,IDENT_2,


































