whenGettingIndexWhichIsHigherThanNuOfCapDimensions_itShouldReturn0,addDimension,getVehicle,
METHOD_0,METHOD_1,METHOD_2,

Capacity,capBuilder,cap,VehicleRoute,
IDENT_0,IDENT_1,IDENT_2,IDENT_3,


































