testListFiles,newArrayListWithExpectedSize,createLog,getMethodName,listFiles,sort,
METHOD_0,METHOD_1,METHOD_2,METHOD_3,METHOD_4,METHOD_5,

numFiles,expectedFiles,namespace,filename,files,
IDENT_0,IDENT_1,IDENT_2,IDENT_3,IDENT_4,







"-",
STRING_0,

























