testLock,lock,getAvailableVehicles,
METHOD_0,METHOD_1,METHOD_2,

fleetManager,vehicle,Vehicle,vehicles,
IDENT_0,IDENT_1,IDENT_2,IDENT_3,


































