whenReadingBelhaizaInstance_nuOfCustomersIsCorrect,BelhaizaReader,getJobs,unmodifiableSet,
METHOD_0,METHOD_1,METHOD_2,METHOD_3,

VehicleRoutingProblem,vrp,activity,jobs,
IDENT_0,IDENT_1,IDENT_2,IDENT_3,


































