testEncodeDouble,encodeDouble,rewind,decodeDouble,getDouble,
METHOD_0,METHOD_1,METHOD_2,METHOD_3,METHOD_4,

bb,
IDENT_0,










3.14,
FLOAT_0,






















