testSetLifecycleUninitialized,never,post,isProcessing,
METHOD_0,METHOD_1,METHOD_2,METHOD_3,

eventBus,Lifecycle,UNINITIALIZED,
IDENT_0,IDENT_1,IDENT_2,


































