testTimestamp,AudioFileItem,setTimestamp,getTimestamp,
METHOD_0,METHOD_1,METHOD_2,METHOD_3,

bixly,pastevid,AudioFileItemTest,AudioFileItem,timestamp,
IDENT_0,IDENT_1,IDENT_2,IDENT_3,IDENT_4,







"AudioFileItem.timestamp",
STRING_0,

























