testBitcoinSerialization,getDefaultSerializer,makeBlock,bitcoinSerialize,
METHOD_0,METHOD_1,METHOD_2,METHOD_3,

bitcoinj,Block,BlockTest,PARAMS,blockBytes,
IDENT_0,IDENT_1,IDENT_2,IDENT_3,IDENT_4,


































