testGetValueStable,
METHOD_0,

checksum,greenrobot,essentials,AbstractChecksumTest,INPUT16,
IDENT_0,IDENT_1,IDENT_2,IDENT_3,IDENT_4,

4294967295L,
INT_0,































