testUpdateShort,DataOutputStream,writeShort,getHashAndReset,updateShort,
METHOD_0,METHOD_1,METHOD_2,METHOD_3,METHOD_4,

Short,MIN_VALUE,primitiveDataChecksum,
IDENT_0,IDENT_1,IDENT_2,

12345,4294967295L,
INT_0,INT_1,































