createWithArray,Transactions,getTransactions,
METHOD_0,METHOD_1,METHOD_2,

greensopinion,finance,Transaction,t1,MockTransaction,t2,Transactions,transactions,
IDENT_0,IDENT_1,IDENT_2,IDENT_3,IDENT_4,IDENT_5,IDENT_6,IDENT_7,

123,
INT_0,




"2015-01-02",
STRING_0,

























