subtract,Histogram,Range,concat,setCount,getCount,
METHOD_0,METHOD_1,METHOD_2,METHOD_3,METHOD_4,METHOD_5,

groupon,lex,Histogram,h,Range,HistogramTest,map_,Stream,rwc,
IDENT_0,IDENT_1,IDENT_2,IDENT_3,IDENT_4,IDENT_5,IDENT_6,IDENT_7,IDENT_8,










14.0,4.0,10.0,7.0,
FLOAT_0,FLOAT_1,FLOAT_2,FLOAT_3,






















