testNxpCrc,NxpCrc,getCrc,reset,
METHOD_0,METHOD_1,METHOD_2,METHOD_3,

nfctools,mf,NxpCrc,crc,
IDENT_0,IDENT_1,IDENT_2,IDENT_3,

66,
INT_0,































