testProjectLeadingEdge,scan,bijection,hasTree,compose,toLinux,
METHOD_0,METHOD_1,METHOD_2,METHOD_3,METHOD_4,METHOD_5,

RelBuilder,RelBuilderTest,rel,RelNode,Mappings,Util,RelOptUtil,
IDENT_0,IDENT_1,IDENT_2,IDENT_3,IDENT_4,IDENT_5,IDENT_6,







"EMP","LogicalProject(EMPNO=[$0], ENAME=[$1], JOB=[$2])\n"," LogicalTableScan(table=[[scott, EMP]])\n",
STRING_0,STRING_1,STRING_2,

























