testInstanceReader,readSchema,readInstances,hasSize,
METHOD_0,METHOD_1,METHOD_2,METHOD_3,

esdihumboldt,hale,InstanceCollection,instances,
IDENT_0,IDENT_1,IDENT_2,IDENT_3,


































