testSetBrightness,Color,setBrightness,RGBtoHSB,getRed,getGreen,getBlue,getHSBColor,
METHOD_0,METHOD_1,METHOD_2,METHOD_3,METHOD_4,METHOD_5,METHOD_6,METHOD_7,

Color,COLOR,BRIGHTNESS,hansolo,steelseries,Util,HSB_VALUES,
IDENT_0,IDENT_1,IDENT_2,IDENT_3,IDENT_4,IDENT_5,IDENT_6,

128,
INT_0,




"setBrightness",
STRING_0,

0.5F,
FLOAT_0,






















