chunkPerPeriodTestNumberOfChunks,ChunkingParser,parseOperation,
METHOD_0,METHOD_1,METHOD_2,

analyze,parsing,ChunkingParser,cp,SequentialData,userData,chunkedData,
IDENT_0,IDENT_1,IDENT_2,IDENT_3,IDENT_4,IDENT_5,IDENT_6,







"PER 7 DAYS",
STRING_0,

























