testParsePatternCount1,getIntegerValue,UnsupportedFormatException,
METHOD_0,METHOD_1,METHOD_2,

datafield,DataField,
IDENT_0,IDENT_1,







"COMPARE PATTERN LABEL(Y)","Double cannot be converted to an integer",
STRING_0,STRING_1,

























