addCommentTest,Comments,addComments,
METHOD_0,METHOD_1,METHOD_2,

Comments,comments,commentlist,comment,
IDENT_0,IDENT_1,IDENT_2,IDENT_3,







"initial comment",
STRING_0,

























