testFindByKeywordNotFound,findByKeyword,getTitle,getContent,
METHOD_0,METHOD_1,METHOD_2,METHOD_3,

hantsylabs,ee8,Post,foundPosts,posts,keyword,
IDENT_0,IDENT_1,IDENT_2,IDENT_3,IDENT_4,IDENT_5,







"test123",
STRING_0,

























