makesParentDirectory,getRoot,ReportWriterImpl,open,
METHOD_0,METHOD_1,METHOD_2,METHOD_3,

tmpf,jslint4java,ReportWriter,rw,ReportWriterImplTest,REPORT_XML,formatter,
IDENT_0,IDENT_1,IDENT_2,IDENT_3,IDENT_4,IDENT_5,IDENT_6,







"some","dir",
STRING_0,STRING_1,

























