basicSanity,UnicodeBomInputStream,skipBOM,closeQuietly,
METHOD_0,METHOD_1,METHOD_2,METHOD_3,

jslint4java,UnicodeBomInputStream,in2,Closeables,
IDENT_0,IDENT_1,IDENT_2,IDENT_3,

239,187,191,49,51,52,53,
INT_0,INT_1,INT_2,INT_3,INT_4,INT_5,INT_6,































