testEmptyIteratorConstructor,CompoundReader,ensureBuffer,
METHOD_0,METHOD_1,METHOD_2,

Reader,twelvemonkeys,CollectionUtil,
IDENT_0,IDENT_1,IDENT_2,


































