testNotEmptyArray,notEmpty,
METHOD_0,METHOD_1,

twelvemonkeys,CharSequence,Validate,pParameter,
IDENT_0,IDENT_1,IDENT_2,IDENT_3,


































