testAliasPastTop2,scan,not,hasTree,compose,toLinux,
METHOD_0,METHOD_1,METHOD_2,METHOD_3,METHOD_4,METHOD_5,

RelBuilder,RelBuilderTest,rel,RelNode,JoinRelType,INNER,Util,RelOptUtil,
IDENT_0,IDENT_1,IDENT_2,IDENT_3,IDENT_4,IDENT_5,IDENT_6,IDENT_7,







"EMP","t1","t2","EMPNO","LogicalJoin(condition=[AND(=($7, $16), <>($10, $18))], joinType=[inner])\n","t3","DEPTNO","JOB","LOC",
STRING_0,STRING_1,STRING_2,STRING_3,STRING_4,STRING_5,STRING_6,STRING_7,STRING_8,

























