testEqualsNull,makeObject,
METHOD_0,METHOD_1,

pOther,twelvemonkeys,DuckType,MethodProxy,mMethod,mDelegate,
IDENT_0,IDENT_1,IDENT_2,IDENT_3,IDENT_4,IDENT_5,


































