decodeStreamWeird,skipFully,DecoderStream,RLE4Decoder,ensureBuffer,
METHOD_0,METHOD_1,METHOD_2,METHOD_3,METHOD_4,

rleStream,rleOffset,plainSream,plainOffset,decoded,twelvemonkeys,enc,imageio,bmp,w,h,
IDENT_0,IDENT_1,IDENT_2,IDENT_3,IDENT_4,IDENT_5,IDENT_6,IDENT_7,IDENT_8,IDENT_9,IDENT_10,

118,301,31,32,331,
INT_0,INT_1,INT_2,INT_3,INT_4,




"/bmp/blauesglas_4.rle","/bmp/blauesglas_4.bmp",
STRING_0,STRING_1,

























