testSupportsThumbnail,createReader,readerSupportsThumbnails,
METHOD_0,METHOD_1,METHOD_2,

twelvemonkeys,imageio,psd,PSDImageReader,imageReader,
IDENT_0,IDENT_1,IDENT_2,IDENT_3,IDENT_4,


































