generateAlerts,AlertsAdapter,AlertMenuAdapter,getItemCount,
METHOD_0,METHOD_1,METHOD_2,METHOD_3,

hawkular,Alert,alerts,AlertsAdapter,alertsAdapter,AlertsAdapterTester,
IDENT_0,IDENT_1,IDENT_2,IDENT_3,IDENT_4,IDENT_5,


































