testUrlFromUri,BinaryAnnotation,setKey,Span,
METHOD_0,METHOD_1,METHOD_2,METHOD_3,

hawkular,apm,zipkin,BinaryAnnotation,ba,ZIPKIN_BIN_ANNOTATION_HTTP_URI,Span,span,spanURL,
IDENT_0,IDENT_1,IDENT_2,IDENT_3,IDENT_4,IDENT_5,IDENT_6,IDENT_7,IDENT_8,







"http://localhost:8080/my/path",
STRING_0,

























