testGetCurrOffset,AudioCache,getCurrOffset,
METHOD_0,METHOD_1,METHOD_2,

bixly,pastevid,recorders,AudioCache,currOffset,
IDENT_0,IDENT_1,IDENT_2,IDENT_3,IDENT_4,







"getCurrOffset",
STRING_0,

























