quorumAbsent_whenNotEnoughMembers,mockMembers,memberAdded,mockEvent,
METHOD_0,METHOD_1,METHOD_2,METHOD_3,

hazelcast,Member,members,quorumFunction,splitCluster,
IDENT_0,IDENT_1,IDENT_2,IDENT_3,IDENT_4,













%,
OP_0,



















