testInsertLoad,openSession,beginTransaction,DummyEntity,
METHOD_0,METHOD_1,METHOD_2,METHOD_3,

Session,clientSf,Transaction,hazelcast,DummyEntity,retrieved,txTimestamp,
IDENT_0,IDENT_1,IDENT_2,IDENT_3,IDENT_4,IDENT_5,IDENT_6,







"dummy:1",
STRING_0,

123456.0,
FLOAT_0,






















