testLoad_UTFf8Key,appendText,
METHOD_0,METHOD_1,

workingDirFile,simulatorHome,simulatorProperties,
IDENT_0,IDENT_1,IDENT_2,







"simulator.properties","=value",
STRING_0,STRING_1,

























