getTestCase_null,TestSuite,getTestCase,
METHOD_0,METHOD_1,METHOD_2,

hazelcast,simulator,coordinator,TestSuite,testSuite,testCaseId,TestCase,testCase,testCaseList,
IDENT_0,IDENT_1,IDENT_2,IDENT_3,IDENT_4,IDENT_5,IDENT_6,IDENT_7,IDENT_8,







"class=Foo",
STRING_0,

























