test_RcDownloadOperation,RcDownloadOperation,download,BashCommand,
METHOD_0,METHOD_1,METHOD_2,METHOD_3,

hazelcast,simulator,coordinator,RcDownloadOperation,
IDENT_0,IDENT_1,IDENT_2,IDENT_3,


































