shouldParseTestPlugin,parseAddingRequiredArgs,getTestPlugin,
METHOD_0,METHOD_1,METHOD_2,

pitest,mutationtest,ReportOptions,testPlugin,
IDENT_0,IDENT_1,IDENT_2,IDENT_3,







"--testPlugin",
STRING_0,

























