shouldHaveHighPriorityToAnalyse,KnownStatusMutationTestUnit,priority,
METHOD_0,METHOD_1,METHOD_2,

testee,pitest,mutationtest,MutationResult,
IDENT_0,IDENT_1,IDENT_2,IDENT_3,


































