testParseCount,Facebook,parseCount,compile,getInt,
METHOD_0,METHOD_1,METHOD_2,METHOD_3,METHOD_4,

headissue,sharecount,Pattern,Matcher,
IDENT_0,IDENT_1,IDENT_2,IDENT_3,







"[{\"url\":\"http:\\/\\/www.yegor256.com\\/2014\\/07\\/31\\/travis-and-rultor.html\",\"normalized_url\":\"http:\\/\\/www.yegor256.com\\/2014\\/07\\/31\\/travis-and-rultor.html\",\"share_count\":0,\"like_count\":0,\"comment_count\":0,\"total_count\":5,\"click_count\":0,\"comments_fbid\":927580697268032,\"commentsbox_count\":0}]","\\{.*\\}","count",
STRING_0,STRING_1,STRING_2,

























