testGetCassandraWithNullKeyspace,open,getCassandra,isOpen,
METHOD_0,METHOD_1,METHOD_2,METHOD_3,

hThriftClient,
IDENT_0,







"Keyspace1",
STRING_0,

























