testGetConfigurationSection,getConfiguration,keySet,
METHOD_0,METHOD_1,METHOD_2,

ektorp,HttpResponseStub,
IDENT_0,IDENT_1,







"/_config/httpd","{\"httpd\": {","\"bind_address\": \"0.0.0.0\",\"port\": \"5984\"}}","httpd",
STRING_0,STRING_1,STRING_2,STRING_3,

























