setWindowSizeXUsesCorrectPropertiesKey,userProperties,setWindowSizeX,
METHOD_0,METHOD_1,METHOD_2,

marabou,UserProperties,userProperties,windowSizeX,
IDENT_0,IDENT_1,IDENT_2,IDENT_3,







"windowSizeX","-1",
STRING_0,STRING_1,

























