testGetAllTenants,getAllTenants,
METHOD_0,METHOD_1,

easyrec,TenantVO,tenants,tenantDAO,_list,
IDENT_0,IDENT_1,IDENT_2,IDENT_3,IDENT_4,


































