shouldGenerateAnId,makeADragon,storeCard,
METHOD_0,METHOD_1,METHOD_2,

ogm,testcase,MagicCard,card,cardsCollection,
IDENT_0,IDENT_1,IDENT_2,IDENT_3,IDENT_4,


































