testInsideString,StringSuppressor,setCurrentContents,shouldSuppress,
METHOD_0,METHOD_1,METHOD_2,METHOD_3,

checks,regexp,StringSuppressor,suppressor,
IDENT_0,IDENT_1,IDENT_2,IDENT_3,







"\" \"",
STRING_0,

























