testGetMinPts,getMinPts,
METHOD_0,METHOD_1,

clustering,DBSCANClusterer,DoublePoint,transformer,minPts,
IDENT_0,IDENT_1,IDENT_2,IDENT_3,IDENT_4,


































