testSolutionLeftSide,Sin,getSolver,getSolution,isNaN,SecantSolver,
METHOD_0,METHOD_1,METHOD_2,METHOD_3,METHOD_4,METHOD_5,

UnivariateFunction,solvers,UnivariateSolver,solver,left,right,AllowedSolution,LEFT_SIDE,
IDENT_0,IDENT_1,IDENT_2,IDENT_3,IDENT_4,IDENT_5,IDENT_6,IDENT_7,










1.5,0.05,0.1,0.3,
FLOAT_0,FLOAT_1,FLOAT_2,FLOAT_3,

-=,
OP_0,



















