testGetImaginaryFormat,ComplexFormat,getImaginaryFormat,
METHOD_0,METHOD_1,METHOD_2,

NumberFormat,nf,complex,ComplexFormat,cf,imaginaryFormat,
IDENT_0,IDENT_1,IDENT_2,IDENT_3,IDENT_4,IDENT_5,


































