testGetCache,getAudioRecorder,getCache,
METHOD_0,METHOD_1,METHOD_2,

bixly,pastevid,recorders,AudioRecorderTest,AudioRecorder,recorder,audioCache,
IDENT_0,IDENT_1,IDENT_2,IDENT_3,IDENT_4,IDENT_5,IDENT_6,







"getCache",
STRING_0,

























