testConcentric,sqrt,Vector2D,buildSet,distance,
METHOD_0,METHOD_1,METHOD_2,METHOD_3,METHOD_4,

h,FastMath,euclidean,twod,Vector2D,vertices1,PolygonsSet,set1,vertices2,set2,P,Point,point,center,radius,
IDENT_0,IDENT_1,IDENT_2,IDENT_3,IDENT_4,IDENT_5,IDENT_6,IDENT_7,IDENT_8,IDENT_9,IDENT_10,IDENT_11,IDENT_12,IDENT_13,IDENT_14,










3.0,0.1,0.05,0.2,0.3,0.4,
FLOAT_0,FLOAT_1,FLOAT_2,FLOAT_3,FLOAT_4,FLOAT_5,






















