testRemoveMultipleToEmpty,SimpleRegression,addData,removeData,getN,
METHOD_0,METHOD_1,METHOD_2,METHOD_3,METHOD_4,

stat,regression,SimpleRegression,removeMultiple,
IDENT_0,IDENT_1,IDENT_2,IDENT_3,


































