testWithOneLevel,Version,getMajor,parseInt,
METHOD_0,METHOD_1,METHOD_2,METHOD_3,

qubexplorer,Version,versionString,
IDENT_0,IDENT_1,IDENT_2,







"3","Problem getting major version in ",
STRING_0,STRING_1,

























