testIterator,
METHOD_0,

ChunkedArrayList,fromList,resourcemanager,webapp,StatisticsItemInfo,statItem,
IDENT_0,IDENT_1,IDENT_2,IDENT_3,IDENT_4,IDENT_5,

30000,
INT_0,































