testGenericS3Exception,verifyTranslated,createS3Exception,
METHOD_0,METHOD_1,METHOD_2,

s3a,AWSS3IOException,TestS3AExceptionTranslation,statusCode,
IDENT_0,IDENT_1,IDENT_2,IDENT_3,

451,
INT_0,































