shouldLoadTypeConverters,convertTo,
METHOD_0,METHOD_1,

hundred,convertedLong,typeConverter,spring,boot,
IDENT_0,IDENT_1,IDENT_2,IDENT_3,IDENT_4,

100L,
INT_0,




"[Book id=",", name=",
STRING_0,STRING_1,

























