testRouteControllerEndpoint,getControlledRoutes,getRouteController,
METHOD_0,METHOD_1,METHOD_2,

routesId,endpoint,RouteController,camelContext,Route,Collectors,
IDENT_0,IDENT_1,IDENT_2,IDENT_3,IDENT_4,IDENT_5,


































