testCreateEventLog,getEventLog,getLogFile,
METHOD_0,METHOD_1,METHOD_2,

resourcemanager,scheduler,fair,FairSchedulerEventLog,eventLog,logFile,
IDENT_0,IDENT_1,IDENT_2,IDENT_3,IDENT_4,IDENT_5,


































