nowEuropeLondon,getZone,forID,
METHOD_0,METHOD_1,METHOD_2,

DateTime,hotels,bdp,circustrain,ExpressionParserFunctions,DateTimeZone,
IDENT_0,IDENT_1,IDENT_2,IDENT_3,IDENT_4,IDENT_5,







"Europe/London",
STRING_0,

























