testFromStringEmpty,fromString,concat,
METHOD_0,METHOD_1,METHOD_2,

input3,arg,wordpress,PublishableStatus,private_,auto_draft,
IDENT_0,IDENT_1,IDENT_2,IDENT_3,IDENT_4,IDENT_5,







"private","auto",
STRING_0,STRING_1,

























