maxMaps,getMaxMaps,
METHOD_0,METHOD_1,

hotels,bdp,circustrain,s3mapreducecp,S3MapReduceCpOptions,
IDENT_0,IDENT_1,IDENT_2,IDENT_3,IDENT_4,







"--src","hdfs://localhost:8020/source/first","--dest","hdfs://localhost:8020/target/","--credentialsProvider","jceks://hdfs@localhost:8020/security/credentials.jceks","--maxMaps","15",
STRING_0,STRING_1,STRING_2,STRING_3,STRING_4,STRING_5,STRING_6,STRING_7,

























