getWritable,getStructFieldData,getWritableObject,
METHOD_0,METHOD_1,METHOD_2,

inspector,structField,writableObject,marshaller,ql,orc,OrcStruct,
IDENT_0,IDENT_1,IDENT_2,IDENT_3,IDENT_4,IDENT_5,IDENT_6,


































