testResolveClassType,DefaultClassResolver,resolveClass,cast,
METHOD_0,METHOD_1,METHOD_2,METHOD_3,

DefaultClassResolver,CastUtils,
IDENT_0,IDENT_1,







"java.lang.Integer",
STRING_0,

























