getOutputStream,CommonVFSResource,notNullValue,
METHOD_0,METHOD_1,METHOD_2,

OutputStream,os,hotels,bdp,waggledance,spring,testResource,
IDENT_0,IDENT_1,IDENT_2,IDENT_3,IDENT_4,IDENT_5,IDENT_6,


































