getURLIfDirectory,CommonVFSResource,toUriString,getRoot,getURL,toURI,toURL,
METHOD_0,METHOD_1,METHOD_2,METHOD_3,METHOD_4,METHOD_5,METHOD_6,

hotels,bdp,waggledance,spring,tmp,testResource,
IDENT_0,IDENT_1,IDENT_2,IDENT_3,IDENT_4,IDENT_5,


































