stopStoppedActivity,newActivity,stop,
METHOD_0,METHOD_1,METHOD_2,

pehl,karaka,Activity,activity,td,cut,
IDENT_0,IDENT_1,IDENT_2,IDENT_3,IDENT_4,IDENT_5,


































