testConvertFoo,
METHOD_0,

Byte,underTest,Size,TINY,NORMAL,HUGE,
IDENT_0,IDENT_1,IDENT_2,IDENT_3,IDENT_4,IDENT_5,







"S","M","L",
STRING_0,STRING_1,STRING_2,

























