testGetVolume,Recorder,TestMeasurable,getVolume,
METHOD_0,METHOD_1,METHOD_2,METHOD_3,

bixly,pastevid,recorders,RecorderTest,Recorder,audioRecorder,
IDENT_0,IDENT_1,IDENT_2,IDENT_3,IDENT_4,IDENT_5,







"getVolume",
STRING_0,

























