testHasBody,hasEntity,readEntity,RequestError,getEntity,
METHOD_0,METHOD_1,METHOD_2,METHOD_3,METHOD_4,

RequestConfigurer,configurer,RequestError,requestError,
IDENT_0,IDENT_1,IDENT_2,IDENT_3,







"body","GET",
STRING_0,STRING_1,

























