testRemoveNormal,TupleEvent,
METHOD_0,METHOD_1,

SupportConst,I_TWENTY,huawei,TupleEvent,keyBasedEvent,
IDENT_0,IDENT_1,IDENT_2,IDENT_3,IDENT_4,







"id","description","item:","price","item",
STRING_0,STRING_1,STRING_2,STRING_3,STRING_4,

























