ObjectWritable,cloneInto,MyWritableComparator,
METHOD_0,METHOD_1,METHOD_2,

ObjectWritable,src,TYPE,dest,WritableUtils,pp,IntWritable,
IDENT_0,IDENT_1,IDENT_2,IDENT_3,IDENT_4,IDENT_5,IDENT_6,

163,
INT_0,































