DataOutputStream,
METHOD_0,

NullWritable,writable,Writable,DataOutputStream,dataOut,
IDENT_0,IDENT_1,IDENT_2,IDENT_3,IDENT_4,


































