withOneElement,isPalindrome,Stack,push,pop,
METHOD_0,METHOD_1,METHOD_2,METHOD_3,METHOD_4,

linkedlist,LinkedListNode,head,Stack,stack,cur,half,
IDENT_0,IDENT_1,IDENT_2,IDENT_3,IDENT_4,IDENT_5,IDENT_6,













--,
OP_0,



















