testIdAsMapKey,afterCompletion,ReadTask,
METHOD_0,METHOD_1,METHOD_2,

cayenne,ObjectId,o1,pknm,hm1,hm2,oid1,oid2,concurrentlinkedhashmap,ConcurrentLinkedHashMap,K,V,
IDENT_0,IDENT_1,IDENT_2,IDENT_3,IDENT_4,IDENT_5,IDENT_6,IDENT_7,IDENT_8,IDENT_9,IDENT_10,IDENT_11,







"xyzabc","123","T",
STRING_0,STRING_1,STRING_2,

























