testManyBlobsInOneTX,skipTests,newObject,setBlobCol,commitChanges,
METHOD_0,METHOD_1,METHOD_2,METHOD_3,METHOD_4,

cayenne,testdo,lob,BlobTestEntity,objects2,context2,SelectQuery,neighbors,
IDENT_0,IDENT_1,IDENT_2,IDENT_3,IDENT_4,IDENT_5,IDENT_6,IDENT_7,

1024,65,
INT_0,INT_1,










%,
OP_0,



















