test_total_Array,generalize,realize,
METHOD_0,METHOD_1,METHOD_2,

persons,bigPerson,generalize,PojoUtils,realize,objs,dests,
IDENT_0,IDENT_1,IDENT_2,IDENT_3,IDENT_4,IDENT_5,IDENT_6,







"args.length != types.length",
STRING_0,

























