testRemove,getLocale,
METHOD_0,METHOD_1,

dataStore,messageSource,governance,i18n,LocaleUtil,NoSuchMessageException,
IDENT_0,IDENT_1,IDENT_2,IDENT_3,IDENT_4,IDENT_5,







"xxx","yyy","key",
STRING_0,STRING_1,STRING_2,

























