testSubscribe,convertSubscribe,parseQueryString,toQueryString,
METHOD_0,METHOD_1,METHOD_2,METHOD_3,

subscribe,newSubscribe,UrlUtils,serviceName,serviceQuery,
IDENT_0,IDENT_1,IDENT_2,IDENT_3,IDENT_4,







"perf/dubbo.test.api.HelloService:1.0.0",":","group","version",
STRING_0,STRING_1,STRING_2,STRING_3,

























