testCompareToEqualSameEdtf,Datable,NullPointerException,getFromDate,getToDate,
METHOD_0,METHOD_1,METHOD_2,METHOD_3,METHOD_4,

knaw,huygens,timbuctoo,Datable,second,compareFrom,
IDENT_0,IDENT_1,IDENT_2,IDENT_3,IDENT_4,IDENT_5,







"20131011",
STRING_0,

























