testNewPeer,newPeer,clientCheck,createNewInstance,
METHOD_0,METHOD_1,METHOD_2,METHOD_3,

hyperledger,fabric,Peer,peer,ClientTest,hfclient,grpcURL,
IDENT_0,IDENT_1,IDENT_2,IDENT_3,IDENT_4,IDENT_5,IDENT_6,







"peer_","grpc://localhost:7051","Unexpected Exception ",
STRING_0,STRING_1,STRING_2,

























