testAddChildString,Loop,addChild,setParent,
METHOD_0,METHOD_1,METHOD_2,METHOD_3,

pb,x12,Loop,loop,depth,loops,
IDENT_0,IDENT_1,IDENT_2,IDENT_3,IDENT_4,IDENT_5,







'~','*',':',"ISA","GS",
STRING_0,STRING_1,STRING_2,STRING_3,STRING_4,

























