testGetRev,CloudantPostResponse,setRev,getRev,
METHOD_0,METHOD_1,METHOD_2,METHOD_3,

bluemix,todo,CloudantPostResponse,resp,rev,
IDENT_0,IDENT_1,IDENT_2,IDENT_3,IDENT_4,







"abc",
STRING_0,

























