equals_matchingChildred2,addChild,
METHOD_0,METHOD_1,

icantrap,dawg,lhs,rhs,Dawg,word,
IDENT_0,IDENT_1,IDENT_2,IDENT_3,IDENT_4,IDENT_5,







'x','a','b','c',
STRING_0,STRING_1,STRING_2,STRING_3,

























