testConvertAll,BenefitTypeResource,BenefitType,convertAll,
METHOD_0,METHOD_1,METHOD_2,METHOD_3,

benefit,BenefitTypeResource,sources,BenefitType,expecteds,actuals,TARGET,
IDENT_0,IDENT_1,IDENT_2,IDENT_3,IDENT_4,IDENT_5,IDENT_6,







"n a m e",
STRING_0,

























