testQuotedEJBQLQuery,EJBQLQuery,performQuery,
METHOD_0,METHOD_1,METHOD_2,

ejbql,cayenne,EJBQLQuery,queryEJBQL,objects11,neighbors,
IDENT_0,IDENT_1,IDENT_2,IDENT_3,IDENT_4,IDENT_5,







"select a from QuoteAdress a where a.group = '324'",
STRING_0,

























