testOnePageList,prepareList,
METHOD_0,METHOD_1,

cayenne,access,SimpleIdIncrementalFaultList,neighbors,
IDENT_0,IDENT_1,IDENT_2,IDENT_3,

25,
INT_0,































