testCustomExpConstructor,BaseProperty,ASTLike,getExpression,
METHOD_0,METHOD_1,METHOD_2,METHOD_3,

cayenne,expressionSupplier,
IDENT_0,IDENT_1,







"path",
STRING_0,

























