testConstructor2,DbEntity,beforePropertyRead,
METHOD_0,METHOD_1,METHOD_2,

cayenne,DbEntity,ent,
IDENT_0,IDENT_1,IDENT_2,







"abc",
STRING_0,

























