test_Append,createPaintingsDataSet,columnNameCaps,
METHOD_0,METHOD_1,METHOD_2,

cayenne,SQLSelect,testdo,testmap,Painting,q1,CapsStrategy,UPPER,neighbors,
IDENT_0,IDENT_1,IDENT_2,IDENT_3,IDENT_4,IDENT_5,IDENT_6,IDENT_7,IDENT_8,







"SELECT * FROM PAINTING"," WHERE PAINTING_TITLE = #bind($a)","painting3",
STRING_0,STRING_1,STRING_2,

























