testGetLength,replayAll,setEndPosition,verifyAll,getLength,
METHOD_0,METHOD_1,METHOD_2,METHOD_3,METHOD_4,

mockHelper,classUnderTest,endPosition,startPosition,
IDENT_0,IDENT_1,IDENT_2,IDENT_3,


































