testWebPayTotalFeeEmpty,WebPayDetail,setExterInvokeIp,pay,webPay,buildWebPayParams,buildPayForm,
METHOD_0,METHOD_1,METHOD_2,METHOD_3,METHOD_4,METHOD_5,METHOD_6,

hao0,alipay,pay,WebPayDetail,form,payParams,webPayDetail,
IDENT_0,IDENT_1,IDENT_2,IDENT_3,IDENT_4,IDENT_5,IDENT_6,







"DM1234567800","ss","222.112.105.129",
STRING_0,STRING_1,STRING_2,

























