testSave,isSuccess,intValue,
METHOD_0,METHOD_1,METHOD_2,

hao0,diablo,saveResp,configService,JsonResponse,OK,
IDENT_0,IDENT_1,IDENT_2,IDENT_3,IDENT_4,IDENT_5,







"test_value",
STRING_0,

























