testSendTemplate,sendTemplate,TemplateField,getUnchecked,
METHOD_0,METHOD_1,METHOD_2,METHOD_3,

msgId,wechat,accessToken,openId,hao0,send,Messages,Wechat,MESSAGES,
IDENT_0,IDENT_1,IDENT_2,IDENT_3,IDENT_4,IDENT_5,IDENT_6,IDENT_7,IDENT_8,







"vxjR2DrT-I5-Edzc3vgWV-CgMoG0cAWISAxQIMLmYk4","http://www.hao0.me","first","remark","keyword1","TD113123123","keyword2","2015-11-11 11:11:11","123456",
STRING_0,STRING_1,STRING_2,STRING_3,STRING_4,STRING_5,STRING_6,STRING_7,STRING_8,

























