testClosing_3x3,createImage_Square10x10,OctagonStrel,closing,getHeight,getWidth,
METHOD_0,METHOD_1,METHOD_2,METHOD_3,METHOD_4,METHOD_5,

ij,ImageProcessor,inra,ijpb,morphology,Strel,strel,
IDENT_0,IDENT_1,IDENT_2,IDENT_3,IDENT_4,IDENT_5,IDENT_6,


































