compare_when_firstCEL_is_older,ClientListEntry,setMtime,getTimestamp,
METHOD_0,METHOD_1,METHOD_2,METHOD_3,

ikasan,connector,basefiletransfer,ClientListEntry,firstClientListEntry,secondClientListEntry,uut,ReplayEvent,c2,c1,
IDENT_0,IDENT_1,IDENT_2,IDENT_3,IDENT_4,IDENT_5,IDENT_6,IDENT_7,IDENT_8,IDENT_9,

1438155532,1439155532,
INT_0,INT_1,




"A","B",
STRING_0,STRING_1,

























