test_get_all_configuration_context_success,getAllConfigurationContexts,
METHOD_0,METHOD_1,

ikasan,ConfigurationContext,xaMappingManagementService,
IDENT_0,IDENT_1,IDENT_2,

15000,
INT_0,




"Size! ",
STRING_0,

























