testGetAuthorities,getAuthorities,
METHOD_0,METHOD_1,

ikasan,Authority,authorities,xaAuthorityDao,
IDENT_0,IDENT_1,IDENT_2,IDENT_3,

15000,
INT_0,




"Size! ",
STRING_0,

























