testDelete,getUser,getUsers,
METHOD_0,METHOD_1,METHOD_2,

ikasan,xaUserDao,users,
IDENT_0,IDENT_1,IDENT_2,

15000,
INT_0,




"username","Size! ",
STRING_0,STRING_1,

























