convert_when_mapMessage_has_jmsExpiration,ActiveMQMapMessage,setJMSExpiration,getJMSExpiration,
METHOD_0,METHOD_1,METHOD_2,METHOD_3,

jmsExpiration,MapMessage,uut,
IDENT_0,IDENT_1,IDENT_2,

3600L,
INT_0,































