convert_when_mapMessage_has_jmsTimestamp,ActiveMQMapMessage,setJMSTimestamp,getJMSTimestamp,
METHOD_0,METHOD_1,METHOD_2,METHOD_3,

jmsTimestamp,MapMessage,uut,timestamp,
IDENT_0,IDENT_1,IDENT_2,IDENT_3,

3600L,
INT_0,































