testEntity,DbEntity,EntityEvent,setEntity,getEntity,
METHOD_0,METHOD_1,METHOD_2,METHOD_3,METHOD_4,

src,cayenne,EntityEvent,
IDENT_0,IDENT_1,IDENT_2,







"abc",
STRING_0,

























