testMulFloat,isMaxValueLessThanSix,newNumber,mul,AssertionError,newZero,newOne,
METHOD_0,METHOD_1,METHOD_2,METHOD_3,METHOD_4,METHOD_5,METHOD_6,

one,
IDENT_0,










2.0F,
FLOAT_0,






















