testUnsigned2Bits,LongArray,unsigned2Bits,getCurrentStorageArray,
METHOD_0,METHOD_1,METHOD_2,METHOD_3,

imglib2,img,basictypeaccess,LongArray,access,ArrayImg,numeric,integer,Unsigned2BitType,ArrayImgs,previous,current,
IDENT_0,IDENT_1,IDENT_2,IDENT_3,IDENT_4,IDENT_5,IDENT_6,IDENT_7,IDENT_8,IDENT_9,IDENT_10,IDENT_11,

7748082980898761607L,8739116850548603207L,5157880821586675604L,121L,
INT_0,INT_1,INT_2,INT_3,










%,
OP_0,



















