testIsTarGz_1,isTarGz,
METHOD_0,METHOD_1,

componentExtension,impetus,ankush,FileNameUtils,TAR_GZ,TGZ,
IDENT_0,IDENT_1,IDENT_2,IDENT_3,IDENT_4,IDENT_5,







".tar.gz",
STRING_0,

























