testGetValidWithSomeValid,spy,getValid,removeAll,
METHOD_0,METHOD_1,METHOD_2,METHOD_3,

StaffToStudentValidator,EntityNames,STUDENT,validated,
IDENT_0,IDENT_1,IDENT_2,IDENT_3,







"3","4",
STRING_0,STRING_1,

























