testNullEnddate,isFieldExpired,
METHOD_0,METHOD_1,

ParameterConstants,END_DATE,dateHelper,fieldName,useGracePeriod,
IDENT_0,IDENT_1,IDENT_2,IDENT_3,IDENT_4,


































