testToString,getLength,
METHOD_0,METHOD_1,

MessageFormat,total,
IDENT_0,IDENT_1,







"Range: start={0} end={1} length={2} total={3}",
STRING_0,

























