testToString,
METHOD_0,

string1,associationEnd,string2,identifier,modeling,uml,ZERO_TO_ONE,
IDENT_0,IDENT_1,IDENT_2,IDENT_3,IDENT_4,IDENT_5,IDENT_6,







"{id: ",", name: TestAssocEnd, type: ",", multiplicity: ","}",
STRING_0,STRING_1,STRING_2,STRING_3,

























