XmiMappingException,
METHOD_0,

modeling,xmi,comp,XmiMappingException,xmiMappingException,
IDENT_0,IDENT_1,IDENT_2,IDENT_3,IDENT_4,


































