makeTestNetGengsisBlock,Block,setPreHash,wrap,setHeight,setTime,Transaction,setVersion,setType,TransactionInput,addInput,setScriptSig,createCoinbaseInputScript,fromPrivate,newAddress,getBase58,addOutput,CreditTransaction,setCredit,RegConsensusTransaction,Account,setAddress,setEcKey,sign,verifyScript,setTxs,setTxCount,buildMerkleHash,getHash,baseSerialize,BlockStore,getBlock,saveBlock,reverseBytes,hashTwice,checkState,
METHOD_0,METHOD_1,METHOD_2,METHOD_3,METHOD_4,METHOD_5,METHOD_6,METHOD_7,METHOD_8,METHOD_9,METHOD_10,METHOD_11,METHOD_12,METHOD_13,METHOD_14,METHOD_15,METHOD_16,METHOD_17,METHOD_18,METHOD_19,METHOD_20,METHOD_21,METHOD_22,METHOD_23,METHOD_24,METHOD_25,METHOD_26,METHOD_27,METHOD_28,METHOD_29,METHOD_30,METHOD_31,METHOD_32,METHOD_33,METHOD_34,METHOD_35,

inchain,Block,gengsisBlock,Sha256Hash,Hex,Transaction,txs,coinBaseTx,Definition,VERSION,TYPE_COINBASE,TransactionInput,ScriptBuilder,ECKey,account,Address,AccountTool,Coin,MAX,privateKeys,pri,CreditTransaction,creditTx,RegConsensusTransaction,regConsensusTransaction,Account,merkleHash,BlockStore,blockStore,gengsisBlockTemp,merkleHashTemp,blockStoreProvider,levelOffset,levelSize,left,right,leftBytes,rightBytes,
IDENT_0,IDENT_1,IDENT_2,IDENT_3,IDENT_4,IDENT_5,IDENT_6,IDENT_7,IDENT_8,IDENT_9,IDENT_10,IDENT_11,IDENT_12,IDENT_13,IDENT_14,IDENT_15,IDENT_16,IDENT_17,IDENT_18,IDENT_19,IDENT_20,IDENT_21,IDENT_22,IDENT_23,IDENT_24,IDENT_25,IDENT_26,IDENT_27,IDENT_28,IDENT_29,IDENT_30,IDENT_31,IDENT_32,IDENT_33,IDENT_34,IDENT_35,IDENT_36,IDENT_37,

1478070769L,999999L,32,
INT_0,INT_1,INT_2,




"merkle hash temp: ","this a gengsis tx","67354228887878139695633819126625517515785554606767523849461500912225575561110","==========================","52188072277803777502738867181821197739391264777454871393545634721804630880136","70949774079351797875601732907368565593785330858428914876767198731857299028554","22179228508617634730737242365679835550222360221837033410034564397849174416545","merkle hash: ","block hash: ","the merkle hash is error "," != "," blcok:",
STRING_0,STRING_1,STRING_2,STRING_3,STRING_4,STRING_5,STRING_6,STRING_7,STRING_8,STRING_9,STRING_10,STRING_11,

























