canLoadSettingsFromAStream,InfinitestSettings,isInfinitestEnabled,parseBoolean,
METHOD_0,METHOD_1,METHOD_2,METHOD_3,

infinitest,IS_ENABLED,InfinitestSettings,settings,
IDENT_0,IDENT_1,IDENT_2,IDENT_3,







"true",
STRING_0,

























