testGroupMenuSets,_setupTestGroupMenu,_checkGroupMenuIntoDb,check,
METHOD_0,METHOD_1,METHOD_2,METHOD_3,

isf,menu,GroupMenu,foundGroupMenu,Tests,testGroupMenu,
IDENT_0,IDENT_1,IDENT_2,IDENT_3,IDENT_4,IDENT_5,


































