testMatchesAPI,Rule,isNullOrEmpty,
METHOD_0,METHOD_1,METHOD_2,

cloudstack,acl,Rule,Strings,commandName,
IDENT_0,IDENT_1,IDENT_2,IDENT_3,IDENT_4,







"someApi","*","\\w*",
STRING_0,STRING_1,STRING_2,

























