testZoneidMinusOne,RegisterTemplateCmdByAdmin,getZoneIds,
METHOD_0,METHOD_1,METHOD_2,

registerTemplateCmdByAdmin,cloudstack,zoneId,zoneIds,zones,
IDENT_0,IDENT_1,IDENT_2,IDENT_3,IDENT_4,


































