testTargetPath,getTargetPath,
METHOD_0,METHOD_1,

inmobi,conduit,distcp,DistCpOptions,OptionsParser,targetPath,
IDENT_0,IDENT_1,IDENT_2,IDENT_3,IDENT_4,IDENT_5,







"-f","hdfs://localhost:8020/source/first","hdfs://localhost:8020/target/",
STRING_0,STRING_1,STRING_2,

























