testGetAllProductSkus,getAllProductSkus,getNativeCache,getSize,
METHOD_0,METHOD_1,METHOD_2,METHOD_3,

yes,cart,ProductSkuDTO,dtoService,ehcache,Ehcache,CACHE,
IDENT_0,IDENT_1,IDENT_2,IDENT_3,IDENT_4,IDENT_5,IDENT_6,

10000L,
INT_0,































