testRepetidos,fromString,checkNotNull,checkArgument,Cnpj,
METHOD_0,METHOD_1,METHOD_2,METHOD_3,METHOD_4,

repetidos,cnpj,insula,opes,Cnpj,digits,
IDENT_0,IDENT_1,IDENT_2,IDENT_3,IDENT_4,IDENT_5,

13,
INT_0,




"00000000000000","11111111111111","22222222222222","33333333333333","44444444444444","55555555555555","66666666666666","77777777777777","88888888888888","99999999999999","\\D","\\d{14}","(\\d)\\1+",
STRING_0,STRING_1,STRING_2,STRING_3,STRING_4,STRING_5,STRING_6,STRING_7,STRING_8,STRING_9,STRING_10,STRING_11,STRING_12,

























