testDelRepo,getRepos,delRepo,
METHOD_0,METHOD_1,METHOD_2,

reposCnt,zeppelin,dep,DependencyResolverTest,repos,
IDENT_0,IDENT_1,IDENT_2,IDENT_3,IDENT_4,







"securecentral","badId",
STRING_0,STRING_1,

























