testNameLength,Name,
METHOD_0,METHOD_1,

outputBuffer,Page,Name,intuit,wasabi,experimentobjects,InvalidIdentifierException,
IDENT_0,IDENT_1,IDENT_2,IDENT_3,IDENT_4,IDENT_5,IDENT_6,

257,
INT_0,




"aNameThatIsShort Enough",
STRING_0,

























