testSetId,
METHOD_0,

harvard,iq,dataverse,users,AuthenticatedUserTest,testUser,
IDENT_0,IDENT_1,IDENT_2,IDENT_3,IDENT_4,IDENT_5,

1776L,
INT_0,




"setId",
STRING_0,

























