testSet,allIndices,isSet,
METHOD_0,METHOD_1,METHOD_2,

harvard,iq,dataverse,BitSet,sut,idx,
IDENT_0,IDENT_1,IDENT_2,IDENT_3,IDENT_4,IDENT_5,


































