getIntersectionTest02,Rectangle,getIntersection,getRight,getTop,
METHOD_0,METHOD_1,METHOD_2,METHOD_3,METHOD_4,

Rectangle,main,second,noIntersection,llx,rect,lly,urx,ury,width,height,Float,
IDENT_0,IDENT_1,IDENT_2,IDENT_3,IDENT_4,IDENT_5,IDENT_6,IDENT_7,IDENT_8,IDENT_9,IDENT_10,IDENT_11,


































