makePdfAnnotationTest,PdfDictionary,makeAnnotation,getSubtype,
METHOD_0,METHOD_1,METHOD_2,METHOD_3,

PdfDictionary,annot,PdfAnnotation,subtype,
IDENT_0,IDENT_1,IDENT_2,IDENT_3,


































