testMetaCharsetUpdatedDisabledPerDefault,createHtmlDocument,updateMetaCharsetElement,
METHOD_0,METHOD_1,METHOD_2,

styledxmlparser,updateMetaCharset,
IDENT_0,IDENT_1,







"none",
STRING_0,

























