handlesUnclosedFormattingElements,outputSettings,indentAmount,
METHOD_0,METHOD_1,METHOD_2,

h,styledxmlparser,Jsoup,want,
IDENT_0,IDENT_1,IDENT_2,IDENT_3,







"<!doctype html>\n","<p><b class=x><b class=x><b><b class=x><b class=x><b>X\n","<p></b></b></b></b></b></b>X","<html>\n","<body>\n","<p><b class=\"x\"><b class=\"x\"><b><b class=\"x\"><b class=\"x\"<!doctype html>\n","<p><b class=\"x\"><b><b class=\"x\"><b class=\"x\"<!doctype html>\n","<p><b class=\"x\"><b><b class=\"x\"><b class=\"x\"><b><b><b class=\"x\"<!doctype html>\n","</body>\n",
STRING_0,STRING_1,STRING_2,STRING_3,STRING_4,STRING_5,STRING_6,STRING_7,STRING_8,

























