trimLeadingEmptyTest,trimLeadingWhitespace,isWhitespace,
METHOD_0,METHOD_1,METHOD_2,

toTrim,svg,SvgTextUtil,current,currentChar,Character,
IDENT_0,IDENT_1,IDENT_2,IDENT_3,IDENT_4,IDENT_5,







'\n','\r',
STRING_0,STRING_1,

























