testSelectSort,SelectSort,selectSort,
METHOD_0,METHOD_1,METHOD_2,

rann,sort,temp,
IDENT_0,IDENT_1,IDENT_2,

28,32,60,72,
INT_0,INT_1,INT_2,INT_3,































