testCheckUser1,mockTestUserToDB,checkUser1,
METHOD_0,METHOD_1,METHOD_2,

pass,testPackage,mockTestUserToDB,account,cursor,cursor1,
IDENT_0,IDENT_1,IDENT_2,IDENT_3,IDENT_4,IDENT_5,







"checkUser",
STRING_0,

























