testJeremyNull,Jeremy1,createDao,queryBuilder,where,
METHOD_0,METHOD_1,METHOD_2,METHOD_3,METHOD_4,

j256,ormlite,BaseDaoImplTest,Jeremy1,loop1,Dao,Jeremy2,bars,LOOP1_COLUMN_NAME,OTHER_COLUMN_NAME,
IDENT_0,IDENT_1,IDENT_2,IDENT_3,IDENT_4,IDENT_5,IDENT_6,IDENT_7,IDENT_8,IDENT_9,







"someValue",
STRING_0,

























