testInMany,createTableInfo,appendSql,appendEscapedEntityName,getSimpleName,getDeclaringClass,
METHOD_0,METHOD_1,METHOD_2,METHOD_3,METHOD_4,METHOD_5,

j256,ormlite,Where,Foo,where,databaseType,vals,VAL_COLUMN_NAME,whereSb,ArgumentHolder,valC,
IDENT_0,IDENT_1,IDENT_2,IDENT_3,IDENT_4,IDENT_5,IDENT_6,IDENT_7,IDENT_8,IDENT_9,IDENT_10,

112,123,61,
INT_0,INT_1,INT_2,




" IN (",',',' ',") ",":name=",",class=",
STRING_0,STRING_1,STRING_2,STRING_3,STRING_4,STRING_5,

























