testIsAutoCommitSupportedNull,DatabaseConnectionProxy,isAutoCommitSupported,
METHOD_0,METHOD_1,METHOD_2,

j256,ormlite,DatabaseConnectionProxy,
IDENT_0,IDENT_1,IDENT_2,


































