testAdjustOldNumberLarge,ControlledMetricRatio,adjustValue,
METHOD_0,METHOD_1,METHOD_2,

j256,simplemetrics,metric,ControlledMetricRatio,num1,num2,adjustedDenominator,denominator,numerator,
IDENT_0,IDENT_1,IDENT_2,IDENT_3,IDENT_4,IDENT_5,IDENT_6,IDENT_7,IDENT_8,

2011323,4023131,
INT_0,INT_1,




"component","module","desc",
STRING_0,STRING_1,STRING_2,

























