testBatchGetMaterial,batchGetMaterial,getJson,
METHOD_0,METHOD_1,METHOD_2,

jfinal,weixin,ApiResult,ar,MediaApi,MediaType,IMAGE,
IDENT_0,IDENT_1,IDENT_2,IDENT_3,IDENT_4,IDENT_5,IDENT_6,







"testBatchGetMaterial: ",
STRING_0,

























