issue52_onSelectionForJListInvalid,SwingYamlBuilder,___,getDisplayName,
METHOD_0,METHOD_1,METHOD_2,METHOD_3,

javabuilders,BuildResult,swing,JList,JBStringUtils,
IDENT_0,IDENT_1,IDENT_2,IDENT_3,IDENT_4,







"JPanel:","- JList(name=list,onSelection=jlist2_selection)","list",".",
STRING_0,STRING_1,STRING_2,STRING_3,

























