testGetSessions1,getSessions,
METHOD_0,METHOD_1,

lock,mountainminds,eclemma,ICoverageSession,sessions,
IDENT_0,IDENT_1,IDENT_2,IDENT_3,IDENT_4,




synchronized,
MOD_0,




























