testIf3,instrument,analyze,Var,
METHOD_0,METHOD_1,METHOD_2,METHOD_3,

jacoco,java5,CyclomaticComplexityTest,If,ICounter,complexity,missed,CounterImpl,SINGLETON_LIMIT,covered,SINGLETONS,
IDENT_0,IDENT_1,IDENT_2,IDENT_3,IDENT_4,IDENT_5,IDENT_6,IDENT_7,IDENT_8,IDENT_9,IDENT_10,


































