testFlush,OutputStream,flush,ExecutionDataWriter,
METHOD_0,METHOD_1,METHOD_2,METHOD_3,

flushCalled,OutputStream,jacoco,
IDENT_0,IDENT_1,IDENT_2,


































