testCustomBlocks,ExecutionDataReader,readBlock,
METHOD_0,METHOD_1,METHOD_2,

jacoco,ExecutionDataReader,blocktype,
IDENT_0,IDENT_1,IDENT_2,

85,102,
INT_0,INT_1,

protected,
MOD_0,




























