testWrapperInstance,
METHOD_0,

hypervisor,xenserver,wrapper,xenbase,CitrixRequestWrapper,
IDENT_0,IDENT_1,IDENT_2,IDENT_3,IDENT_4,


































