testQuoteList2,quote,toCharArray,
METHOD_0,METHOD_1,METHOD_2,

escaped,arg,jacoco,CommandLineSupport,QUOTE,SLASH,BLANK,
IDENT_0,IDENT_1,IDENT_2,IDENT_3,IDENT_4,IDENT_5,IDENT_6,


































