testMin0,setMinimum,getMinimum,toPlainString,
METHOD_0,METHOD_1,METHOD_2,METHOD_3,

limit,minimum,
IDENT_0,IDENT_1,







"0",
STRING_0,

























