test_not_equal,getClientOrb,create_any,insert_string,
METHOD_0,METHOD_1,METHOD_2,METHOD_3,

omg,CORBA,Any,setup,delegate_,
IDENT_0,IDENT_1,IDENT_2,IDENT_3,IDENT_4,







"hello world",
STRING_0,

























