test_reply_start_time_sync_wait,clearPolicies,setReplyStartTime,
METHOD_0,METHOD_1,METHOD_2,

delta,delay,
IDENT_0,IDENT_1,

2000,18,2500,
INT_0,INT_1,INT_2,




"reply too early (","ms)","reply too late (",
STRING_0,STRING_1,STRING_2,

























