t02_findAll,open,findAll,rollback,
METHOD_0,METHOD_1,METHOD_2,METHOD_3,

jajja,jorm,Transaction,moria,psql,Moria,Goblin,goblins,SQLException,parts,
IDENT_0,IDENT_1,IDENT_2,IDENT_3,IDENT_4,IDENT_5,IDENT_6,IDENT_7,IDENT_8,IDENT_9,







"Fail caused by SQL exception",
STRING_0,

























