t03_columns,open,rollback,
METHOD_0,METHOD_1,METHOD_2,

jajja,jorm,Transaction,moria,psql,Moria,Goblin,goblin,SQLException,Record,
IDENT_0,IDENT_1,IDENT_2,IDENT_3,IDENT_4,IDENT_5,IDENT_6,IDENT_7,IDENT_8,IDENT_9,







"SELECT * FROM #1# WHERE name = 'Bolg'","Fail caused by SQL exception",
STRING_0,STRING_1,

























