testEqualsIgnoresLabel,TagList,addTag,Tag,
METHOD_0,METHOD_1,METHOD_2,METHOD_3,

TagList,tagList1,tagList2,Tag,retVal,theScheme,theTerm,theLabel,myOrderedTags,
IDENT_0,IDENT_1,IDENT_2,IDENT_3,IDENT_4,IDENT_5,IDENT_6,IDENT_7,IDENT_8,







"Dog","AAAA","http://foo","Cat","BBBB","Puppies","Kittens",
STRING_0,STRING_1,STRING_2,STRING_3,STRING_4,STRING_5,STRING_6,

























