testBigDecimalIds,IdType,getIdPartAsBigDecimal,
METHOD_0,METHOD_1,METHOD_2,

hl7,dstu2016may,IdType,myId,
IDENT_0,IDENT_1,IDENT_2,IDENT_3,







"123",
STRING_0,

























