testExistsWithValue,Patient,setDeceased,BooleanType,
METHOD_0,METHOD_1,METHOD_2,METHOD_3,

hl7,r4,Patient,patient,Base,eval,ourEngine,ourLog,myOrderedTags,Tag,myTagSet,theIndex,
IDENT_0,IDENT_1,IDENT_2,IDENT_3,IDENT_4,IDENT_5,IDENT_6,IDENT_7,IDENT_8,IDENT_9,IDENT_10,IDENT_11,







"Patient.deceased.exists()",
STRING_0,

























