shouldGetAsArrayGivenExistingArray,
METHOD_0,

webamoeba,LinkedSortedSet,expectedObjects,A,
IDENT_0,IDENT_1,IDENT_2,IDENT_3,







"M","O","C","K",
STRING_0,STRING_1,STRING_2,STRING_3,

























