testGetBean,getBean,handleBean,
METHOD_0,METHOD_1,METHOD_2,

jamindy,IOC,TestContextObject1,obj1,beanInstanceMap,
IDENT_0,IDENT_1,IDENT_2,IDENT_3,IDENT_4,







"test1",
STRING_0,

























