ElsaMaker,make,DataOutputStream,DataInputStream,deserialize,
METHOD_0,METHOD_1,METHOD_2,METHOD_3,METHOD_4,

ElsaSerializerPojo,DataOutputStream,out2,DataInputStream,data2,mapdb,elsa,
IDENT_0,IDENT_1,IDENT_2,IDENT_3,IDENT_4,IDENT_5,IDENT_6,







"Hello World",
STRING_0,

























