testRouteCandidates,requestPossibleRoutesForCargo,
METHOD_0,METHOD_1,

cargotracker,BookingServiceTest,candidates,bookingService,trackingId,voyage,
IDENT_0,IDENT_1,IDENT_2,IDENT_3,IDENT_4,IDENT_5,


































