passwordAttributeTest,getPassword,
METHOD_0,METHOD_1,

starter,ALIAS_TOKEN,password,bp1,
IDENT_0,IDENT_1,IDENT_2,IDENT_3,







"${","=",
STRING_0,STRING_1,

























