listBindingsGlobal,getContext,listBindings,
METHOD_0,METHOD_1,METHOD_2,

naming,ContextTest,ejbContainer,NamingEnumeration,Binding,enterprise,Name,
IDENT_0,IDENT_1,IDENT_2,IDENT_3,IDENT_4,IDENT_5,IDENT_6,







"java:global","Got Binding: ",
STRING_0,STRING_1,

























