testV2Compatible,setupComplexTree,getNodes,
METHOD_0,METHOD_1,METHOD_2,

flashlight,datatree,TreeNode,expectedLength,mappings,
IDENT_0,IDENT_1,IDENT_2,IDENT_3,IDENT_4,







"test:testV2Compatible","*wtodaughter*",
STRING_0,STRING_1,

























