testDefaultSet,defaultSet,
METHOD_0,METHOD_1,

EnumSet,contextpropagation,PropagationMode,THREAD,RMI,JMS_QUEUE,SOAP,MIME_HEADER,
IDENT_0,IDENT_1,IDENT_2,IDENT_3,IDENT_4,IDENT_5,IDENT_6,IDENT_7,


































