testAttributeNullValue,AttributeImpl,addValue,getValues,
METHOD_0,METHOD_1,METHOD_2,METHOD_3,

attName,Attribute,att,vs,artifacts,
IDENT_0,IDENT_1,IDENT_2,IDENT_3,IDENT_4,







"testnull",
STRING_0,

























