testSystemBoolean,getProperties,getBooleanSystemProperty,getBoolean,getProp,
METHOD_0,METHOD_1,METHOD_2,METHOD_3,METHOD_4,

PropUtil,def,SecurityException,sex,
IDENT_0,IDENT_1,IDENT_2,IDENT_3,







"testboolean","false","true",
STRING_0,STRING_1,STRING_2,

























