testApplyThenCompareNull,SeverityComparator,applyThenCompare,compareThrowable,
METHOD_0,METHOD_1,METHOD_2,METHOD_3,

SeverityComparator,tc1,tc2,
IDENT_0,IDENT_1,IDENT_2,


































