levelTest,toLevel,
METHOD_0,METHOD_1,

hongxi,whatsmars,inner,Level,sArg,DEBUG,
IDENT_0,IDENT_1,IDENT_2,IDENT_3,IDENT_4,IDENT_5,







"info",
STRING_0,

























