testToString,DataElement,
METHOD_0,METHOD_1,

javamoney,ez,money,DataElement,temp,itsURL,
IDENT_0,IDENT_1,IDENT_2,IDENT_3,IDENT_4,IDENT_5,







"Id1",
STRING_0,

























