testOverwriteParam,OverwriteParam,
METHOD_0,METHOD_1,

OverwriteParam,DEFAULT,TestParam,
IDENT_0,IDENT_1,IDENT_2,







"trUe","abc","EXPECTED: ",
STRING_0,STRING_1,STRING_2,

























