testSourceListing,getSourceFileListing,
METHOD_0,METHOD_1,

distcp2,DistCpOptions,OptionsParser,sourceFileListing,
IDENT_0,IDENT_1,IDENT_2,IDENT_3,







"-f","hdfs://localhost:8020/source/first","hdfs://localhost:8020/target/",
STRING_0,STRING_1,STRING_2,

























