consumeInOutServiceFromBean_new_way,sendInOut,getContent,
METHOD_0,METHOD_1,METHOD_2,

switchyard,responseMsg,inOut,_content,
IDENT_0,IDENT_1,IDENT_2,IDENT_3,







"hello",
STRING_0,

























