multiRouteXML,loadRoute,getProperties,
METHOD_0,METHOD_1,METHOD_2,

RouteDefinition,routes,switchyard,RouteFactory,_scope,
IDENT_0,IDENT_1,IDENT_2,IDENT_3,IDENT_4,







"org/switchyard/component/camel/deploy/routes.xml",
STRING_0,

























