testQueryStringMultiParam,QueryString,
METHOD_0,METHOD_1,

queryString,switchyard,QueryString,qs,_mimeType,ContentType,CHARSET,_charset,
IDENT_0,IDENT_1,IDENT_2,IDENT_3,IDENT_4,IDENT_5,IDENT_6,IDENT_7,







"?foo=bar&bar=foo",";","=",
STRING_0,STRING_1,STRING_2,

























