testEquals,ContextProperty,getAge,
METHOD_0,METHOD_1,METHOD_2,

switchyard,ContextProperty,prop1,Scope,MESSAGE,prop2,age,
IDENT_0,IDENT_1,IDENT_2,IDENT_3,IDENT_4,IDENT_5,IDENT_6,


































