testInvalid,Uid,valid,
METHOD_0,METHOD_1,METHOD_2,

arjuna,ats,Uid,u,FatalError,_context,
IDENT_0,IDENT_1,IDENT_2,IDENT_3,IDENT_4,IDENT_5,







"hello world",
STRING_0,

























