testThree,idct10,idctRow,idctCol,
METHOD_0,METHOD_1,METHOD_2,METHOD_3,

jcodec,dct,SimpleIDCT10Bit,off,
IDENT_0,IDENT_1,IDENT_2,IDENT_3,

2180,24,284,272,282,287,270,268,275,264,277,263,262,265,266,276,271,273,285,288,274,267,279,257,269,291,261,256,260,278,254,
INT_0,INT_1,INT_2,INT_3,INT_4,INT_5,INT_6,INT_7,INT_8,INT_9,INT_10,INT_11,INT_12,INT_13,INT_14,INT_15,INT_16,INT_17,INT_18,INT_19,INT_20,INT_21,INT_22,INT_23,INT_24,INT_25,INT_26,INT_27,INT_28,INT_29,INT_30,































