ratingLookup,buildQuery,entityString,
METHOD_0,METHOD_1,METHOD_2,

musicbrainz,webservice,QueryBuilder,ARTIST,WebServiceUtils,mbid,RATING_PARAMS,
IDENT_0,IDENT_1,IDENT_2,IDENT_3,IDENT_4,IDENT_5,IDENT_6,







"http://musicbrainz.org/ws/2/artist/b10bbbfc-cf9e-42e0-be17-e2c3e1d2600d?inc=ratings","b10bbbfc-cf9e-42e0-be17-e2c3e1d2600d",
STRING_0,STRING_1,

























