collectionEdit,buildQuery,
METHOD_0,METHOD_1,

musicbrainz,webservice,QueryBuilder,COLLECTION,collectionMbid,COLLECTION_EDIT,releaseMbid,CLIENT,clientId,
IDENT_0,IDENT_1,IDENT_2,IDENT_3,IDENT_4,IDENT_5,IDENT_6,IDENT_7,IDENT_8,







"http://musicbrainz.org/ws/2/collection/c6f9fb72-e233-47f4-a2f6-19f16442d93a/releases/455641ea-fff4-49f6-8fb4-49f961d8f1ad;?client=test-client-0.1","c6f9fb72-e233-47f4-a2f6-19f16442d93a","455641ea-fff4-49f6-8fb4-49f961d8f1ad","test-client-0.1",";",
STRING_0,STRING_1,STRING_2,STRING_3,STRING_4,

























