testToString,createSimpleMap,
METHOD_0,METHOD_1,

cedarsoftware,CaseInsensitiveMap,stringMap,
IDENT_0,IDENT_1,IDENT_2,







"One","Two","Three","Four","Five","Six",
STRING_0,STRING_1,STRING_2,STRING_3,STRING_4,STRING_5,

























