loadFromFile,createTempFile,writeStringToFile,
METHOD_0,METHOD_1,METHOD_2,

FileUtils,PropertiesUtil,elementName,
IDENT_0,IDENT_1,IDENT_2,







".properties","a=b\nc=d\n",
STRING_0,STRING_1,

























