testCreateUtf8StringWithNull,createUtf8String,createString,
METHOD_0,METHOD_1,METHOD_2,

cedarsoftware,StringUtilities,
IDENT_0,IDENT_1,







"UTF-8",
STRING_0,

























