testToCSVList,toCSVList,
METHOD_0,METHOD_1,

rdpclient,clip,ClipboardDataFormat,
IDENT_0,IDENT_1,IDENT_2,







"one,two,three,four,five,six,seven,eight,nine,ten",",",
STRING_0,STRING_1,

























