testGetRootDirMultiple,describe,StringReader,getRootDir,isNotEmpty,
METHOD_0,METHOD_1,METHOD_2,METHOD_3,METHOD_4,

clearcase,ucm,Component,UcmSelector,ct,rootDirs,rootDir,
IDENT_0,IDENT_1,IDENT_2,IDENT_3,IDENT_4,IDENT_5,IDENT_6,







"component:name1@\\pvob","component:name2@\\pvob","%[root_dir]Xp","\\vob1\\cmp1","\\vob1\\cmp2",
STRING_0,STRING_1,STRING_2,STRING_3,STRING_4,

























