testFormatBetween1PercentAnd99Percent,TestStatisticsPortlet,DecimalFormat,
METHOD_0,METHOD_1,METHOD_2,

dashboard,TestStatisticsPortlet,DecimalFormat,df,useAlternatePercentagesOnLimits,
IDENT_0,IDENT_1,IDENT_2,IDENT_3,IDENT_4,







"0%","50%",">99%","<100%","<1%",">0%",
STRING_0,STRING_1,STRING_2,STRING_3,STRING_4,STRING_5,

0.5,0.99,0.01,
FLOAT_0,FLOAT_1,FLOAT_2,






















