testForEnvironment,EnvVars,forEnvironment,getGitExe,getHome,
METHOD_0,METHOD_1,METHOD_2,METHOD_3,METHOD_4,

EnvVars,environment,git,GitTool,newTool,gitTool,
IDENT_0,IDENT_1,IDENT_2,IDENT_3,IDENT_4,IDENT_5,


































