testToString,ClassReport,getSimpleName,
METHOD_0,METHOD_1,METHOD_2,

jacoco,ClassReport,instruction,branch,complexity,
IDENT_0,IDENT_1,IDENT_2,IDENT_3,IDENT_4,







":"," instruction="," branch="," complexity="," line="," method=",
STRING_0,STRING_1,STRING_2,STRING_3,STRING_4,STRING_5,

























