testJenkinsConnectivity,given,willReturn,isRunning,
METHOD_0,METHOD_1,METHOD_2,METHOD_3,










"<xml>not a real response</xml>","isRunning()",
STRING_0,STRING_1,

























