getItem,getPublishersList,getConfigs,
METHOD_0,METHOD_1,METHOD_2,

AbstractProject,parameterizedtrigger,BuildTrigger,trigger,configs,
IDENT_0,IDENT_1,IDENT_2,IDENT_3,IDENT_4,







"old",
STRING_0,

























