defaultForceIsFalse,S3DownloadStep,isForce,
METHOD_0,METHOD_1,METHOD_2,

taimos,aws,S3DownloadStep,step,force,
IDENT_0,IDENT_1,IDENT_2,IDENT_3,IDENT_4,







"my-file","my-bucket",
STRING_0,STRING_1,

























