containsFilePath,ScriptFile,singleton,getFilePath,
METHOD_0,METHOD_1,METHOD_2,METHOD_3,

jenkinsci,postbuildscript,ScriptFile,scriptFile,ScriptFileTest,RESULT,FILE_PATH,filePath,
IDENT_0,IDENT_1,IDENT_2,IDENT_3,IDENT_4,IDENT_5,IDENT_6,IDENT_7,


































