specificWorkingDirectory,setWorkingDirectory,getSauceConnectWorkingDirectory,isBlank,
METHOD_0,METHOD_1,METHOD_2,METHOD_3,

workingDirectory,
IDENT_0,







"/path",
STRING_0,

























