nullVarsDontChangeTheCommand,preludeWithEnvVars,keySet,
METHOD_0,METHOD_1,METHOD_2,

vars,finalCommand,jvnet,VariableReplacerUtil,onelineCommand,originalCommand,variable,
IDENT_0,IDENT_1,IDENT_2,IDENT_3,IDENT_4,IDENT_5,IDENT_6,







"_","=\"","\"\n",
STRING_0,STRING_1,STRING_2,

























