testParseSimpleAndComplexMessage,Pep8Parser,openFile,checkWarning,getWarningsFile,
METHOD_0,METHOD_1,METHOD_2,METHOD_3,METHOD_4,

warnings,Pep8Parser,FileAnnotation,warning,Pep8ParserTest,WARNING_TYPE,Priority,NORMAL,LOW,
IDENT_0,IDENT_1,IDENT_2,IDENT_3,IDENT_4,IDENT_5,IDENT_6,IDENT_7,IDENT_8,

69,11,77,88,222,34,347,31,357,17,472,29,544,21,
INT_0,INT_1,INT_2,INT_3,INT_4,INT_5,INT_6,INT_7,INT_8,INT_9,INT_10,INT_11,INT_12,INT_13,




"expected 1 blank line, found 0","E401","expected 2 blank lines, found 1","deprecated form of raising exception","W602","whitespace before '('","E201","multiple spaces before operator","E221","W601",
STRING_0,STRING_1,STRING_2,STRING_3,STRING_4,STRING_5,STRING_6,STRING_7,STRING_8,STRING_9,

























