testParseProjWKT,dq,fromWKT,crs,GeomBuilder,point,toPoint,reproject,
METHOD_0,METHOD_1,METHOD_2,METHOD_3,METHOD_4,METHOD_5,METHOD_6,METHOD_7,

wkt,osgeo,proj4j,CoordinateReferenceSystem,geo,Proj,EPSG_4326,crs1,jeo,proj,crs2,vividsolutions,Point,p1,p2,vector,
IDENT_0,IDENT_1,IDENT_2,IDENT_3,IDENT_4,IDENT_5,IDENT_6,IDENT_7,IDENT_8,IDENT_9,IDENT_10,IDENT_11,IDENT_12,IDENT_13,IDENT_14,IDENT_15,

117,
INT_0,




" AXIS['Northing', NORTH], "," GEOGCS['NAD83', "," SPHEROID['GRS 1980', 6378137.0, 298.257222101, AUTHORITY['EPSG','7019']], "," TOWGS84[0.0, 0.0, 0.0, 0.0, 0.0, 0.0, 0.0], "," UNIT['degree', 0.017453292519943295], "," PARAMETER['latitude_of_origin', 0.0], "," AXIS['Geodetic latitude', NORTH], "," AUTHORITY['EPSG','4269']], "," PROJECTION['Transverse_Mercator', AUTHORITY['EPSG','9807']], "," AUTHORITY['EPSG','26910']]",
STRING_0,STRING_1,STRING_2,STRING_3,STRING_4,STRING_5,STRING_6,STRING_7,STRING_8,STRING_9,

63.15,
FLOAT_0,






















