testNumDocs,numDocs,
METHOD_0,METHOD_1,

owasp,dependencycheck,cpe,CpeMemoryIndexTest,indexReader,
IDENT_0,IDENT_1,IDENT_2,IDENT_3,IDENT_4,


































