basics,decodeObject,NoSuchElementException,
METHOD_0,METHOD_1,METHOD_2,

addthis,hydra,TaskDataSource,filteredSource,bundle,Bundle,Bundles,DBKey,V,
IDENT_0,IDENT_1,IDENT_2,IDENT_3,IDENT_4,IDENT_5,IDENT_6,IDENT_7,IDENT_8,







"filtered {const: [{a = 5}, {a = 3}, {a = 6}], filter {from: a, require: 3}}","{a = 3}",
STRING_0,STRING_1,

























