testSetGetId,NvdCveInfo,
METHOD_0,METHOD_1,

owasp,dependencycheck,nvd,NvdCveInfo,
IDENT_0,IDENT_1,IDENT_2,IDENT_3,







"id",
STRING_0,

























