testGetChecksum_String_byteArr,getChecksum,FileInputStream,getChannel,allocateDirect,flip,clear,digest,
METHOD_0,METHOD_1,METHOD_2,METHOD_3,METHOD_4,METHOD_5,METHOD_6,METHOD_7,

owasp,dependencycheck,Checksum,MessageDigest,md,FileInputStream,fis,channels,FileChannel,
IDENT_0,IDENT_1,IDENT_2,IDENT_3,IDENT_4,IDENT_5,IDENT_6,IDENT_7,IDENT_8,

111,92,95,70,72,49,94,125,27,83,103,96,101,55,109,8192,
INT_0,INT_1,INT_2,INT_3,INT_4,INT_5,INT_6,INT_7,INT_8,INT_9,INT_10,INT_11,INT_12,INT_13,INT_14,INT_15,




"SHA1","89268a389a97f0bfba13d3ff2370d8ad436e36f6",
STRING_0,STRING_1,

























