test_apply,apply_3,
METHOD_0,METHOD_1,

jerlang,erts,emulator,ApplyLastTest,apply_last,Term,Erlang,erlang,ErlangApply,
IDENT_0,IDENT_1,IDENT_2,IDENT_3,IDENT_4,IDENT_5,IDENT_6,IDENT_7,IDENT_8,


































