test_apply,Atom,register,Error,
METHOD_0,METHOD_1,METHOD_2,METHOD_3,

jerlang,erts,emulator,ApplyTest,Term,Erlang,Tuple,Atom,atom,AtomRegistry,
IDENT_0,IDENT_1,IDENT_2,IDENT_3,IDENT_4,IDENT_5,IDENT_6,IDENT_7,IDENT_8,IDENT_9,







"Duplicate value of atom: ",
STRING_0,

























