test_float,
METHOD_0,

jerlang,Term,erts,Erlang,Atom,nil,ISO_8859_1,
IDENT_0,IDENT_1,IDENT_2,IDENT_3,IDENT_4,IDENT_5,IDENT_6,







"maptest",
STRING_0,

























