test1,Binary,apply_3,
METHOD_0,METHOD_1,METHOD_2,

jerlang,Binary,Term,stdlib,Base64Test,base64test,nil,erts,erlang,ErlangApply,
IDENT_0,IDENT_1,IDENT_2,IDENT_3,IDENT_4,IDENT_5,IDENT_6,IDENT_7,IDENT_8,IDENT_9,

65,69,67,119,81,70,66,103,99,73,61,
INT_0,INT_1,INT_2,INT_3,INT_4,INT_5,INT_6,INT_7,INT_8,INT_9,INT_10,































