testRootElement,post,
METHOD_0,METHOD_1,

WebResource,webResource,samples,jaxb,JAXBXmlRootElement,e1,e2,foo,bar,
IDENT_0,IDENT_1,IDENT_2,IDENT_3,IDENT_4,IDENT_5,IDENT_6,IDENT_7,IDENT_8,







"jaxb/XmlRootElement","application/xml",
STRING_0,STRING_1,

























