replaceValueTokens,complete,tokenListEditor,
METHOD_0,METHOD_1,METHOD_2,

jetbrains,jetpad,hybrid,BaseHybridEditorEditingTest,mySync,
IDENT_0,IDENT_1,IDENT_2,IDENT_3,IDENT_4,







"aaaa",
STRING_0,

























