getFromIterable,HashBag,
METHOD_0,METHOD_1,

collections4,Bag,bag,CollectionUtils,IteratorUtils,
IDENT_0,IDENT_1,IDENT_2,IDENT_3,IDENT_4,







"element",
STRING_0,

























