twoManagers,createManager,Value,getEdt,schedule,Runnable,finish,
METHOD_0,METHOD_1,METHOD_2,METHOD_3,METHOD_4,METHOD_5,METHOD_6,

jetbrains,jetpad,edt,EdtManager,manager1,manager2,Value,
IDENT_0,IDENT_1,IDENT_2,IDENT_3,IDENT_4,IDENT_5,IDENT_6,


































