noIntersectionBecauseParallel,DoubleSegment,DoubleVector,intersection,toDoubleSegment,
METHOD_0,METHOD_1,METHOD_2,METHOD_3,METHOD_4,

jetbrains,jetpad,DoubleSegment,s1,s2,Segment,
IDENT_0,IDENT_1,IDENT_2,IDENT_3,IDENT_4,IDENT_5,


































