checkGetClipBoundsWhenClipIsNull,setClip,getClipBounds,getClip,getBounds,
METHOD_0,METHOD_1,METHOD_2,METHOD_3,METHOD_4,

g2,clip,
IDENT_0,IDENT_1,


































