testToArray2,listIterator,
METHOD_0,METHOD_1,

collections4,IteratorUtils,NullPointerException,
IDENT_0,IDENT_1,IDENT_2,







"One","Two","Expecting NullPointerException",
STRING_0,STRING_1,STRING_2,

























