testGetColumnKeys,DefaultIntervalCategoryDataset,getColumnKeys,
METHOD_0,METHOD_1,METHOD_2,

category,DefaultIntervalCategoryDataset,tickUnits,
IDENT_0,IDENT_1,IDENT_2,


































