closureSanityTests,generateClosure,generateNoExceptionClosure,
METHOD_0,METHOD_1,METHOD_2,

collections4,Closure,closure,functors,CatchAndRethrowClosureTest,
IDENT_0,IDENT_1,IDENT_2,IDENT_3,IDENT_4,


































