predicateSanityTests,generatePredicate,truePredicate,
METHOD_0,METHOD_1,METHOD_2,

collections4,Predicate,predicate,
IDENT_0,IDENT_1,IDENT_2,


































