testSerialization,Month,ObjectOutputStream,writeObject,ObjectInputStream,readObject,
METHOD_0,METHOD_1,METHOD_2,METHOD_3,METHOD_4,METHOD_5,

Month,m1,ObjectOutput,ObjectInput,m2,
IDENT_0,IDENT_1,IDENT_2,IDENT_3,IDENT_4,

1999,
INT_0,




"JdbcXYDataset: swallowing exception.",
STRING_0,

























