sanitizeShortensString,sanitize,toCharArray,copyOf,isISOControl,
METHOD_0,METHOD_1,METHOD_2,METHOD_3,METHOD_4,

chars,compress,ArchiveUtils,MAX_SANITIZED_NAME_LENGTH,Character,UnicodeBlock,SPECIALS,
IDENT_0,IDENT_1,IDENT_2,IDENT_3,IDENT_4,IDENT_5,IDENT_6,







"012345678901234567890123456789012345678901234567890123456789","012345678901...",'.','?',
STRING_0,STRING_1,STRING_2,STRING_3,

























