testEquals,Day,
METHOD_0,METHOD_1,

Day,day1,MonthConstants,MARCH,day2,xy,YWithXInterval,xLow,xHigh,
IDENT_0,IDENT_1,IDENT_2,IDENT_3,IDENT_4,IDENT_5,IDENT_6,IDENT_7,IDENT_8,

29,2002,
INT_0,INT_1,































