testEquals,Day,Hour,Minute,Second,
METHOD_0,METHOD_1,METHOD_2,METHOD_3,METHOD_4,

Day,day1,MonthConstants,MARCH,Hour,hour1,Minute,minute1,Second,second1,day2,hour2,minute2,second2,xy,YWithXInterval,xLow,xHigh,
IDENT_0,IDENT_1,IDENT_2,IDENT_3,IDENT_4,IDENT_5,IDENT_6,IDENT_7,IDENT_8,IDENT_9,IDENT_10,IDENT_11,IDENT_12,IDENT_13,IDENT_14,IDENT_15,IDENT_16,IDENT_17,

29,2002,34,
INT_0,INT_1,INT_2,































