testSerialization,TimeTableXYDataset,Year,serialised,
METHOD_0,METHOD_1,METHOD_2,METHOD_3,

TimeTableXYDataset,d1,d2,xy,YWithXInterval,xLow,xHigh,
IDENT_0,IDENT_1,IDENT_2,IDENT_3,IDENT_4,IDENT_5,IDENT_6,

1999,
INT_0,




"S1",
STRING_0,

123.4,
FLOAT_0,






















