testAdd,getSeriesCount,
METHOD_0,METHOD_1,

orsoncharts,xyz,XYZSeriesCollection,XYZSeries,series,
IDENT_0,IDENT_1,IDENT_2,IDENT_3,IDENT_4,







"S1","Adding a series with the same name not permitted.",
STRING_0,STRING_1,

























