testSerialization,StandardPieLabelGenerator,serialized,
METHOD_0,METHOD_1,METHOD_2,

orsoncharts,label,StandardPieLabelGenerator,lg1,lg2,graphics3d,Offset3D,dx,dy,dz,
IDENT_0,IDENT_1,IDENT_2,IDENT_3,IDENT_4,IDENT_5,IDENT_6,IDENT_7,IDENT_8,IDENT_9,


































