handlesMisnestedAInDivs,normaliseWhitespace,borrowBuilder,appendNormalisedWhitespace,releaseBuilder,
METHOD_0,METHOD_1,METHOD_2,METHOD_3,METHOD_4,

h,w,Jsoup,StringUtil,
IDENT_0,IDENT_1,IDENT_2,IDENT_3,







"<a href='#1'><div><div><a href='#2'>child</a</div</div></a>","<a href=\"#1\"></a><div><a href=\"#1\"></a><div><a href=\"#1\"></a><a href=\"#2\">child</a></div></div>",
STRING_0,STRING_1,

























