isCaseSensitive,
METHOD_0,

Tag,p1,p2,safety,Whitelist,TypedValue,
IDENT_0,IDENT_1,IDENT_2,IDENT_3,IDENT_4,IDENT_5,







"P","p",
STRING_0,STRING_1,

























