noImplicitFormForTextAreas,prepareByteData,forName,rewind,
METHOD_0,METHOD_1,METHOD_2,METHOD_3,

Jsoup,charset,Charset,DataUtil,defaultCharset,byteData,Buffer,
IDENT_0,IDENT_1,IDENT_2,IDENT_3,IDENT_4,IDENT_5,IDENT_6,







"<textarea>One</textarea>",
STRING_0,

























