test_large_number,Hashids,_decode,
METHOD_0,METHOD_1,METHOD_2,

num_to_hash,hashids,Hashids,validChars,alphabet,guards,seps,
IDENT_0,IDENT_1,IDENT_2,IDENT_3,IDENT_4,IDENT_5,IDENT_6,

9007199254740992L,
INT_0,




"this is my salt",
STRING_0,

























