test_wrong_decoding,Hashids,_decode,
METHOD_0,METHOD_1,METHOD_2,

hashids,Hashids,validChars,alphabet,guards,seps,
IDENT_0,IDENT_1,IDENT_2,IDENT_3,IDENT_4,IDENT_5,







"this is my pepper","NkK9",
STRING_0,STRING_1,

























