readsUncompressedBlocksUsingSingleByteRead,FramedLZ4CompressorInputStream,
METHOD_0,METHOD_1,

compress,compressors,lz4,h,
IDENT_0,IDENT_1,IDENT_2,IDENT_3,

34,77,24,96,112,115,13,128,
INT_0,INT_1,INT_2,INT_3,INT_4,INT_5,INT_6,INT_7,




'H','e','l','o',',',' ','w','r','d','!',"Evil",
STRING_0,STRING_1,STRING_2,STRING_3,STRING_4,STRING_5,STRING_6,STRING_7,STRING_8,STRING_9,STRING_10,

























