testTraceSubmitWhenMinTraceCallsExceeded,setTracerMinMethodTime,setTracerMinTraceCalls,traceEnter,traceBegin,traceReturn,
METHOD_0,METHOD_1,METHOD_2,METHOD_3,METHOD_4,METHOD_5,

tracer,mi111,t1,TraceMarker,DROP_INTERIM,sequence,
IDENT_0,IDENT_1,IDENT_2,IDENT_3,IDENT_4,IDENT_5,

100L,110L,120L,130L,140L,150L,
INT_0,INT_1,INT_2,INT_3,INT_4,INT_5,































