testTopK,offer,topK,getItem,
METHOD_0,METHOD_1,METHOD_2,METHOD_3,

clearspring,analytics,StreamSummary,vs,Counter,topK,
IDENT_0,IDENT_1,IDENT_2,IDENT_3,IDENT_4,IDENT_5,







"X","Y","Z","A","B","C",
STRING_0,STRING_1,STRING_2,STRING_3,STRING_4,STRING_5,

























