testIterateDF,
METHOD_0,

jkee,gtree,IteratorsTest,TestEntity,required,te1,te12,te13,te131,te14,te141,te142,testTree,DFIterator,iterateBFS,
IDENT_0,IDENT_1,IDENT_2,IDENT_3,IDENT_4,IDENT_5,IDENT_6,IDENT_7,IDENT_8,IDENT_9,IDENT_10,IDENT_11,IDENT_12,IDENT_13,IDENT_14,







"node{",'}',
STRING_0,STRING_1,

























