convertBackAndForthShouldMaintainProperties,JsonObject,
METHOD_0,METHOD_1,

JsonObject,jsonAsObject,jklingsporn,jooq,ObjectToJsonObjectBinding,CONVERTER,
IDENT_0,IDENT_1,IDENT_2,IDENT_3,IDENT_4,IDENT_5,

123,
INT_0,




"someFoo","baz",
STRING_0,STRING_1,

























