falsyHash,$,shouldCompileTo,
METHOD_0,METHOD_1,METHOD_2,

jknack,handlebars,Hash,Helper,Options,
IDENT_0,IDENT_1,IDENT_2,IDENT_3,IDENT_4,







"helper","ok","{{helper . b=false}}",
STRING_0,STRING_1,STRING_2,

























