createMock,
METHOD_0,

jknack,handlebars,TemplateSource,Template,Parser,NullTemplateCache,
IDENT_0,IDENT_1,IDENT_2,IDENT_3,IDENT_4,IDENT_5,


































