testEmptyKillRing,KillRing,yank,putString,
METHOD_0,METHOD_1,METHOD_2,METHOD_3,

jline,KillRing,killRing,yanked,
IDENT_0,IDENT_1,IDENT_2,IDENT_3,


































