shouldGetEvaluations,setField,getEvaluations,
METHOD_0,METHOD_1,METHOD_2,

ReflectionTestUtils,evaluations,
IDENT_0,IDENT_1,







"evaluations",
STRING_0,

























