shouldCopyConstructorCreateAnIdenticalSolution,createSolution,copy,
METHOD_0,METHOD_1,METHOD_2,

uma,jmetal,DoubleSolution,
IDENT_0,IDENT_1,IDENT_2,


































