testGetFileNameWithoutExtension_String,getFileNameWithoutExtension,
METHOD_0,METHOD_1,

fileName,jmmc,jmcs,FileUtils,
IDENT_0,IDENT_1,IDENT_2,IDENT_3,







"getFileNameWithoutExtension",
STRING_0,

























