cascadeOnMethodReturningAParameterizedClassWithAGenericMethod,Expectations,getB,
METHOD_0,METHOD_1,METHOD_2,

mockit,CascadingWithGenericsTest$A,
IDENT_0,IDENT_1,


































