testGetMaxSize,getMaxSize,
METHOD_0,METHOD_1,

seninp,jmotif,sax,alphabet,NormalAlphabet,MAX_SIZE,
IDENT_0,IDENT_1,IDENT_2,IDENT_3,IDENT_4,IDENT_5,


































