everyOddHourShouldBeParsedCorrectly,asString,
METHOD_0,METHOD_1,

cronutils,Cron,cron,cronParser,cron1,
IDENT_0,IDENT_1,IDENT_2,IDENT_3,IDENT_4,







"0 1/2 * * *","0 0 0 15|16 8|9 ? 2015/2",
STRING_0,STRING_1,

























