test_skip,JsonInput,StringReader,skipData,readEvent,readNext,acceptNumber,acceptNull,acceptTrue,acceptFalse,
METHOD_0,METHOD_1,METHOD_2,METHOD_3,METHOD_4,METHOD_5,METHOD_6,METHOD_7,METHOD_8,METHOD_9,

ser,JsonInput,JsonEvent,OBJECT,OBJECT_END,ARRAY,ARRAY_END,STRING,COMMA,COLON,
IDENT_0,IDENT_1,IDENT_2,IDENT_3,IDENT_4,IDENT_5,IDENT_6,IDENT_7,IDENT_8,IDENT_9,







',',' ','\t','\n','\r','{','}','[',']','"','-','0','1','2','3','4','5','6','7','8','9','n','t','f',':',"Invalid JSON data: Expected JSON character but found '","'",
STRING_0,STRING_1,STRING_2,STRING_3,STRING_4,STRING_5,STRING_6,STRING_7,STRING_8,STRING_9,STRING_10,STRING_11,STRING_12,STRING_13,STRING_14,STRING_15,STRING_16,STRING_17,STRING_18,STRING_19,STRING_20,STRING_21,STRING_22,STRING_23,STRING_24,STRING_25,STRING_26,

























