testEscapeBackslash1,CSVPrinter,withQuote,print,
METHOD_0,METHOD_1,METHOD_2,METHOD_3,

sw,csv,CSVPrinter,printer,CSVFormat,DEFAULT,CSVPrinterTest,QUOTE_CH,comment,recordNumber,
IDENT_0,IDENT_1,IDENT_2,IDENT_3,IDENT_4,IDENT_5,IDENT_6,IDENT_7,IDENT_8,IDENT_9,







"\\","CSVRecord [comment=",", mapping=",", recordNumber=",", values=",
STRING_0,STRING_1,STRING_2,STRING_3,STRING_4,

























