novars,withValue,fromAnyRef,
METHOD_0,METHOD_1,METHOD_2,

typesafe,Config,ConfigFactory,ConfigValueFactory,jooby,Env,env,DEFAULT,
IDENT_0,IDENT_1,IDENT_2,IDENT_3,IDENT_4,IDENT_5,IDENT_6,IDENT_7,







"var","foo.bar","VR",
STRING_0,STRING_1,STRING_2,

























