exportConf,Jooby,use,withValue,fromAnyRef,Jshint,
METHOD_0,METHOD_1,METHOD_2,METHOD_3,METHOD_4,METHOD_5,

jooby,Jooby,typesafe,ConfigFactory,ConfigValueFactory,Config,assets,JsHintTest,engineFactory,
IDENT_0,IDENT_1,IDENT_2,IDENT_3,IDENT_4,IDENT_5,IDENT_6,IDENT_7,IDENT_8,







"JoobyTest","x = 4;","undef","/x.js",
STRING_0,STRING_1,STRING_2,STRING_3,

























