resolveEmpty,
METHOD_0,

jooby,Env,env,DEFAULT,typesafe,ConfigFactory,
IDENT_0,IDENT_1,IDENT_2,IDENT_3,IDENT_4,IDENT_5,







"VR",
STRING_0,

























