whenIfGet,ifGet,MockUnit,Forwarding,
METHOD_0,METHOD_1,METHOD_2,METHOD_3,

jooby,Results,MediaType,all,Request,
IDENT_0,IDENT_1,IDENT_2,IDENT_3,IDENT_4,


































