testDecodeEmpty,toCharArray,
METHOD_0,METHOD_1,

ba,kafsemo,titl,Base64,baos,PAD,b1,v3,b2,b3,
IDENT_0,IDENT_1,IDENT_2,IDENT_3,IDENT_4,IDENT_5,IDENT_6,IDENT_7,IDENT_8,IDENT_9,

240,64,
INT_0,INT_1,




"\\s+",
STRING_0,




%,
OP_0,



















