testQueryableDistinct,distinct,forEach,
METHOD_0,METHOD_1,METHOD_2,

josephzhu,java8inaction,queryable,Queryable,
IDENT_0,IDENT_1,IDENT_2,IDENT_3,







"aa","bb","-cc","dd","-ee",
STRING_0,STRING_1,STRING_2,STRING_3,STRING_4,

























