testQueryableChain,distinct,limit,forEach,tryAdvance,
METHOD_0,METHOD_1,METHOD_2,METHOD_3,METHOD_4,

josephzhu,java8inaction,queryable,Queryable,w,maxSize,
IDENT_0,IDENT_1,IDENT_2,IDENT_3,IDENT_4,IDENT_5,







"-",
STRING_0,

























