testInit,createMimeMultipart,setContent,
METHOD_0,METHOD_1,METHOD_2,

email,initialized,
IDENT_0,IDENT_1,







"Should have thrown an exception","Already initialized",
STRING_0,STRING_1,

























