testIsDeviceInTag,isDeviceInTag,
METHOD_0,METHOD_1,

cn,jiguang,resp,BooleanResult,jpushClient,jpush,REGISTRATION_ID3,_deviceClient,theTag,registrationID,
IDENT_0,IDENT_1,IDENT_2,IDENT_3,IDENT_4,IDENT_5,IDENT_6,IDENT_7,IDENT_8,IDENT_9,







"tag2",
STRING_0,

























