giveRed,giveBlack,
METHOD_0,METHOD_1,

jqno,equalsverifier,testhelpers,Point,red,prefabValues,prefabvalues,PrefabValuesCreatorTest,POINT_TAG,black,TypeTag,genericTypes,
IDENT_0,IDENT_1,IDENT_2,IDENT_3,IDENT_4,IDENT_5,IDENT_6,IDENT_7,IDENT_8,IDENT_9,IDENT_10,IDENT_11,


































