doesNotDeclareEquals,declaresEquals,declaresMethod,
METHOD_0,METHOD_1,METHOD_2,

jqno,equalsverifier,reflection,ClassAccessor,accessor,Empty,prefabValues,
IDENT_0,IDENT_1,IDENT_2,IDENT_3,IDENT_4,IDENT_5,IDENT_6,







"equals",
STRING_0,

























