testVerifyDelegates,CachingCertificateVerifier,
METHOD_0,METHOD_1,

cert,X509Certificate,jscep,verification,CertificateVerifier,verifier,
IDENT_0,IDENT_1,IDENT_2,IDENT_3,IDENT_4,IDENT_5,


































