testTransactionExceptionString,TransactionException,
METHOD_0,METHOD_1,

jscep,TransactionException,profile,
IDENT_0,IDENT_1,IDENT_2,







"message",
STRING_0,

























