character_not_allowed_in_name_and_value,getHeader,getCookies,keySet,
METHOD_0,METHOD_1,METHOD_2,METHOD_3,

cookies,jscookie,javacookie,Cookies,lStrings,cookieHeader,decodedName,
IDENT_0,IDENT_1,IDENT_2,IDENT_3,IDENT_4,IDENT_5,IDENT_6,







"cookie","%3B=%3B",";","err.cookie_name_blank",
STRING_0,STRING_1,STRING_2,STRING_3,

























