testExceptionWithCause,JSQLParserException,getCause,
METHOD_0,METHOD_1,METHOD_2,

arg1,jsqlparser,JSQLParserException,ex1,cause,
IDENT_0,IDENT_1,IDENT_2,IDENT_3,IDENT_4,


































