test2,parseCondExpression,convertToCNF,
METHOD_0,METHOD_1,METHOD_2,

jsqlparser,Expression,CCJSqlParserUtil,cnfexpression,CNFConverter,
IDENT_0,IDENT_1,IDENT_2,IDENT_3,IDENT_4,







"((NOT (NOT 1.1 >= 2.3 OR 3.3 < 4.5)) OR ","(S.A LIKE \'\"%%%\"\' AND S.B = \'\"orz\"\'))","(1.1 >= 2.3 OR S.A LIKE \'\"%%%\"\') AND (1.1 >= 2.3 OR S.B = \'\"orz\"\')"," AND (NOT 3.3 < 4.5 OR S.A LIKE \'\"%%%\"\') AND (NOT 3.3 < 4.5 OR S.B = \'\"orz\"\')",":",
STRING_0,STRING_1,STRING_2,STRING_3,STRING_4,

























