get_Existing_MutateValue,setTime,
METHOD_0,METHOD_1,

existingKey,existingValue,K,writtenKeys,
IDENT_0,IDENT_1,IDENT_2,IDENT_3,


































