testAddAll,containsAll,UnsupportedOperationException,
METHOD_0,METHOD_1,METHOD_2,

ochafik,listenable,Pair,three,D,temp,
IDENT_0,IDENT_1,IDENT_2,IDENT_3,IDENT_4,IDENT_5,







"three","D",
STRING_0,STRING_1,

























