testGetDefaultDevice,getSubject,getDefaultDevice,
METHOD_0,METHOD_1,METHOD_2,

jtrfp,trcl,snd,AudioDriver,AudioDevice,dev,devices,
IDENT_0,IDENT_1,IDENT_2,IDENT_3,IDENT_4,IDENT_5,IDENT_6,


































