setBoolean,JsonObjectBuilder,JsonObject,addProperty,deepCopy,getAsJsonArray,
METHOD_0,METHOD_1,METHOD_2,METHOD_3,METHOD_4,METHOD_5,

JsonObject,built,gsonfire,builders,JsonUtils,
IDENT_0,IDENT_1,IDENT_2,IDENT_3,IDENT_4,


































