multipleRulesAreRun,runClasses,defaultComputer,
METHOD_0,METHOD_1,METHOD_2,

TestRuleTest,runCount,JUnitCore,MultipleRuleTest,
IDENT_0,IDENT_1,IDENT_2,IDENT_3,


































