testFailures,validateAllMethods,
METHOD_0,METHOD_1,

problems,running,TestMethodTest,EverythingWrong,errorCount,
IDENT_0,IDENT_1,IDENT_2,IDENT_3,IDENT_4,


































