shouldFinishEmptyOK,prepareAndStart,await,finish,getObservedScript,
METHOD_0,METHOD_1,METHOD_2,METHOD_3,METHOD_4,

robot,progress,
IDENT_0,IDENT_1,


































