testFindByIdNullKey,findById,
METHOD_0,METHOD_1,

kaaproject,kaa,nosql,CassandraEndpointConfiguration,endpointConfigurationDao,
IDENT_0,IDENT_1,IDENT_2,IDENT_3,IDENT_4,


































