findUserVerifierByIdTest,generateUserVerifierDto,findUserVerifierById,
METHOD_0,METHOD_1,METHOD_2,

kaaproject,kaa,UserVerifierDto,verifierDto,verifierService,
IDENT_0,IDENT_1,IDENT_2,IDENT_3,IDENT_4,


































